X,Y,$\theta$
98.7769413776131,98.5299498421045,98.948433551158
98.8939930967516,98.6791463885694,99.0270323854871
98.9739326663398,98.7839590130786,99.0705253413088
99.0174210808552,98.843440560894,99.0709002755785
99.0312582534757,98.860424418764,99.0769426452621
99.0320023093507,98.8621035946534,99.0771557387761
99.031146907413,98.8596588870533,99.0748139066049
95.6820574595344,94.8051077386477,96.2866815852104
96.8840567003702,96.5029901803223,97.0231837971383
97.5572815727877,97.292877379645,97.2244804949783
97.7386219056058,97.4308194354422,97.1924711035339
97.7455310697565,97.4288478711288,97.2202916460314
97.7276593117299,97.4266378988976,97.2204532598405
97.7402497694638,97.420924582263,97.2227950205117
92.1401197472013,90.7480150443589,93.9734056762575
94.2797579040849,93.7361806070251,95.01339500215
95.5349701486558,95.2199658154217,95.2440076415951
95.8372217861506,95.371419392816,95.1832387622118
95.8275607715266,95.3368801825368,95.2172283147866
95.7874349621906,95.3294822945195,95.2165883226911
95.8256465402875,95.3258306546145,95.2416016168058
87.2610471786686,85.3273301932382,91.3622061974453
90.5579410187545,89.6570106984966,92.5035677411892
92.2083978967154,91.888409372496,92.6533471104808
92.5092025792204,92.0576885731477,92.6056075867241
92.4457564007191,91.9346376540192,92.5883618033442
92.3544999097689,91.902360488889,92.5594140742621
92.4270055543994,91.8974526554048,92.6568391455358
