Time(s);Vsent(m/s);VMeasured(m/s);PosX(m);PosY(m)
0.0331017;0;-0.0110621;1.158;-0.151
0.063072;10;-0.00995179;1.158;-0.151
0.10045;10;0.106248;1.156;-0.147
0.130435;10;-0.103462;1.158;-0.148
0.158188;-10;-0.0375438;1.16;-0.147
0.192864;-10;0.0578544;1.151;-0.148
0.223077;-10;0.0565693;1.145;-0.15
0.259769;-10;0.138785;1.14;-0.151
0.292003;-10;0.107263;1.131;-0.155
0.318766;-10;-0.077851;1.128;-0.16
0.353385;10;-0.177103;1.128;-0.169
0.382491;10;-0.127306;1.125;-0.177
0.417387;-10;-0.072239;1.121;-0.187
0.44945;-10;-0.278057;1.126;-0.195
0.479207;-10;-0.256631;1.13;-0.196
0.511194;-10;-0.155878;1.129;-0.195
0.542705;10;-0.221199;1.135;-0.194
0.574817;10;-0.0804227;1.14;-0.199
0.620746;-10;-0.231765;1.149;-0.199
0.64157;10;-0.217901;1.149;-0.199
0.673195;10;-0.218333;1.151;-0.2
0.708749;10;-0.0230244;1.157;-0.197
0.734997;10;-0.111669;1.159;-0.194
0.769993;10;0.137564;1.16;-0.191
0.798306;-10;-0.138401;1.162;-0.191
0.832654;-10;0.199221;1.157;-0.183
0.862697;10;-0.0173965;1.161;-0.177
0.895141;-10;0.182718;1.159;-0.172
0.929655;-10;0.202259;1.157;-0.169
0.958669;10;0.227303;1.157;-0.165
0.99298;10;0.06484;1.159;-0.156
1.02276;10;0.0734769;1.155;-0.157
1.06056;10;-0.0634376;1.157;-0.156
1.09008;10;0.0637578;1.158;-0.153
1.11911;10;0.158521;1.157;-0.152
1.15032;-10;0.0107254;1.162;-0.139
1.18269;10;0.162233;1.164;-0.13
1.2145;10;0.244444;1.16;-0.125
1.25871;10;0.227169;1.155;-0.122
1.27842;10;0.0647821;1.158;-0.118
1.31161;-10;-0.0526854;1.164;-0.115
1.34221;10;0.167861;1.167;-0.1
1.38035;10;0.158951;1.167;-0.1
1.4099;10;0.274442;1.165;-0.094
1.43903;10;-0.122684;1.168;-0.093
1.47747;10;0.0170029;1.163;-0.097
1.50311;10;0.144189;1.156;-0.096
1.53516;10;0.123676;1.149;-0.096
1.57921;10;0.0201616;1.147;-0.095
1.59866;-10;0.2111;1.141;-0.094
1.63291;-10;0.0580797;1.136;-0.096
1.66278;-10;0.00617542;1.131;-0.091
1.69421;-10;0.0334292;1.133;-0.087
1.73088;-10;-0.0706865;1.138;-0.084
1.76139;-10;-0.0895126;1.145;-0.08
1.79853;10;-0.234974;1.149;-0.08
1.8232;10;-0.234974;1.149;-0.08
1.855;10;-0.234974;1.149;-0.08
1.88948;-10;-0.246429;1.148;-0.099
1.91898;-10;-0.233006;1.148;-0.099
1.95227;10;-0.0465497;1.148;-0.099
1.9822;-10;0.163875;1.148;-0.095
2.02002;-10;0.104811;1.148;-0.095
2.05107;-10;0.0921481;1.148;-0.095
2.07836;-10;0.097546;1.14;-0.095
2.11654;10;0.0652609;1.126;-0.101
2.1427;10;-0.225549;1.129;-0.105
2.17471;10;0.167182;1.129;-0.104
2.20981;-10;0.0772538;1.133;-0.1
2.23867;10;-0.130745;1.139;-0.099
2.27261;10;0.100975;1.14;-0.095
2.30272;-10;0.100975;1.14;-0.095
2.34602;10;0.101945;1.129;-0.099
2.37092;10;0.130806;1.122;-0.099
2.3982;10;0.0751373;1.115;-0.1
2.43202;10;-0.288371;1.112;-0.108
2.46298;-10;-0.212057;1.109;-0.112
2.49661;10;-0.0599182;1.11;-0.113
2.53006;10;0.14623;1.111;-0.11
2.55864;10;-0.0501147;1.119;-0.105
2.59069;-10;-0.0150313;1.121;-0.104
2.6228;-10;-0.0432582;1.12;-0.105
2.65497;10;0.041216;1.111;-0.109
2.6904;-10;0.161643;1.108;-0.11
2.71891;-10;0.051627;1.109;-0.109
2.75769;10;0.0987559;1.103;-0.108
2.7827;-10;-0.0108789;1.099;-0.11
2.81515;-10;-0.0462401;1.093;-0.114
2.85027;-10;0.0647956;1.084;-0.118
2.87879;-10;-0.20271;1.084;-0.121
2.91765;-10;-0.135488;1.09;-0.124
2.9427;-10;-0.16088;1.095;-0.126
2.98197;-10;-0.0722242;1.108;-0.128
3.01041;-10;-0.157522;1.116;-0.131
3.03875;10;-0.19754;1.119;-0.133
3.07249;10;-0.231852;1.122;-0.138
3.10301;-10;-0.28516;1.118;-0.143
3.13942;-10;-0.16683;1.121;-0.146
3.16948;-10;-0.197202;1.127;-0.148
3.19847;10;0.0124253;1.138;-0.146
3.23253;10;-0.132829;1.144;-0.153
3.26266;10;-0.192373;1.143;-0.154
3.2951;10;-0.160685;1.14;-0.156
3.3405;10;-0.0965452;1.14;-0.157
3.36175;-10;0.122141;1.137;-0.155
3.39945;10;-0.0170835;1.134;-0.152
3.4224;10;0.206577;1.127;-0.147
3.46111;10;-0.0253913;1.119;-0.147
3.49046;-10;-0.0228724;1.112;-0.145
3.52151;-10;0.137194;1.109;-0.145
3.55082;-10;0.082412;1.106;-0.143
3.5823;10;0.131508;1.098;-0.138
3.62069;10;0.0866533;1.101;-0.137
3.65124;-10;-0.0326984;1.096;-0.137
3.67857;-10;-0.0458285;1.09;-0.137
3.71648;-10;-0.0574031;1.082;-0.134
3.74303;10;-0.120464;1.078;-0.129
3.78295;10;-0.0339398;1.073;-0.128
3.81203;-10;-0.0847396;1.061;-0.128
3.83827;-10;-0.143961;1.056;-0.129
3.87444;-10;-0.216705;1.052;-0.132
3.90236;10;-0.186094;1.052;-0.132
3.93986;10;-0.0687125;1.047;-0.133
3.97724;10;-0.116204;1.043;-0.135
3.99901;-10;-0.132414;1.042;-0.137
4.03048;-10;-0.0544182;1.043;-0.138
4.0625;-10;0.125759;1.042;-0.137
4.09822;-10;0.0117664;1.034;-0.134
4.13036;-10;-0.046774;1.027;-0.133
4.16133;-10;-0.0894826;1.018;-0.133
4.19124;-10;-0.134059;1.006;-0.134
4.22231;-10;-0.174046;0.997;-0.135
4.25501;-10;-0.232546;0.988;-0.135
4.28977;10;-0.198442;0.978;-0.135
4.31832;10;-0.24229;0.978;-0.139
4.35071;10;-0.109252;0.978;-0.144
4.38222;10;-0.176438;0.98;-0.152
4.4151;10;0.0372243;0.985;-0.157
4.45044;-10;0.160722;0.994;-0.158
4.48214;-10;0.0183691;1;-0.164
4.51301;10;0.256901;1.008;-0.161
4.5432;-10;0.0385445;1.007;-0.159
4.57457;-10;-0.112511;1.001;-0.157
4.60989;-10;-0.0319831;0.998;-0.154
4.63845;10;-0.0290065;0.998;-0.154
4.67267;10;-0.0995579;0.993;-0.153
4.70276;-10;0.158296;0.997;-0.154
4.74356;-10;-0.12538;0.997;-0.158
4.77143;-10;0.129514;1.005;-0.161
4.79885;-10;0.0666687;1.007;-0.163
4.83111;-10;0.0590868;1.007;-0.163
4.86311;10;0.0666481;1.007;-0.159
4.90187;10;-0.168792;0.998;-0.155
4.93134;10;0.140771;1;-0.155
4.95871;10;-0.150052;0.998;-0.156
5.00268;-10;-0.117471;0.997;-0.155
5.024;-10;0.09879;0.999;-0.155
5.05468;-10;0.076392;0.999;-0.155
5.09129;-10;0.0729562;0.997;-0.146
5.12193;-10;-0.102078;0.993;-0.145
5.15114;10;-0.14697;0.988;-0.141
5.18254;-10;-0.162265;0.988;-0.144
5.21418;-10;0.140063;0.989;-0.139
5.25036;-10;-0.120942;0.98;-0.138
5.27867;-10;0.0069725;0.979;-0.133
5.31016;-10;0.0862956;0.979;-0.131
5.34265;-10;-0.186551;0.977;-0.131
5.38286;-10;-0.0303469;0.971;-0.125
5.41197;-10;0.153459;0.97;-0.125
5.43842;-10;-0.152728;0.965;-0.127
5.48202;-10;0.0220167;0.962;-0.125
5.50337;-10;-0.20044;0.954;-0.125
5.53458;10;-0.105995;0.953;-0.128
5.57059;10;-0.157132;0.951;-0.134
5.59873;-10;-0.183188;0.954;-0.139
5.63896;-10;0.0332516;0.958;-0.148
5.66221;10;-0.0385395;0.963;-0.154
5.69427;10;0.0692069;0.968;-0.159
5.73052;10;-0.179229;0.97;-0.165
5.75824;-10;-0.233575;0.969;-0.167
5.80058;-10;0.166542;0.971;-0.168
5.82266;-10;0.0751651;0.974;-0.169
5.85502;-10;-0.122622;0.979;-0.173
5.899;10;0.0621564;0.988;-0.178
5.91821;10;0.0618968;0.988;-0.178
5.95029;10;-0.0962379;0.982;-0.178
5.98327;10;-0.100679;0.975;-0.177
6.0248;10;0.0294477;0.969;-0.169
6.05361;10;0.025726;0.969;-0.169
6.07916;10;0.0157432;0.969;-0.169
6.11266;-10;0.134338;0.972;-0.168
6.14372;10;0.130222;0.974;-0.162
6.17708;10;0.0720988;0.975;-0.155
6.22132;-10;-0.0433798;0.975;-0.149
6.23841;-10;0.124331;0.978;-0.15
6.27062;-10;0.135712;0.983;-0.15
6.30318;-10;-0.0755426;0.989;-0.154
6.33422;-10;-0.0604981;0.989;-0.154
6.3792;-10;-0.108179;0.989;-0.156
6.39895;10;-0.0300389;0.988;-0.163
6.43062;10;-0.1104;0.988;-0.169
6.46305;10;-0.175904;0.987;-0.175
6.4948;10;-0.162001;0.987;-0.177
6.54089;10;0.0285125;0.988;-0.178
6.55914;10;0.132329;0.996;-0.183
6.60173;10;-0.0126416;0.998;-0.186
6.62224;10;0.14956;1.001;-0.183
6.65467;10;0.115548;1.002;-0.177
6.69083;10;0.188195;1.003;-0.168
6.7186;10;0.16733;1.005;-0.166
6.75038;10;0.0590005;1.007;-0.167
6.78253;-10;0.106938;1.017;-0.168
6.81496;-10;0.208746;1.024;-0.167
6.85;-10;0.0685276;1.036;-0.174
6.87846;-10;0.17386;1.044;-0.176
6.91031;10;0.113346;1.054;-0.181
6.94255;-10;0.0240629;1.056;-0.186
6.98359;-10;-0.194882;1.062;-0.194
7.01197;-10;-0.208943;1.06;-0.195
7.0383;-10;-0.107176;1.056;-0.194
7.08398;-10;-0.101795;1.044;-0.19
7.10284;-10;0.0477941;1.042;-0.187
7.13512;10;-0.214865;1.034;-0.188
7.17774;10;-0.154674;1.035;-0.192
7.199;-10;-0.201146;1.032;-0.196
7.23021;-10;-0.192845;1.026;-0.197
7.26229;10;-0.127967;1.023;-0.197
7.29515;-10;-0.126078;1.021;-0.205
7.34514;-10;-0.0211183;1.023;-0.212
7.3621;-10;-0.152308;1.019;-0.212
7.39121;10;-0.162941;1.018;-0.214
7.4226;10;0.0341522;1.021;-0.218
7.45832;10;-0.0582592;1.022;-0.225
7.50111;10;-0.00748871;1.028;-0.232
7.51812;10;0.121145;1.035;-0.236
7.5503;10;0.181623;1.04;-0.239
7.58266;10;0.24031;1.046;-0.237
7.61457;10;0.204019;1.045;-0.233
7.65022;-10;0.219525;1.047;-0.224
7.6787;-10;0.238172;1.051;-0.217
7.71024;10;0.200896;1.054;-0.217
7.74538;-10;-0.0998192;1.053;-0.216
7.77777;-10;0.0153044;1.056;-0.223
7.81057;10;0.0937297;1.062;-0.228
7.84325;-10;0.171765;1.07;-0.235
7.87146;-10;0.179248;1.073;-0.236
7.90557;10;0.110997;1.082;-0.246
7.93562;-10;0.108259;1.082;-0.246
7.98047;-10;0.0727759;1.086;-0.255
7.99878;10;0.0423474;1.088;-0.261
8.03175;10;0.148806;1.091;-0.267
8.06291;10;-0.0411625;1.091;-0.276
8.09483;10;0.104339;1.093;-0.285
8.13072;10;0.0117412;1.093;-0.291
8.15856;-10;0.164008;1.1;-0.297
8.19048;-10;0.26673;1.107;-0.305
8.22292;-10;0.234964;1.113;-0.315
8.25886;-10;-0.0565908;1.117;-0.319
8.29071;-10;-0.20509;1.114;-0.319
8.31873;-10;-0.196127;1.114;-0.323
8.35867;-10;-0.113944;1.112;-0.327
8.38313;10;-0.0713976;1.111;-0.326
8.41436;10;-0.0310671;1.103;-0.322
8.45001;10;-0.0726036;1.099;-0.318
8.47869;10;-0.0973055;1.096;-0.323
8.51033;-10;0.103724;1.1;-0.326
8.54416;-10;-0.00409732;1.104;-0.333
8.57717;-10;0.0695325;1.111;-0.336
8.6106;-10;-0.175047;1.109;-0.336
8.63907;10;0.152162;1.111;-0.336
8.6707;10;-0.111462;1.107;-0.334
8.70236;-10;0.0662883;1.1;-0.325
8.73965;10;-0.103043;1.093;-0.32
8.77045;10;0.0395459;1.093;-0.311
8.79905;-10;0.117265;1.093;-0.309
8.83035;-10;0.0497061;1.094;-0.31
8.86236;10;-0.0400907;1.095;-0.309
8.89425;10;-0.0500096;1.097;-0.314
8.93112;10;-0.10127;1.099;-0.319
8.95923;-10;0.0160648;1.102;-0.323
8.99803;-10;-0.0282819;1.112;-0.33
9.02281;-10;-0.00286039;1.114;-0.333
9.05429;10;0.0487777;1.12;-0.337
9.1018;10;-0.184182;1.121;-0.347
9.1197;10;-0.172467;1.121;-0.347
9.15043;-10;0.0831943;1.121;-0.345
9.18618;-10;0.0420686;1.121;-0.34
9.21482;-10;0.0675107;1.121;-0.334
9.25113;10;-0.00226969;1.118;-0.325
9.27869;10;-0.0158051;1.116;-0.318
9.3207;-10;0.138553;1.11;-0.309
9.3423;10;-0.0194777;1.107;-0.305
9.37472;10;0.00691966;1.101;-0.297
9.41079;10;0.167077;1.1;-0.291
9.43835;10;0.0165177;1.092;-0.284
9.47031;10;0.153243;1.092;-0.278
9.50264;10;-0.150449;1.09;-0.276
9.53429;10;0.109746;1.096;-0.279
9.57113;10;0.0123068;1.102;-0.284
9.59827;10;0.208077;1.108;-0.28
9.63107;10;0.0950491;1.11;-0.281
9.66256;-10;0.19243;1.119;-0.284
9.69416;10;0.111229;1.129;-0.287
9.73059;10;0.135972;1.139;-0.293
9.75851;10;0.22764;1.142;-0.294
9.79029;10;0.0321997;1.149;-0.302
9.82238;10;0.210659;1.158;-0.305
9.8542;10;0.246436;1.16;-0.305
9.89238;-10;0.24129;1.167;-0.304
9.91899;-10;0.217356;1.17;-0.304
9.95148;-10;0.146724;1.175;-0.305
9.98273;10;0.0118387;1.175;-0.297
10.0151;10;0.0794499;1.175;-0.295
10.0519;10;0.101596;1.179;-0.3
10.0783;10;-0.134463;1.178;-0.302
10.1112;-10;-0.101719;1.177;-0.305
10.1427;10;0.119847;1.177;-0.303
10.1772;10;0.0430401;1.177;-0.295
10.2118;10;0.072721;1.177;-0.286
10.2388;10;-0.0452667;1.175;-0.28
10.2717;10;0.144435;1.176;-0.271
10.3027;-10;0.0905712;1.176;-0.262
10.3351;10;0.068364;1.178;-0.255
10.3801;10;0.224833;1.184;-0.256
10.3989;10;0.159097;1.186;-0.254
10.4305;10;-0.140416;1.181;-0.25
10.4631;10;-0.162495;1.18;-0.25
10.4941;-10;0.0949228;1.181;-0.249
10.5309;-10;0.122337;1.184;-0.247
10.5586;-10;-0.0297615;1.184;-0.253
10.591;10;0.121796;1.187;-0.254
10.623;10;0.125077;1.19;-0.255
10.6642;-10;0.07221;1.193;-0.259
10.6924;10;-0.158702;1.189;-0.259
10.7183;10;0.041799;1.191;-0.254
10.7587;-10;-0.0827267;1.187;-0.246
10.783;10;0.0100326;1.186;-0.238
10.815;10;-0.0253892;1.184;-0.23
10.8503;-10;0.203405;1.186;-0.23
10.8787;-10;0.0157806;1.186;-0.232
10.9107;-10;0.137485;1.19;-0.234
10.943;10;0.0864321;1.192;-0.238
10.9748;10;0.0294379;1.193;-0.245
11.0115;-10;-0.133217;1.187;-0.255
11.0387;10;0.0829724;1.188;-0.259
11.0726;10;0.211785;1.19;-0.264
11.1023;-10;0.174785;1.192;-0.271
11.1357;-10;-0.183626;1.193;-0.271
11.1727;-10;-0.155662;1.193;-0.265
11.1989;-10;0.145629;1.197;-0.264
11.2323;-10;-0.133119;1.199;-0.263
11.2622;10;-0.0931606;1.199;-0.265
11.296;-10;-0.0395744;1.196;-0.272
11.3321;-10;-0.0556352;1.195;-0.274
11.3587;-10;-0.0472068;1.194;-0.277
11.3925;10;-0.145868;1.188;-0.279
11.4225;10;-0.116336;1.185;-0.284
11.4557;-10;0.0144285;1.185;-0.282
11.4925;10;-0.142477;1.177;-0.276
11.5184;10;0.00948732;1.177;-0.274
11.5525;10;0.146495;1.176;-0.273
11.583;-10;-0.0467602;1.171;-0.264
11.6172;-10;0.00891959;1.171;-0.26
11.6504;10;0.0499607;1.172;-0.254
11.6785;10;-0.018286;1.173;-0.257
11.7106;-10;-0.107581;1.177;-0.265
11.7422;-10;-0.17221;1.174;-0.264
11.7742;-10;0.0196363;1.176;-0.261
11.8109;-10;-0.0341259;1.175;-0.254
11.839;10;-0.0316965;1.175;-0.254
11.8714;10;-0.129659;1.171;-0.252
11.9023;10;-0.155015;1.168;-0.255
11.9351;-10;-0.0601301;1.167;-0.262
11.972;-10;-0.165724;1.164;-0.265
11.9987;-10;0.102095;1.165;-0.266
12.0311;-10;0.129466;1.168;-0.273
12.0623;10;-0.175103;1.166;-0.273
12.0949;10;-0.134209;1.165;-0.268
12.1315;10;-0.107572;1.161;-0.255
12.159;10;0.125876;1.162;-0.254
12.1921;-10;0.0634972;1.165;-0.245
12.2226;-10;0.0928631;1.167;-0.238
12.2552;-10;0.241994;1.174;-0.233
12.2916;10;0.0723622;1.177;-0.224
12.3189;10;-0.0474746;1.177;-0.222
12.3634;10;-0.0192118;1.178;-0.215
12.3827;10;0.16841;1.176;-0.215
12.4143;10;-0.173815;1.173;-0.215
12.4508;10;-0.0685788;1.175;-0.211
12.4793;10;0.0435449;1.178;-0.205
12.5106;-10;0.0701542;1.182;-0.199
12.5457;-10;0.033664;1.186;-0.191
12.5771;-10;0.0721346;1.194;-0.185
12.6104;-10;0.0758408;1.194;-0.185
12.6387;10;0.0640753;1.194;-0.185
12.6862;10;0.00670415;1.193;-0.19
12.703;10;-0.091279;1.192;-0.189
