Time(s);Vsent(rad/s);VMeasured(rad/s);Rotation(rad)
0.0331017;0;-0.293509;-127.926
0.063072;20;-0.14314;-127.922
0.10045;20;-3.09059;-127.989
0.130435;20;0.0915527;-127.987
0.158188;-20;0.052858;-127.986
0.192864;-20;1.11297;-127.924
0.223077;20;-1.23927;-127.9
0.259769;20;1.80615;-127.855
0.292003;20;0;-127.866
0.318766;20;-0.0305176;-127.851
0.353385;20;1.52194;-127.81
0.382491;20;-0.0431584;-127.788
0.417387;20;0.1918;-127.745
0.44945;-20;1.88254;-127.677
0.479207;-20;0.442769;-127.643
0.511194;-20;3.10277;-127.56
0.542705;-20;0.554381;-127.551
0.574817;-20;-1.04343;-127.571
0.620746;-20;-0.379941;-127.607
0.64157;20;0.0682394;-127.606
0.673195;20;-1.71936;-127.667
0.708749;20;-0.88291;-127.699
0.734997;-20;0.515649;-127.695
0.769993;-20;0.788163;-127.686
0.798306;20;1.03963;-127.669
0.832654;20;-2.28711;-127.704
0.862697;-20;-2.59705;-127.746
0.895141;-20;-1.39452;-127.769
0.929655;-20;-0.975857;-127.785
0.958669;20;-0.231411;-127.845
0.99298;20;-0.700247;-127.874
1.02276;20;-1.08778;-127.942
1.06056;-20;-1.43062;-127.977
1.09008;20;-0.152588;-127.969
1.11911;20;0.397901;-127.963
1.15032;-20;-0.389623;-127.965
1.18269;20;-0.623936;-128.02
1.2145;20;-1.46345;-128.06
1.25871;20;-1.3257;-128.073
1.27842;20;-2.0717;-128.106
1.31161;-20;-1.88723;-128.113
1.34221;20;4.67945;-128.038
1.38035;20;0.269524;-128.034
1.4099;20;-0.470803;-128.046
1.43903;-20;1.16189;-127.996
1.47747;-20;1.53018;-127.948
1.50311;20;1.84152;-127.931
1.53516;-20;3.04733;-127.881
1.57921;-20;-1.87187;-127.918
1.59866;20;0;-127.901
1.63291;20;1.89241;-127.853
1.66278;-20;0.305176;-127.853
1.69421;-20;-1.91698;-127.862
1.73088;-20;0.247926;-127.869
1.76139;-20;-2.9526;-127.916
1.79853;-20;-2.94098;-128.009
1.8232;-20;-2.94098;-128.009
1.855;-20;-2.94098;-128.009
1.88948;20;-1.36992;-128.129
1.91898;20;-0.183106;-128.132
1.95227;-20;-2.00382;-128.156
1.9822;-20;-0.674159;-128.177
2.02002;-20;-0.0647376;-128.174
2.05107;20;-2.47472;-128.214
2.07836;20;-0.495383;-128.244
2.11654;20;-2.56838;-128.305
2.1427;20;-0.793462;-128.318
2.17471;20;2.2278;-128.307
2.20981;-20;2.49562;-128.303
2.23867;20;0;-128.297
2.27261;20;-0.281358;-128.273
2.30272;20;-0.281358;-128.273
2.34602;-20;1.0794;-128.281
2.37092;-20;2.30092;-128.244
2.3982;-20;-0.118194;-128.23
2.43202;-20;-1.48336;-128.216
2.46298;20;-1.45531;-128.223
2.49661;-20;-1.73889;-128.258
2.53006;-20;-0.988893;-128.282
2.55864;-20;2.40427;-128.257
2.59069;20;-0.679662;-128.268
2.6228;20;0.105716;-128.266
2.65497;-20;-0.655598;-128.287
2.6904;-20;-1.11087;-128.323
2.71891;-20;-0.700912;-128.349
2.75769;20;-2.36619;-128.378
2.7827;20;-1.20768;-128.398
2.81515;20;-2.35108;-128.435
2.85027;-20;-1.89044;-128.482
2.87879;-20;1.17959;-128.463
2.91765;-20;0.375007;-128.464
2.9427;-20;-0.0431584;-128.464
2.98197;-20;-2.20119;-128.535
3.01041;-20;-1.53898;-128.576
3.03875;-20;-1.96805;-128.608
3.07249;-20;-1.82347;-128.683
3.10301;-20;-1.54879;-128.731
3.13942;20;-2.69303;-128.765
3.16948;20;-0.0889733;-128.782
3.19847;20;-2.13175;-128.854
3.23253;20;-0.942108;-128.872
3.26266;20;-0.363019;-128.913
3.2951;-20;-0.809729;-128.926
3.3405;-20;0.802508;-128.845
3.36175;20;-0.722182;-128.856
3.39945;-20;-1.86152;-128.884
3.4224;-20;-1.46361;-128.9
3.46111;-20;-0.340514;-128.908
3.49046;20;-0.21253;-128.903
3.52151;20;-0.780146;-128.928
3.55082;-20;-1.0481;-128.966
3.5823;-20;0;-128.998
3.62069;-20;0.0889733;-129.008
3.65124;-20;1.45787;-128.997
3.67857;-20;-1.63623;-129.044
3.71648;20;-2.47143;-129.097
3.74303;20;0.431585;-129.104
3.78295;20;-2.45981;-129.143
3.81203;20;2.32569;-129.1
3.83827;-20;0.158574;-129.098
3.87444;-20;0.94433;-129.045
3.90236;-20;0.239325;-129.041
3.93986;-20;-0.0715701;-129.03
3.97724;-20;-0.744095;-129.065
3.99901;20;-2.20753;-129.101
4.03048;20;-3.21507;-129.154
4.0625;-20;0.950719;-129.187
4.09822;-20;1.08843;-129.187
4.13036;-20;-1.95547;-129.226
4.16133;-20;-0.478651;-129.245
4.19124;-20;-0.928917;-129.305
4.22231;-20;-2.35207;-129.352
4.25501;-20;-1.21115;-129.401
4.28977;-20;-0.971313;-129.432
4.31832;-20;-0.986771;-129.469
4.35071;-20;-0.535583;-129.488
4.38222;20;-2.44423;-129.544
4.4151;20;-1.66319;-129.583
4.45044;-20;-0.90582;-129.626
4.48214;-20;-0.936158;-129.661
4.51301;20;-0.328685;-129.675
4.5432;20;-3.21573;-129.746
4.57457;20;-1.19684;-129.777
4.60989;-20;0.338457;-129.78
4.63845;-20;-0.81774;-129.802
4.67267;-20;0.141504;-129.799
4.70276;-20;-0.772648;-129.821
4.74356;20;-1.86427;-129.873
4.77143;20;-2.07215;-129.917
4.79885;20;-1.41128;-129.94
4.83111;20;0.0215792;-129.953
4.86311;20;0.940871;-129.943
4.90187;20;2.95977;-129.897
4.93134;20;1.14025;-129.879
4.95871;-20;0.989599;-129.85
5.00268;20;0.907361;-129.79
5.024;20;1.22567;-129.771
5.05468;-20;0.30972;-129.76
5.09129;-20;0.0915527;-129.783
5.12193;-20;-1.25422;-129.803
5.15114;-20;-0.415645;-129.771
5.18254;-20;-1.27374;-129.774
5.21418;-20;-0.68342;-129.785
5.25036;20;-1.66515;-129.847
5.27867;20;-1.5893;-129.877
5.31016;20;-1.91735;-129.908
5.34265;20;-0.15561;-129.921
5.38286;20;0.350621;-129.896
5.41197;20;0.726681;-129.876
5.43842;20;2.06787;-129.826
5.48202;20;2.06065;-129.797
5.50337;20;1.71421;-129.757
5.53458;20;0.451104;-129.721
5.57059;20;0.975141;-129.68
5.59873;20;0.320071;-129.634
5.63896;20;0.347954;-129.601
5.66221;-20;1.88773;-129.571
5.69427;-20;1.79956;-129.539
5.73052;-20;-0.597243;-129.544
5.75824;20;0.267791;-129.54
5.80058;-20;-0.644495;-129.587
5.82266;-20;-1.22187;-129.606
5.85502;-20;1.23211;-129.601
5.899;-20;-1.70795;-129.607
5.91821;-20;0.0915527;-129.605
5.95029;-20;-0.533405;-129.622
5.98327;20;-1.35746;-129.668
6.0248;20;-2.25161;-129.748
6.05361;-20;-0.856676;-129.762
6.07916;-20;-1.83087;-129.813
6.11266;20;0.110033;-129.824
6.14372;-20;1.09589;-129.807
6.17708;-20;-0.733062;-129.839
6.22132;-20;-0.592546;-129.846
6.23841;20;-0.640145;-129.857
6.27062;20;-0.904276;-129.891
6.30318;20;-1.87597;-129.942
6.33422;20;0.0610352;-129.945
6.3792;20;1.52836;-129.919
6.39895;20;0.82115;-129.882
6.43062;20;1.44213;-129.846
6.46305;20;1.62767;-129.813
6.4948;-20;1.39385;-129.765
6.54089;-20;0.314198;-129.764
6.55914;20;-0.42121;-129.748
6.60173;-20;1.42262;-129.711
6.62224;-20;-0.287903;-129.683
6.65467;20;0.133023;-129.65
6.69083;-20;0;-129.627
6.7186;-20;0.559398;-129.625
6.75038;20;1.42;-129.603
6.78253;-20;-2.13241;-129.674
6.81496;-20;0.529462;-129.665
6.85;20;0.483009;-129.657
6.87846;20;1.12917;-129.639
6.91031;20;-0.127664;-129.661
6.94255;20;0.368746;-129.664
6.98359;20;-0.052858;-129.609
7.01197;-20;0.168539;-129.58
7.0383;-20;1.48006;-129.556
7.08398;-20;0.362377;-129.542
7.10284;-20;-1.69096;-129.569
7.13512;-20;-1.0163;-129.594
7.17774;-20;-0.463828;-129.622
7.199;-20;-0.521932;-129.655
7.23021;-20;-1.59923;-129.726
7.26229;20;-1.03536;-129.777
7.29515;20;0.487328;-129.796
7.34514;20;0.983699;-129.8
7.3621;-20;-0.167152;-129.803
7.39121;-20;0.189357;-129.793
7.4226;-20;0.0965051;-129.788
7.45832;-20;-0.052858;-129.781
7.50111;20;-1.62064;-129.87
7.51812;20;-1.63438;-129.896
7.5503;-20;-1.29261;-129.93
7.58266;20;-0.470803;-129.955
7.61457;20;-2.0838;-129.992
7.65022;-20;-0.988186;-130.008
7.6787;-20;-1.44648;-130.063
7.71024;20;-1.3848;-130.097
7.74538;20;-1.53413;-130.131
7.77777;20;-0.279698;-130.142
7.81057;-20;1.47091;-130.112
7.84325;-20;0.942849;-130.1
7.87146;-20;0.463828;-130.093
7.90557;20;-1.81207;-130.148
7.93562;20;-0.876558;-130.162
7.98047;20;-1.64941;-130.223
7.99878;-20;-0.410573;-130.229
8.03175;-20;0.525932;-130.212
8.06291;-20;0.25805;-130.199
8.09483;20;-0.759886;-130.191
8.13072;20;-2.32849;-130.222
8.15856;-20;-1.31033;-130.253
8.19048;20;0.0715701;-130.244
8.22292;20;1.68364;-130.2
8.25886;20;-0.0215792;-130.195
8.29071;20;-0.239325;-130.201
8.31873;20;1.03221;-130.162
8.35867;20;0.281358;-130.137
8.38313;20;-0.748774;-130.129
8.41436;20;1.26861;-130.103
8.45001;20;0.993356;-130.074
8.47869;20;1.34384;-130.032
8.51033;-20;1.77743;-129.99
8.54416;20;2.05545;-129.974
8.57717;20;-0.0835758;-129.963
8.6106;20;-1.30195;-129.983
8.63907;20;0.330803;-129.98
8.6707;20;0.0647376;-129.979
8.70236;20;0.7917;-129.954
8.73965;-20;-0.225293;-129.929
8.77045;-20;0.222171;-129.888
8.79905;-20;1.76296;-129.836
8.83035;-20;0.337078;-129.831
8.86236;20;0.1918;-129.81
8.89425;20;-0.902214;-129.819
8.93112;20;0.0431584;-129.82
8.95923;-20;-0.844357;-129.834
8.99803;20;1.26125;-129.778
9.02281;20;0.149505;-129.775
9.05429;20;0.707854;-129.789
9.1018;20;-0.711135;-129.864
9.1197;20;-2.03861;-129.897
9.15043;-20;0.941119;-129.901
9.18618;20;0.916806;-129.872
9.21482;20;0;-129.856
9.25113;20;-0.213623;-129.849
9.27869;20;0.052858;-129.86
9.3207;20;2.18931;-129.809
9.3423;-20;0.389623;-129.802
9.37472;-20;0.779548;-129.765
9.41079;-20;0.919596;-129.736
9.43835;20;-0.202431;-129.728
9.47031;20;-1.74223;-129.757
9.50264;-20;-1.28485;-129.8
9.53429;20;0.816601;-129.8
9.57113;20;-0.308213;-129.793
9.59827;-20;0.490186;-129.763
9.63107;-20;-0.0305176;-129.764
9.66256;20;0.25895;-129.774
9.69416;-20;-1.29117;-129.814
9.73059;-20;-0.714402;-129.842
9.75851;-20;-0.364299;-129.85
9.79029;20;-0.975141;-129.842
9.82238;20;-1.75581;-129.909
9.8542;-20;-1.70549;-129.936
9.89238;20;-0.39907;-129.975
9.91899;20;-0.822;-129.988
9.95148;-20;-0.0807419;-129.969
9.98273;-20;-0.560646;-129.993
10.0151;-20;-0.951208;-130.016
10.0519;-20;-0.82115;-130.018
10.0783;-20;-2.20161;-130.054
10.1112;20;-1.59953;-130.087
10.1427;-20;0.129475;-130.094
10.1772;-20;-0.831295;-130.128
10.2118;-20;-0.0431584;-130.125
10.2388;20;-0.958767;-130.144
10.2717;20;-1.08264;-130.198
10.3027;-20;-2.01193;-130.256
10.3351;20;-2.26007;-130.323
10.3801;20;-0.0940615;-130.342
10.3989;20;0.357851;-130.359
10.4305;20;-0.862095;-130.37
10.4631;-20;-0.653464;-130.369
10.4941;20;0.358501;-130.357
10.5309;20;0.378714;-130.343
10.5586;-20;-0.578228;-130.358
10.591;-20;0.329392;-130.364
10.623;-20;-0.733697;-130.385
10.6642;-20;-1.10055;-130.415
10.6924;20;-1.12068;-130.459
10.7183;20;-1.53974;-130.483
10.7587;20;0.0215792;-130.521
10.783;-20;0.285466;-130.525
10.815;-20;0.622067;-130.491
10.8503;-20;0.0988883;-130.459
10.8787;-20;0.630617;-130.449
10.9107;20;-2.37425;-130.499
10.943;20;-1.28103;-130.514
10.9748;20;0.92389;-130.535
11.0115;20;-0.642686;-130.534
11.0387;-20;2.50419;-130.494
11.0726;-20;1.94807;-130.476
11.1023;-20;2.594;-130.42
11.1357;20;-0.939385;-130.436
11.1727;20;0;-130.431
11.1989;20;-0.898594;-130.48
11.2323;20;-0.601129;-130.506
11.2622;20;1.64828;-130.469
11.296;20;0.224258;-130.427
11.3321;20;1.36071;-130.393
11.3587;-20;2.28253;-130.356
11.3925;-20;1.28267;-130.309
11.4225;-20;1.84556;-130.263
11.4557;-20;0.408298;-130.26
11.4925;20;-2.03884;-130.313
11.5184;20;0.550588;-130.317
11.5525;20;-0.652037;-130.373
11.583;-20;0.343916;-130.359
11.6172;-20;0.23441;-130.331
11.6504;20;1.89118;-130.289
11.6785;20;0.242226;-130.278
11.7106;20;-0.0965051;-130.26
11.7422;-20;0.0373762;-130.255
11.7742;-20;-0.424513;-130.255
11.8109;-20;0.503773;-130.227
11.839;-20;0.407727;-130.22
11.8714;-20;0.621318;-130.188
11.9023;-20;-1.53003;-130.206
11.9351;20;-0.450588;-130.226
11.972;20;-1.81336;-130.301
11.9987;-20;-2.00939;-130.333
12.0311;-20;-0.85939;-130.348
12.0623;-20;-0.346613;-130.394
12.0949;-20;-0.912989;-130.438
12.1315;-20;-1.37298;-130.488
12.159;20;-3.06698;-130.537
12.1921;-20;-1.0064;-130.567
12.2226;-20;-0.18183;-130.589
12.2552;20;-0.499596;-130.568
12.2916;20;-0.87921;-130.561
12.3189;20;0.602676;-130.576
12.3634;20;-0.468324;-130.602
12.3827;-20;0.897557;-130.565
12.4143;-20;0.976573;-130.54
12.4508;20;2.05873;-130.498
12.4793;20;0.0431584;-130.477
12.5106;-20;-1.75183;-130.517
12.5457;20;1.19333;-130.472
12.5771;20;0.750948;-130.478
12.6104;20;0.697249;-130.445
12.6387;20;-0.991245;-130.461
12.6862;20;0.720891;-130.418
12.703;20;2.16148;-130.383
