Time(s);Vsent(m/s);VMeasured(m/s);PosX(m);PosY(m)
0.034244;40;0.0315833;0.131;-0.952
0.064289;40;-0.0299453;0.129;-0.951
0.0989319;40;0.0301678;0.131;-0.952
0.127853;40;0.0270606;0.131;-0.952
0.159693;40;-0.0160983;0.136;-0.956
0.203585;40;0.114885;0.15;-0.964
0.22649;40;0.197107;0.169;-0.973
0.258352;40;0.199043;0.183;-0.982
0.287043;40;0.290285;0.194;-0.989
0.318967;40;0.397566;0.215;-1
0.354297;40;0.507182;0.238;-1.012
0.382951;40;0.565048;0.263;-1.028
0.417547;40;0.694824;0.288;-1.038
0.447806;40;0.774263;0.312;-1.048
0.479099;40;0.669491;0.335;-1.057
0.514478;40;0.710483;0.358;-1.066
0.542973;40;0.755482;0.381;-1.073
0.583975;40;0.716648;0.406;-1.084
0.607753;40;0.750025;0.429;-1.093
0.639528;40;0.797855;0.456;-1.1
0.68446;40;0.805504;0.493;-1.113
0.705834;40;0.78335;0.504;-1.117
0.738491;40;0.786567;0.527;-1.123
0.767639;40;0.802075;0.554;-1.125
0.80298;40;0.800939;0.578;-1.131
0.83481;40;0.781015;0.603;-1.135
0.863554;40;0.762632;0.626;-1.138
0.90086;40;0.790215;0.651;-1.141
0.927109;40;0.775726;0.677;-1.145
0.959436;40;0.743819;0.699;-1.149
0.993769;40;0.769081;0.724;-1.153
1.0249;40;0.73592;0.751;-1.155
1.05602;40;0.68243;0.773;-1.156
1.08744;40;0.749975;0.797;-1.159
1.11957;40;0.68501;0.808;-1.158
1.15532;40;0.736737;0.848;-1.159
1.1836;40;0.666854;0.859;-1.158
1.21809;40;0.600668;0.881;-1.156
1.24771;40;0.623113;0.904;-1.155
1.27937;40;0.70448;0.933;-1.154
1.31355;40;0.648214;0.955;-1.153
1.34349;40;0.699386;0.981;-1.152
1.37507;40;0.684423;1.007;-1.151
1.40749;40;0.664495;1.029;-1.153
