Time(s);Vsent(m/s);VMeasured(m/s);PosX(m);PosY(m)
0.0402851;29.96;0.0327008;0.251;-1.21
0.0655366;29.96;0.0280322;0.251;-1.21
0.102197;29.92;0.028008;0.252;-1.209
0.13409;29.92;0.0275061;0.252;-1.209
0.16165;29.64;0.0965069;0.259;-1.211
0.193548;29.44;0.119771;0.264;-1.212
0.233227;29.12;0.198254;0.276;-1.214
0.258148;28.64;0.263654;0.284;-1.215
0.293539;28.2;0.319437;0.295;-1.217
0.32192;27.76;0.331458;0.306;-1.219
0.353918;27.16;0.38945;0.321;-1.22
0.385855;26.68;0.403504;0.333;-1.222
0.417992;26.08;0.427331;0.348;-1.223
0.453919;25.52;0.40199;0.362;-1.223
0.481846;24.96;0.445538;0.376;-1.227
0.514575;24.36;0.457206;0.391;-1.227
0.545821;23.88;0.393881;0.403;-1.227
0.581966;23.16;0.466926;0.421;-1.227
0.613152;22.68;0.436056;0.433;-1.228
0.641668;22.16;0.334788;0.446;-1.225
0.673543;21.44;0.450871;0.464;-1.224
0.705657;20.92;0.425514;0.477;-1.223
0.742243;20.44;0.409369;0.489;-1.223
0.774229;19.92;0.41943;0.502;-1.224
0.801859;19.44;0.396775;0.514;-1.225
0.839704;19.08;0.417261;0.528;-1.226
0.865142;18.6;0.390619;0.542;-1.225
0.902617;17.96;0.319384;0.551;-1.224
0.934153;17.68;0.385685;0.558;-1.225
0.961651;17.24;0.386369;0.569;-1.223
0.993361;16.84;0.312323;0.579;-1.222
1.02564;16.4;0.285553;0.59;-1.221
1.06246;15.88;0.305169;0.603;-1.219
1.09407;15.64;0.313388;0.609;-1.219
1.12158;15.2;0.286739;0.62;-1.218
1.15369;14.84;0.257675;0.629;-1.216
1.19227;14.24;0.268364;0.644;-1.214
1.21737;14.16;0.282369;0.646;-1.214
1.25533;13.8;0.294763;0.655;-1.214
1.28591;13.36;0.275787;0.666;-1.211
1.32188;12.88;0.262274;0.678;-1.21
1.3455;12.8;0.270649;0.68;-1.211
1.37738;12.72;0.050383;0.682;-1.208
1.42136;12.32;0.172629;0.695;-1.207
1.44447;12.16;0.0879694;0.696;-1.206
1.47384;11.8;0.192442;0.705;-1.205
1.50565;11.64;0.145408;0.709;-1.203
1.53978;11.28;0.208939;0.718;-1.204
1.57274;11.12;0.114345;0.722;-1.201
1.60111;10.84;0.185535;0.729;-1.201
1.63966;10.68;0.0806097;0.733;-1.199
1.66608;10.36;0.174712;0.741;-1.198
1.6993;10.2;0.0698972;0.745;-1.196
1.73377;9.96;0.146154;0.751;-1.194
1.76113;9.76;0.0787635;0.756;-1.194
1.79402;9.72;0.01458;0.757;-1.192
1.82549;9.48;0.179066;0.767;-1.19
1.85782;9.32;0.174621;0.767;-1.19
1.89977;8.88;0.187795;0.778;-1.187
1.92164;8.84;0.0158955;0.779;-1.185
1.95631;8.76;0.160081;0.786;-1.183
1.98565;8.44;0.170309;0.789;-1.183
2.018;8.32;0.121372;0.792;-1.183
2.05279;8.04;0.150966;0.799;-1.181
2.08161;7.92;0.139701;0.802;-1.18
2.11626;7.64;0.170569;0.809;-1.178
2.14579;7.6;0.147773;0.81;-1.179
2.17826;7.52;0.0548372;0.812;-1.177
2.21511;7.24;0.148747;0.819;-1.176
2.24139;7.16;0.0880466;0.821;-1.175
2.27478;7.08;0.11658;0.823;-1.174
2.30528;6.76;0.166368;0.831;-1.172
2.34012;6.72;0.0141241;0.832;-1.17
2.37471;6.6;0.112659;0.835;-1.169
2.40446;6.64;-0.13161;0.834;-1.168
2.43451;6.28;0.158221;0.843;-1.168
2.46511;6.24;0.0557957;0.844;-1.167
2.49802;6.08;0.147344;0.848;-1.166
2.53432;6.04;0.0108558;0.849;-1.164
2.56166;5.88;0.104518;0.853;-1.165
2.59832;5.88;0.0893129;0.853;-1.165
2.62564;5.8;0.0749605;0.855;-1.165
2.6626;5.64;0.0660322;0.859;-1.164
2.69455;5.56;0.0480207;0.861;-1.163
2.72647;5.52;-0.0863469;0.862;-1.163
2.75901;5.4;0.0406999;0.865;-1.16
2.78514;5.32;0.0375841;0.867;-1.158
2.82294;5.16;0.0991162;0.871;-1.158
2.85371;5.04;0.00528782;0.875;-1.155
2.88137;5;-0.0479344;0.875;-1.153
2.91815;5;-0.0438892;0.875;-1.153
2.94516;4.92;0.0368737;0.877;-1.151
2.97804;4.92;-0.104844;0.877;-1.151
3.02197;4.76;0.0719215;0.881;-1.149
3.04581;4.6;0.0448642;0.886;-1.148
3.08038;4.52;0.103938;0.887;-1.15
3.1053;4.48;0.0438879;0.888;-1.149
3.14197;4.32;0.0342425;0.892;-1.148
3.17348;4.24;0.0799236;0.894;-1.148
3.20177;4.2;0.0944495;0.895;-1.149
3.24365;4.16;0.00494193;0.896;-1.147
3.26792;4;0.0990163;0.9;-1.147
3.29713;4.04;0.041767;0.899;-1.147
3.33294;3.92;0.0430076;0.902;-1.146
3.3621;3.92;0.0337885;0.902;-1.146
3.39391;3.8;0.0992135;0.905;-1.146
3.42615;3.76;0.0286486;0.906;-1.145
3.45843;3.72;0.0654435;0.907;-1.146
3.50172;3.64;0.0755509;0.909;-1.145
3.52124;3.6;0.0841777;0.91;-1.144
3.55613;3.68;-0.0824448;0.908;-1.143
3.59088;3.52;0.0381652;0.912;-1.141
3.61722;3.52;0.123203;0.912;-1.141
3.65278;3.52;0.106984;0.912;-1.141
3.68128;3.36;0.100958;0.916;-1.14
3.71317;3.36;0.0978471;0.916;-1.14
3.74525;3.32;0.024906;0.918;-1.138
3.78252;3.24;0.0197174;0.919;-1.137
3.81392;3.24;0.018278;0.919;-1.137
3.84398;3.24;-0.0234949;0.919;-1.134
3.87327;3.16;0.0669398;0.921;-1.135
3.91084;3.2;0.0254815;0.92;-1.134
3.93776;3.12;0.0869594;0.922;-1.134
3.97316;3.2;-0.0931813;0.92;-1.134
4.00191;3.04;0.119707;0.924;-1.133
4.03337;3.04;0.103554;0.924;-1.133
4.06623;2.92;0.112677;0.927;-1.134
4.09803;2.88;0.0293378;0.928;-1.133
4.13292;2.84;0.0728964;0.929;-1.134
4.16212;2.84;0.0634626;0.929;-1.134
4.19402;2.84;0.0425498;0.929;-1.134
4.22603;2.8;0.0134683;0.93;-1.133
4.25898;2.8;-0.0335579;0.93;-1.134
4.29532;2.68;0.0569228;0.933;-1.134
4.32168;2.56;0.0717713;0.936;-1.133
4.35833;2.6;-0.0870253;0.935;-1.132
4.38518;2.52;0.0935386;0.937;-1.133
4.41749;2.48;-0.00285928;0.938;-1.131
4.4534;2.44;0.0818728;0.939;-1.132
4.48201;2.4;0.0210861;0.94;-1.131
4.52267;2.44;-0.0659749;0.939;-1.13
4.54734;2.36;0.0379905;0.941;-1.129
4.57735;2.24;0.065385;0.944;-1.129
4.61282;2.28;0.0955756;0.943;-1.13
4.64128;2.24;-0.028914;0.944;-1.128
4.67393;2.2;0.0286039;0.945;-1.127
4.70586;2.08;0.114306;0.948;-1.127
4.73741;2.04;-0.0602201;0.949;-1.126
4.78147;2;-0.010069;0.95;-1.124
4.80142;1.96;0.0985723;0.951;-1.125
4.84228;2.04;-0.0898335;0.949;-1.124
4.86549;2;-0.0557339;0.95;-1.121
4.89708;1.96;0.099507;0.951;-1.122
4.93282;1.96;-0.0849448;0.95;-1.121
4.96204;2;-0.0849599;0.95;-1.121
4.9938;2;-0.085078;0.95;-1.119
5.02539;1.92;0.059009;0.952;-1.119
5.0576;1.92;0.0566227;0.952;-1.119
5.09347;1.92;0.0601284;0.952;-1.119
5.12144;1.8;0.0653665;0.955;-1.119
5.16263;1.76;-0.0111481;0.956;-1.117
5.18827;1.76;-0.0124073;0.956;-1.117
5.21743;1.76;-0.0137205;0.956;-1.117
5.2628;1.76;-0.0111785;0.956;-1.117
5.28345;1.76;-0.00924178;0.956;-1.117
5.31638;1.76;-0.0104363;0.956;-1.117
5.34593;1.64;0.0262911;0.959;-1.115
5.38197;1.64;0.0240056;0.959;-1.115
5.4137;1.6;0.0104054;0.96;-1.114
5.44175;1.6;0.0731054;0.96;-1.114
5.47867;1.6;0.0679816;0.96;-1.114
5.50591;1.6;0.0845368;0.96;-1.114
5.5379;1.6;0.0760502;0.96;-1.114
5.57299;1.6;0.0441666;0.96;-1.112
5.60145;1.64;-0.0139827;0.959;-1.113
5.63308;1.6;0.0804019;0.96;-1.114
5.67294;1.6;0.0707765;0.96;-1.114
5.69867;1.6;0.0594372;0.96;-1.114
5.73348;1.64;-0.0412252;0.959;-1.113
5.763;1.6;0.0440552;0.96;-1.114
5.79498;1.6;0.0509608;0.96;-1.114
5.82618;1.6;0.0508981;0.96;-1.114
5.85754;1.6;0.0440431;0.96;-1.114
5.90173;1.6;0.0412268;0.96;-1.114
5.92206;1.6;0.0343574;0.96;-1.114
5.95367;1.6;0.0274918;0.96;-1.114
5.98558;1.64;-0.0343324;0.959;-1.113
6.01796;1.6;0.0343464;0.96;-1.114
6.06207;1.68;-0.0625613;0.958;-1.113
6.08167;1.68;-0.0625516;0.958;-1.113
6.11345;1.68;-0.0556186;0.958;-1.113
6.14546;1.68;-0.0556204;0.958;-1.113
6.17736;1.64;0.0591145;0.959;-1.114
6.22163;1.56;0.017045;0.961;-1.113
6.24111;1.56;0.0203142;0.961;-1.113
6.2736;1.6;-0.0537352;0.96;-1.112
6.31257;1.6;0.0362803;0.96;-1.114
6.338;1.56;0.00780869;0.961;-1.113
6.37277;1.56;0.00899301;0.961;-1.113
6.4015;1.6;-0.0549115;0.96;-1.112
6.44209;1.56;0.0509002;0.961;-1.113
6.46745;1.56;0.0606172;0.961;-1.113
6.49765;1.56;0.0634861;0.961;-1.113
6.54257;1.56;0.0731635;0.961;-1.113
6.56392;1.6;-0.0731361;0.96;-1.112
6.60121;1.56;0.0731518;0.961;-1.113
6.62593;1.56;0.0606091;0.961;-1.113
6.65717;1.6;-0.0634425;0.96;-1.112
6.69391;1.6;-0.0606243;0.96;-1.112
6.72201;1.56;0.0606034;0.961;-1.113
6.75378;1.56;0.0537352;0.961;-1.113
6.78524;1.56;0.0577516;0.961;-1.113
6.82284;1.6;-0.0577669;0.96;-1.112
6.85344;1.56;0.0577606;0.961;-1.113
6.88222;1.6;-0.0577606;0.96;-1.112
6.91369;1.6;-0.0577492;0.96;-1.112
6.95219;1.56;0.053728;0.961;-1.113
6.97769;1.56;0.0537388;0.961;-1.113
7.01376;1.56;0.0508893;0.961;-1.113
7.04438;1.6;-0.0508933;0.96;-1.112
7.07418;1.6;-0.0440214;0.96;-1.112
7.10567;1.56;0.0411702;0.961;-1.113
7.14007;1.6;-0.0440124;0.96;-1.112
7.17284;1.6;-0.0508838;0.96;-1.112
7.20176;1.6;-0.0566069;0.96;-1.112
7.24064;1.6;-0.0634349;0.96;-1.112
7.26526;1.6;-0.0537411;0.96;-1.112
7.29971;1.56;0.056574;0.961;-1.113
7.33314;1.56;0.0537439;0.961;-1.113
7.36297;1.56;0.044029;0.961;-1.113
7.39454;1.56;0.0508707;0.961;-1.113
7.42524;1.6;-0.0549203;0.96;-1.112
7.45727;1.6;-0.0549347;0.96;-1.112
7.49317;1.6;-0.048039;0.96;-1.112
7.52193;1.6;-0.0480365;0.96;-1.112
7.5628;1.6;-0.0480874;0.96;-1.112
7.58596;1.56;0.0480597;0.961;-1.113
7.61717;1.6;-0.0577531;0.96;-1.112
7.66006;1.56;0.0582363;0.961;-1.114
7.68211;1.6;-0.0657798;0.96;-1.112
7.71578;1.6;-0.0683166;0.96;-1.112
7.74534;1.6;-0.0621618;0.96;-1.112
7.77855;1.6;-0.0647258;0.96;-1.112
7.82404;1.56;0.0565678;0.961;-1.113
7.84178;1.56;0.0634494;0.961;-1.113
7.87697;1.6;-0.0605895;0.96;-1.112
7.90607;1.6;-0.0577413;0.96;-1.112
7.93711;1.6;-0.0577615;0.96;-1.112
7.97296;1.6;0.0403656;0.96;-1.114
8.00191;1.6;0.0403078;0.96;-1.114
8.03315;1.56;0.0103859;0.961;-1.113
8.07297;1.6;-0.0675263;0.96;-1.112
8.09833;1.56;0.0703132;0.961;-1.113
8.134;1.56;-0.0621979;0.96;-1.112
8.16145;1.6;-0.0553696;0.96;-1.112
8.20332;1.6;-0.0650707;0.96;-1.112
8.22546;1.56;0.0747389;0.961;-1.113
8.25754;1.56;0.0816356;0.961;-1.113
8.29851;1.6;-0.0662761;0.96;-1.112
8.32132;1.6;-0.0662498;0.96;-1.112
8.35387;1.6;-0.0662761;0.96;-1.112
8.39114;1.6;-0.066306;0.96;-1.112
8.41733;1.56;0.0662805;0.961;-1.113
8.45306;1.56;0.0594531;0.961;-1.113
8.48217;1.56;0.0497089;0.961;-1.113
8.51395;1.6;-0.0468674;0.96;-1.112
8.54594;1.56;0.0411698;0.961;-1.113
8.57782;1.56;0.053736;0.961;-1.113
8.62204;1.6;-0.0702897;0.96;-1.112
8.64605;1.6;-0.0634229;0.96;-1.112
8.68086;1.6;-0.0496969;0.96;-1.112
8.70575;1.6;-0.0468566;0.96;-1.112
8.73811;1.56;0.0411658;0.961;-1.113
8.78227;1.6;-0.0343464;0.96;-1.112
8.80302;1.6;-0.0343387;0.96;-1.112
8.83369;1.56;0.0537483;0.961;-1.113
8.87138;1.6;-0.0537424;0.96;-1.112
8.89768;1.6;-0.0565875;0.96;-1.112
8.93278;1.6;0.0703085;0.961;-1.113
8.96158;1.6;-0.0702897;0.96;-1.112
8.99325;1.56;0.0634527;0.961;-1.113
9.03287;1.56;0.066259;0.961;-1.113
9.05891;1.56;0.0634212;0.961;-1.113
9.0931;1.6;-0.0605927;0.96;-1.112
9.12267;1.6;-0.0605838;0.96;-1.112
9.15359;1.6;-0.0509075;0.96;-1.112
9.18615;1.6;-0.0537609;0.96;-1.112
9.22268;1.56;0.049711;0.961;-1.113
9.25419;1.56;0.049713;0.961;-1.113
9.2815;1.56;0.0594201;0.961;-1.113
9.31898;1.56;0.0691123;0.961;-1.113
9.3456;1.56;0.0525875;0.961;-1.113
9.38282;1.56;0.0594001;0.961;-1.113
9.41406;1.6;-0.0525504;0.96;-1.112
9.44123;1.56;0.0497063;0.961;-1.113
9.47333;1.6;-0.0537215;0.96;-1.112
9.51134;1.6;-0.0605993;0.96;-1.112
9.53776;1.6;-0.0605847;0.96;-1.112
9.57469;1.6;-0.0509244;0.96;-1.112
9.60288;1.6;-0.0440166;0.96;-1.112
9.63361;1.56;0.0468635;0.961;-1.113
9.66559;1.6;-0.0428571;0.96;-1.112
9.69923;1.6;-0.0400355;0.96;-1.112
9.73279;1.56;0.0468655;0.961;-1.113
9.76181;1.56;0.0371638;0.961;-1.113
9.79898;1.6;-0.00515203;0.96;-1.114
9.82617;1.56;-0.00856157;0.961;-1.112
9.86003;1.56;-0.00857524;0.961;-1.112
9.89352;1.56;0.038793;0.961;-1.114
9.92279;1.6;-0.0545861;0.96;-1.112
9.9543;1.6;-0.0544464;0.96;-1.112
9.98558;1.56;0.0606091;0.961;-1.113
10.0171;1.56;0.053731;0.961;-1.113
10.054;1.6;-0.0537259;0.96;-1.112
10.0812;1.6;-0.0440185;0.96;-1.112
10.1204;1.56;0.0440683;0.961;-1.113
10.1455;1.56;0.0537588;0.961;-1.113
10.1779;1.6;-0.0565601;0.96;-1.112
10.2225;1.56;-0.0731242;0.96;-1.112
10.2462;1.6;0.0703172;0.961;-1.113
10.2737;1.56;0.0634687;0.961;-1.113
10.3054;1.56;0.0537623;0.961;-1.113
10.3371;1.56;0.0537215;0.961;-1.113
10.3736;1.56;0.0537121;0.961;-1.113
10.4013;1.6;-0.0565746;0.96;-1.112
10.4336;1.6;-0.0634169;0.96;-1.112
10.4655;1.6;-0.0760135;0.96;-1.112
10.5036;1.6;-0.0662761;0.96;-1.112
10.5344;1.6;-0.0565586;0.96;-1.112
10.5618;1.56;0.056574;0.961;-1.113
10.5935;1.6;-0.0537158;0.96;-1.112
10.6319;1.6;-0.0537488;0.96;-1.112
10.6577;1.6;-0.0606283;0.96;-1.112
10.6933;1.56;0.0577561;0.961;-1.113
10.7218;1.6;-0.0605723;0.96;-1.112
10.7601;1.6;-0.057757;0.96;-1.112
10.7851;1.6;-0.050888;0.96;-1.112
10.8179;1.56;0.0577546;0.961;-1.113
10.8593;1.56;0.054918;0.961;-1.113
10.8813;1.6;-0.0548936;0.96;-1.112
10.9245;1.6;-0.0577561;0.96;-1.112
10.9455;1.6;-0.043998;0.96;-1.112
10.9773;1.6;-0.0371825;0.96;-1.112
11.0199;1.6;-0.030289;0.96;-1.112
11.0418;1.56;0.0303001;0.961;-1.113
11.0736;1.6;-0.0343085;0.96;-1.112
11.1054;1.6;-0.0480398;0.96;-1.112
11.1377;1.6;-0.0577288;0.96;-1.112
11.1735;1.6;-0.060587;0.96;-1.112
11.2028;1.6;-0.0606434;0.96;-1.112
11.2351;1.6;-0.0565846;0.96;-1.112
11.2651;1.6;-0.0565586;0.96;-1.112
11.2983;1.6;-0.0440512;0.96;-1.112
11.3422;1.6;-0.0508763;0.96;-1.112
11.3621;1.6;-0.0412011;0.96;-1.112
11.3934;1.6;-0.0411562;0.96;-1.112
11.426;1.6;-0.0411567;0.96;-1.112
11.4575;1.56;0.0440373;0.961;-1.113
11.5032;1.56;0.0537243;0.961;-1.113
11.523;1.6;-0.053768;0.96;-1.112
11.5535;1.6;-0.0605774;0.96;-1.112
11.5859;1.56;0.070282;0.961;-1.113
11.6241;1.56;0.0605946;0.961;-1.113
11.6553;1.6;-0.0577304;0.96;-1.112
11.6819;1.6;-0.0577943;0.96;-1.112
11.7165;1.6;-0.0440238;0.96;-1.112
11.753;1.6;-0.0468954;0.96;-1.112
11.7782;1.56;0.0468849;0.961;-1.113
11.8129;1.56;0.0525743;0.961;-1.113
11.8418;1.56;0.0525413;0.961;-1.113
11.8828;1.6;-0.0594343;0.96;-1.112
11.9053;1.56;0.0662868;0.961;-1.113
11.9433;1.56;0.0634125;0.961;-1.113
11.9736;1.6;-0.0605806;0.96;-1.112
12.0035;1.6;-0.0577413;0.96;-1.112
12.0336;1.6;-0.0509002;0.96;-1.112
12.071;1.6;-0.0480629;0.96;-1.112
12.0979;1.6;-0.0508644;0.96;-1.112
12.1332;1.56;0.0605863;0.961;-1.113
12.1612;1.6;-0.0605716;0.96;-1.112
12.1967;1.56;0.070282;0.961;-1.113
12.2261;1.6;-0.0634366;0.96;-1.112
12.2573;1.6;-0.0537009;0.96;-1.112
12.2936;1.6;-0.0468616;0.96;-1.112
12.3216;1.6;-0.0440059;0.96;-1.112
12.3632;1.6;-0.0468674;0.96;-1.112
12.3853;1.6;-0.0537164;0.96;-1.112
12.4197;1.6;-0.0634468;0.96;-1.112
12.453;1.56;0.0565609;0.961;-1.113
12.4834;1.6;-0.0496969;0.96;-1.112
12.514;1.6;-0.0566032;0.96;-1.112
12.5459;1.56;0.049719;0.961;-1.113
