Time(s);Vsent(m/s);VMeasured(m/s);PosX(m);PosY(m)
0.0370181;0;0;-0.027;0.029
0.0663514;0;0;-0.027;0.029
0.0980223;0;0;-0.027;0.029
0.131285;0;0;-0.027;0.029
0.161737;0;0;-0.027;0.029
0.193993;0;0;-0.027;0.029
0.225438;-1.1;0;-0.027;0.029
0.258111;-1.1;0;-0.027;0.029
0.292043;-1.1;-0.0651103;-0.036;0.026
0.322446;-1.1;-0.108443;-0.047;0.022
0.354027;-1.1;-0.131729;-0.054;0.019
0.386557;-1.1;-0.205289;-0.081;0.007
0.418222;-1.1;-0.232946;-0.092;0.001
0.454641;-1.1;-0.269982;-0.115;-0.013
0.482355;-1.1;-0.276151;-0.136;-0.031
0.517564;-1.1;-0.27975;-0.154;-0.052
0.545849;-1.1;-0.271564;-0.169;-0.075
0.577975;-1.1;-0.268738;-0.18;-0.1
0.611055;-1.1;-0.260112;-0.186;-0.125
0.642122;-1.1;-0.243743;-0.189;-0.151
0.674647;-1.1;-0.227884;-0.187;-0.19
0.705978;-1.1;-0.152072;-0.187;-0.19
0.737531;-1.1;-0.231898;-0.182;-0.214
0.77277;-1.1;-0.33151;-0.174;-0.239
0.801629;-1.1;-0.360287;-0.163;-0.263
0.833431;-1.1;-0.364008;-0.149;-0.285
0.866317;-1.1;-0.354564;-0.131;-0.307
0.898474;-1.1;-0.319246;-0.099;-0.341
0.935607;-1.1;-0.299887;-0.088;-0.352
0.961816;-1.1;-0.314513;-0.068;-0.375
0.994555;-1.1;-0.366571;-0.047;-0.398
1.02601;-1.1;-0.429666;-0.024;-0.424
1.05818;1;-0.492061;0.003;-0.451
1.09181;1;-0.529134;0.032;-0.476
1.12154;1;-0.514947;0.062;-0.496
1.15498;1;-0.358285;0.095;-0.521
1.18573;1;-0.284785;0.103;-0.528
1.21818;1;0.296222;0.115;-0.543
1.25347;1;0.243622;0.12;-0.558
1.28223;1;0.235931;0.12;-0.576
1.31482;1;0.265351;0.117;-0.604
1.34571;1;0.265351;0.116;-0.614
1.37804;1;0.272257;0.114;-0.634
1.41592;1;0.313459;0.113;-0.659
1.44197;1;0.375746;0.111;-0.688
1.47858;1;0.425826;0.107;-0.72
1.50616;1;0.466894;0.099;-0.754
1.53754;1;0.105541;0.087;-0.788
1.57236;1;0.0449638;0.065;-0.831
1.60212;1;0.0675828;0.056;-0.844
1.63814;1;0.0828018;0.038;-0.865
1.6659;1;0.111254;0.019;-0.882
1.69836;1;0.180343;-0.002;-0.895
1.73158;1;0.23627;-0.024;-0.903
1.76207;1;0.264467;-0.047;-0.908
1.79877;1;0.279666;-0.07;-0.91
1.82581;1;0.283399;-0.092;-0.907
1.8582;1;0.27006;-0.11;-0.901
1.89145;1;0.243722;-0.126;-0.892
1.92529;1;0.238537;-0.139;-0.88
1.95509;1;0.261936;-0.163;-0.861
1.9865;1;0.306926;-0.183;-0.847
2.01814;1;0.330287;-0.194;-0.84
2.05232;1;0.438999;-0.219;-0.828
2.08168;1;0.558708;-0.246;-0.82
2.11418;1;0.680713;-0.275;-0.816
2.14561;1;0.794369;-0.304;-0.813
2.17845;1;0.907489;-0.334;-0.81
2.21336;1;0.930361;-0.364;-0.803
2.24226;1;0.952619;-0.394;-0.792
2.27474;1;0.971314;-0.434;-0.766
2.3059;1;0.978868;-0.446;-0.756
2.33847;1;0.995651;-0.468;-0.732
2.37354;1;1.00807;-0.487;-0.705
2.40164;1;1.01075;-0.501;-0.676
2.43463;1;0.990046;-0.514;-0.63
2.46621;1;0.938335;-0.517;-0.599
2.49795;1;0.897159;-0.517;-0.584
2.53412;1;0.786784;-0.513;-0.556
2.56154;1;0.665145;-0.506;-0.532
2.59425;1;0.481718;-0.497;-0.512
2.62551;1;0.254929;-0.487;-0.497
2.65821;-1.1;0.108708;-0.476;-0.486
2.69884;-1.1;0.0570763;-0.465;-0.479
2.72207;-1.1;-0.0488736;-0.456;-0.476
2.75484;-1.1;-0.300131;-0.449;-0.469
2.7861;-1.1;-0.351025;-0.441;-0.458
2.81819;-1.1;-0.392503;-0.43;-0.444
2.85413;-1.1;-0.451195;-0.415;-0.432
2.88161;-1.1;-0.524524;-0.397;-0.424
2.9148;-1.1;-0.575531;-0.378;-0.419
2.94619;-1.1;0.626148;-0.357;-0.412
2.97772;-1.1;0.682331;-0.331;-0.404
3.01184;-1.1;0.761736;-0.3;-0.401
3.042;-1.1;0.866495;-0.266;-0.401
3.07906;1;0.977947;-0.23;-0.408
3.10568;1;0.977839;-0.193;-0.42
3.1376;1;0.795031;-0.156;-0.432
3.17267;1;0.542504;-0.119;-0.445
3.20236;1;0.530158;-0.083;-0.454
3.23532;1;0.511685;-0.028;-0.457
3.26562;-1.1;0.508828;-0.01;-0.456
3.298;-1.1;0.506843;0.026;-0.448
3.33246;-1.1;0.50747;0.061;-0.439
3.36176;-1.1;0.489762;0.095;-0.434
3.39416;-1.1;0.46873;0.128;-0.432
3.42615;-1.1;0.454356;0.16;-0.436
3.45753;-1.1;0.440406;0.19;-0.444
3.4919;-1.1;0.66595;0.232;-0.468
3.52178;-1.1;0.661379;0.244;-0.478
3.5554;-1.1;0.900354;0.277;-0.515
3.58585;-1.1;0.896555;0.285;-0.528
3.61787;-1.1;1.01151;0.299;-0.557
3.65488;-1.1;1.00567;0.307;-0.588
3.68169;-1.1;1.00056;0.31;-0.619
3.7151;-1.1;0.962249;0.307;-0.662
3.74551;-1.1;0.938637;0.305;-0.675
3.77821;-1.1;0.893962;0.299;-0.699
3.81487;-1.1;0.833267;0.29;-0.72
3.84181;-1.1;0.764385;0.279;-0.738
3.87456;-1.1;0.664341;0.26;-0.757
3.90595;-1.1;0.637204;0.252;-0.762
3.93824;-1.1;0.623356;0.234;-0.773
3.97252;-1.1;0.640167;0.209;-0.797
4.00217;-1.1;0.651258;0.203;-0.806
4.03472;-1.1;0.465979;0.188;-0.836
4.0681;1;0.379356;0.186;-0.846
4.09824;1;0.292822;0.184;-0.867
4.13156;1;0.272593;0.183;-0.885
4.16673;1;0.231303;0.177;-0.899
4.19636;1;0.180297;0.159;-0.917
4.2257;1;0.22076;0.151;-0.924
4.25798;-1.1;0.258953;0.138;-0.941
4.30039;-1.1;0.302979;0.127;-0.962
4.32224;-1.1;0.325269;0.117;-0.983
4.35525;-1.1;0.232867;0.098;-1.008
4.38565;-1.1;0.216773;0.091;-1.016
4.41751;-1.1;0.139863;0.074;-1.029
4.45973;1;0.109545;0.056;-1.039
4.48159;1;0.0493986;0.046;-1.042
4.51374;1;0.00798353;0.015;-1.047
4.5458;1;0.0677757;-0.004;-1.052
4.57784;1;0.0918595;-0.02;-1.059
4.61856;1;0.0926299;-0.033;-1.069
4.64223;1;0.0848757;-0.042;-1.078
4.67515;-1.1;0.0571586;-0.047;-1.089
4.70579;-1.1;0.0600853;-0.047;-1.091
4.73747;-1.1;-0.0560893;-0.051;-1.094
4.77618;-1.1;-0.0943587;-0.059;-1.097
4.80202;-1.1;-0.160091;-0.073;-1.1
4.83772;-1.1;-0.214229;-0.088;-1.107
4.86623;-1.1;-0.228611;-0.107;-1.124
4.89812;-1.1;-0.225365;-0.113;-1.131
4.93651;-1.1;-0.212043;-0.123;-1.145
4.96148;-1.1;-0.220247;-0.132;-1.16
5.00031;-1.1;-0.248579;-0.144;-1.178
5.0262;-1.1;-0.303727;-0.158;-1.199
5.05794;1;-0.377028;-0.174;-1.225
5.10137;1;-0.454269;-0.194;-1.254
5.12214;1;-0.591919;-0.216;-1.281
5.15576;1;-0.774941;-0.245;-1.312
5.18555;1;-0.714682;-0.253;-1.321
5.21848;1;-0.701189;-0.274;-1.34
5.25181;1;-0.531123;-0.279;-1.345
5.2877;1;-0.251547;-0.287;-1.352
5.31606;1;0.208303;-0.293;-1.361
5.3457;1;0.0704414;-0.295;-1.363
5.37852;1;0.154215;-0.3;-1.372
5.41704;1;0.167425;-0.302;-1.377
5.44213;1;0.183557;-0.307;-1.389
5.47713;1;0.263828;-0.316;-1.415
5.50616;1;0.275029;-0.319;-1.425
5.53765;1;0.379843;-0.321;-1.446
5.57326;1;0.578681;-0.316;-1.479
5.60147;1;0.602075;-0.313;-1.49
5.63546;1;0.720572;-0.296;-1.524
5.66626;1;0.740552;-0.288;-1.536
5.69819;1;0.739057;-0.269;-1.56
5.73185;1;0.749228;-0.252;-1.585
5.76218;1;0.713606;-0.238;-1.61
5.80081;1;0.596164;-0.23;-1.633
5.82587;1;0.49235;-0.226;-1.655
5.85749;1;0.362575;-0.226;-1.672
5.89608;1;0.314435;-0.229;-1.686
5.92174;1;0.535847;-0.233;-1.697
5.95524;1;0.43334;-0.242;-1.714
5.98577;1;0.420917;-0.246;-1.72
6.01758;1;0.422537;-0.257;-1.732
6.05182;-1.1;0.477263;-0.272;-1.746
6.0819;-1.1;0.457661;-0.289;-1.761
6.12069;-1.1;0.544713;-0.305;-1.777
6.14612;-1.1;0.581581;-0.316;-1.793
6.17869;-1.1;0.564693;-0.322;-1.807
6.21598;-1.1;0.416197;-0.323;-1.818
6.24179;-1.1;0.155635;-0.32;-1.826
6.27539;1;-0.0566588;-0.309;-1.833
6.3078;1;-0.163499;-0.304;-1.833
6.33762;1;-0.0770612;-0.292;-1.836
6.37282;1;-0.0197645;-0.273;-1.847
6.40159;1;-0.0214021;-0.267;-1.853
6.4355;1;-0.00653091;-0.252;-1.876
6.46603;-1.1;0.0363338;-0.25;-1.885
6.49773;-1.1;0.0879159;-0.25;-1.903
6.53189;-1.1;0.573168;-0.251;-1.922
6.56162;-1.1;0.580123;-0.246;-1.94
6.60047;-1.1;0.589368;-0.238;-1.958
6.62585;-1.1;0.609072;-0.227;-1.976
6.65752;1;0.648951;-0.211;-1.995
6.70114;1;0.648171;-0.191;-2.014
6.72223;1;0.550777;-0.172;-2.033
6.75598;1;0.285891;-0.153;-2.054
6.78581;1;0.25039;-0.15;-2.061
6.81765;1;0.186764;-0.147;-2.072
6.86092;-1.1;0.158281;-0.149;-2.083
6.88199;-1.1;0.0989386;-0.154;-2.095
6.91639;-1.1;0.151225;-0.164;-2.116
6.94616;-1.1;0.148137;-0.165;-2.122
6.97797;-1.1;0.102692;-0.164;-2.133
7.02101;-1.1;0.0518232;-0.159;-2.141
7.0421;-1.1;-0.00567339;-0.15;-2.145
7.07567;1;-0.0687664;-0.132;-2.144
7.10636;1;-0.0787744;-0.118;-2.141
7.1414;1;-0.0551673;-0.113;-2.141
7.17424;1;-0.0230905;-0.104;-2.142
7.20181;1;0.00158793;-0.098;-2.146
7.23509;1;0.0234741;-0.096;-2.15
7.26584;-1.1;0.0547198;-0.098;-2.156
7.29818;-1.1;0.0788697;-0.103;-2.161
7.3419;-1.1;0.0728144;-0.104;-2.164
7.36151;-1.1;0.0683902;-0.1;-2.169
7.3966;-1.1;0.153332;-0.087;-2.182
7.42569;-1.1;0.17837;-0.083;-2.188
7.45806;1;0.207003;-0.079;-2.203
7.50186;1;0.212482;-0.078;-2.218
7.52152;1;0.211204;-0.081;-2.233
7.55575;1;0.148353;-0.082;-2.247
7.58585;1;0.117439;-0.08;-2.249
7.61805;1;0.113198;-0.072;-2.254
7.65303;1;0.170904;-0.056;-2.265
7.68189;1;0.195108;-0.05;-2.271
7.72052;1;0.22022;-0.042;-2.285
7.74624;1;0.242096;-0.037;-2.303
7.77783;1;0.262234;-0.036;-2.322
7.81627;1;0.267173;-0.04;-2.341
7.84242;1;0.271634;-0.048;-2.359
7.87514;1;0.27061;-0.067;-2.381
7.9059;1;0.26624;-0.074;-2.387
7.93804;1;0.28514;-0.09;-2.402
7.97192;1;0.326524;-0.112;-2.414
8.0019;1;0.365335;-0.138;-2.423
8.04115;1;0.395007;-0.167;-2.427
8.06558;-1.1;0.413082;-0.197;-2.425
8.09804;-1.1;0.516319;-0.225;-2.417
8.14202;-1.1;0.605371;-0.251;-2.407
8.16183;-1.1;0.701166;-0.278;-2.397
8.19603;-1.1;0.910357;-0.321;-2.383
8.22607;-1.1;0.923975;-0.337;-2.38
8.25814;-1.1;0.962254;-0.371;-2.376
8.29551;-1.1;1.01961;-0.408;-2.374
8.3215;-1.1;1.07679;-0.445;-2.375
8.36192;-1.1;1.1437;-0.485;-2.374
8.38596;-1.1;1.21638;-0.528;-2.375
8.41924;-1.1;1.28152;-0.573;-2.381
8.45337;-1.1;1.40514;-0.644;-2.401
8.48206;-1.1;1.44083;-0.666;-2.411
8.52022;-1.1;1.49773;-0.71;-2.435
8.54556;-1.1;1.53065;-0.75;-2.463
8.5781;-1.1;1.52795;-0.785;-2.495
8.6171;-1.1;1.49055;-0.814;-2.528
8.64165;-1.1;1.42716;-0.836;-2.562
8.67533;-1.1;1.28359;-0.86;-2.609
8.70644;-1.1;1.16057;-0.87;-2.637
8.73844;-1.1;1.09416;-0.873;-2.649
8.78266;-1.1;0.945691;-0.877;-2.67
8.80206;-1.1;0.865991;-0.879;-2.678
8.83537;-1.1;0.53994;-0.88;-2.7
8.86599;-1.1;0.461014;-0.881;-2.702
8.89853;-1.1;0.252732;-0.884;-2.7
8.93326;-1.1;0.189016;-0.889;-2.695
8.96222;-1.1;0.186058;-0.893;-2.691
8.99976;-1.1;0.230657;-0.905;-2.683
9.0262;-1.1;0.341795;-0.922;-2.674
9.05763;1;0.476126;-0.943;-2.667
9.09742;1;0.582904;-0.965;-2.663
9.12201;1;0.632817;-0.985;-2.662
9.16232;1;0.632231;-1.001;-2.661
9.18597;1;0.569767;-1.013;-2.66
9.21824;1;0.475451;-1.022;-2.658
9.25408;1;0.35414;-1.026;-2.656
9.28157;1;0.251228;-1.027;-2.654
9.31555;1;0.168684;-1.023;-2.647
9.34565;1;0.164331;-1.021;-2.643
9.37807;1;0.194723;-1.015;-2.633
9.41335;1;0.328858;-0.997;-2.618
9.44247;1;0.438124;-0.979;-2.611
9.48203;-1.1;0.483905;-0.969;-2.609
9.50637;-1.1;0.572393;-0.946;-2.61
9.53816;-1.1;0.650789;-0.922;-2.614
9.57214;-1.1;0.703403;-0.898;-2.618
9.60201;-1.1;0.737754;-0.874;-2.622
9.63648;-1.1;0.799059;-0.832;-2.624
9.66603;-1.1;0.818974;-0.817;-2.623
9.70296;-1.1;0.857244;-0.788;-2.616
9.73409;-1.1;0.879669;-0.762;-2.607
9.76155;-1.1;0.881455;-0.738;-2.596
9.80299;-1.1;0.842864;-0.719;-2.584
9.82573;-1.1;0.78224;-0.703;-2.571
9.85852;-1.1;0.683723;-0.687;-2.547
9.89364;-1.1;0.63426;-0.68;-2.529
9.92244;-1.1;0.63426;-0.68;-2.529
9.95596;-1.1;0.688618;-0.661;-2.482
9.98555;-1.1;0.728974;-0.652;-2.469
10.018;-1.1;0.824683;-0.631;-2.444
10.0535;1;0.996661;-0.588;-2.409
10.0832;1;0.996661;-0.588;-2.409
10.1141;1;1.12613;-0.536;-2.383
10.1465;1;1.20096;-0.487;-2.35
10.1782;1;1.21594;-0.472;-2.337
10.2137;1;1.27589;-0.42;-2.297
10.2447;1;1.27589;-0.42;-2.297
10.2745;-1.1;1.33277;-0.362;-2.265
10.3055;-1.1;1.35666;-0.322;-2.248
10.3385;-1.1;1.34169;-0.267;-2.22
10.3735;-1.1;1.29385;-0.235;-2.201
10.4024;-1.1;1.23569;-0.205;-2.182
10.4355;-1.1;0.87584;-0.179;-2.162
10.466;1;0.703909;-0.168;-2.151
10.4974;1;0.43364;-0.148;-2.128
10.5371;1;0.422979;-0.127;-2.106
10.5624;1;0.43279;-0.103;-2.085
10.6002;1;0.464975;-0.075;-2.064
10.6264;1;0.503654;-0.044;-2.043
10.6622;-1.1;0.538202;-0.012;-2.019
10.6938;-1.1;0.591398;0.036;-1.976
10.7224;-1.1;0.585102;0.063;-1.945
10.7535;-1.1;0.560648;0.075;-1.932
10.7863;-1.1;0.486584;0.098;-1.909
10.8246;-1.1;0.413886;0.119;-1.892
10.8544;1;0.362459;0.141;-1.88
10.8824;1;0.355741;0.179;-1.871
10.9137;1;0.363171;0.192;-1.869
10.9457;1;0.447126;0.216;-1.863
10.9781;1;0.508222;0.236;-1.854
11.0169;1;0.56207;0.254;-1.843
11.0424;1;0.603502;0.268;-1.83
11.0822;1;0.627829;0.277;-1.817
11.1056;1;0.566282;0.281;-1.803
11.1385;1;0.519849;0.282;-1.778
11.175;1;0.525615;0.281;-1.768
11.202;1;0.55263;0.276;-1.747
11.236;1;0.653033;0.273;-1.71
11.2663;-1.1;0.722914;0.276;-1.683
11.2975;-1.1;0.759576;0.279;-1.67
11.3371;-1.1;0.801262;0.287;-1.645
11.3615;-1.1;0.772444;0.291;-1.626
11.3951;-1.1;0.696754;0.293;-1.612
11.4259;-1.1;0.594162;0.29;-1.6
11.4578;-1.1;0.481063;0.283;-1.592
11.4961;-1.1;0.413453;0.272;-1.585
11.5222;-1.1;0.390829;0.26;-1.58
11.5617;-1.1;0.394026;0.249;-1.572
11.586;-1.1;0.414087;0.239;-1.562
11.6178;-1.1;0.446688;0.23;-1.548
11.6538;1;0.508618;0.218;-1.522
11.6815;1;0.531043;0.215;-1.512
11.7213;1;0.611234;0.207;-1.489
11.746;1;0.67314;0.202;-1.465
11.7823;1;0.674815;0.2;-1.438
11.8142;1;0.753193;0.204;-1.394
11.8417;1;0.77044;0.206;-1.379
11.8736;1;0.837646;0.215;-1.346
11.9099;1;0.889578;0.228;-1.314
11.9378;1;1.03907;0.247;-1.284
11.9744;1;1.09065;0.272;-1.256
12.0021;1;1.13248;0.301;-1.232
12.0334;1;1.16478;0.335;-1.212
12.0663;-1.1;1.21006;0.391;-1.192
12.0976;-1.1;1.21831;0.411;-1.188
12.137;-1.1;1.21191;0.446;-1.18
12.1615;-1.1;1.16676;0.477;-1.174
12.1935;-1.1;1.06733;0.502;-1.167
12.2256;-1.1;0.946674;0.523;-1.159
12.2654;-1.1;0.808543;0.539;-1.149
12.2948;-1.1;0.701888;0.552;-1.136
12.3216;-1.1;0.654271;0.566;-1.119
12.3536;-1.1;0.674178;0.586;-1.101
12.3857;-1.1;0.757016;0.612;-1.083
12.4185;-1.1;0.921323;0.66;-1.063
12.4572;1;0.986715;0.679;-1.059
12.4818;1;1.08096;0.717;-1.054
12.5247;1;1.14892;0.756;-1.054
12.5455;1;1.16165;0.791;-1.055
12.5776;1;1.11705;0.82;-1.053
12.6166;1;1.02366;0.845;-1.05
12.6422;1;0.914734;0.867;-1.042
12.6763;-1.1;0.782925;0.897;-1.024
12.7065;-1.1;0.767459;0.907;-1.016
12.7403;-1.1;0.727085;0.922;-1.001
12.773;-1.1;0.662093;0.936;-0.979
12.8018;-1.1;0.628372;0.938;-0.973
12.8334;-1.1;0.548206;0.94;-0.961
12.8665;1;0.461357;0.936;-0.94
12.9047;1;0.456666;0.933;-0.932
12.9348;1;0.458577;0.927;-0.916
12.9618;1;0.469918;0.918;-0.905
13.0048;1;0.480274;0.905;-0.899
13.0256;1;0.502519;0.888;-0.894
13.058;1;0.525197;0.869;-0.885
13.0937;1;0.601594;0.844;-0.863
13.1215;1;0.630085;0.836;-0.855
13.1536;1;0.682384;0.819;-0.839
13.1863;1;0.712155;0.802;-0.823
13.2207;1;0.737743;0.783;-0.806
13.253;1;0.799137;0.747;-0.783
13.2815;1;0.826344;0.733;-0.777
13.3136;1;0.866821;0.706;-0.766
13.3457;1;0.902076;0.679;-0.755
13.3848;1;0.916422;0.651;-0.745
13.4143;1;0.959136;0.618;-0.734
13.4422;1;1.01543;0.582;-0.723
13.4759;1;1.15016;0.523;-0.7
13.5055;1;1.20543;0.503;-0.689
13.5456;1;1.29205;0.465;-0.666
13.5748;1;1.34778;0.427;-0.643
13.6019;1;1.36201;0.392;-0.62
13.6335;1;1.33883;0.361;-0.596
13.6659;1;1.27517;0.335;-0.571
13.6977;1;1.24557;0.323;-0.558
13.7334;1;1.17875;0.274;-0.499
13.7624;1;1.20142;0.245;-0.468
13.7935;1;1.22568;0.229;-0.453
13.826;1;1.15903;0.194;-0.426
13.8583;1;0.915264;0.156;-0.403
13.8986;1;0.609926;0.117;-0.384
13.9219;1;0.587734;0.079;-0.368
13.9642;1;0.579078;0.04;-0.352
13.9861;1;0.579078;0.002;-0.336
14.0186;1;0.567555;-0.055;-0.314
14.0537;-1.1;0.57398;-0.094;-0.299
14.0843;-1.1;0.57398;-0.094;-0.299
14.1141;-1.1;0.594278;-0.152;-0.272
14.1463;-1.1;0.677642;-0.2;-0.245
14.185;-1.1;0.634177;-0.213;-0.238
14.2144;-1.1;0.671827;-0.237;-0.226
14.2419;-1.1;0.688391;-0.257;-0.218
14.2864;1;0.686293;-0.275;-0.217
14.3059;1;0.690584;-0.293;-0.219
14.3385;1;0.60318;-0.309;-0.218
14.3736;1;0.493091;-0.325;-0.209
14.4016;1;0.461263;-0.327;-0.205
14.4407;1;0.336182;-0.328;-0.196
14.4655;1;0.211418;-0.323;-0.186
14.4976;1;0.162849;-0.313;-0.179
14.5372;1;0.169918;-0.303;-0.172
14.5614;1;0.172036;-0.292;-0.166
14.6055;1;0.190521;-0.278;-0.161
14.6262;1;0.231493;-0.26;-0.157
14.6588;1;0.274544;-0.239;-0.155
14.7003;1;0.314538;-0.215;-0.152
14.7215;1;0.356794;-0.177;-0.148
14.7537;1;0.258383;-0.152;-0.15
14.7859;1;0.282121;-0.124;-0.155
14.818;1;0.317486;-0.093;-0.161
14.8536;1;0.368452;-0.04;-0.161
14.8815;1;0.383772;-0.021;-0.158
14.9162;1;0.36246;0.03;-0.147
14.9461;1;0.33384;0.044;-0.144
14.9775;1;0.288383;0.07;-0.136
15.0137;1;0.22159;0.099;-0.123
15.0448;1;0.22159;0.099;-0.123
15.0738;-1.1;0.158442;0.115;-0.107
15.1064;-1.1;0.148968;0.128;-0.09
15.1378;-1.1;0.17792;0.134;-0.082
15.186;-1.1;0.210386;0.145;-0.065
15.2046;-1.1;0.219071;0.152;-0.045
15.2389;-1.1;0.219443;0.154;-0.025
15.2658;-1.1;0.215624;0.153;-0.004
15.2981;-1.1;0.214795;0.147;0.016
15.3342;-1.1;0.215691;0.136;0.045
15.3621;-1.1;0.214686;0.131;0.054
15.3935;-1.1;0.222174;0.119;0.072
15.4261;-1.1;0.24198;0.104;0.09
15.4581;1;0.260672;0.085;0.107
15.4939;1;0.285385;0.051;0.13
15.5243;1;0.285385;0.051;0.13
15.5538;1;0.284349;0.013;0.145
15.5857;1;0.301797;-0.016;0.152
15.6257;1;0.322646;-0.047;0.155
15.6545;1;0.327054;-0.078;0.153
15.6816;1;0.338906;-0.11;0.146
15.7135;1;0.31888;-0.138;0.137
15.7468;1;0.297519;-0.15;0.131
15.7774;1;0.262705;-0.182;0.111
15.8133;1;0.16219;-0.198;0.094
15.8425;1;0.249375;-0.211;0.074
15.8735;-1.1;0.243394;-0.216;0.064
15.9066;-1.1;0.324677;-0.22;0.053
15.9383;-1.1;0.325841;-0.229;0.019
15.9826;-1.1;0.275158;-0.23;0.002
16.0018;-1.1;0.209786;-0.228;-0.011
16.034;-1.1;0.172653;-0.222;-0.021
16.066;1;0.145492;-0.215;-0.027
16.0978;1;0.179233;-0.199;-0.031
16.1397;1;0.0928343;-0.192;-0.033
16.1617;1;0.044433;-0.19;-0.034
16.1941;1;0.0322936;-0.189;-0.031
16.2257;1;0.0594488;-0.191;-0.025
16.2583;1;0.0990368;-0.192;-0.014
16.2976;1;0.139876;-0.19;0
16.3219;1;0.142274;-0.184;0.012
16.3539;1;0.1218;-0.177;0.02
16.386;1;0.0980771;-0.169;0.024
16.4264;1;0.0841882;-0.161;0.024
16.4549;1;0.0778549;-0.155;0.02
16.4817;1;0.0811336;-0.151;0.013
16.5273;1;0.0890811;-0.149;0.004
16.547;1;0.0850431;-0.148;-0.004
16.5784;1;0.113115;-0.15;-0.016
16.6155;1;0.145685;-0.155;-0.03
16.6423;1;0.187163;-0.162;-0.048
16.6758;-1.1;0.223677;-0.172;-0.068
16.7059;-1.1;0.26398;-0.184;-0.092
16.738;-1.1;0.253334;-0.197;-0.111
16.7741;-1.1;0.232862;-0.214;-0.125
16.802;-1.1;0.234669;-0.224;-0.131
16.8341;-1.1;0.333181;-0.247;-0.142
16.8655;1;0.377041;-0.274;-0.152
16.9064;1;0.429864;-0.304;-0.166
16.9347;1;0.436059;-0.329;-0.182
16.9617;1;0.374156;-0.35;-0.194
16.9938;1;0.392536;-0.366;-0.202
17.027;1;0.345269;-0.373;-0.205
17.0581;1;0.369568;-0.388;-0.21
17.0953;1;0.338048;-0.395;-0.209
17.1221;1;0.324155;-0.401;-0.204
17.1592;1;0.288087;-0.411;-0.201
17.1855;1;0.296667;-0.423;-0.201
17.2253;1;0.330021;-0.435;-0.205
17.2544;1;0.372039;-0.446;-0.213
17.282;1;0.400869;-0.454;-0.224
17.3136;1;0.428992;-0.46;-0.238
17.3456;1;0.455747;-0.468;-0.253
17.3781;1;0.518347;-0.476;-0.273
17.4137;1;0.640746;-0.481;-0.311
17.4421;1;0.678403;-0.48;-0.324
17.482;-1.1;0.77687;-0.473;-0.353
17.5064;-1.1;0.846324;-0.463;-0.38
17.5428;-1.1;0.901893;-0.455;-0.41
17.5746;-1.1;0.969637;-0.446;-0.459
17.6019;-1.1;0.986464;-0.441;-0.476
17.6418;-1.1;1.03778;-0.427;-0.51
17.6664;-1.1;1.10945;-0.398;-0.557
17.707;-1.1;1.11574;-0.387;-0.57
17.7345;-1.1;1.13423;-0.365;-0.599
17.7621;-1.1;1.15589;-0.343;-0.631
17.8016;-1.1;1.192;-0.316;-0.663
17.8261;-1.1;1.24681;-0.282;-0.693
17.8669;1;1.32892;-0.244;-0.72
17.8953;1;1.38875;-0.203;-0.741
17.9218;1;1.12555;-0.16;-0.757
17.9538;1;0.766691;-0.122;-0.773
17.9862;1;0.541078;-0.089;-0.789
18.018;1;0.495655;-0.06;-0.808
18.0549;-1.1;0.472262;-0.035;-0.83
18.0818;-1.1;0.472426;-0.012;-0.856
18.1139;-1.1;0.492811;0.011;-0.884
18.1462;-1.1;0.479486;0.031;-0.91
18.178;-1.1;0.439799;0.047;-0.936
18.2145;-1.1;0.393056;0.063;-0.974
18.2418;-1.1;0.381508;0.067;-0.987
18.2854;1;0.385328;0.071;-1.015
18.3055;1;0.397807;0.071;-1.044
18.3382;1;0.396329;0.071;-1.072
18.3757;1;0.394262;0.077;-1.1
18.4021;1;0.410236;0.086;-1.129
18.4339;1;0.441772;0.098;-1.16
18.4717;-1.1;0.461938;0.105;-1.176
18.4979;-1.1;0.51715;0.123;-1.23
18.5347;-1.1;0.522915;0.13;-1.266
18.5615;-1.1;0.480826;0.136;-1.298
18.6051;-1.1;0.408789;0.14;-1.324
18.6257;-1.1;0.326202;0.145;-1.344
18.6583;1;0.26229;0.151;-1.36
18.6939;1;0.191897;0.164;-1.375
18.7217;1;0.173732;0.167;-1.379
18.7637;1;0.137284;0.171;-1.386
18.7857;1;0.108688;0.169;-1.393
18.8184;1;0.0911597;0.165;-1.397
18.8563;-1.1;0.0844873;0.162;-1.398
18.8815;-1.1;0.0909193;0.153;-1.394
18.9138;-1.1;0.103094;0.149;-1.387
18.9464;-1.1;0.0819215;0.147;-1.381
18.978;-1.1;0.0578094;0.145;-1.381
19.0277;-1.1;0.0588799;0.14;-1.385
19.0424;-1.1;0.0813983;0.137;-1.388
19.0796;-1.1;0.167098;0.12;-1.398
19.1055;-1.1;0.191379;0.106;-1.4
19.1404;-1.1;0.196419;0.092;-1.398
19.1736;-1.1;0.202815;0.073;-1.387
19.2018;-1.1;0.202815;0.068;-1.382
19.2344;-1.1;0.210468;0.06;-1.369
19.2659;1;0.209117;0.056;-1.355
19.3095;1;0.206159;0.056;-1.34
19.3357;1;0.188649;0.058;-1.328
19.3624;1;0.140038;0.058;-1.32
19.3969;1;0.0907257;0.055;-1.316
19.426;1;0.0715317;0.05;-1.315
19.4576;-1.1;0.092772;0.042;-1.314
19.4944;-1.1;0.164496;0.023;-1.309
19.5219;-1.1;0.189606;0.016;-1.306
19.5641;-1.1;0.20696;0.001;-1.301
19.5857;-1.1;0.223406;-0.015;-1.298
19.6183;-1.1;0.253864;-0.035;-1.295
19.6544;1;0.299272;-0.068;-1.296
19.6821;1;0.313964;-0.08;-1.298
19.7142;1;0.324726;-0.103;-1.303
19.7463;1;0.286706;-0.133;-1.303
19.7781;1;0.271949;-0.142;-1.302
19.8244;1;0.24223;-0.166;-1.293
19.8417;1;0.229423;-0.172;-1.289
19.8748;-1.1;0.185841;-0.181;-1.282
19.9061;-1.1;0.134278;-0.186;-1.276
19.938;-1.1;0.0919898;-0.188;-1.271
19.9739;-1.1;0.0791552;-0.197;-1.27
20.0019;-1.1;0.107788;-0.201;-1.271
20.0485;-1.1;0.176241;-0.212;-1.276
20.068;-1.1;0.262979;-0.226;-1.283
20.0983;-1.1;0.3827;-0.243;-1.292
20.1338;-1.1;0.58767;-0.277;-1.308
20.162;-1.1;0.646998;-0.29;-1.313
20.1942;-1.1;0.773475;-0.32;-1.323
20.2259;-1.1;0.885059;-0.353;-1.331
20.2583;-1.1;0.980559;-0.388;-1.335
20.2949;-1.1;1.06836;-0.441;-1.334
20.3224;-1.1;1.10584;-0.478;-1.335
20.3609;-1.1;1.12343;-0.497;-1.336
20.3861;-1.1;1.16196;-0.538;-1.339
20.4175;-1.1;1.23074;-0.583;-1.338
20.4541;1;1.35;-0.652;-1.326
20.4815;1;1.38483;-0.675;-1.319
20.5241;1;1.44075;-0.719;-1.302
20.5458;1;1.45639;-0.762;-1.288
20.5784;1;1.44453;-0.805;-1.277
20.6139;1;1.38088;-0.866;-1.266
20.6464;1;1.38088;-0.866;-1.266
20.6747;-1.1;1.28083;-0.921;-1.261
20.706;-1.1;1.20691;-0.955;-1.261
20.7404;-1.1;1.09646;-0.983;-1.262
20.7739;-1.1;0.911204;-1.016;-1.261
20.8041;-1.1;0.911204;-1.016;-1.261
20.8339;-1.1;0.694965;-1.038;-1.261
20.8664;-1.1;0.535011;-1.047;-1.261
20.8975;-1.1;0.391765;-1.051;-1.26
20.9373;-1.1;0.283421;-1.053;-1.255
20.9618;-1.1;0.242442;-1.052;-1.246
21.0027;-1.1;0.249961;-1.051;-1.233
21.0256;-1.1;0.326734;-1.05;-1.215
21.0679;1;0.448471;-1.052;-1.194
21.095;1;0.537947;-1.058;-1.175
21.1215;1;0.597307;-1.068;-1.158
21.1543;1;0.59173;-1.074;-1.144
21.1885;1;0.569722;-1.077;-1.139
21.2188;1;0.437825;-1.079;-1.127
21.2548;-1.1;0.310156;-1.073;-1.118
21.2817;-1.1;0.290107;-1.069;-1.114
21.3249;-1.1;0.286779;-1.06;-1.106
21.3459;-1.1;0.29073;-1.051;-1.102
21.3776;-1.1;0.300953;-1.043;-1.103
21.4147;-1.1;0.317627;-1.031;-1.112
21.4425;-1.1;0.337269;-1.021;-1.123
21.4894;1;0.360801;-1.015;-1.13
21.5085;1;0.4468;-0.999;-1.143
21.5384;1;0.512736;-0.985;-1.155
21.5746;1;0.543045;-0.972;-1.172
21.6024;1;0.499734;-0.969;-1.183
21.6449;1;0.461323;-0.968;-1.188
21.6657;1;0.398674;-0.97;-1.198
21.6976;1;0.35196;-0.975;-1.207
21.734;1;0.35903;-0.987;-1.223
21.7621;1;0.376527;-0.992;-1.23
21.8096;1;0.444596;-1.004;-1.246
21.8256;1;0.532424;-1.017;-1.264
21.8575;-1.1;0.627648;-1.029;-1.287
21.8944;-1.1;0.746508;-1.039;-1.325
21.9222;-1.1;0.768404;-1.041;-1.338
21.9545;-1.1;0.802392;-1.047;-1.363
21.9856;-1.1;0.798765;-1.055;-1.385
22.018;-1.1;0.754766;-1.065;-1.402
22.0598;1;0.73156;-1.071;-1.41
22.082;1;0.62407;-1.09;-1.425
22.1272;1;0.569559;-1.105;-1.431
22.1459;1;0.538069;-1.122;-1.435
22.184;1;0.546299;-1.141;-1.443
22.2151;1;0.635878;-1.173;-1.462
22.2422;1;0.66822;-1.184;-1.47
22.2744;-1.1;0.762334;-1.205;-1.49
22.3078;-1.1;0.802476;-1.214;-1.502
22.3381;-1.1;0.882721;-1.242;-1.535
22.3856;-1.1;0.896241;-1.265;-1.551
22.4027;-1.1;0.908857;-1.292;-1.563
22.4346;-1.1;0.921057;-1.322;-1.573
22.4656;-1.1;0.95935;-1.356;-1.58
22.4978;-1.1;1.02458;-1.393;-1.583
22.5368;-1.1;1.05656;-1.412;-1.584
22.5619;-1.1;1.13025;-1.468;-1.586
22.5991;-1.1;1.15248;-1.504;-1.59
22.626;-1.1;1.16189;-1.54;-1.598
22.6575;-1.1;1.15707;-1.575;-1.611
22.6968;-1.1;1.15611;-1.591;-1.619
22.7224;-1.1;1.14099;-1.637;-1.647
22.7684;-1.1;1.13422;-1.667;-1.666
22.7857;-1.1;1.11584;-1.695;-1.687
22.8177;-1.1;1.11448;-1.721;-1.712
22.8577;1;1.11967;-1.735;-1.725
22.8818;1;1.17898;-1.778;-1.769
22.9146;1;1.24497;-1.812;-1.798
22.9464;1;1.31098;-1.848;-1.825
22.9776;1;1.34077;-1.879;-1.853
23.022;1;1.32668;-1.919;-1.897
23.0421;1;1.29802;-1.93;-1.911
23.0745;1;1.21082;-1.949;-1.939
23.1057;1;1.12927;-1.964;-1.966
23.1376;1;1.04829;-1.978;-1.991
23.1752;1;0.994184;-1.999;-2.036
23.202;1;0.9999;-2.005;-2.053
23.2491;1;1.04163;-2.013;-2.09
23.2666;-1.1;1.10819;-2.016;-2.129
23.2981;-1.1;1.17647;-2.012;-2.169
23.3451;-1.1;1.20691;-2.006;-2.207
23.3614;-1.1;1.18384;-2.001;-2.24
23.3953;-1.1;1.1199;-1.999;-2.269
23.4261;-1.1;1.0226;-2;-2.295
23.4579;-1.1;0.914037;-2.006;-2.319
23.495;-1.1;0.854341;-2.019;-2.36
23.5216;-1.1;0.863783;-2.023;-2.376
23.5715;-1.1;0.89556;-2.029;-2.407
23.5892;-1.1;0.922401;-2.031;-2.436
23.6179;-1.1;0.941411;-2.03;-2.464
23.6572;1;0.884415;-2.023;-2.502
23.6821;1;0.855277;-2.018;-2.513
23.7148;1;0.803574;-2.009;-2.534
23.7458;1;0.747265;-2.003;-2.553
23.7893;1;0.677327;-2.001;-2.57
23.8167;1;0.553237;-2.006;-2.589
23.8421;1;0.512447;-2.009;-2.594
23.881;1;0.432644;-2.017;-2.6
23.9064;1;0.332934;-2.029;-2.6
23.9476;1;0.313292;-2.032;-2.597
23.9758;1;0.290388;-2.037;-2.583
24.0018;1;0.300209;-2.036;-2.576
24.0491;1;0.340428;-2.03;-2.563
24.0676;1;0.407781;-2.019;-2.549
24.0978;1;0.484538;-2.002;-2.538
24.137;1;0.574179;-1.98;-2.531
24.1625;1;0.676605;-1.944;-2.53
24.2071;1;0.709517;-1.931;-2.533
24.2264;1;0.747799;-1.908;-2.542
24.2583;-1.1;0.774495;-1.887;-2.557
24.2976;-1.1;0.774169;-1.872;-2.575
24.3219;-1.1;0.770015;-1.857;-2.593
24.3568;-1.1;0.78165;-1.838;-2.613
24.3856;-1.1;0.801804;-1.822;-2.636
24.4198;-1.1;0.870569;-1.803;-2.678
24.4543;-1.1;0.913427;-1.797;-2.707
24.4823;-1.1;0.930555;-1.795;-2.737
24.5237;-1.1;0.937583;-1.796;-2.766
24.5458;-1.1;0.93252;-1.797;-2.78
24.5775;-1.1;0.91092;-1.801;-2.808
24.6167;-1.1;0.91772;-1.804;-2.823
24.6422;-1.1;0.910235;-1.818;-2.865
24.6746;1;0.913666;-1.832;-2.891
24.7064;1;0.944106;-1.85;-2.918
24.7415;1;0.952925;-1.868;-2.943
24.7811;1;0.935699;-1.883;-2.965
24.8015;1;0.883492;-1.895;-2.984
24.8368;1;0.790632;-1.905;-2.999
24.8655;1;0.661287;-1.913;-3.009
24.9006;1;0.461861;-1.924;-3.016
24.9354;1;0.365449;-1.932;-3.019
24.9618;1;0.328568;-1.936;-3.02
25.0102;1;0.294704;-1.944;-3.026
25.0284;1;0.304525;-1.952;-3.035
25.0582;1;0.354602;-1.96;-3.049
25.095;1;0.477981;-1.972;-3.077
25.1216;1;0.530835;-1.977;-3.088
25.1546;1;0.645717;-1.987;-3.114
25.1861;1;0.765646;-2;-3.142
25.2241;1;0.882375;-2.019;-3.171
25.2563;1;1.02286;-2.057;-3.209
25.2816;1;1.05531;-2.072;-3.22
25.3213;1;1.10777;-2.104;-3.238
25.3464;1;1.08133;-2.145;-3.26
25.378;1;1.05979;-2.158;-3.265
25.4166;1;1.01996;-2.17;-3.269
25.4423;1;0.860583;-2.202;-3.273
25.4878;-1.1;0.741274;-2.219;-3.27
25.5054;-1.1;0.617121;-2.23;-3.264
25.5375;-1.1;0.516304;-2.239;-3.256
25.5774;-1.1;0.444835;-2.25;-3.251
25.6023;-1.1;0.420328;-2.265;-3.247
25.6353;-1.1;0.450293;-2.284;-3.244
25.6656;-1.1;0.523641;-2.306;-3.243
25.7096;-1.1;0.626182;-2.333;-3.243
25.7365;-1.1;0.773777;-2.376;-3.246
25.7625;-1.1;0.852421;-2.406;-3.252
25.7948;-1.1;0.895678;-2.422;-3.255
25.8309;-1.1;0.928754;-2.438;-3.26
25.8593;-1.1;1.0754;-2.512;-3.278
25.895;-1.1;1.15776;-2.554;-3.282
25.9221;-1.1;1.19737;-2.575;-3.282
25.9638;-1.1;1.24977;-2.633;-3.28
25.9859;-1.1;1.24581;-2.651;-3.278
26.018;-1.1;1.20066;-2.684;-3.272
26.0552;1;1.0786;-2.728;-3.26
26.0902;1;1.02755;-2.74;-3.256
26.1164;1;0.922217;-2.761;-3.247
26.1463;1;0.828671;-2.782;-3.241
26.1782;1;0.755438;-2.804;-3.238
26.2178;1;0.699707;-2.825;-3.24
26.2425;1;0.692582;-2.858;-3.25
26.275;1;0.701578;-2.87;-3.255
26.3064;1;0.777805;-2.909;-3.274
26.3378;1;0.810548;-2.922;-3.281
26.377;1;0.833273;-2.935;-3.287
26.4023;1;0.898129;-2.974;-3.307
26.4481;1;0.916549;-3.001;-3.32
26.4654;-1.1;0.956868;-3.032;-3.336
26.501;-1.1;1.01722;-3.064;-3.356
26.5351;-1.1;1.11751;-3.109;-3.393
26.5621;-1.1;1.13634;-3.122;-3.404
26.595;-1.1;1.12765;-3.147;-3.423
26.6263;-1.1;1.00424;-3.179;-3.443
26.6701;1;0.950304;-3.19;-3.448
26.6974;1;0.822834;-3.226;-3.457
26.7225;1;0.78876;-3.252;-3.462
26.7547;1;0.785645;-3.265;-3.464
26.791;1;0.798348;-3.279;-3.465
26.8194;1;0.870072;-3.337;-3.461
26.8669;1;0.885228;-3.352;-3.457
26.883;1;0.938824;-3.385;-3.448
26.9266;1;0.989961;-3.417;-3.435
26.9461;1;1.00999;-3.445;-3.422
26.978;1;0.976892;-3.468;-3.411
27.0221;1;0.846151;-3.495;-3.396
27.0424;1;0.720181;-3.507;-3.385
27.0884;-1.1;0.665721;-3.512;-3.379
27.1067;-1.1;0.550758;-3.517;-3.368
27.1385;-1.1;0.466858;-3.519;-3.357
27.1755;-1.1;0.421193;-3.521;-3.344
27.2025;-1.1;0.426681;-3.528;-3.32
27.2447;-1.1;0.479226;-3.533;-3.301
27.2664;-1.1;0.563843;-3.543;-3.28
27.2978;-1.1;0.612146;-3.55;-3.269
27.3356;-1.1;0.745598;-3.579;-3.239
27.3621;-1.1;0.78572;-3.592;-3.231
27.4078;-1.1;0.904994;-3.636;-3.211
27.426;-1.1;0.938539;-3.652;-3.207
27.4589;-1.1;1.02398;-3.704;-3.203
27.5013;-1.1;1.04594;-3.722;-3.204
27.5216;-1.1;1.07054;-3.756;-3.212
27.5687;-1.1;1.06976;-3.787;-3.221
27.5864;-1.1;1.03319;-3.814;-3.23
27.618;-1.1;0.96413;-3.837;-3.24
27.6618;-1.1;0.813878;-3.865;-3.254
27.6822;-1.1;0.764861;-3.873;-3.259
27.7288;-1.1;0.662423;-3.885;-3.269
27.7463;-1.1;0.585646;-3.894;-3.282
27.7781;-1.1;0.560981;-3.904;-3.3
27.8167;-1.1;0.627235;-3.923;-3.333
27.8421;-1.1;0.661929;-3.931;-3.343
27.8824;1;0.773737;-3.961;-3.369
27.9057;1;0.804698;-3.973;-3.376
27.938;1;0.817335;-3.996;-3.386
27.9779;1;0.807962;-4.006;-3.391
28.0024;1;0.72758;-4.032;-3.4
28.0354;1;0.640883;-4.046;-3.404
28.0656;-1.1;0.531093;-4.057;-3.405
28.098;-1.1;0.41928;-4.064;-3.404
28.138;-1.1;0.360015;-4.066;-3.403
28.1621;-1.1;0.240515;-4.073;-3.405
28.2068;-1.1;0.208854;-4.079;-3.41
28.2255;-1.1;0.221877;-4.085;-3.419
28.2578;-1.1;0.274958;-4.092;-3.43
28.2949;-1.1;0.413023;-4.112;-3.449
28.3219;-1.1;0.452009;-4.119;-3.455
28.3727;-1.1;0.526448;-4.135;-3.466
28.3884;-1.1;0.594246;-4.154;-3.477
28.4175;-1.1;0.670114;-4.177;-3.489
28.4557;-1.1;0.785512;-4.219;-3.507
28.4824;-1.1;0.837347;-4.235;-3.514
28.5157;-1.1;0.951418;-4.268;-3.53
28.5462;-1.1;1.03963;-4.302;-3.543
28.5784;-1.1;1.10583;-4.338;-3.551
28.6157;-1.1;1.19195;-4.398;-3.565
28.6416;-1.1;1.21519;-4.419;-3.572
28.6855;1;1.3168;-4.481;-3.602
28.7056;1;1.34862;-4.5;-3.615
28.7385;1;1.42066;-4.56;-3.65
28.7782;1;1.42066;-4.56;-3.65
28.8023;1;1.45725;-4.624;-3.681
28.8356;1;1.46116;-4.664;-3.705
28.8655;-1.1;1.46366;-4.701;-3.733
28.9115;-1.1;1.46441;-4.735;-3.765
28.9369;-1.1;1.40755;-4.78;-3.809
28.9624;-1.1;1.37363;-4.794;-3.821
28.9951;-1.1;1.29252;-4.822;-3.841
29.0257;-1.1;1.17646;-4.847;-3.858
29.0586;1;0.966814;-4.879;-3.875
29.101;1;0.966814;-4.879;-3.875
29.1238;1;0.786714;-4.908;-3.883
29.1565;1;0.654132;-4.921;-3.886
29.1856;1;0.535552;-4.931;-3.884
29.218;1;0.451891;-4.941;-3.879
29.2562;1;0.41236;-4.961;-3.865
29.2821;1;0.430199;-4.97;-3.861
29.3153;1;0.489936;-4.989;-3.856
29.346;1;0.56855;-5.011;-3.854
29.393;1;0.640781;-5.034;-3.858
29.4193;1;0.681766;-5.056;-3.865
29.442;1;0.703591;-5.075;-3.877
29.4755;1;0.703708;-5.091;-3.891
29.5055;1;0.678341;-5.102;-3.907
29.5379;1;0.656994;-5.112;-3.924
29.5752;1;0.60657;-5.124;-3.948
29.6088;1;0.588738;-5.125;-3.956
29.6362;1;0.550565;-5.125;-3.971
29.6664;-1.1;0.515227;-5.121;-3.984
29.6997;-1.1;0.483309;-5.112;-3.996
29.7435;-1.1;0.456406;-5.104;-4.007
29.7623;-1.1;0.417343;-5.101;-4.016
29.7953;-1.1;0.361988;-5.102;-4.023
29.8259;-1.1;0.319176;-5.108;-4.029
29.8582;1;0.294789;-5.118;-4.033
29.9007;1;0.300879;-5.125;-4.035
29.9234;1;0.399861;-5.152;-4.041
29.9555;1;0.456713;-5.166;-4.046
29.9892;1;0.472068;-5.172;-4.05
30.0186;1;0.44652;-5.181;-4.061
30.0559;-1.1;0.326283;-5.18;-4.071
30.0818;-1.1;0.290978;-5.177;-4.072
30.1153;-1.1;0.244909;-5.17;-4.074
30.1457;-1.1;0.230664;-5.164;-4.079
30.1774;-1.1;0.261545;-5.157;-4.09
30.2208;-1.1;0.295573;-5.153;-4.097
30.2432;-1.1;0.413468;-5.134;-4.115
30.2756;1;0.48793;-5.118;-4.124
30.3058;1;0.539264;-5.101;-4.128
30.3529;1;0.545189;-5.085;-4.13
30.3763;1;0.49538;-5.076;-4.134
30.4015;1;0.439572;-5.07;-4.142
30.4357;1;0.402738;-5.066;-4.154
30.4694;1;0.391601;-5.063;-4.161
30.4997;1;0.454933;-5.041;-4.188
30.5351;1;0.522982;-5.027;-4.202
30.562;1;0.544765;-5.02;-4.208
30.6052;1;0.611051;-4.999;-4.232
30.6257;1;0.640245;-4.991;-4.242
30.6579;1;0.693439;-4.977;-4.264
30.7093;1;0.736956;-4.967;-4.288
30.7226;1;0.79129;-4.96;-4.314
30.7557;1;0.831907;-4.95;-4.34
30.7865;1;0.848749;-4.944;-4.354
30.8176;1;0.931911;-4.923;-4.401
30.856;1;1.06873;-4.907;-4.458
30.8816;1;1.12133;-4.904;-4.478
30.9155;1;1.20178;-4.902;-4.52
30.9527;1;1.26371;-4.901;-4.562
30.9788;1;1.28223;-4.9;-4.602
31.0161;1;1.22414;-4.904;-4.654
31.0424;1;1.19119;-4.907;-4.67
31.0763;-1.1;1.1168;-4.916;-4.7
31.1059;-1.1;1.05279;-4.929;-4.729
31.1394;-1.1;0.989385;-4.945;-4.773
31.1753;-1.1;0.955131;-4.95;-4.8
31.2022;-1.1;0.930658;-4.95;-4.812
31.2357;-1.1;0.869929;-4.947;-4.835
31.2657;1;0.780556;-4.94;-4.853
31.2986;1;0.683618;-4.93;-4.866
31.336;1;0.552191;-4.915;-4.88
31.3618;1;0.513035;-4.91;-4.884
31.406;1;0.492789;-4.891;-4.904
31.426;1;0.506871;-4.884;-4.912
31.4579;1;0.576279;-4.869;-4.931
31.4955;1;0.740062;-4.845;-4.968
31.5224;1;0.793113;-4.837;-4.982
31.5557;1;0.874876;-4.822;-5.009
31.5915;1;0.903589;-4.815;-5.022
31.6176;1;0.97337;-4.794;-5.065
31.6561;-1.1;0.992572;-4.776;-5.111
31.6824;-1.1;0.896983;-4.776;-5.111
31.7324;-1.1;0.689418;-4.776;-5.109
31.7467;-1.1;0.494495;-4.773;-5.108
31.7781;-1.1;0.30485;-4.769;-5.103
31.8156;-1.1;0.198677;-4.762;-5.087
31.842;-1.1;0.247721;-4.761;-5.079
31.8758;1;0.380365;-4.761;-5.059
31.9057;1;0.51191;-4.765;-5.036
31.9519;1;0.606593;-4.772;-5.014
31.9747;1;0.641786;-4.777;-4.997
32.0015;1;0.62242;-4.78;-4.983
32.0375;1;0.539832;-4.78;-4.973
32.0663;1;0.432341;-4.777;-4.965
32.0979;1;0.368266;-4.771;-4.955
32.1361;1;0.361043;-4.761;-4.936
32.1679;1;0.372218;-4.758;-4.93
32.1974;1;0.407648;-4.752;-4.917
32.226;1;0.452536;-4.747;-4.901
32.2636;1;0.495683;-4.742;-4.882
32.2956;1;0.595154;-4.734;-4.848
32.3222;1;0.643024;-4.73;-4.835
32.3605;1;0.719933;-4.723;-4.81
32.3857;1;0.763767;-4.716;-4.786
32.4178;1;0.800995;-4.708;-4.76
32.4572;1;0.911864;-4.687;-4.698
32.4816;1;0.94917;-4.681;-4.68
32.5179;1;1.04385;-4.674;-4.642
32.5466;1;1.09453;-4.668;-4.593
32.5898;1;-0.201082;-4.667;-4.578
32.6176;1;-0.492095;-4.665;-4.542
32.6422;1;-0.472714;-4.666;-4.532
32.6814;1;-0.355242;-4.67;-4.516
32.706;1;-0.279594;-4.678;-4.504
32.7382;1;-0.176166;-4.687;-4.496
32.7764;1;-0.0632459;-4.697;-4.494
32.8025;1;0.0109803;-4.701;-4.496
32.8487;1;0.208769;-4.701;-4.498
32.8661;-1.1;0.190274;-4.699;-4.502
32.9037;-1.1;0.160714;-4.694;-4.505
32.9362;-1.1;0.149748;-4.684;-4.505
32.9621;-1.1;0.159428;-4.682;-4.504
32.9961;-1.1;-0.0179639;-4.683;-4.501
33.0259;-1.1;-0.0994342;-4.688;-4.498
33.058;-1.1;-0.154646;-4.698;-4.496
33.0973;-1.1;-0.240793;-4.719;-4.494
33.122;-1.1;-0.303251;-4.727;-4.495
33.162;-1.1;-0.399372;-4.742;-4.498
33.1858;-1.1;-0.466559;-4.758;-4.505
33.219;-1.1;-0.453751;-4.785;-4.521
33.2564;-1.1;-0.448134;-4.808;-4.532
33.282;-1.1;-0.418638;-4.821;-4.537
33.3198;-1.1;-0.426933;-4.852;-4.544
33.3456;-1.1;-0.392605;-4.881;-4.547
33.3856;-1.1;-0.419697;-4.909;-4.547
33.4167;-1.1;-0.424916;-4.947;-4.542
33.4418;-1.1;-0.536193;-4.959;-4.538
33.4801;-1.1;-0.573305;-4.98;-4.53
33.5061;-1.1;-0.65275;-4.997;-4.519
33.5392;-1.1;-0.684018;-5.021;-4.497
33.577;-1.1;-0.69325;-5.038;-4.479
33.6014;-1.1;-0.708289;-5.047;-4.468
33.64;-1.1;-0.777659;-5.065;-4.442
33.6658;1;-0.883785;-5.083;-4.412
33.6992;1;-1.00422;-5.104;-4.364
33.7362;1;-1.01989;-5.114;-4.335
33.7624;1;-0.989558;-5.122;-4.309
33.797;1;-0.959868;-5.125;-4.298
33.826;1;-0.862415;-5.13;-4.279
33.859;1;-0.649735;-5.135;-4.259
33.8964;1;-0.578525;-5.136;-4.254
33.922;1;-0.391439;-5.135;-4.248
33.9569;1;-0.0135274;-5.13;-4.244
33.986;1;0.0987369;-5.121;-4.242
34.0182;1;0.136475;-5.109;-4.241
34.0569;-1.1;0.160975;-5.084;-4.243
34.0815;-1.1;0.18049;-5.074;-4.245
34.1175;-1.1;0.145745;-5.051;-4.25
34.1461;-1.1;0.10552;-5.028;-4.256
34.1787;-1.1;-0.00405162;-4.989;-4.262
34.2314;-1.1;-0.0770255;-4.961;-4.261
34.2458;-1.1;-0.132255;-4.933;-4.255
34.2777;1;-0.191718;-4.918;-4.25
34.3057;1;-0.243357;-4.89;-4.237
34.3381;1;-0.075175;-4.858;-4.226
34.3758;1;0.00324612;-4.805;-4.214
34.4023;1;0.0890689;-4.768;-4.212
34.4544;1;0.0998738;-4.749;-4.213
34.47;-1.1;0.16746;-4.711;-4.219
34.4985;-1.1;0.233673;-4.674;-4.231
34.5363;-1.1;-0.00101582;-4.62;-4.254
34.5617;-1.1;-0.219689;-4.601;-4.259
34.613;-1.1;-0.489183;-4.563;-4.266
34.6277;-1.1;-0.761627;-4.522;-4.27
34.6581;-1.1;-1.04679;-4.479;-4.273
34.6956;-1.1;-1.27641;-4.412;-4.283
34.7215;-1.1;1.34657;-4.39;-4.288
34.7729;-1.1;1.38675;-4.346;-4.298
34.7877;-1.1;1.41389;-4.301;-4.308
34.8185;-1.1;1.41154;-4.258;-4.316
34.8563;1;-1.32655;-4.199;-4.323
34.8825;1;-1.27454;-4.162;-4.321
34.9334;1;-1.21856;-4.144;-4.32
34.9483;1;-1.06682;-4.109;-4.32
34.9798;1;-0.903283;-4.06;-4.327
35.016;1;-0.743192;-4.033;-4.336
35.0419;1;-0.694263;-4.02;-4.342
35.0762;1;-0.562613;-3.999;-4.355
35.1057;1;-0.464928;-3.981;-4.37
35.153;1;-0.370683;-3.969;-4.386
35.1767;1;-0.337372;-3.959;-4.399
35.2026;1;-0.0654333;-3.952;-4.412
35.2359;1;-0.0713897;-3.951;-4.415
35.2659;-1.1;0.295463;-3.953;-4.419
35.2981;-1.1;0.242618;-3.958;-4.421
35.336;-1.1;0.0663154;-3.969;-4.419
35.3616;-1.1;0.0581497;-3.973;-4.417
35.3963;-1.1;-0.0162149;-3.982;-4.411
35.426;-1.1;-0.00662737;-3.991;-4.402
35.4581;1;-0.0650462;-4;-4.389
35.4963;1;-0.16912;-4.005;-4.364
35.5221;1;-0.145699;-4.006;-4.354
35.5681;1;0.139716;-4.009;-4.333
35.5862;1;0.489161;-4.011;-4.328
35.6283;1;0.452061;-4.017;-4.32
35.6568;-1.1;0.370648;-4.032;-4.313
35.6823;-1.1;0.365216;-4.039;-4.311
35.7164;-1.1;0.390785;-4.054;-4.303
35.7462;-1.1;0.418327;-4.068;-4.3
35.7842;-1.1;0.455933;-4.084;-4.302
35.8239;-1.1;0.536045;-4.113;-4.307
35.8415;-1.1;0.556446;-4.124;-4.307
35.8767;1;0.600597;-4.146;-4.302
35.9062;1;0.648372;-4.166;-4.293
35.9381;1;0.671839;-4.184;-4.282
35.9761;1;0.624986;-4.203;-4.267
36.0019;1;0.59181;-4.208;-4.263
36.0533;1;0.502023;-4.215;-4.257
36.068;1;0.389833;-4.219;-4.253
36.0983;1;0.269839;-4.22;-4.251
36.137;1;0.149697;-4.217;-4.253
36.1617;1;0.130503;-4.216;-4.255
36.2082;1;0.155573;-4.212;-4.268
36.2264;1;0.182286;-4.211;-4.274
36.2585;-1.1;0.273551;-4.209;-4.288
36.2966;-1.1;0.424959;-4.21;-4.315
36.3217;-1.1;0.453592;-4.212;-4.323
36.3564;-1.1;0.48015;-4.215;-4.336
36.386;-1.1;0.439397;-4.217;-4.343
36.418;-1.1;0.349881;-4.215;-4.345
36.4612;1;0.302909;-4.213;-4.344
36.4822;1;0.232116;-4.2;-4.338
36.5166;1;0.26826;-4.186;-4.331
36.5459;1;0.360857;-4.171;-4.322
36.5953;1;0.453564;-4.157;-4.311
36.6143;1;0.539436;-4.145;-4.295
36.6418;1;0.598749;-4.134;-4.276
36.682;1;0.68115;-4.121;-4.24
36.7059;1;0.720841;-4.118;-4.226
36.7383;1;0.793031;-4.112;-4.197
36.7763;1;0.868171;-4.104;-4.155
36.802;1;0.898216;-4.103;-4.139
36.8371;1;0.943072;-4.101;-4.106
36.8662;-1.1;0.987606;-4.1;-4.07
36.8983;-1.1;1.05409;-4.096;-4.032
36.9366;-1.1;1.13715;-4.089;-3.976
36.9625;-1.1;1.13693;-4.088;-3.943
36.9971;-1.1;1.12326;-4.089;-3.927
37.0261;-1.1;1.06107;-4.092;-3.899
37.0591;1;0.923782;-4.103;-3.863
37.096;1;0.850677;-4.114;-3.841
37.1314;1;0.81436;-4.118;-3.831
37.1566;1;0.754023;-4.122;-3.81
37.1861;1;0.722694;-4.122;-3.788
37.2178;1;0.70908;-4.118;-3.765
37.2566;-1.1;0.729544;-4.105;-3.729
37.2822;-1.1;0.751332;-4.099;-3.716
37.3167;-1.1;0.818596;-4.086;-3.688
37.3463;-1.1;0.856035;-4.064;-3.655
37.3956;-1.1;0.865245;-4.055;-3.646
37.4151;-1.1;0.856438;-4.035;-3.63
37.4425;-1.1;0.815182;-4.002;-3.609
37.4767;1;0.818136;-3.989;-3.603
37.5056;1;0.847671;-3.961;-3.592
37.5389;1;0.871189;-3.921;-3.58
37.5942;1;0.847789;-3.9;-3.572
37.6089;1;0.773958;-3.884;-3.566
37.6391;1;0.714769;-3.878;-3.563
37.6663;-1.1;0.500339;-3.866;-3.558
37.6985;-1.1;0.426387;-3.864;-3.558
37.7365;-1.1;0.25304;-3.857;-3.558
37.7623;-1.1;0.228786;-3.853;-3.557
37.7967;-1.1;0.232757;-3.841;-3.553
37.8261;-1.1;0.288976;-3.826;-3.548
37.8593;-1.1;0.47906;-3.796;-3.536
37.8965;-1.1;0.609653;-3.771;-3.526
37.9221;-1.1;0.67803;-3.757;-3.52
37.9608;-1.1;0.739665;-3.742;-3.514
37.9861;-1.1;0.933289;-3.691;-3.498
38.0195;-1.1;1.05884;-3.638;-3.491
38.0571;-1.1;1.0996;-3.603;-3.492
38.0823;-1.1;1.11413;-3.585;-3.495
38.1177;-1.1;1.11434;-3.55;-3.498
38.1458;-1.1;1.11519;-3.514;-3.497
38.1792;-1.1;1.15625;-3.454;-3.495
38.2176;-1.1;1.21743;-3.41;-3.497
38.2423;-1.1;1.25384;-3.388;-3.501
38.2778;-1.1;1.33911;-3.342;-3.512
38.3075;-1.1;1.39895;-3.299;-3.53
38.3378;-1.1;1.42788;-3.258;-3.549
38.3774;-1.1;1.42611;-3.199;-3.579
38.4025;-1.1;1.37304;-3.166;-3.601
38.4396;-1.1;1.34387;-3.151;-3.613
38.4663;-1.1;1.25729;-3.113;-3.654
38.4995;-1.1;1.1994;-3.094;-3.685
38.5378;-1.1;1.15293;-3.08;-3.717
38.5621;-1.1;1.14329;-3.074;-3.734
38.5975;-1.1;1.12522;-3.067;-3.769
38.6279;-1.1;1.12066;-3.063;-3.805
38.6575;1;1.11798;-3.063;-3.841
38.6973;1;1.15338;-3.067;-3.899
38.7224;1;1.12957;-3.068;-3.913
38.7602;1;0.988186;-3.068;-3.929
38.7864;1;0.831894;-3.064;-3.942
38.8255;1;0.660635;-3.057;-3.952
38.8574;-1.1;0.443525;-3.039;-3.964
38.8824;-1.1;0.440857;-3.032;-3.967
38.9177;-1.1;0.462474;-3.015;-3.974
38.946;-1.1;0.478033;-3.002;-3.982
38.9797;-1.1;0.398493;-2.998;-3.988
39.0172;-1.1;0.3245;-3.002;-3.99
39.042;-1.1;0.284738;-3.006;-3.991
39.082;-1.1;0.260127;-3.011;-3.991
39.1055;-1.1;0.272341;-3.033;-3.986
39.1398;-1.1;0.420878;-3.057;-3.977
39.1766;-1.1;0.498013;-3.074;-3.97
39.2024;-1.1;0.538407;-3.083;-3.964
39.2373;-1.1;0.608176;-3.104;-3.952
39.2664;1;0.734586;-3.14;-3.927
39.2997;1;0.852976;-3.169;-3.909
39.336;1;0.911944;-3.194;-3.894
39.3722;1;0.911944;-3.204;-3.888
39.3982;1;0.871105;-3.221;-3.877
39.4264;1;0.77056;-3.235;-3.87
39.4592;1;0.524658;-3.247;-3.863
39.4976;1;0.3888;-3.25;-3.858
39.5217;1;0.327573;-3.25;-3.856
39.5719;1;0.256397;-3.247;-3.849
39.5862;1;0.253336;-3.242;-3.838
39.6246;1;0.30012;-3.239;-3.823
39.6565;1;0.461852;-3.241;-3.792
39.6817;1;0.519117;-3.244;-3.78
39.7173;1;0.637033;-3.255;-3.756
39.7458;1;0.71348;-3.266;-3.734
39.7793;1;0.731915;-3.284;-3.709
39.8168;1;0.681539;-3.296;-3.698
39.8422;1;0.637846;-3.302;-3.695
39.8775;-1.1;0.544748;-3.313;-3.69
39.9058;-1.1;0.452751;-3.323;-3.691
39.9395;-1.1;0.326363;-3.333;-3.691
39.976;-1.1;0.24925;-3.334;-3.688
40.0024;-1.1;0.212267;-3.331;-3.682
40.054;-1.1;0.212267;-3.328;-3.678
40.0691;1;0.231974;-3.319;-3.67
40.0988;1;0.363481;-3.296;-3.657
40.1361;1;0.464643;-3.279;-3.647
40.1619;1;0.505118;-3.271;-3.642
40.2023;1;0.539142;-3.264;-3.635
40.226;1;0.60991;-3.246;-3.61
40.2585;1;0.644451;-3.237;-3.589
40.2988;1;0.660795;-3.233;-3.577
40.3217;1;0.744557;-3.225;-3.537
40.3568;1;0.767541;-3.221;-3.514
40.3858;1;0.747075;-3.22;-3.495
40.4186;1;0.637887;-3.22;-3.474
40.4571;-1.1;0.511122;-3.222;-3.464
40.4815;-1.1;0.4486;-3.223;-3.461
40.5168;-1.1;0.336338;-3.226;-3.457
40.5459;-1.1;0.255771;-3.226;-3.452
40.5921;-1.1;0.227606;-3.222;-3.444
40.6143;-1.1;0.253394;-3.215;-3.432
40.6421;-1.1;0.337006;-3.209;-3.415
40.6768;-1.1;0.461232;-3.205;-3.393
40.7125;-1.1;0.595715;-3.205;-3.366
40.7388;-1.1;0.730969;-3.211;-3.336
40.7763;-1.1;0.908372;-3.23;-3.289
40.8016;-1.1;0.958214;-3.239;-3.273
40.838;-1.1;1.04752;-3.262;-3.244
40.8659;1;1.11075;-3.29;-3.218
40.8988;1;1.17797;-3.339;-3.187
40.9369;1;1.19071;-3.372;-3.168
40.9616;1;1.1985;-3.389;-3.158
41.0023;1;1.20403;-3.406;-3.149
41.0259;1;1.20648;-3.455;-3.117
41.0595;-1.1;1.22789;-3.498;-3.074
41.097;-1.1;1.24882;-3.521;-3.04
41.1221;-1.1;1.25586;-3.532;-3.023
41.1622;-1.1;1.25841;-3.541;-3.006
41.1862;-1.1;1.19614;-3.566;-2.962
41.2194;-1.1;1.03832;-3.587;-2.93
41.2571;-1.1;0.904212;-3.602;-2.914
41.2815;-1.1;0.836146;-3.61;-2.909
41.3166;-1.1;0.734878;-3.625;-2.896
41.3457;-1.1;0.669692;-3.638;-2.88
41.3791;-1.1;0.642431;-3.651;-2.851
41.4225;-1.1;0.642431;-3.651;-2.851
41.4415;-1.1;0.643707;-3.654;-2.821
41.4804;1;0.641751;-3.651;-2.801
41.5059;1;0.639192;-3.645;-2.782
41.5391;1;0.622753;-3.642;-2.763
41.5766;1;0.621377;-3.642;-2.753
41.6022;1;0.631794;-3.647;-2.722
41.6368;1;0.651038;-3.655;-2.7
41.6728;-1.1;0.697826;-3.668;-2.677
41.7006;-1.1;0.762127;-3.683;-2.653
41.7371;-1.1;0.781664;-3.703;-2.625
41.7621;-1.1;0.765895;-3.708;-2.617
41.7976;-1.1;0.69426;-3.715;-2.605
41.8255;-1.1;0.573863;-3.718;-2.595
41.8575;-1.1;0.459073;-3.717;-2.585
41.8968;-1.1;0.384566;-3.711;-2.565
41.9222;-1.1;0.391754;-3.709;-2.557
41.9629;-1.1;0.408054;-3.708;-2.548
41.9862;-1.1;0.483813;-3.704;-2.522
42.0203;-1.1;0.597196;-3.704;-2.488
42.0569;1;0.677341;-3.705;-2.46
42.0816;1;0.718854;-3.706;-2.445
42.1345;1;0.843566;-3.711;-2.401
42.1483;1;0.855519;-3.717;-2.378
42.1798;1;0.831297;-3.725;-2.358
42.2172;1;0.750634;-3.734;-2.342
42.2414;1;0.693544;-3.739;-2.336
42.278;1;0.595829;-3.75;-2.327
42.3061;1;0.499206;-3.759;-2.323
42.3396;1;0.345273;-3.768;-2.324
42.3778;1;0.267658;-3.769;-2.329
42.402;1;0.228949;-3.768;-2.331
42.4555;1;0.207605;-3.761;-2.336
42.4708;-1.1;0.227834;-3.75;-2.338
42.4994;-1.1;0.354646;-3.725;-2.333
42.5371;-1.1;0.45256;-3.707;-2.326
42.5624;-1.1;0.491492;-3.698;-2.322
42.5967;-1.1;0.563936;-3.679;-2.315
42.6258;-1.1;0.625071;-3.657;-2.309
42.6754;-1.1;0.669741;-3.633;-2.307
42.6966;-1.1;0.710139;-3.608;-2.309
42.7216;-1.1;0.756347;-3.582;-2.316
42.7573;-1.1;0.807632;-3.556;-2.328
42.7861;-1.1;0.863573;-3.53;-2.346
42.82;-1.1;0.945558;-3.497;-2.382
42.8572;-1.1;1.00216;-3.479;-2.412
42.8824;-1.1;1.04763;-3.467;-2.445
42.9168;-1.1;1.06089;-3.462;-2.462
42.9454;-1.1;1.09689;-3.458;-2.499
42.9943;-1.1;1.12707;-3.459;-2.536
43.0192;-1.1;1.14206;-3.472;-2.589
43.0418;-1.1;1.14667;-3.479;-2.606
43.0779;-1.1;1.13053;-3.496;-2.635
43.1059;-1.1;1.09577;-3.516;-2.66
43.1395;-1.1;0.996081;-3.548;-2.686
43.1766;-1.1;0.886727;-3.566;-2.696
43.2022;-1.1;0.834552;-3.575;-2.699
43.2379;-1.1;0.691042;-3.587;-2.702
43.2729;-1.1;0.535573;-3.595;-2.703
43.2994;-1.1;0.358545;-3.595;-2.703
43.3372;-1.1;0.199852;-3.59;-2.707
43.3623;-1.1;0.164824;-3.588;-2.708
43.3968;-1.1;0.133288;-3.584;-2.712
43.4264;-1.1;0.224059;-3.572;-2.724
43.4613;-1.1;0.302053;-3.561;-2.736
43.5;-1.1;0.302053;-3.561;-2.736
43.5229;-1.1;0.546834;-3.531;-2.77
43.558;-1.1;0.602656;-3.524;-2.781
43.5864;-1.1;0.788572;-3.5;-2.821
43.6176;-1.1;0.850926;-3.493;-2.837
43.6578;1;0.992488;-3.476;-2.887
43.6825;1;1.06102;-3.469;-2.922
43.7206;1;1.06034;-3.462;-2.968
43.7462;1;1.02496;-3.459;-2.98
43.7774;1;0.926064;-3.452;-3
43.8175;1;0.727369;-3.437;-3.019
43.8422;1;0.658576;-3.431;-3.023
43.8768;1;0.571049;-3.415;-3.028
43.9061;1;0.536126;-3.397;-3.033
43.9395;1;0.553115;-3.368;-3.034
43.978;1;0.592122;-3.348;-3.029
44.0018;1;0.618414;-3.337;-3.026
44.0554;1;0.668795;-3.313;-3.019
44.0714;1;0.730791;-3.284;-3.016
44.0975;1;0.814989;-3.253;-3.018
44.1353;1;0.899246;-3.221;-3.025
44.1622;1;0.943269;-3.192;-3.034
44.1971;1;0.937281;-3.168;-3.043
44.2259;1;0.883999;-3.148;-3.053
44.2598;-1.1;0.719774;-3.127;-3.067
44.2975;-1.1;0.592557;-3.118;-3.075
44.3215;-1.1;0.539439;-3.115;-3.079
44.361;-1.1;0.449409;-3.105;-3.084
44.386;-1.1;0.418475;-3.09;-3.09
44.4186;-1.1;0.451863;-3.07;-3.095
44.4593;1;0.596256;-3.033;-3.103
44.4818;1;0.66357;-3.018;-3.107
44.5211;1;0.797618;-2.987;-3.116
44.5461;1;0.879919;-2.958;-3.122
44.5786;1;0.911113;-2.931;-3.124
44.6191;1;0.884373;-2.893;-3.119
44.6416;1;0.851124;-2.882;-3.115
44.6874;-1.1;0.764033;-2.853;-3.1
44.706;-1.1;0.742933;-2.845;-3.094
44.7395;-1.1;0.660374;-2.826;-3.073
44.7819;-1.1;0.659513;-2.817;-3.065
44.8035;-1.1;0.697339;-2.785;-3.041
44.8464;-1.1;0.779973;-2.761;-3.02
44.8659;-1.1;0.828996;-2.75;-3.008
44.8993;-1.1;0.952235;-2.722;-2.968
44.9375;-1.1;0.995246;-2.709;-2.939
44.9615;-1.1;1.0115;-2.704;-2.923
44.997;-1.1;1.01083;-2.697;-2.892
45.0262;-1.1;1.01261;-2.694;-2.86
45.0665;1;1.01104;-2.696;-2.827
45.0977;1;1.00765;-2.706;-2.78
45.1215;1;1.00493;-2.708;-2.765
45.1653;1;0.99697;-2.71;-2.75
45.1874;1;0.943206;-2.705;-2.693
45.2176;1;0.929588;-2.702;-2.679
45.2578;-1.1;0.858819;-2.686;-2.646
45.2824;-1.1;0.808152;-2.672;-2.628
45.3218;-1.1;0.758229;-2.656;-2.613
45.346;-1.1;0.744757;-2.647;-2.606
45.3778;-1.1;0.727046;-2.629;-2.589
45.4308;-1.1;0.77404;-2.602;-2.556
45.4458;-1.1;0.83763;-2.588;-2.529
45.4854;-1.1;0.868864;-2.583;-2.514
45.506;-1.1;0.938696;-2.576;-2.482
45.5394;-1.1;0.990736;-2.567;-2.435
45.5775;-1.1;1.00925;-2.563;-2.402
45.602;-1.1;1.01881;-2.562;-2.385
45.637;-1.1;1.05142;-2.562;-2.348
45.6662;-1.1;1.11005;-2.562;-2.307
45.698;-1.1;1.17633;-2.559;-2.266
45.7378;-1.1;1.26229;-2.55;-2.204
45.7619;-1.1;1.28461;-2.547;-2.183
45.7973;-1.1;1.28219;-2.54;-2.145
45.8262;-1.1;1.25519;-2.531;-2.109
45.8595;1;1.22958;-2.52;-2.072
45.8969;1;1.24716;-2.5;-2.01
45.9217;1;1.2635;-2.495;-1.989
45.9608;1;1.27581;-2.488;-1.969
45.9863;1;1.32666;-2.459;-1.912
46.0177;1;1.36188;-2.433;-1.875
46.0577;1;1.38681;-2.397;-1.816
46.0825;1;1.40999;-2.376;-1.775
46.1213;1;1.40999;-2.376;-1.775
46.1464;1;1.40412;-2.329;-1.702
46.1779;1;1.39718;-2.315;-1.685
46.2175;1;1.3962;-2.278;-1.626
46.2417;1;1.40554;-2.267;-1.605
46.2938;1;1.46454;-2.243;-1.535
46.3085;1;1.5022;-2.234;-1.487
46.3414;1;1.52009;-2.231;-1.439
46.3781;1;1.49369;-2.233;-1.395
46.4016;1;1.46949;-2.236;-1.374
46.4373;1;1.38839;-2.243;-1.337
46.4656;-1.1;1.2737;-2.252;-1.306
46.4977;-1.1;1.13103;-2.261;-1.28
46.5373;-1.1;0.946011;-2.275;-1.244
46.5615;-1.1;0.900273;-2.279;-1.232
46.6137;-1.1;0.825132;-2.289;-1.209
46.6289;-1.1;0.842657;-2.305;-1.167
46.6576;-1.1;0.880009;-2.311;-1.15
46.7022;-1.1;0.975872;-2.323;-1.099
46.7228;-1.1;1.01232;-2.326;-1.081
46.7684;-1.1;1.07183;-2.332;-1.047
46.7861;-1.1;1.10104;-2.336;-1.012
46.8184;-1.1;1.12333;-2.336;-0.974
46.868;-1.1;1.17245;-2.335;-0.913
46.8819;-1.1;1.21105;-2.336;-0.89
46.917;-1.1;1.29568;-2.342;-0.844
46.9455;-1.1;1.37328;-2.353;-0.797
46.9903;-1.1;1.45924;-2.371;-0.75
47.0182;-1.1;1.52764;-2.408;-0.685
47.0421;-1.1;1.53813;-2.422;-0.666
47.077;1;1.52375;-2.453;-0.631
47.1057;1;1.48808;-2.486;-0.602
47.1374;1;1.43489;-2.519;-0.576
47.1776;1;1.33538;-2.564;-0.537
47.2019;1;1.29552;-2.577;-0.525
47.2379;1;1.22189;-2.601;-0.499
47.2656;-1.1;1.15511;-2.62;-0.472
47.299;-1.1;1.09306;-2.636;-0.444
47.3374;-1.1;0.991902;-2.654;-0.406
47.3623;-1.1;0.941871;-2.659;-0.396
47.4043;-1.1;0.892006;-2.663;-0.387
47.4261;-1.1;0.703393;-2.675;-0.368
47.4577;-1.1;0.562927;-2.683;-0.361
47.4972;-1.1;0.376941;-2.694;-0.359
47.5218;-1.1;0.333585;-2.697;-0.361
47.5579;-1.1;0.269884;-2.7;-0.367
47.5862;-1.1;0.257079;-2.695;-0.381
47.6175;-1.1;0.278524;-2.691;-0.387
47.6615;-1.1;0.357107;-2.678;-0.4
47.6826;-1.1;0.461363;-2.661;-0.413
47.7283;-1.1;-0.452382;-2.641;-0.422
47.7455;-1.1;-0.451516;-2.62;-0.428
47.7795;-1.1;-0.435437;-2.581;-0.431
47.8182;-1.1;-0.374073;-2.55;-0.427
47.8422;-1.1;-0.421741;-2.534;-0.422
47.8775;-1.1;-0.311897;-2.501;-0.41
47.9114;-1.1;-0.236469;-2.469;-0.391
47.938;-1.1;-0.0329525;-2.441;-0.37
47.9779;-1.1;0.112515;-2.407;-0.335
48.0019;-1.1;0.199762;-2.399;-0.323
48.0375;-1.1;0.284493;-2.387;-0.297
48.0715;-1.1;0.38625;-2.381;-0.272
48.0974;-1.1;0.502851;-2.38;-0.249
48.1375;-1.1;0.510677;-2.386;-0.224
48.1624;-1.1;0.477378;-2.39;-0.218
48.2142;-1.1;0.315105;-2.4;-0.21
48.2298;-1.1;-0.0030521;-2.404;-0.212
48.2592;-1.1;-0.173069;-2.404;-0.214
48.2977;-1.1;-0.138746;-2.398;-0.224
48.3218;-1.1;0.210862;-2.395;-0.226
48.3745;-1.1;0.235532;-2.384;-0.234
48.3885;-1.1;0.253287;-2.379;-0.236
48.4179;-1.1;0.311915;-2.366;-0.24
48.4579;-1.1;0.431868;-2.337;-0.245
48.4815;-1.1;0.47911;-2.326;-0.246
48.5186;-1.1;0.602141;-2.299;-0.249
48.5462;-1.1;0.730269;-2.269;-0.252
48.5775;-1.1;0.859717;-2.234;-0.255
48.618;-1.1;-1.01577;-2.181;-0.269
48.6425;-1.1;-1.08027;-2.148;-0.283
48.6816;1;-1.08027;-2.148;-0.283
48.7057;1;-1.1249;-2.103;-0.311
48.7399;1;-0.995612;-2.069;-0.335
48.7776;1;-0.760162;-2.051;-0.344
48.8021;1;-0.59647;-2.043;-0.347
48.8383;1;-0.153706;-2.03;-0.349
48.866;-1.1;0.161903;-2.018;-0.345
48.8997;-1.1;0.390195;-2;-0.331
48.9376;-1.1;0.370941;-1.988;-0.325
48.9616;-1.1;0.262348;-1.984;-0.325
49.0016;-1.1;0.284992;-1.981;-0.325
49.0263;-1.1;-0.103739;-1.978;-0.33
49.0603;1;-0.195141;-1.988;-0.338
49.0978;1;-0.217922;-2.002;-0.343
49.1219;1;-0.232064;-2.01;-0.345
49.1586;1;-0.210298;-2.023;-0.35
49.1943;1;-0.127106;-2.032;-0.354
49.2201;1;0.0247607;-2.037;-0.359
49.2576;1;0.247117;-2.037;-0.367
49.2824;1;0.225966;-2.033;-0.374
49.3181;1;0.220656;-2.03;-0.377
49.3463;1;0.250905;-2.016;-0.383
49.3939;1;0.261761;-2.011;-0.383
49.4198;1;0.306934;-1.995;-0.375
49.4418;1;0.324941;-1.99;-0.37
49.4786;-1.1;0.371058;-1.982;-0.358
49.5061;-1.1;0.423604;-1.976;-0.342
49.5378;-1.1;0.47;-1.972;-0.326
49.5818;-1.1;0.426246;-1.965;-0.312
49.6034;-1.1;0.240365;-1.95;-0.296
49.6387;-1.1;0.227831;-1.944;-0.291
49.6718;-1.1;0.125811;-1.929;-0.283
49.6983;-1.1;0.0362693;-1.912;-0.279
49.7356;-1.1;-0.0352576;-1.895;-0.279
49.7618;-1.1;-0.0886474;-1.879;-0.282
49.798;-1.1;-0.269336;-1.867;-0.288
49.8265;-1.1;-0.419284;-1.854;-0.3
49.8576;-1.1;-0.430404;-1.851;-0.305
49.8975;-1.1;-0.339931;-1.846;-0.324
49.922;-1.1;-0.312658;-1.844;-0.332
49.9746;-1.1;-0.361255;-1.835;-0.355
49.9891;-1.1;-0.406643;-1.826;-0.367
50.0177;-1.1;-0.452037;-1.82;-0.372
50.0605;1;-0.501584;-1.799;-0.385
50.0819;1;-0.511238;-1.79;-0.389
50.1189;1;-0.448024;-1.764;-0.396
50.1461;1;-0.316628;-1.757;-0.396
50.1781;1;-0.0237004;-1.746;-0.394
50.2195;1;0.253187;-1.737;-0.386
50.2415;1;0.388855;-1.729;-0.373
50.2783;1;0.388174;-1.719;-0.36
50.3062;1;0.458374;-1.704;-0.347
50.3376;1;0.527541;-1.689;-0.335
50.3779;1;0.580124;-1.667;-0.317
50.4021;1;0.588982;-1.657;-0.311
50.4375;1;0.595617;-1.636;-0.298
50.4664;1;0.583731;-1.611;-0.285
50.4976;1;0.519103;-1.582;-0.27
50.5378;1;0.419284;-1.536;-0.24
50.5625;1;0.274841;-1.507;-0.213
50.6159;1;0.0846486;-1.481;-0.18
50.6301;1;-0.0504142;-1.46;-0.144
50.6596;1;-0.127643;-1.445;-0.106
50.6979;1;0.565219;-1.434;-0.067
50.7222;1;0.556892;-1.43;-0.048
50.7574;1;0.52899;-1.421;-0.012
50.7864;1;0.489572;-1.416;0.021
50.818;1;0.440651;-1.416;0.051
50.858;-1.1;0.380993;-1.423;0.09
50.8821;-1.1;0.364436;-1.427;0.102
50.9176;-1.1;0.346606;-1.438;0.124
50.9462;-1.1;0.351559;-1.448;0.148
50.9779;-1.1;0.376202;-1.456;0.175
51.0178;-1.1;0.537701;-1.467;0.223
51.0422;-1.1;0.664425;-1.47;0.241
