Time(s);Vsent(m/s);VMeasured(m/s);PosX(m);PosY(m)
0.0128264;0;0.457651;1.576;-1.058
0.0246726;0;0.624221;1.599;-1.053
0.0395396;0;0.577233;1.611;-1.051
0.0570381;0;0.518461;1.624;-1.049
0.0727311;0;0.527208;1.637;-1.047
0.0844313;0;0.527208;1.637;-1.047
0.0991401;0;0.480455;1.65;-1.046
0.123367;0;0.63259;1.673;-1.041
0.139588;0;0.63259;1.673;-1.041
0.144491;0;0.506114;1.683;-1.04
0.159849;0;0.495737;1.692;-1.039
0.176577;0;0.269568;1.7;-1.04
0.204682;0;0.491206;1.707;-1.038
0.205331;0;0.39015;1.714;-1.037
0.221329;0;0.160093;1.718;-1.038
0.234642;0;0.242614;1.721;-1.038
0.253911;0;0.242614;1.721;-1.038
0.264138;0;-0.238574;1.722;-1.04
0.282061;0;0.020214;1.724;-1.041
0.294345;0;0.156337;1.726;-1.041
0.312874;0;0.127467;1.726;-1.041
0.324768;0;-0.0518267;1.727;-1.042
0.339355;0;-0.0403459;1.727;-1.042
0.356199;0;-0.0290336;1.727;-1.042
0.383289;0;-0.0185547;1.727;-1.042
0.389598;0;-0.0185547;1.727;-1.042
0.402751;0;-0.0143266;1.727;-1.042
0.417102;0;-0.0122855;1.727;-1.042
0.432511;0;-0.00837173;1.727;-1.042
0.444471;0;-0.00837173;1.727;-1.042
0.46406;1;-0.00528748;1.727;-1.042
0.480525;1;-0.00340004;1.727;-1.042
0.494387;1;-0.00340004;1.727;-1.042
0.504984;1;-0.00340661;1.727;-1.042
0.519894;1;-0.00353851;1.727;-1.042
0.536097;1;-0.00726262;1.725;-1.042
0.552859;1;0.0141186;1.727;-1.042
0.564223;1;0.0295368;1.727;-1.04
0.582901;1;0.0431934;1.728;-1.039
0.59729;1;0.0695382;1.729;-1.035
0.613372;1;0.0995391;1.732;-1.032
0.624339;1;0.148507;1.735;-1.026
0.639794;1;0.148507;1.735;-1.026
0.657436;1;0.243759;1.741;-1.014
0.673272;1;0.243759;1.741;-1.014
0.684042;1;0.286753;1.744;-1.007
0.699439;1;0.352974;1.749;-0.997
0.724099;1;0.428352;1.753;-0.982
0.740235;1;0.428352;1.753;-0.982
0.745934;1;0.478583;1.757;-0.972
0.759279;1;0.468937;1.758;-0.963
0.77707;1;0.53713;1.762;-0.953
0.803727;1;0.566475;1.768;-0.929
0.810772;1;0.566475;1.768;-0.929
0.822606;1;0.624785;1.771;-0.915
0.837875;1;0.640974;1.774;-0.903
0.853197;1;0.692417;1.778;-0.889
0.864883;1;0.692417;1.778;-0.889
0.87978;1;0.712402;1.781;-0.874
0.902424;1;0.766227;1.784;-0.847
0.916578;1;0.766227;1.784;-0.847
0.924854;1;0.808861;1.788;-0.832
0.939517;1;0.80344;1.791;-0.818
0.962174;1;0.772909;1.793;-0.805
0.975115;1;0.779073;1.795;-0.79
0.984487;1;0.819462;1.798;-0.776
0.999714;1;0.824239;1.801;-0.761
1.01706;1;0.76357;1.802;-0.748
1.03307;1;0.842886;1.806;-0.734
1.04505;1;0.842886;1.806;-0.734
1.05958;1;0.75697;1.807;-0.719
1.07671;1;0.825249;1.81;-0.704
1.09293;1;0.784057;1.812;-0.69
1.10483;1;0.800243;1.814;-0.674
1.12417;1;0.834587;1.817;-0.66
1.14472;1;0.765904;1.818;-0.645
1.15605;1;0.75926;1.819;-0.632
1.16475;1;0.853433;1.823;-0.617
1.17954;1;0.853433;1.823;-0.617
1.19683;1;0.783282;1.826;-0.588
1.21292;1;0.82393;1.829;-0.574
1.22466;1;0.82393;1.829;-0.574
1.23969;1;0.803847;1.831;-0.559
1.25702;1;0.760362;1.832;-0.545
1.27265;1;0.811671;1.835;-0.531
1.28452;1;0.793184;1.837;-0.516
1.29975;1;0.742862;1.838;-0.502
1.31621;1;0.811781;1.841;-0.488
1.3335;1;0.810334;1.844;-0.475
1.34425;1;0.810334;1.844;-0.475
1.35959;1;0.806887;1.845;-0.444
1.3768;1;0.960653;1.85;-0.431
1.39341;1;0.823685;1.851;-0.417
1.40502;1;0.823978;1.852;-0.401
1.4193;1;0.823978;1.852;-0.401
1.4366;1;0.853489;1.858;-0.374
1.45324;1;0.814812;1.859;-0.361
1.46466;1;0.814812;1.859;-0.361
1.47986;1;0.911434;1.863;-0.346
1.49618;1;0.818664;1.864;-0.332
1.51265;1;0.746743;1.866;-0.318
1.52459;1;0.844974;1.871;-0.305
1.53997;1;0.684657;1.871;-0.291
1.55634;1;0.738225;1.873;-0.279
1.57316;1;0.693696;1.874;-0.265
1.58513;1;0.791259;1.878;-0.25
1.59912;1;0.740923;1.88;-0.236
1.61628;1;0.646144;1.88;-0.222
1.63316;1;0.81793;1.885;-0.211
1.64488;1;0.81793;1.885;-0.211
1.6593;1;0.695051;1.886;-0.195
1.6762;1;0.722348;1.888;-0.182
1.69305;1;0.815228;1.893;-0.169
1.704;1;0.697934;1.894;-0.154
1.71974;1;0.648293;1.894;-0.142
1.73653;1;0.780951;1.898;-0.128
1.75339;1;0.759516;1.901;-0.114
1.76492;1;0.681549;1.902;-0.102
1.78001;1;0.730131;1.904;-0.086
1.79616;1;0.789235;1.908;-0.074
1.81306;1;0.675971;1.909;-0.059
1.82503;1;0.675971;1.909;-0.059
1.8399;1;0.631241;1.909;-0.047
1.85669;1;0.662804;1.91;-0.034
1.87244;1;0.832049;1.917;-0.018
1.88433;1;0.592706;1.916;-0.005
1.8992;1;0.779618;1.92;0.007
1.91657;1;0.721798;1.922;0.022
1.93288;1;0.748819;1.925;0.036
1.94498;1;0.633662;1.925;0.05
1.9599;1;0.747787;1.928;0.062
1.9835;1;0.771941;1.932;0.077
2.00308;1;0.617091;1.932;0.089
2.00775;1;0.725441;1.935;0.103
2.02048;1;0.725441;1.935;0.103
2.03409;1;0.735517;1.938;0.117
2.05367;1;0.750529;1.941;0.128
2.06418;1;0.634634;1.942;0.142
2.0836;1;0.668634;1.944;0.154
2.09925;1;0.712243;1.947;0.168
2.11409;1;0.746149;1.951;0.181
2.12457;1;0.577816;1.951;0.193
2.13998;1;0.664733;1.953;0.207
2.15613;1;0.706802;1.956;0.22
2.1734;1;0.695927;1.959;0.233
2.18458;1;0.695927;1.959;0.233
2.20434;1;0.752588;1.964;0.259
2.22266;1;0.752588;1.964;0.259
2.23475;1;0.693977;1.969;0.287
2.24421;1;0.693977;1.969;0.287
2.25926;1;0.618559;1.97;0.299
2.27534;1;0.701787;1.973;0.313
2.30339;1;0.727742;1.979;0.338
2.31196;1;0.727742;1.979;0.338
2.31988;1;0.615588;1.98;0.352
2.33405;1;0.621466;1.981;0.364
2.35252;1;0.747304;1.986;0.378
2.36477;1;0.697776;1.989;0.392
2.37994;1;0.658973;1.991;0.403
2.39591;1;0.658973;1.991;0.403
2.41331;1;0.722462;1.996;0.431
2.42468;1;0.722462;1.996;0.431
2.43924;1;0.700139;1.999;0.443
2.45647;1;0.641094;2.001;0.458
2.4725;1;0.619569;2.002;0.469
2.4846;1;0.650094;2.004;0.485
2.50427;1;0.744469;2.008;0.496
2.52279;1;0.712393;2.012;0.509
2.53503;1;0.611508;2.013;0.525
2.54456;1;0.625932;2.014;0.536
2.55998;1;0.718573;2.018;0.548
2.57489;1;0.718573;2.018;0.548
2.59349;1;0.630184;2.025;0.574
2.6041;1;0.630184;2.025;0.574
2.61976;1;0.61227;2.026;0.592
2.63634;1;0.61227;2.026;0.592
2.65367;1;0.745295;2.031;0.617
2.66508;1;0.844808;2.036;0.63
2.6835;1;0.723661;2.038;0.644
2.70261;1;0.726682;2.04;0.656
2.71438;1;0.728639;2.042;0.67
2.72502;1;0.779337;2.045;0.682
2.73913;1;0.801149;2.049;0.696
2.75659;1;0.733496;2.051;0.708
2.77329;1;0.693718;2.053;0.72
2.78507;1;0.693718;2.053;0.72
2.79985;1;0.574445;2.054;0.732
2.81573;1;0.644685;2.057;0.747
2.8332;1;0.703202;2.061;0.758
2.84446;1;0.532987;2.061;0.77
2.85937;1;0.724276;2.067;0.784
2.88317;1;0.563582;2.068;0.796
2.9026;1;0.557167;2.069;0.808
2.90756;1;0.649217;2.072;0.821
2.91931;1;0.652447;2.075;0.834
2.93745;1;0.608573;2.077;0.847
