Time(s);Vsent(m/s);VMeasured(m/s);PosX(m);PosY(m)
0.0434355;0;0.0313611;0.958;0.318
0.0628912;0;-0.0430219;0.96;0.317
0.10783;0;0.0474191;0.958;0.32
0.133287;0;0.0559038;0.957;0.321
0.161147;0;0.0622376;0.956;0.323
0.192861;10;0.0571116;0.956;0.323
0.225087;10;-0.0221678;0.956;0.321
0.25646;10;0.05374;0.956;0.321
0.302791;10;0.00633027;0.955;0.319
0.321274;10;0.0454274;0.952;0.317
0.352488;10;0.0334432;0.947;0.311
0.384758;-10;0.0327325;0.943;0.306
0.423841;-10;0.0535729;0.936;0.301
0.453544;-10;0.0735434;0.932;0.294
0.48073;-10;0.161788;0.925;0.288
0.513017;-10;-0.0851414;0.926;0.282
0.544845;-10;-0.0481919;0.926;0.272
0.579778;10;-0.145184;0.928;0.263
0.621152;10;-0.21929;0.933;0.253
0.640373;10;-0.137486;0.934;0.247
0.673043;10;-0.00291192;0.936;0.234
0.714363;10;-0.199034;0.935;0.228
0.738575;10;0.0755883;0.933;0.219
0.774222;-10;0.203896;0.931;0.218
0.800319;-10;-0.000873083;0.926;0.209
0.834442;-10;0.179098;0.919;0.205
0.865348;-10;0.121198;0.915;0.197
0.898611;-10;-0.110289;0.915;0.189
0.933932;-10;-0.0111663;0.917;0.176
0.960363;10;-0.0611736;0.918;0.171
0.994289;10;-0.175759;0.923;0.163
1.02435;10;-0.0434038;0.927;0.155
1.06161;10;-0.0948897;0.934;0.147
1.09229;10;0.145248;0.934;0.141
1.12053;10;0.00697183;0.936;0.133
1.16238;10;-0.00973896;0.936;0.125
1.18562;-10;0.22358;0.932;0.117
1.22292;-10;0.0555358;0.926;0.108
1.25214;-10;0.0475791;0.922;0.101
1.28037;-10;0.206042;0.918;0.099
1.31226;-10;0.218006;0.914;0.1
1.34455;-10;0.141259;0.915;0.105
1.37726;-10;-0.086771;0.919;0.111
1.42042;-10;-0.0947723;0.925;0.118
1.44045;-10;0.0231608;0.928;0.123
1.47503;-10;-0.207852;0.934;0.123
1.5043;-10;-0.184683;0.936;0.118
1.54264;-10;-0.167809;0.936;0.113
1.57383;10;-0.0874724;0.936;0.108
1.60064;10;-0.217172;0.939;0.093
1.6429;10;-0.184811;0.941;0.084
1.66501;10;-0.100321;0.941;0.08
1.69859;10;-0.223919;0.943;0.078
1.73246;10;-0.13207;0.946;0.081
1.76271;-10;0.183422;0.944;0.083
1.79312;-10;0.0921569;0.942;0.092
1.82509;-10;0.167748;0.939;0.1
1.85702;-10;0.249092;0.937;0.111
1.90239;-10;0.0423312;0.941;0.123
1.92086;-10;-0.100129;0.945;0.126
1.95506;-10;0.102542;0.946;0.131
1.98497;10;-0.163373;0.954;0.135
2.01723;10;-0.17758;0.959;0.139
2.05258;10;-0.142935;0.964;0.143
2.08102;10;-0.236957;0.972;0.144
2.11229;10;-0.223234;0.973;0.143
2.15104;10;0.142413;0.967;0.136
2.17705;-10;-0.158044;0.962;0.131
2.21224;-10;0.200567;0.954;0.129
2.24086;-10;0.167753;0.947;0.124
2.27247;-10;0.121283;0.943;0.121
2.30513;-10;0.156557;0.938;0.12
2.33669;-10;-0.0788293;0.942;0.123
2.37727;10;-0.121004;0.945;0.124
2.40145;10;-0.115418;0.954;0.131
2.43295;10;-0.0532346;0.955;0.132
2.46522;10;-0.130537;0.964;0.137
2.50409;10;-0.226071;0.973;0.137
2.53384;10;0.0471259;0.971;0.135
2.56083;10;0.135511;0.964;0.131
2.59498;10;0.164892;0.958;0.127
2.62513;10;-0.0459583;0.951;0.124
2.65625;10;0.161674;0.945;0.122
2.69884;10;0.0977739;0.945;0.126
2.72091;10;0.213766;0.942;0.128
2.76172;10;0.208377;0.945;0.141
2.78453;-10;0.182228;0.945;0.145
2.81708;-10;0.166347;0.948;0.155
2.85282;-10;0.146356;0.955;0.167
2.88222;-10;0.163328;0.957;0.173
2.91255;-10;0.0523191;0.964;0.178
2.94505;-10;0.0429069;0.969;0.181
2.97881;10;-0.2062;0.973;0.179
3.01245;10;-0.0713745;0.981;0.179
3.043;10;-0.211305;0.989;0.177
3.08175;10;-0.157376;0.998;0.175
3.10432;10;-0.0518443;1.002;0.175
3.13651;10;0.0539288;0.999;0.175
3.17908;-10;0.0553091;0.995;0.175
3.20079;-10;0.0956695;0.987;0.177
3.23289;-10;0.101847;0.979;0.178
3.26467;-10;0.107494;0.973;0.179
3.29838;-10;0.0783133;0.972;0.182
3.34426;-10;0.0291468;0.972;0.184
3.36657;-10;-0.181812;0.973;0.183
3.39293;-10;-0.119109;0.982;0.182
3.42481;-10;-0.0898485;0.991;0.179
3.45634;-10;-0.0405516;1.001;0.178
3.49246;-10;-0.24481;1;0.173
3.52099;-10;-0.186954;1.001;0.171
3.55291;-10;-0.202797;0.996;0.164
3.58522;10;-0.134942;0.993;0.162
3.61648;10;-0.174191;0.978;0.154
3.66499;10;-0.256805;0.97;0.15
3.68334;10;-0.245712;0.966;0.146
3.7153;10;-0.123322;0.969;0.144
3.745;10;-0.139201;0.97;0.143
3.77805;-10;0.0587906;0.978;0.144
3.8222;-10;0.0194917;0.984;0.144
3.84095;-10;0.0599773;0.995;0.147
3.8762;-10;0.0977418;1.009;0.152
3.9043;-10;0.0977418;1.009;0.152
3.93687;-10;-0.153939;1.016;0.151
3.97255;10;-0.0408435;1.024;0.148
4.00052;10;-0.103539;1.028;0.145
4.03249;10;-0.0803994;1.037;0.139
4.0647;10;-0.193498;1.037;0.135
4.09684;10;0.108;1.035;0.135
4.13313;10;0.170051;1.034;0.136
4.1606;-10;0.0858125;1.028;0.139
4.20529;-10;0.034713;1.017;0.147
4.22435;-10;0.216477;1.016;0.151
4.25709;-10;0.0310668;1.01;0.155
4.29774;-10;0.223819;1.009;0.16
4.32079;-10;-0.00568915;1.009;0.16
4.36214;-10;0.0868918;1.018;0.162
4.38517;10;-0.0696227;1.022;0.16
4.41725;10;0.118753;1.027;0.16
4.4598;10;-0.146302;1.034;0.156
4.48121;10;-0.12074;1.034;0.156
4.52332;10;-0.0334884;1.03;0.153
4.54454;10;0.0776241;1.023;0.154
4.5764;-10;0.059946;1.016;0.153
4.61916;-10;0.0710464;1.01;0.153
4.64101;-10;0.125468;0.996;0.155
4.67242;-10;0.122915;0.996;0.155
4.70468;-10;-0.223729;0.99;0.149
4.73727;-10;-0.137888;0.981;0.142
4.77674;10;-0.148733;0.975;0.136
4.80104;10;-0.134579;0.967;0.127
4.83256;10;-0.208625;0.961;0.121
4.86451;10;-0.181961;0.955;0.115
4.90528;10;0.0341087;0.951;0.108
4.93329;10;-0.213248;0.953;0.106
4.96071;-10;0.0594591;0.955;0.107
4.99284;-10;0.140621;0.962;0.111
5.02504;-10;0.0393489;0.972;0.116
5.05977;-10;0.00670877;0.978;0.121
5.09256;-10;0.16198;0.984;0.125
5.12059;-10;-0.164406;0.99;0.125
5.15293;-10;0.000176551;1.001;0.127
5.18499;10;-0.0125392;1.003;0.126
5.22002;10;-0.163477;1.01;0.121
5.25283;10;-0.105137;1.019;0.117
5.2805;10;-0.205905;1.016;0.116
5.32463;10;0.0195909;1.011;0.118
5.34512;10;0.0127273;1.007;0.119
5.37715;-10;0.121207;1.004;0.123
5.4163;-10;0.0677633;0.999;0.127
5.44066;-10;0.108966;0.988;0.134
5.48447;-10;-0.0819723;0.982;0.135
5.50475;-10;-0.0335643;0.972;0.138
5.53699;-10;-0.119121;0.962;0.136
5.57263;10;-0.0856358;0.953;0.136
5.60068;10;-0.186355;0.948;0.135
5.64189;10;-0.121065;0.937;0.134
5.66497;10;-0.213418;0.928;0.132
5.69645;10;-0.232839;0.925;0.128
5.73316;10;-0.109927;0.924;0.124
5.76119;-10;0.108975;0.932;0.125
5.8019;-10;0.191927;0.938;0.124
5.82522;-10;0.170174;0.948;0.123
5.85675;-10;0.148431;0.958;0.12
5.89251;-10;0.143265;0.962;0.122
5.92131;-10;0.134675;0.962;0.122
5.96364;-10;-0.196509;0.952;0.126
5.98461;10;-0.124442;0.947;0.13
6.01731;10;-0.180139;0.935;0.135
6.0533;10;-0.199914;0.927;0.14
6.08076;10;-0.28349;0.919;0.143
6.12129;10;-0.303812;0.915;0.14
6.1446;10;0.146709;0.918;0.135
6.18412;10;0.111189;0.924;0.131
6.21343;10;0.0693025;0.928;0.125
6.24379;10;-0.00873346;0.937;0.118
6.27381;10;-0.144107;0.944;0.117
6.30463;10;0.145367;0.943;0.12
6.33663;10;-0.0316731;0.944;0.126
6.38414;10;0.181605;0.944;0.136
6.40239;10;0.180477;0.944;0.145
6.43389;10;0.175233;0.944;0.154
6.46487;10;0.0705741;0.943;0.159
6.49668;10;0.254607;0.951;0.163
6.53324;10;0.218688;0.956;0.164
6.56059;-10;0.196257;0.968;0.164
6.59416;-10;0.206181;0.979;0.161
6.62431;-10;0.228157;0.99;0.156
6.66416;-10;0.257063;0.999;0.154
6.69387;-10;0.0878806;1.002;0.151
6.72051;-10;0.133642;1.008;0.145
6.76482;-10;-0.147813;1.009;0.136
6.78451;10;-0.139944;1.009;0.132
6.81687;10;-0.0976612;1.009;0.122
6.85384;10;-0.1141;1.01;0.113
6.88607;10;-0.0511558;1.01;0.105
6.91339;10;0.0427001;1.018;0.099
6.9443;10;0.082858;1.023;0.093
6.97654;-10;0.241403;1.03;0.09
7.0255;-10;0.216359;1.046;0.083
7.0415;-10;0.0430561;1.048;0.08
7.07344;-10;-0.131042;1.053;0.077
7.10525;-10;0.151446;1.06;0.071
7.13693;-10;-0.00820413;1.063;0.068
7.1733;10;-0.181573;1.063;0.062
7.20054;10;0.0429697;1.065;0.055
7.24751;10;-0.204415;1.062;0.041
7.26785;10;-0.0941092;1.063;0.037
7.29695;10;-0.0476553;1.063;0.036
7.33844;10;0.0266595;1.058;0.038
7.36055;10;-0.0225954;1.054;0.045
7.39334;10;0.133327;1.054;0.053
7.42556;10;0.101481;1.053;0.062
7.45836;10;0.0533236;1.052;0.068
7.49465;10;-0.217888;1.055;0.069
7.52062;10;0.22055;1.061;0.068
7.5533;10;0.123626;1.067;0.063
7.5881;-10;0.148773;1.072;0.058
7.62716;-10;0.191668;1.08;0.051
7.65315;-10;0.1254;1.087;0.04
7.68032;-10;0.155353;1.09;0.036
7.71307;-10;0.0940396;1.091;0.024
7.74469;-10;-0.231588;1.089;0.022
7.77695;10;-0.111595;1.088;0.013
7.81316;10;-0.204537;1.084;0.005
7.84073;10;-0.143192;1.082;-0.004
7.87358;10;-0.147896;1.081;-0.011
7.90484;10;-0.254571;1.073;-0.012
7.93636;10;0.112773;1.074;-0.009
7.97294;10;0.00317601;1.073;-0.002
8.00546;10;0.139852;1.077;0.008
8.03469;10;0.0730568;1.079;0.017
8.06514;10;0.0939233;1.082;0.022
8.09631;10;0.279565;1.089;0.025
8.1449;10;0.118874;1.091;0.017
8.1612;-10;0.142924;1.093;0.014
8.19382;-10;0.21781;1.099;0.008
8.22492;-10;0.181779;1.102;-0.001
8.26673;-10;0.125384;1.106;-0.01
8.29423;-10;0.205117;1.107;-0.011
8.3211;-10;-0.097995;1.106;-0.012
8.35262;-10;-0.084442;1.107;-0.002
8.38515;10;-0.0937505;1.107;0.008
8.42747;10;-0.142639;1.106;0.016
8.45804;10;-0.277276;1.103;0.026
8.48117;10;-0.246057;1.1;0.033
8.51239;10;-0.209782;1.097;0.033
8.54523;10;0.0915295;1.097;0.027
8.57636;-10;0.133082;1.098;0.022
8.62078;-10;0.114694;1.097;0.01
8.64044;-10;0.00720526;1.091;0
8.67333;-10;0.132279;1.089;-0.01
8.70433;-10;0.137337;1.088;-0.013
8.74368;-10;-0.104325;1.08;-0.017
8.77287;-10;0.0843559;1.079;-0.019
8.80074;-10;0.0435456;1.069;-0.022
8.83264;-10;-0.136698;1.061;-0.025
8.865;-10;-0.265708;1.052;-0.024
8.89677;-10;-0.179788;1.045;-0.019
8.94589;-10;-0.157663;1.045;-0.007
8.96371;10;-0.180315;1.044;-0.001
8.99336;10;-0.191106;1.043;0.01
9.02483;10;-0.139374;1.043;0.021
9.05626;10;-0.140818;1.043;0.025
9.09389;10;-0.0904704;1.044;0.034
9.12108;10;-0.219917;1.042;0.034
9.15389;10;0.0721013;1.042;0.031
9.18472;10;0.102831;1.042;0.021
9.2165;10;0.0525671;1.043;0.014
9.25392;10;-0.0182142;1.043;0.005
9.28687;10;0.251791;1.05;0.002
9.31437;10;0.225768;1.053;0.002
9.34475;10;0.187965;1.055;0.006
9.37695;10;0.063643;1.061;0.013
9.41373;10;0.153603;1.069;0.021
9.44071;10;-0.0160592;1.071;0.026
9.4728;10;0.256071;1.082;0.027
9.50613;10;0.108515;1.079;0.023
9.54016;10;0.250612;1.08;0.016
9.57327;10;0.0519438;1.079;0.006
9.60064;10;0.0360375;1.079;-0.006
9.64656;10;0.29069;1.086;-0.015
9.6646;10;0.229524;1.09;-0.022
9.69627;10;-0.2738;1.089;-0.023
9.73363;10;0.244627;1.093;-0.022
9.76076;10;0.0115616;1.098;-0.016
9.7937;10;0.226463;1.108;-0.009
9.82477;10;0.0907848;1.11;-0.005
9.8684;10;0.221835;1.116;0.004
9.89555;10;0.174363;1.117;0.005
9.92069;10;0.198942;1.124;0.002
9.95278;10;0.0282367;1.126;-0.005
9.98629;-10;0.189407;1.134;-0.012
10.0178;-10;0.116212;1.14;-0.02
10.0535;-10;0.176638;1.147;-0.028
10.0812;-10;0.169508;1.15;-0.033
10.1138;-10;-0.252047;1.148;-0.034
10.1447;-10;-0.236303;1.144;-0.028
10.1767;10;-0.142939;1.141;-0.02
10.2138;10;-0.0942618;1.136;-0.01
10.2411;10;-0.103733;1.131;-0.003
10.2734;10;-0.291817;1.126;-0.001
10.306;10;-0.265098;1.119;0.004
10.3376;10;-0.0617703;1.119;-0.001
10.3736;-10;0.182242;1.121;-0.005
10.4004;-10;0.148457;1.125;-0.013
10.44;-10;0.15229;1.129;-0.022
10.4646;-10;0.293658;1.137;-0.028
10.4968;-10;-0.118284;1.133;-0.037
10.5339;-10;-0.136916;1.133;-0.042
10.5611;10;-0.0605851;1.131;-0.052
10.5945;10;-0.18898;1.128;-0.059
10.6251;10;-0.27934;1.124;-0.067
10.6583;10;-0.284639;1.12;-0.073
10.6947;10;-0.231574;1.119;-0.074
10.7204;10;-0.0584649;1.118;-0.072
10.7547;10;-0.0704762;1.116;-0.069
10.7852;-10;0.0890992;1.118;-0.061
10.8185;-10;0.0895334;1.121;-0.048
10.8548;-10;0.0768338;1.122;-0.045
10.8808;-10;0.141726;1.127;-0.04
10.9137;-10;-0.0932308;1.126;-0.042
10.945;-10;0.0891161;1.128;-0.047
10.9766;-10;-0.0841871;1.125;-0.051
11.0134;-10;-0.0861355;1.118;-0.062
11.0407;-10;-0.0388923;1.116;-0.067
11.0734;-10;-0.185908;1.109;-0.071
11.105;-10;-0.192513;1.105;-0.076
11.1389;-10;0.0858573;1.099;-0.082
11.1739;-10;-0.107906;1.096;-0.085
11.2009;-10;-0.245829;1.083;-0.091
11.2336;-10;0.147355;1.08;-0.1
11.2651;-10;-0.300827;1.072;-0.099
11.2966;-10;-0.0589457;1.071;-0.1
11.3392;-10;-0.125157;1.071;-0.091
11.3604;10;-0.151408;1.07;-0.082
11.3932;10;0.0113718;1.073;-0.072
11.4245;10;-0.117161;1.07;-0.062
11.4564;10;-0.122696;1.07;-0.052
11.4975;10;-0.122524;1.066;-0.046
11.521;10;-0.253767;1.064;-0.045
11.5674;10;0.175439;1.065;-0.051
11.5858;-10;0.119459;1.066;-0.056
11.617;-10;0.0934653;1.066;-0.066
11.657;-10;0.140529;1.067;-0.07
11.6808;-10;0.214037;1.069;-0.081
11.7139;-10;0.225402;1.07;-0.082
11.7446;-10;-0.204529;1.069;-0.081
11.7772;-10;0.00767828;1.074;-0.077
11.8138;-10;-0.0628448;1.078;-0.062
11.843;-10;-0.114963;1.078;-0.053
11.874;-10;-0.24035;1.075;-0.048
11.9049;-10;-0.056209;1.074;-0.037
11.9365;-10;-0.277412;1.071;-0.025
11.9735;10;-0.320599;1.069;-0.015
12.0012;10;-0.276941;1.07;-0.006
12.0332;10;-0.190833;1.071;0.006
12.0653;10;-0.228702;1.073;0.016
12.0967;10;-0.14195;1.08;0.023
12.1341;10;-0.0667641;1.08;0.026
12.1606;-10;-0.0566932;1.089;0.031
12.2085;-10;0.0108931;1.1;0.039
12.2252;-10;0.247281;1.107;0.038
12.2584;-10;0.247598;1.115;0.042
12.2934;-10;0.260487;1.116;0.041
12.3265;-10;-0.0255858;1.115;0.039
12.3553;-10;0.133169;1.116;0.036
12.3848;10;-0.113574;1.107;0.03
12.4191;10;-0.177615;1.104;0.027
12.4624;10;-0.0986915;1.097;0.021
12.4803;10;-0.21745;1.093;0.022
12.5136;10;0.0178603;1.094;0.025
12.5453;10;0.0524046;1.098;0.027
12.5884;-10;0.127933;1.101;0.035
12.6151;-10;0.132716;1.106;0.041
12.6407;-10;0.189727;1.114;0.052
12.6737;-10;0.229402;1.118;0.057
12.705;-10;-0.132586;1.119;0.066
12.7393;-10;-0.132586;1.119;0.066
12.7746;10;-0.0839852;1.116;0.082
12.8049;10;-0.20787;1.108;0.095
12.8344;10;-0.354476;1.102;0.101
12.8694;10;0.0622745;1.098;0.11
12.8971;10;-0.174721;1.097;0.111
12.9339;10;-0.14233;1.097;0.111
12.9604;-10;0.149266;1.099;0.11
12.9938;-10;0.136228;1.104;0.103
13.0246;-10;0.0282942;1.107;0.094
13.0569;-10;0.143458;1.116;0.086
13.0943;-10;0.173742;1.119;0.084
13.1213;-10;0.175373;1.121;0.084
13.1534;-10;-0.00410756;1.122;0.091
13.1852;10;-0.102694;1.117;0.099
13.2167;10;-0.0604181;1.115;0.108
13.255;10;0.0163539;1.111;0.114
13.281;10;0.188334;1.11;0.118
13.3146;10;0.117449;1.108;0.114
13.3446;10;-0.0944046;1.107;0.111
13.3767;-10;0.0379681;1.109;0.105
13.4134;-10;0.106715;1.119;0.093
13.4408;-10;0.186092;1.126;0.087
13.4743;-10;0.266594;1.13;0.082
13.5067;-10;0.252549;1.13;0.082
13.5386;-10;0.0479849;1.129;0.083
13.5737;10;-0.0740165;1.124;0.086
13.6003;10;-0.142752;1.116;0.093
13.6338;10;-0.194312;1.11;0.102
13.6652;10;-0.0673837;1.108;0.109
13.7077;10;-0.00697799;1.105;0.117
13.7356;10;0.126607;1.106;0.123
13.7609;10;-0.0775325;1.105;0.128
13.7952;10;0.0215223;1.108;0.138
13.8276;10;0.0329284;1.112;0.145
13.8567;10;0.233218;1.114;0.145
13.8939;10;0.190851;1.116;0.145
13.9211;10;0.0248168;1.116;0.138
13.9539;10;0.0765285;1.117;0.133
13.9852;-10;0.116207;1.118;0.124
14.0206;-10;0.0929061;1.119;0.114
14.0545;-10;0.188756;1.125;0.101
14.0811;-10;-0.0204764;1.124;0.097
14.1148;-10;0.219877;1.128;0.095
14.1444;-10;0.134512;1.128;0.099
14.1767;10;0.0304626;1.126;0.106
14.2165;10;-0.208;1.117;0.121
14.2411;10;-0.229342;1.115;0.124
14.2744;10;-0.108318;1.115;0.127
14.3064;10;0.00891131;1.116;0.129
14.3416;10;0.208441;1.116;0.125
14.3742;-10;0.144687;1.115;0.117
14.4007;-10;0.176262;1.116;0.108
14.4411;-10;0.262017;1.116;0.099
14.4647;-10;-0.0390093;1.115;0.09
14.4973;-10;0.122136;1.117;0.091
14.5336;-10;-0.0409537;1.122;0.095
14.5607;-10;-0.202849;1.124;0.1
14.5946;-10;-0.202054;1.125;0.11
14.6249;-10;-0.202054;1.125;0.11
14.6564;-10;-0.193245;1.125;0.128
14.6941;-10;-0.332486;1.124;0.137
14.7209;-10;-0.222509;1.125;0.154
14.7549;-10;-0.22423;1.125;0.158
14.7851;10;-0.133364;1.125;0.169
14.8218;10;-0.214438;1.124;0.183
14.8542;10;-0.304758;1.124;0.197
14.8812;10;-0.146878;1.125;0.2
14.9138;10;-0.281289;1.123;0.202
14.9494;10;-0.0166344;1.115;0.2
14.9785;-10;0.215427;1.116;0.193
15.0157;-10;0.15536;1.107;0.181
15.0419;-10;0.243795;1.107;0.175
15.0747;-10;0.136218;1.104;0.167
15.1052;-10;0.0605818;1.106;0.167
15.1368;-10;-0.156511;1.11;0.168
15.1737;10;-0.0403126;1.118;0.173
15.2004;10;-0.0484538;1.119;0.178
15.2338;10;-0.255819;1.125;0.188
15.2648;10;0.0283757;1.129;0.194
15.31;10;0.100905;1.139;0.2
15.3359;10;0.0696601;1.143;0.201
15.3616;-10;0.24057;1.154;0.198
15.3946;-10;0.178976;1.161;0.201
15.4251;-10;0.104908;1.17;0.201
15.457;-10;0.166543;1.178;0.198
15.4938;-10;0.220175;1.184;0.196
15.5205;-10;0.092032;1.183;0.193
15.5536;-10;-0.0226944;1.178;0.19
15.5851;10;-0.106612;1.169;0.192
15.622;10;-0.21225;1.166;0.194
15.6534;10;-0.196881;1.154;0.192
15.6864;10;-0.251474;1.153;0.194
15.7134;10;-0.104285;1.154;0.198
15.7449;10;-0.0642861;1.155;0.199
15.7773;-10;0.0201995;1.161;0.199
15.8139;-10;0.0963432;1.174;0.197
15.85;-10;0.143234;1.187;0.195
15.8757;-10;0.256829;1.191;0.193
15.905;-10;0.251325;1.191;0.191
15.9373;-10;-0.194488;1.187;0.193
15.9738;10;-0.152643;1.182;0.192
16.0006;10;-0.134414;1.175;0.193
16.0335;10;-0.18928;1.166;0.193
16.0645;10;-0.183439;1.154;0.192
16.0972;10;-0.0619978;1.155;0.193
16.134;10;-0.250128;1.151;0.196
16.1605;-10;-0.131844;1.159;0.198
16.1945;-10;0.0522133;1.168;0.201
16.2253;-10;0.0708234;1.178;0.202
16.2584;-10;0.143548;1.185;0.201
16.2979;-10;0.210756;1.188;0.199
16.3222;-10;-0.182574;1.186;0.2
16.3559;-10;-0.0880615;1.181;0.2
16.3851;10;-0.0696823;1.169;0.197
16.4171;10;-0.119226;1.163;0.197
16.4541;10;-0.100563;1.151;0.196
16.4913;10;-0.0155372;1.149;0.192
16.5163;10;0.130514;1.143;0.186
16.5451;10;-0.0105633;1.137;0.179
16.5775;-10;0.195098;1.133;0.168
16.6138;-10;0.217605;1.133;0.16
16.641;-10;0.0999964;1.128;0.15
16.6751;-10;0.315811;1.131;0.144
16.7052;-10;-0.145022;1.128;0.143
16.7364;-10;0.0698625;1.135;0.145
16.7751;-10;-0.186332;1.134;0.151
16.8012;-10;-0.0137376;1.137;0.165
16.8351;-10;-0.270784;1.134;0.173
16.8648;-10;-0.0514904;1.136;0.178
16.8974;-10;0.26511;1.136;0.18
16.9346;-10;-0.0023721;1.125;0.175
16.9606;10;-0.0160589;1.125;0.175
16.9954;10;-0.140719;1.117;0.171
17.0249;10;-0.151622;1.109;0.166
17.0583;10;0.150919;1.107;0.161
17.0949;10;-0.137045;1.103;0.154
17.1206;10;0.171165;1.102;0.146
17.1551;10;0.249814;1.103;0.136
17.1847;-10;0.218306;1.104;0.125
17.2173;-10;0.126263;1.104;0.114
17.255;-10;0.0415147;1.104;0.105
17.281;-10;-0.0445697;1.104;0.096
17.3154;-10;0.0429453;1.099;0.089
17.3447;-10;0.200009;1.097;0.085
17.3783;10;-0.174489;1.091;0.083
17.4145;10;-0.129574;1.08;0.078
17.4406;10;-0.129743;1.071;0.078
17.4752;10;-0.180088;1.062;0.078
17.5044;10;-0.154687;1.062;0.078
17.5383;10;-0.154426;1.062;0.08
17.5751;-10;0.137871;1.074;0.083
17.6009;-10;0.137366;1.079;0.085
17.6355;-10;0.127807;1.088;0.088
17.6649;-10;0.235031;1.091;0.087
17.6994;-10;0.147536;1.091;0.085
17.7354;-10;0.0551672;1.09;0.083
17.7603;10;0.00302297;1.088;0.081
17.7954;10;-0.10573;1.072;0.078
17.8252;10;-0.124706;1.069;0.078
17.8599;10;-0.0761574;1.061;0.076
17.8953;10;-0.222031;1.052;0.075
17.9208;10;-0.245781;1.051;0.077
17.9552;10;-0.189732;1.051;0.077
17.9849;-10;0.145629;1.061;0.078
18.0179;-10;0.103338;1.072;0.082
18.0559;-10;0.120346;1.079;0.083
18.081;-10;0.183439;1.085;0.082
18.1141;-10;0.202189;1.086;0.08
18.1444;-10;0.104103;1.08;0.074
18.1764;-10;-0.102143;1.072;0.072
18.2249;-10;-0.130252;1.062;0.07
18.2428;-10;-0.156761;1.053;0.07
18.2739;-10;-0.249473;1.051;0.07
18.3048;-10;-0.146058;1.052;0.075
18.3367;-10;-0.235602;1.053;0.083
18.3739;10;-0.108845;1.057;0.089
18.4008;10;-0.196435;1.063;0.097
18.4346;10;-0.162771;1.072;0.107
18.4652;10;-0.183346;1.074;0.113
18.4963;10;-0.167818;1.071;0.117
18.5341;10;-0.157859;1.071;0.117
18.5648;10;0.0478619;1.061;0.114
18.5949;10;-0.0286001;1.055;0.108
18.6246;10;0.22083;1.053;0.101
18.6572;10;0.283431;1.045;0.092
18.6938;10;0.153262;1.036;0.084
18.7211;10;0.271525;1.034;0.079
18.7541;10;0.315072;1.025;0.067
18.7844;10;0.221641;1.017;0.057
18.8165;10;0.199873;1.014;0.054
18.8547;10;0.290106;1.008;0.044
18.8806;10;0.280361;1.01;0.036
18.915;10;0.265373;1.006;0.032
18.9446;10;0.102102;1.014;0.026
18.9772;-10;0.158071;1.018;0.022
19.0142;-10;0.0627935;1.028;0.018
19.0407;-10;0.215877;1.036;0.014
19.0745;-10;-0.129408;1.042;0.015
19.1046;-10;0.0614459;1.052;0.014
19.1372;-10;-0.0893084;1.06;0.019
19.1796;10;-0.218542;1.066;0.025
19.2003;10;-0.220813;1.073;0.032
19.2344;10;-0.282986;1.083;0.038
19.2648;10;-0.284166;1.086;0.044
19.2966;10;-0.247786;1.088;0.051
19.3345;10;0.0856936;1.091;0.05
19.3609;-10;0.117846;1.086;0.049
19.394;-10;0.158174;1.079;0.045
19.4275;-10;0.139017;1.069;0.041
19.4587;-10;0.272085;1.062;0.035
19.4958;-10;0.0757613;1.059;0.035
19.5211;-10;0.10247;1.061;0.035
19.5544;-10;-0.13823;1.064;0.037
19.5851;10;-0.0738786;1.075;0.037
19.6174;10;-0.173784;1.084;0.038
19.6548;10;-0.118194;1.096;0.04
19.6813;10;-0.0613211;1.104;0.039
19.7198;10;-0.0282632;1.111;0.037
19.7449;10;0.0145515;1.113;0.036
19.7776;-10;0.104446;1.12;0.028
19.8142;-10;0.015936;1.125;0.026
19.8409;-10;0.227486;1.127;0.019
19.8779;-10;-0.00371831;1.139;0.013
19.9051;-10;-0.0107528;1.144;0.012
19.9379;-10;-0.196533;1.152;0.014
19.9744;10;-0.143925;1.162;0.015
20.0085;10;0.105047;1.175;0.02
20.0347;10;-0.248263;1.18;0.025
20.0645;10;-0.0778584;1.192;0.028
20.0986;10;-0.0064014;1.201;0.028
20.1344;10;-0.12411;1.211;0.027
20.161;-10;0.194968;1.215;0.023
20.1971;-10;0.103491;1.222;0.02
20.2249;-10;0.121861;1.229;0.014
20.2579;-10;0.233934;1.23;0.012
20.2937;-10;0.238229;1.227;0.008
20.3211;-10;0.191968;1.227;0.008
20.354;-10;0.0674397;1.222;0.009
20.3849;10;-0.0569489;1.216;0.015
20.4167;10;-0.0486223;1.209;0.02
20.4543;10;0.0156838;1.206;0.027
20.4807;10;-0.0448897;1.204;0.029
20.5216;10;0.111954;1.191;0.035
20.5449;10;0.135534;1.183;0.037
20.5786;-10;-0.329498;1.173;0.038
20.6145;-10;-0.109613;1.162;0.041
20.6403;-10;-0.211341;1.153;0.042
20.6747;-10;-0.063966;1.144;0.046
20.7051;-10;0.186777;1.136;0.049
20.7374;-10;-0.160586;1.136;0.051
20.7851;10;-0.158914;1.135;0.064
20.8038;10;-0.158914;1.135;0.064
20.8359;10;-0.229751;1.137;0.075
20.8643;10;-0.104425;1.137;0.077
20.8967;10;-0.243427;1.138;0.081
20.9343;10;0.196376;1.136;0.077
20.9613;-10;0.187242;1.136;0.073
20.9944;-10;0.0671889;1.137;0.069
21.0243;-10;0.126129;1.136;0.057
21.0578;-10;0.0929135;1.137;0.047
21.0953;-10;0.0929135;1.137;0.047
21.1204;-10;0.152622;1.146;0.031
21.1541;-10;0.0841602;1.155;0.027
21.185;10;-0.188881;1.167;0.022
21.2171;10;0.192724;1.173;0.019
21.2545;10;-0.0415417;1.188;0.016
21.2807;10;-0.353215;1.191;0.018
21.3142;10;-0.32254;1.197;0.019
21.3452;10;0.208428;1.192;0.019
21.3772;10;0.196927;1.188;0.019
21.4147;10;0.136803;1.181;0.022
21.4403;10;0.160244;1.172;0.024
21.4741;10;0.263138;1.156;0.029
21.5047;10;0.185048;1.147;0.033
21.5399;10;0.238856;1.136;0.037
21.5743;-10;0.313858;1.127;0.036
21.601;-10;0.124319;1.118;0.04
21.6345;-10;0.187024;1.103;0.043
21.6651;-10;0.244051;1.1;0.043
21.697;-10;0.295147;1.091;0.043
21.7337;-10;-0.212471;1.095;0.045
21.761;-10;-0.00167435;1.099;0.041
21.794;-10;-0.177381;1.106;0.041
21.825;-10;-0.161815;1.118;0.039
21.8575;-10;-0.128486;1.125;0.036
21.9004;-10;0.0557235;1.136;0.031
21.9209;-10;-0.242016;1.146;0.03
21.9539;-10;-0.202833;1.157;0.027
21.9848;-10;-0.20433;1.168;0.025
22.0248;-10;-0.390744;1.18;0.024
22.0553;-10;-0.186973;1.19;0.023
22.0811;-10;-0.354039;1.194;0.027
22.1133;-10;0.0932718;1.193;0.029
22.1443;-10;-0.0869837;1.193;0.036
22.1776;-10;-0.220021;1.189;0.044
22.2139;-10;-0.20846;1.182;0.056
22.2412;-10;-0.274424;1.181;0.062
22.2737;-10;-0.164838;1.177;0.067
22.3043;-10;-0.315735;1.18;0.073
22.337;-10;-0.262355;1.186;0.08
22.3743;-10;-0.244264;1.194;0.085
22.4009;-10;-0.287296;1.202;0.088
22.4383;-10;-0.247971;1.216;0.091
22.4651;-10;-0.0806446;1.227;0.092
22.4973;-10;-0.0988683;1.239;0.093
22.534;-10;-0.191268;1.251;0.094
22.5613;10;-0.121516;1.261;0.099
22.6053;10;-0.338961;1.273;0.104
22.6251;10;-0.132747;1.282;0.105
22.6569;10;-0.305215;1.292;0.11
22.6944;10;-0.278388;1.293;0.11
22.7209;10;-0.238744;1.293;0.11
22.7662;10;0.262493;1.285;0.104
22.7851;-10;0.191835;1.276;0.104
22.8163;-10;0.161089;1.273;0.103
22.8544;-10;0.19737;1.262;0.101
22.8811;-10;0.146578;1.254;0.1
22.9143;-10;0.128259;1.245;0.1
22.9449;-10;-0.136387;1.24;0.101
22.9771;10;-0.16607;1.23;0.106
23.0195;10;-0.293369;1.227;0.11
23.0404;10;-0.21486;1.221;0.118
23.0741;10;-0.126256;1.217;0.122
23.1044;10;0.0663837;1.209;0.121
23.1374;10;0.121998;1.198;0.12
23.1747;10;0.182007;1.184;0.12
23.2006;10;0.13316;1.175;0.12
23.2339;10;0.24107;1.166;0.116
23.2652;10;0.322889;1.158;0.112
23.2964;10;-0.0035526;1.159;0.107
23.3337;10;0.300702;1.154;0.101
23.3613;10;0.230842;1.159;0.091
23.3945;10;0.125667;1.163;0.082
23.4246;10;0.201413;1.164;0.074
23.4567;10;0.235584;1.162;0.064
23.4943;10;0.0229503;1.169;0.055
23.5212;10;0.129622;1.171;0.048
23.554;10;0.185926;1.171;0.038
23.5845;-10;0.159066;1.171;0.035
23.6169;-10;0.190414;1.173;0.021
23.6544;-10;0.140195;1.173;0.013
23.6812;-10;0.0455758;1.174;0.01
23.7147;-10;0.189794;1.17;0.011
23.7449;-10;-0.136827;1.17;0.013
23.7773;-10;-0.0597699;1.168;0.018
23.8142;-10;-0.0888332;1.164;0.027
23.8406;-10;-0.152669;1.164;0.034
23.8746;-10;-0.179868;1.17;0.039
23.9044;-10;-0.246407;1.173;0.041
23.9375;-10;-0.237386;1.18;0.042
23.9746;10;-0.220847;1.19;0.04
24.0007;10;-0.182814;1.202;0.036
24.044;10;-0.175169;1.213;0.032
24.0652;10;-0.293561;1.219;0.031
24.0975;10;-0.266779;1.219;0.031
24.1347;10;-0.330548;1.221;0.032
24.1607;-10;0.0586115;1.22;0.039
24.1955;-10;-0.0147748;1.213;0.046
24.2251;-10;0.0790357;1.202;0.057
24.2578;-10;0.267976;1.196;0.06
24.298;-10;0.257196;1.191;0.062
24.3211;-10;0.283497;1.188;0.06
24.3548;-10;0.0525713;1.191;0.054
24.3849;-10;0.0855977;1.193;0.046
24.4171;-10;-0.193354;1.202;0.039
24.4547;-10;-0.249052;1.207;0.03
24.4812;-10;-0.298068;1.21;0.031
24.5148;-10;-0.250709;1.21;0.031
24.5448;-10;0.0984551;1.21;0.037
24.5773;-10;0.0485684;1.209;0.042
24.6144;-10;-0.0466898;1.214;0.051
24.6462;-10;-0.100434;1.214;0.06
24.6752;-10;-0.198431;1.218;0.064
24.7047;-10;-0.257686;1.221;0.064
24.7363;-10;-0.216731;1.223;0.063
24.7743;10;-0.11547;1.227;0.056
24.8114;10;-0.160577;1.235;0.045
24.8381;10;-0.0549335;1.238;0.038
24.8649;10;-0.0549335;1.238;0.038
24.8971;10;0.168788;1.246;0.029
24.9347;10;-0.315151;1.248;0.029
24.961;-10;0.227955;1.245;0.031
24.994;-10;0.152303;1.24;0.038
25.0245;-10;0.144524;1.232;0.047
25.0697;-10;0.172801;1.225;0.055
25.0953;-10;0.253772;1.221;0.055
25.1205;-10;-0.12976;1.222;0.053
25.1591;-10;-0.0890439;1.225;0.042
25.1851;-10;-0.16368;1.228;0.039
25.2205;-10;-0.129048;1.233;0.028
25.2541;-10;-0.107961;1.234;0.021
25.2812;-10;-0.205564;1.237;0.016
25.3207;-10;-0.27415;1.245;0.019
25.3453;-10;-0.159347;1.247;0.021
25.3791;10;-0.13605;1.251;0.029
25.4251;10;-0.233983;1.256;0.031
25.4421;10;-0.268129;1.264;0.041
25.4744;10;-0.271491;1.268;0.047
25.5052;10;-0.280509;1.27;0.047
25.5374;10;0.0319704;1.27;0.04
25.5896;10;0.0813254;1.265;0.031
25.6034;10;0.0332932;1.264;0.028
25.6346;10;0.119349;1.26;0.024
25.6646;10;0.148111;1.255;0.02
25.7005;10;0.0517499;1.251;0.012
25.7344;10;0.269829;1.245;0.012
25.7605;10;0.187031;1.242;0.021
25.7949;10;0.128456;1.24;0.031
25.8283;10;0.199743;1.238;0.04
25.8575;10;0.209265;1.236;0.05
25.8941;10;0.306747;1.232;0.053
25.9207;10;0.305994;1.23;0.054
25.9541;10;0.210326;1.222;0.055
25.9867;-10;0.282983;1.215;0.055
26.0192;-10;0.256202;1.203;0.05
26.0544;-10;0.256202;1.203;0.05
26.0807;-10;0.286228;1.19;0.045
26.1139;-10;0.274473;1.188;0.049
26.1452;-10;-0.22524;1.192;0.05
26.1764;-10;-0.170184;1.197;0.055
26.2182;-10;-0.139898;1.204;0.056
26.241;-10;-0.0427482;1.213;0.064
26.2751;-10;-0.170138;1.223;0.067
26.3049;-10;-0.252048;1.232;0.068
26.3371;-10;-0.192178;1.241;0.074
26.3749;10;-0.258718;1.25;0.077
26.4012;10;-0.111768;1.257;0.082
26.4346;10;-0.284599;1.267;0.085
26.4645;10;-0.118095;1.274;0.09
26.4974;10;0.0674516;1.282;0.117
26.5349;10;0.383966;1.276;0.103
26.5612;10;0.0344727;1.28;0.113
26.5941;10;0.628894;1.277;0.123
26.6243;10;0.516763;1.277;0.137
26.6568;10;0.286679;1.274;0.148
26.6941;10;0.110591;1.276;0.158
26.7203;10;0.110591;1.276;0.158
26.7613;10;0.409939;1.272;0.177
26.785;-10;0.409939;1.272;0.177
26.8172;-10;0.100622;1.276;0.204
26.8614;-10;0.491435;1.274;0.205
26.8807;-10;0.207645;1.275;0.214
26.9158;-10;-0.0310228;1.277;0.223
26.9452;-10;0.0547001;1.282;0.229
26.9772;-10;-0.248951;1.285;0.23
27.0136;-10;0.0301538;1.298;0.239
27.0409;-10;-0.219782;1.301;0.239
27.0744;-10;-0.138434;1.308;0.241
27.1044;-10;-0.24471;1.31;0.237
27.1364;-10;-0.156799;1.308;0.23
27.175;10;-0.00892255;1.302;0.222
27.2003;10;0.0571222;1.298;0.219
27.2344;10;-0.184676;1.301;0.204
27.2646;10;-0.256616;1.301;0.195
27.2965;10;0.122223;1.293;0.186
27.3423;10;-0.112925;1.292;0.183
27.3609;-10;0.0742004;1.285;0.178
27.3941;-10;0.448843;1.285;0.19
27.4253;-10;0.358793;1.268;0.17
27.4577;-10;0.354408;1.26;0.167
27.4935;-10;0.449092;1.252;0.168
27.521;-10;-0.295106;1.258;0.172
27.5534;-10;0.440241;1.256;0.194
27.5853;10;-0.150016;1.267;0.176
27.6225;10;-0.319445;1.275;0.18
27.6541;10;0.637529;1.279;0.185
27.6809;10;-0.491074;1.294;0.187
27.7138;10;-0.0398298;1.294;0.193
27.7451;10;0.0468324;1.297;0.203
27.7771;-10;0.312895;1.297;0.213
27.8137;-10;0.0365086;1.302;0.219
27.8409;-10;0.325261;1.299;0.232
27.874;-10;-0.0451885;1.309;0.24
27.9051;-10;0.314552;1.308;0.246
27.9373;-10;0.249567;1.312;0.25
27.9733;-10;0.00814096;1.322;0.254
28.0008;-10;-0.201931;1.328;0.255
28.0347;-10;-0.144042;1.333;0.257
28.0648;-10;-0.295952;1.339;0.259
28.097;-10;-0.196134;1.343;0.258
28.1351;-10;-0.170581;1.341;0.244
28.1605;-10;-0.235202;1.342;0.241
28.1949;-10;-0.111156;1.342;0.23
28.2249;-10;-0.232096;1.344;0.22
28.2571;-10;-0.0915992;1.339;0.21
28.3071;-10;-0.537507;1.337;0.2
28.3219;-10;-0.109351;1.334;0.191
28.3543;-10;-0.776745;1.356;0.184
28.3848;-10;-0.627995;1.328;0.167
28.4189;-10;-0.641761;1.33;0.158
28.4551;-10;-0.340819;1.328;0.15
28.4813;-10;-0.457674;1.328;0.138
28.5143;-10;-0.271933;1.327;0.126
28.5448;-10;-0.226672;1.325;0.119
28.5784;-10;-0.589746;1.323;0.109
28.6147;-10;-0.516187;1.321;0.099
28.6431;-10;0.233704;1.32;0.09
28.6742;-10;-1.07643;1.319;0.083
28.705;-10;-0.131636;1.317;0.081
28.7381;-10;-0.527271;1.324;0.078
28.7738;10;0.391742;1.327;0.101
28.8052;10;0.578319;1.343;0.099
28.8347;10;-0.972369;1.35;0.081
28.8645;10;-0.703978;1.354;0.078
28.897;10;0.296878;1.356;0.075
28.9341;10;-0.12631;1.357;0.073
28.9611;-10;-0.135082;1.347;0.05
28.9949;-10;0.309357;1.348;0.067
29.0246;-10;-0.33754;1.34;0.064
29.0571;-10;-0.563796;1.33;0.06
29.0948;-10;0.949461;1.327;0.061
29.1212;-10;-0.237021;1.33;0.065
29.1541;-10;-0.0962746;1.331;0.066
29.1847;-10;-0.125139;1.339;0.073
29.2172;-10;-0.0796253;1.358;0.088
29.2536;-10;-0.0784715;1.355;0.077
29.2812;-10;-0.395233;1.365;0.081
29.3131;-10;0.735333;1.37;0.105
29.3447;-10;-1.40593;1.385;0.086
29.3767;10;-0.799737;1.39;0.087
29.4292;10;1.05438;1.406;0.112
29.4439;10;-1.13906;1.408;0.089
29.4741;10;1.44535;1.413;0.113
29.5044;10;0.599007;1.414;0.086
29.5365;10;-1.59297;1.419;0.101
29.5739;-10;1.19927;1.404;0.084
29.6102;-10;0.810497;1.395;0.083
29.6354;-10;0.674981;1.389;0.083
29.6644;-10;-0.581665;1.386;0.082
29.6964;-10;0.478356;1.373;0.108
29.751;-10;-0.215572;1.378;0.079
29.7721;10;-1.22086;1.379;0.074
29.8032;10;-0.85758;1.396;0.094
29.8245;10;-1.07595;1.401;0.092
29.8564;10;-1.4444;1.41;0.091
29.8983;10;-1.11584;1.419;0.092
29.921;10;-0.811551;1.419;0.092
29.9537;10;-1.0627;1.42;0.071
29.9844;-10;-1.77954;1.42;0.068
30.0208;-10;1.6786;1.405;0.116
30.0544;-10;-1.56843;1.401;0.093
30.0812;-10;0.714809;1.413;0.104
30.1134;-10;1.49284;1.387;0.109
30.1451;-10;-0.872893;1.372;0.064
30.189;10;-0.846498;1.363;0.055
30.2152;10;-1.22169;1.366;0.062
30.2407;10;-1.02534;1.365;0.057
30.2732;10;-0.49727;1.384;0.055
30.3096;10;2.03473;1.383;0.056
30.3383;10;1.67781;1.361;0.054
30.3743;-10;0.55135;1.363;0.058
30.401;-10;0.55135;1.363;0.058
30.4344;-10;-1.50453;1.377;0.072
30.465;-10;0.988426;1.379;0.103
30.497;-10;1.36889;1.377;0.107
30.5338;-10;-1.37424;1.375;0.085
30.561;10;-0.548321;1.377;0.085
30.5938;10;-0.746324;1.365;0.077
30.625;10;-0.909891;1.362;0.067
30.6568;10;-0.759073;1.378;0.064
30.7019;10;0.00497349;1.343;0.057
30.7208;10;0.57936;1.336;0.057
30.7533;10;1.01909;1.334;0.059
30.7844;-10;0.276393;1.332;0.067
30.8172;-10;-0.905331;1.312;0.058
30.8536;-10;0.609252;1.3;0.056
30.8804;-10;1.15596;1.299;0.058
30.9232;-10;-0.0236645;1.303;0.062
30.9445;-10;-0.730035;1.305;0.062
30.9765;10;-0.409827;1.31;0.065
31.0234;10;-0.370389;1.323;0.069
31.0407;10;0.292322;1.329;0.089
31.0733;10;-0.609014;1.33;0.074
31.1075;10;-0.715138;1.333;0.074
31.1379;10;-0.419115;1.333;0.07
31.1737;-10;0.761958;1.328;0.067
31.208;-10;0.929343;1.311;0.086
31.2347;-10;0.842466;1.307;0.087
31.265;-10;0.470772;1.304;0.06
31.3091;-10;1.49899;1.289;0.075
31.3356;-10;-1.30408;1.294;0.047
31.3612;-10;-0.390599;1.289;0.036
31.3968;-10;-0.129258;1.282;0.027
31.4245;-10;-0.874844;1.284;0.018
31.4563;-10;-0.227445;1.283;0.008
31.4936;-10;-0.171259;1.282;-0.004
31.5204;-10;-0.245979;1.282;-0.014
31.554;-10;-0.128563;1.281;-0.02
31.5843;10;-0.288466;1.281;-0.033
31.6164;10;-0.131836;1.281;-0.045
31.6534;10;-0.131836;1.281;-0.045
31.6804;10;-0.300086;1.286;-0.058
31.7291;10;-0.0681072;1.289;-0.057
31.7455;10;-0.0681072;1.289;-0.057
31.7764;-10;0.18167;1.287;-0.049
31.8277;-10;-0.123039;1.289;-0.035
31.8421;-10;-0.123039;1.289;-0.035
31.8739;-10;0.0371509;1.286;-0.019
31.9048;-10;0.0458806;1.286;-0.019
31.9364;-10;-0.280315;1.286;-0.018
31.9807;10;-0.205903;1.287;-0.026
32.0008;10;-0.150449;1.286;-0.034
32.0481;10;-0.187522;1.289;-0.045
32.065;10;-0.117536;1.288;-0.054
32.0969;10;-0.28399;1.291;-0.06
32.1335;10;0.625171;1.29;-0.06
32.1612;-10;-0.0700286;1.295;-0.055
32.2091;-10;0.394729;1.303;-0.032
32.2246;-10;-0.0467911;1.298;-0.038
32.2607;-10;-0.1178;1.288;-0.04
32.2937;-10;-0.408103;1.301;-0.022
32.3207;-10;0.890139;1.301;0.006
32.3534;-10;-1.17461;1.309;-0.014
32.3849;10;-0.0197639;1.328;0.004
32.4176;10;-1.34841;1.325;-0.008
32.4534;10;-0.142693;1.319;-0.022
32.481;10;-0.0930515;1.333;-0.007
32.5243;10;0.0165642;1.324;-0.03
32.5444;10;0.0902807;1.343;-0.005
32.5785;-10;-0.336554;1.325;-0.023
32.6134;-10;0.809665;1.322;-0.021
32.6405;-10;0.174862;1.31;-0.025
32.6846;-10;0.35725;1.305;-0.026
32.7046;-10;0.355816;1.303;-0.022
32.7368;-10;0.225319;1.303;-0.022
32.7854;10;0.147026;1.321;-0.004
32.8027;10;-0.207466;1.319;-0.016
32.8348;10;-0.32052;1.326;-0.014
32.865;10;-0.222578;1.328;-0.014
32.8963;10;-0.0793722;1.336;-0.012
32.934;10;0.000274898;1.346;-0.003
32.9604;10;-0.0607744;1.35;-0.002
32.9938;10;0.274422;1.353;0.008
33.0246;10;0.274422;1.353;0.008
33.0566;10;0.256582;1.362;0.024
33.0936;10;0.334359;1.361;0.028
33.1206;10;0.50517;1.361;0.027
33.1634;10;0.399414;1.355;0.029
33.1846;10;-0.0496805;1.346;0.031
33.2172;10;-0.537843;1.341;0.029
33.2537;10;-1.17233;1.328;0.031
33.2875;10;1.06719;1.322;0.034
33.3155;10;0.530094;1.312;0.034
33.3449;10;0.484892;1.301;0.034
33.3773;-10;0.570152;1.296;0.035
33.4138;-10;0.260603;1.289;0.034
33.4486;-10;0.260495;1.274;0.035
33.4743;-10;0.350247;1.272;0.037
33.5047;-10;-0.210122;1.262;0.027
33.5365;-10;-0.031743;1.254;0.019
33.5755;-10;-0.125342;1.251;0.011
33.601;-10;-0.171747;1.25;0.008
33.6424;-10;-0.136176;1.247;-0.007
33.665;-10;-0.343411;1.246;-0.013
33.6965;-10;-0.331719;1.248;-0.014
33.7354;-10;-0.220758;1.254;-0.013
33.7611;10;0.016273;1.256;-0.011
33.8028;10;0.017363;1.276;0.006
33.8248;10;-0.280937;1.273;-0.004
33.8569;10;-0.417072;1.282;-0.004
33.9089;10;0.634446;1.292;0.001
33.923;10;0.634446;1.292;0.001
33.9544;10;-0.0223662;1.303;0.009
33.9851;10;-0.670179;1.308;0.018
34.0178;10;0.538355;1.309;0.027
34.0611;10;-0.875007;1.313;0.018
34.0803;10;0.638689;1.318;0.046
34.1137;10;0.276784;1.321;0.054
34.1447;10;0.276784;1.321;0.054
34.1805;-10;0.58569;1.321;0.076
34.214;-10;0.259906;1.324;0.095
34.2437;-10;-0.00395216;1.336;0.112
34.275;-10;-0.0331281;1.338;0.122
34.305;-10;0.146021;1.33;0.116
34.3464;-10;-0.122564;1.339;0.126
34.3747;10;-0.122564;1.339;0.126
34.4012;10;0.181075;1.344;0.136
34.4404;10;-0.00578944;1.353;0.141
34.4652;10;-0.605606;1.358;0.14
34.4982;10;-0.411052;1.363;0.14
34.5348;10;-0.229273;1.351;0.122
34.5607;-10;0.30697;1.35;0.135
34.5937;-10;0.243982;1.344;0.132
34.6246;-10;0.411026;1.332;0.131
34.6567;-10;-0.0424182;1.329;0.129
34.6942;-10;-0.547049;1.323;0.133
34.7212;-10;0.383542;1.325;0.137
34.7545;-10;-0.602577;1.33;0.135
34.7848;-10;-0.274512;1.341;0.136
34.817;-10;-0.80014;1.347;0.137
34.8541;-10;-0.0975685;1.356;0.138
34.881;-10;-0.0975685;1.356;0.138
34.9143;-10;-0.277955;1.371;0.131
34.9508;-10;-0.562643;1.393;0.118
34.979;10;0.135202;1.402;0.141
35.0279;10;0.08558;1.406;0.125
35.0419;10;0.08558;1.406;0.125
35.074;10;-1.25926;1.412;0.12
35.1051;10;0.93058;1.417;0.154
35.1366;10;1.41238;1.422;0.157
35.1743;10;-1.68274;1.428;0.143
35.2008;10;1.82607;1.431;0.149
35.2334;10;1.39072;1.433;0.156
35.2651;10;1.50314;1.446;0.19
35.2962;10;-2.0504;1.437;0.149
35.3337;10;-0.21017;1.435;0.177
35.3613;10;1.49897;1.429;0.203
35.3938;10;1.59163;1.421;0.183
35.4251;10;0.801154;1.416;0.184
35.4566;10;0.872192;1.404;0.186
35.509;10;0.823074;1.399;0.212
35.5219;10;-0.669127;1.388;0.193
35.5544;10;0.325729;1.384;0.193
35.585;10;0.783127;1.374;0.196
35.6164;10;0.783296;1.363;0.202
35.6533;10;-0.427649;1.36;0.199
35.6809;10;0.265992;1.345;0.209
35.7141;10;0.181196;1.339;0.21
35.745;10;0.265001;1.327;0.22
35.7771;-10;0.259523;1.323;0.225
35.8141;-10;0.298553;1.319;0.228
35.8404;-10;0.0387102;1.312;0.23
35.8741;-10;-0.506767;1.308;0.21
35.9044;-10;0.67268;1.313;0.235
35.9397;-10;-0.299714;1.317;0.23
35.9743;-10;-0.268875;1.322;0.229
36.0007;-10;-0.26638;1.328;0.223
36.0335;-10;-0.355665;1.331;0.217
36.0653;-10;0.206053;1.334;0.215
36.0963;-10;-0.24056;1.331;0.21
36.1339;-10;-0.0997546;1.329;0.21
36.1706;10;-0.173778;1.313;0.206
36.1956;10;-0.173778;1.313;0.206
36.2245;10;-0.17411;1.303;0.204
36.2567;10;-0.255623;1.286;0.201
36.2942;10;-0.218916;1.279;0.2
36.3212;10;-0.108189;1.277;0.2
36.3541;10;0.15406;1.271;0.201
36.3848;10;0.0701103;1.278;0.2
36.4169;10;0.0933966;1.292;0.201
36.4536;10;0.195265;1.301;0.203
36.4811;10;0.0469137;1.308;0.202
36.514;10;0.199692;1.318;0.206
36.5446;10;0.203598;1.328;0.208
36.5776;10;0.183402;1.334;0.209
36.6289;10;0.107102;1.349;0.214
36.6404;10;0.254309;1.358;0.218
36.6741;10;0.373846;1.366;0.221
36.7051;10;0.275133;1.362;0.228
36.7367;10;0.061205;1.353;0.232
36.7912;-10;0.126036;1.346;0.239
36.8042;-10;0.0774736;1.343;0.24
36.8412;-10;0.22;1.337;0.247
36.8646;-10;0.204598;1.327;0.254
36.8978;-10;0.222353;1.321;0.257
36.9385;-10;0.265811;1.321;0.259
36.9611;10;0.120846;1.325;0.264
37.0077;10;-0.424124;1.332;0.258
37.0262;10;-0.0548819;1.338;0.257
37.0573;10;0.717791;1.332;0.27
37.0938;10;-0.825099;1.344;0.248
37.121;10;0.0283132;1.34;0.249
37.154;10;0.0870293;1.337;0.25
37.1849;-10;0.0893449;1.327;0.257
37.2179;-10;0.405199;1.323;0.264
37.2536;-10;0.436855;1.32;0.27
37.2808;-10;0.143095;1.311;0.274
37.3289;-10;0.260884;1.313;0.276
37.3452;-10;0.0805392;1.319;0.276
37.3768;10;-0.111014;1.321;0.273
37.4137;10;-0.060226;1.327;0.268
37.4411;10;0.00398732;1.333;0.263
37.4897;10;-0.246652;1.338;0.253
37.5074;10;0.108303;1.335;0.255
37.538;10;-0.191749;1.334;0.254
37.5742;10;0.262797;1.328;0.259
37.6012;10;-0.00146544;1.319;0.262
37.6334;10;-0.0461794;1.311;0.268
37.665;10;0.191604;1.31;0.275
37.6968;10;0.273021;1.313;0.276
37.7341;10;0.241423;1.319;0.276
37.7686;-10;0.0532751;1.327;0.275
37.7951;-10;0.0532751;1.327;0.275
37.8244;-10;0.232043;1.337;0.282
37.8578;-10;0.220929;1.356;0.286
37.8941;-10;0.220929;1.356;0.286
37.9204;-10;0.207457;1.36;0.287
37.9602;-10;-0.16284;1.354;0.286
37.9853;-10;-0.327319;1.352;0.284
38.0167;-10;-0.0269838;1.347;0.285
38.054;-10;-0.288705;1.336;0.283
38.0804;-10;-0.183491;1.325;0.28
38.1289;-10;-0.272084;1.328;0.271
38.1452;-10;-0.259334;1.328;0.266
38.1763;10;-0.211822;1.329;0.258
38.2138;10;-0.0608777;1.337;0.248
38.2409;10;-0.190272;1.338;0.245
38.274;10;-0.163911;1.339;0.238
38.3046;10;-0.157656;1.34;0.236
38.3364;10;-0.0489598;1.335;0.236
38.3738;-10;0.0566512;1.331;0.241
38.4008;-10;0.189873;1.327;0.245
38.4395;-10;0.213023;1.319;0.25
38.4647;-10;0.108897;1.311;0.253
38.4967;-10;-0.0686462;1.298;0.252
38.534;-10;-0.199322;1.293;0.249
38.5611;10;-0.161092;1.285;0.247
38.5937;10;-0.215009;1.276;0.243
38.6249;10;-0.215009;1.276;0.243
38.6567;10;0.0379599;1.254;0.237
38.7104;10;0.358853;1.246;0.237
38.7207;10;0.358853;1.246;0.237
38.754;10;-0.106186;1.236;0.239
38.7851;-10;0.279837;1.235;0.242
38.8174;-10;0.0426432;1.226;0.249
38.8621;-10;0.0542342;1.222;0.258
38.8808;-10;0.279028;1.222;0.262
38.9143;-10;-0.125278;1.224;0.263
38.9442;-10;0.194435;1.226;0.264
38.9875;10;0.0802226;1.23;0.258
39.0153;10;-0.0558789;1.235;0.254
39.0409;10;-0.184548;1.236;0.249
39.0748;10;-0.125823;1.246;0.239
39.1089;10;-0.312547;1.245;0.237
39.1387;10;-0.312547;1.245;0.237
39.1762;10;0.061458;1.263;0.233
39.2003;10;0.153564;1.281;0.236
39.2342;10;0.2271;1.292;0.238
39.2645;10;0.217397;1.298;0.241
39.2969;10;-0.780631;1.298;0.223
39.3498;10;0.709857;1.293;0.256
39.3613;-10;0.709857;1.293;0.256
39.3944;-10;0.396264;1.284;0.262
39.4243;-10;0.391501;1.277;0.266
39.4564;-10;-0.004799;1.262;0.273
39.4941;-10;0.723705;1.263;0.276
39.5211;-10;0.450626;1.265;0.279
39.5536;-10;-0.116643;1.265;0.28
39.5851;10;-0.0515683;1.274;0.279
39.6167;10;-0.167123;1.276;0.277
39.6542;10;-0.147974;1.285;0.274
39.6814;10;-0.1359;1.286;0.273
39.7199;10;0.438939;1.292;0.295
39.7452;10;0.385824;1.283;0.273
39.785;-10;0.253731;1.275;0.275
39.8138;-10;0.25704;1.275;0.275
39.8406;-10;0.425331;1.264;0.283
39.8746;-10;0.202104;1.257;0.287
39.9053;-10;0.035173;1.26;0.288
39.9369;-10;0.118105;1.262;0.29
39.9742;10;0.107548;1.262;0.29
40.0004;10;-0.150764;1.27;0.287
40.0346;10;-0.147674;1.282;0.286
40.065;10;-0.224663;1.292;0.282
40.0971;10;0.0269747;1.289;0.281
40.1338;10;-0.159828;1.292;0.276
40.1605;-10;-0.159828;1.292;0.276
40.1942;-10;0.174344;1.283;0.276
40.2249;-10;-0.0526238;1.275;0.275
40.2564;-10;0.0221314;1.265;0.273
40.2939;-10;0.0561221;1.261;0.275
40.3211;-10;0.235768;1.26;0.277
40.3535;-10;-0.147499;1.265;0.279
40.3846;-10;0.0298058;1.268;0.281
40.4171;-10;-0.0335758;1.275;0.283
40.4541;-10;-0.0992339;1.285;0.283
40.4806;-10;-0.177519;1.295;0.28
40.5147;-10;0.138122;1.303;0.282
40.5449;-10;-0.0700224;1.311;0.282
40.577;-10;-0.344975;1.323;0.274
40.6138;-10;-0.170677;1.331;0.275
40.6487;-10;-0.187633;1.338;0.272
40.6755;-10;-0.216156;1.345;0.27
40.7045;-10;-0.0176083;1.34;0.264
40.7374;-10;0.839538;1.341;0.283
40.7737;-10;-0.00305232;1.329;0.253
40.8005;-10;-0.552939;1.322;0.247
40.8347;-10;-0.496227;1.315;0.241
40.865;-10;-0.340509;1.31;0.237
40.9075;-10;-0.381455;1.311;0.232
40.935;-10;-0.0543077;1.315;0.23
40.9613;10;-0.0899183;1.32;0.229
40.9946;10;-0.117648;1.329;0.226
41.0254;10;-0.0348292;1.335;0.227
41.0578;10;-0.0869928;1.343;0.221
41.0939;10;-0.164979;1.345;0.217
41.1212;10;0.539789;1.346;0.24
41.1543;10;-0.648895;1.347;0.218
41.1851;-10;0.0585607;1.338;0.217
41.2213;-10;0.903134;1.327;0.243
41.2539;-10;-0.816657;1.32;0.222
41.2811;-10;-0.597644;1.32;0.222
41.314;-10;-0.332217;1.321;0.224
41.3491;-10;0.333735;1.329;0.228
41.3787;10;-0.323663;1.338;0.224
41.4135;10;-0.0186486;1.346;0.224
41.4405;10;-0.0215453;1.355;0.219
41.4735;10;-0.29581;1.353;0.215
41.5053;10;0.167436;1.356;0.213
41.5363;10;-0.110278;1.345;0.212
41.5817;-10;0.133755;1.342;0.218
41.601;-10;0.122472;1.338;0.22
41.6339;-10;0.129785;1.332;0.224
41.6648;-10;0.0501475;1.316;0.23
41.7014;-10;0.285755;1.322;0.231
41.7342;-10;0.165418;1.321;0.232
41.7681;-10;0.00472571;1.327;0.23
41.7952;-10;0.0343582;1.338;0.229
41.8244;-10;-0.279376;1.341;0.222
41.8588;-10;-0.0805458;1.345;0.219
41.8948;-10;0.211111;1.347;0.215
41.9209;-10;0.505978;1.34;0.211
41.9547;-10;0.0579575;1.337;0.213
41.9848;-10;-0.297509;1.323;0.211
42.0174;-10;-0.425855;1.319;0.21
42.0543;-10;-0.394297;1.303;0.204
42.0808;-10;-0.131736;1.297;0.204
42.1151;-10;-0.137649;1.287;0.203
42.1485;-10;-0.254378;1.276;0.201
42.1784;-10;-0.326899;1.274;0.199
42.2145;-10;-0.205033;1.253;0.201
42.241;-10;-0.306312;1.249;0.199
42.289;-10;-0.191633;1.237;0.191
42.3051;-10;-0.304279;1.234;0.19
42.3377;-10;-0.0725688;1.236;0.183
42.3739;10;-0.136851;1.237;0.174
42.4005;10;-0.280746;1.235;0.167
42.435;10;-0.272056;1.239;0.156
42.4652;10;-0.107397;1.241;0.149
42.4966;10;-0.287312;1.234;0.146
42.534;10;-0.287312;1.234;0.146
42.5607;-10;0.0431545;1.235;0.155
42.5936;-10;0.0516429;1.233;0.164
42.6252;-10;0.108367;1.232;0.172
42.6612;-10;0.186181;1.233;0.178
42.6939;-10;0.163763;1.237;0.179
42.7204;-10;0.103285;1.238;0.176
42.7706;-10;-0.109778;1.239;0.17
42.7863;10;-0.0242827;1.241;0.166
42.8162;10;-0.0588007;1.242;0.159
42.854;10;-0.145962;1.243;0.152
42.8803;10;-0.10039;1.244;0.148
42.9151;10;-0.200029;1.239;0.145
42.9448;10;-0.0424187;1.235;0.148
42.9786;-10;0.178231;1.237;0.152
43.0158;-10;-0.023597;1.234;0.158
43.0413;-10;0.0225127;1.227;0.168
43.0753;-10;-0.117791;1.226;0.175
43.1048;-10;-0.110283;1.226;0.175
43.1384;-10;0.152179;1.234;0.174
43.1767;10;0.152179;1.234;0.174
43.2005;10;-0.0346417;1.242;0.162
43.2341;10;-0.198318;1.245;0.156
43.2645;10;-0.288824;1.244;0.149
43.3099;10;-0.281723;1.245;0.147
43.3355;10;0.0561943;1.242;0.151
43.3611;-10;0.0463909;1.239;0.154
43.3941;-10;0.211981;1.238;0.159
43.4246;-10;-0.00166894;1.227;0.167
43.4709;-10;0.234168;1.227;0.177
43.4965;-10;0.238578;1.227;0.179
43.5214;-10;0.237124;1.227;0.181
43.5541;-10;-0.239849;1.227;0.175
43.5849;-10;-0.0819495;1.233;0.168
43.6169;-10;-0.248209;1.236;0.162
43.6539;-10;-0.248209;1.236;0.162
43.6809;-10;-0.19336;1.24;0.151
43.722;-10;-0.223561;1.233;0.147
43.7451;-10;-0.337253;1.226;0.142
43.7769;10;-0.307965;1.214;0.139
43.819;10;-0.229159;1.203;0.139
43.8405;10;-0.234595;1.191;0.138
43.8741;10;-0.239026;1.186;0.14
43.9044;10;0.311581;1.182;0.144
43.9363;10;-0.0599963;1.178;0.147
43.9738;10;0.0876434;1.174;0.157
44.001;10;-0.0379898;1.173;0.158
44.0335;10;0.273949;1.174;0.166
44.0644;10;0.134006;1.172;0.174
44.0965;10;0.0487755;1.172;0.183
44.1338;10;0.0498098;1.171;0.192
44.1612;-10;0.0539094;1.171;0.201
44.1935;-10;0.269649;1.174;0.211
44.2243;-10;-0.0176069;1.171;0.22
44.272;-10;0.23974;1.178;0.231
44.2959;-10;0.204627;1.179;0.233
44.3205;-10;-0.249472;1.179;0.235
44.3535;-10;-0.00449611;1.181;0.229
44.3846;10;-0.135332;1.178;0.221
44.4287;10;-0.155147;1.177;0.21
44.4549;10;-0.162455;1.176;0.207
44.4809;10;-0.213903;1.173;0.202
44.5205;10;-0.119781;1.172;0.202
44.5447;10;0.17757;1.171;0.209
44.578;-10;0.141589;1.169;0.216
44.6139;-10;0.0968257;1.165;0.224
44.6405;-10;0.0523966;1.161;0.23
44.6734;-10;0.244169;1.164;0.238
44.7045;-10;0.188009;1.167;0.239
44.7374;-10;-0.0784662;1.171;0.237
44.7742;10;-0.0687771;1.172;0.231
44.8004;10;0.139885;1.176;0.227
44.8519;10;-0.0492784;1.179;0.214
44.8673;10;0.106329;1.183;0.211
44.8971;10;-0.00298441;1.184;0.209
44.9336;10;0.213203;1.196;0.199
44.9707;10;0.189099;1.203;0.194
45.0133;10;0.283004;1.22;0.184
45.0256;10;0.283004;1.22;0.184
45.058;10;0.366279;1.231;0.174
45.0937;10;0.371635;1.24;0.169
45.1206;10;0.164138;1.241;0.172
45.1542;10;-0.215158;1.243;0.172
45.1849;-10;0.273842;1.248;0.175
45.2166;-10;0.145586;1.253;0.185
45.2534;-10;0.0525689;1.253;0.193
45.2813;-10;0.175177;1.26;0.198
45.3141;-10;0.21233;1.264;0.197
45.3453;-10;-0.191558;1.261;0.193
45.3766;10;0.206904;1.265;0.191
45.414;10;0.0672835;1.261;0.183
45.4411;10;-0.237537;1.253;0.174
45.4743;10;0.101083;1.253;0.171
45.5054;10;-0.0805226;1.252;0.167
45.5365;10;-0.0408851;1.251;0.172
45.5735;-10;0.11254;1.253;0.175
45.6009;-10;0.0364177;1.252;0.185
45.6338;-10;0.164306;1.257;0.192
45.6651;-10;-0.0882714;1.257;0.201
45.6971;-10;0.0157633;1.255;0.211
45.7339;-10;-0.18238;1.248;0.217
45.7611;10;-0.110841;1.242;0.226
45.7961;10;-0.0228776;1.234;0.235
45.825;10;-0.307145;1.224;0.243
45.8682;10;-0.272613;1.221;0.249
45.8947;10;-0.261325;1.216;0.252
45.9205;10;0.248337;1.217;0.247
45.9538;10;0.0554934;1.216;0.244
45.9849;10;0.150843;1.22;0.236
46.0187;10;0.151264;1.224;0.227
46.054;10;-0.0245699;1.225;0.22
46.0807;10;0.238062;1.23;0.218
46.1138;10;0.2669;1.235;0.221
46.1449;10;-0.0881653;1.233;0.224
46.1884;-10;0.160497;1.242;0.234
46.2151;-10;0.117268;1.244;0.238
46.2409;-10;0.0358592;1.247;0.246
46.2735;-10;0.217788;1.251;0.249
46.3047;-10;0.201168;1.254;0.252
46.3364;-10;-0.151607;1.251;0.249
46.3896;-10;-0.0167968;1.25;0.243
46.4029;-10;-0.139044;1.246;0.238
46.4342;-10;-0.0313181;1.243;0.228
46.4651;-10;-0.127961;1.239;0.219
46.5;-10;-0.282687;1.233;0.212
46.5341;-10;-0.304392;1.225;0.211
46.561;10;-0.149321;1.222;0.213
46.5946;10;-0.268553;1.212;0.219
46.629;10;-0.183009;1.205;0.225
46.6591;10;-0.223977;1.197;0.231
46.6947;10;-0.182005;1.194;0.238
46.7298;10;0.0302685;1.193;0.247
46.756;10;0.0489411;1.194;0.253
46.785;-10;0.211418;1.196;0.261
46.8165;-10;0.211418;1.196;0.261
46.8538;-10;0.205865;1.201;0.275
46.8807;-10;0.272988;1.203;0.275
46.9141;-10;0.238263;1.203;0.275
46.9486;-10;0.106891;1.204;0.271
46.9785;10;-0.0570048;1.202;0.265
47.0138;10;-0.0752232;1.197;0.255
47.0407;10;-0.0210348;1.197;0.249
47.08;10;0.163968;1.198;0.236
47.1044;10;0.0110326;1.198;0.234
47.1373;10;0.0868901;1.202;0.224
47.1798;-10;0.202433;1.205;0.22
47.2006;-10;0.314499;1.215;0.204
47.2338;-10;0.244966;1.22;0.194
47.2643;-10;0.256006;1.223;0.185
47.2964;-10;0.134737;1.227;0.177
47.3344;-10;-0.0156413;1.226;0.175
47.3686;10;0.196261;1.229;0.176
47.3952;10;0.196261;1.229;0.176
47.4253;10;-0.0884667;1.232;0.19
47.457;10;-0.0795432;1.23;0.197
47.5079;10;0.169167;1.229;0.204
47.522;10;-0.248268;1.226;0.207
47.554;10;0.25872;1.229;0.204
47.5847;-10;0.240239;1.231;0.197
47.6176;-10;0.190168;1.232;0.19
47.6575;-10;0.230005;1.234;0.18
47.6806;-10;0.271134;1.237;0.173
47.7228;-10;0.283305;1.239;0.173
47.7453;-10;-0.0201345;1.24;0.177
47.777;10;-0.0465854;1.243;0.187
47.8143;10;-0.0989893;1.246;0.195
47.8412;10;-0.238588;1.244;0.205
47.8747;10;-0.0925573;1.245;0.21
47.9046;10;-0.0807233;1.245;0.21
47.9371;10;0.113221;1.241;0.205
47.9752;-10;0.0231319;1.238;0.202
48.0008;-10;0.0897799;1.233;0.193
48.0345;-10;0.126055;1.229;0.185
48.0708;-10;0.00229312;1.223;0.177
48.0993;-10;0.318631;1.225;0.173
48.1344;-10;0.288296;1.226;0.172
48.1605;10;0.0388698;1.232;0.172
48.1934;10;-0.0229932;1.238;0.177
48.2248;10;-0.0726259;1.243;0.183
48.2565;10;-0.02934;1.248;0.192
48.3106;10;0.213385;1.254;0.196
48.3232;10;0.136657;1.263;0.201
48.354;10;0.148736;1.274;0.204
48.3867;10;0.0685724;1.276;0.205
48.417;10;0.268512;1.293;0.205
48.4545;10;0.300053;1.3;0.204
48.4807;10;0.181475;1.305;0.205
48.5196;10;0.328241;1.306;0.201
48.5449;10;0.276585;1.309;0.191
48.5771;10;0.231468;1.305;0.179
48.6193;10;0.100241;1.302;0.175
48.6413;10;0.224118;1.3;0.16
48.6743;10;0.297429;1.301;0.156
48.7043;10;0.317025;1.303;0.152
48.7364;10;0.208374;1.308;0.146
48.7884;-10;0.208194;1.319;0.144
48.8035;-10;-0.112392;1.332;0.158
48.834;-10;0.576983;1.333;0.141
48.865;-10;0.173683;1.343;0.145
48.8967;-10;-0.156698;1.344;0.141
48.9424;-10;0.648313;1.348;0.138
48.9618;10;0.236987;1.348;0.139
48.9959;10;-0.173295;1.337;0.137
49.0246;10;0.191973;1.339;0.137
49.0564;10;-0.100298;1.33;0.132
49.094;10;-0.0454588;1.317;0.123
49.1206;10;0.308745;1.32;0.119
49.1538;10;0.0430917;1.314;0.112
49.1847;10;0.311757;1.312;0.104
49.2172;10;0.358293;1.313;0.093
49.254;10;-0.12868;1.304;0.086
49.2895;10;0.156676;1.305;0.075
49.3151;10;0.209682;1.311;0.074
49.3448;10;0.252477;1.31;0.067
49.3767;-10;0.0438331;1.319;0.069
49.4197;-10;0.112969;1.328;0.067
49.4409;-10;0.107294;1.339;0.069
49.474;-10;0.198361;1.34;0.065
49.5048;-10;0.106566;1.343;0.066
49.5367;-10;-0.153039;1.337;0.062
49.5891;10;-0.0491465;1.333;0.057
49.6028;10;-0.0250762;1.326;0.056
49.6342;10;-0.127224;1.323;0.055
49.6651;10;-0.0502427;1.308;0.051
49.7102;10;0.0183836;1.301;0.054
49.7354;10;0.0317972;1.301;0.054
49.7605;-10;0.189726;1.305;0.056
49.8103;-10;-0.121257;1.31;0.064
49.8253;-10;0.15329;1.315;0.067
49.857;-10;0.1094;1.323;0.071
49.9097;-10;-0.237607;1.328;0.085
49.9209;-10;-0.0415066;1.329;0.089
49.9663;-10;-0.0438476;1.329;0.101
49.9845;10;-0.224817;1.329;0.11
50.0178;10;-0.27977;1.328;0.119
50.0547;10;-0.253491;1.325;0.127
50.0808;10;-0.180944;1.323;0.134
50.1142;10;-0.216956;1.322;0.137
50.1443;10;-0.189505;1.322;0.137
50.1775;-10;0.126307;1.32;0.133
50.2287;-10;0.0515756;1.312;0.12
50.2433;-10;0.0648335;1.309;0.115
50.2744;-10;0.175827;1.308;0.106
50.3053;-10;-0.313229;1.314;0.126
50.3373;-10;0.599476;1.317;0.109
50.3743;10;-0.175462;1.322;0.116
50.4094;10;-0.733814;1.317;0.12
50.4348;10;-0.0498788;1.324;0.129
50.4644;10;0.0580093;1.329;0.137
50.4973;10;-0.581053;1.325;0.138
50.5481;10;-0.294226;1.321;0.139
50.5622;10;0.0923284;1.318;0.13
50.5946;10;0.314598;1.321;0.122
50.6246;10;0.0627365;1.318;0.113
50.6563;10;0.00646309;1.318;0.102
50.6941;10;0.353718;1.326;0.102
50.7206;10;-0.00669594;1.328;0.104
50.7609;10;0.249689;1.337;0.108
50.7848;-10;0.2582;1.342;0.112
50.8194;-10;0.607768;1.351;0.095
50.8539;-10;0.528211;1.359;0.119
50.8804;-10;-0.204172;1.362;0.127
50.9145;-10;-0.101192;1.37;0.133
50.9446;-10;-0.61288;1.373;0.142
50.9909;10;-0.336326;1.374;0.15
51.0161;10;-0.214397;1.373;0.162
51.0407;10;-0.118489;1.374;0.167
51.0765;10;-0.240918;1.373;0.182
51.1049;10;-0.337374;1.371;0.183
51.1379;10;-0.281817;1.367;0.182
51.1763;-10;0.0490009;1.366;0.178
51.2005;-10;0.183345;1.367;0.176
51.2358;-10;0.0685513;1.367;0.164
51.265;-10;0.111085;1.368;0.155
51.2974;-10;-0.0127417;1.366;0.149
51.3345;-10;-0.119914;1.362;0.141
51.3609;10;-0.277768;1.356;0.135
51.3948;10;-0.297928;1.346;0.13
51.4251;10;-0.237029;1.341;0.119
51.4632;10;0.040233;1.338;0.113
51.5006;10;-0.22833;1.33;0.112
51.5204;10;-0.295053;1.326;0.115
51.554;10;0.0773266;1.327;0.12
51.5844;-10;0.163915;1.335;0.127
51.6166;-10;-0.250145;1.334;0.132
51.6544;-10;0.254315;1.347;0.14
51.6812;-10;-0.0805751;1.345;0.146
51.7144;-10;-0.103859;1.35;0.157
51.7452;-10;-0.0831217;1.349;0.166
51.7764;10;-0.00399353;1.348;0.173
51.8142;10;0.0147666;1.345;0.183
51.8404;10;-0.232363;1.338;0.194
51.8743;10;-0.303519;1.334;0.193
51.9047;10;-0.0892091;1.336;0.196
51.9403;10;-0.499905;1.335;0.193
51.9742;-10;-0.0250622;1.335;0.191
52.0012;-10;0.646553;1.34;0.184
52.0339;-10;0.193138;1.348;0.169
52.0646;-10;0.448468;1.352;0.166
52.0964;-10;0.260534;1.356;0.165
52.1334;-10;-0.167796;1.355;0.164
52.1717;-10;-0.0563487;1.348;0.175
52.197;-10;-0.120102;1.343;0.182
52.2244;-10;-0.183013;1.338;0.188
52.2594;-10;-0.021433;1.338;0.192
52.2941;-10;0.0178094;1.326;0.212
52.3213;-10;-0.323508;1.324;0.214
52.3543;-10;-0.294705;1.315;0.226
52.3845;-10;-0.387272;1.312;0.233
52.4308;-10;-0.36522;1.301;0.247
52.4556;-10;0.0412113;1.297;0.254
52.4807;-10;-0.28265;1.293;0.257
52.5138;-10;-0.322532;1.288;0.253
52.5443;-10;-0.208438;1.287;0.249
52.5823;10;-0.166028;1.286;0.245
52.6142;10;-0.17511;1.284;0.236
52.6406;10;-0.0815501;1.284;0.232
52.6741;10;0.130778;1.284;0.219
52.7046;10;0.031417;1.286;0.216
52.7365;10;-0.0346929;1.293;0.203
52.7743;-10;0.0672791;1.298;0.197
52.8113;-10;0.16335;1.31;0.191
52.8361;-10;0.0956043;1.321;0.185
52.8646;-10;0.091962;1.328;0.182
52.8966;-10;-0.284948;1.325;0.183
52.9348;-10;0.249999;1.327;0.183
52.9721;10;-0.192322;1.32;0.186
52.9972;10;-0.155252;1.311;0.193
53.0244;10;-0.0797415;1.31;0.194
53.0584;10;-0.170756;1.298;0.179
53.1083;10;0.122299;1.294;0.201
53.1228;10;0.379409;1.291;0.201
53.1543;10;-0.232114;1.289;0.2
53.185;-10;0.0729074;1.292;0.195
53.2164;-10;0.170913;1.298;0.192
53.2688;-10;0.13529;1.311;0.182
53.2807;-10;-0.251081;1.308;0.18
53.314;-10;0.256669;1.317;0.174
53.3453;-10;0.0736931;1.32;0.166
53.3775;-10;-0.171174;1.317;0.158
53.4205;-10;-0.184733;1.317;0.152
53.4411;-10;-0.0879157;1.319;0.142
53.4741;-10;-0.172212;1.318;0.136
53.5095;-10;-0.00364747;1.319;0.128
53.5382;-10;0.0226597;1.32;0.117
53.5744;10;0.191401;1.322;0.109
53.6011;10;0.1538;1.321;0.099
53.6341;10;-0.275684;1.322;0.091
53.6704;10;-0.288352;1.318;0.082
53.6967;10;0.354736;1.323;0.082
53.7343;10;0.36786;1.322;0.084
53.7608;-10;-0.013587;1.318;0.091
53.794;-10;0.0454005;1.318;0.099
53.8245;-10;0.0716056;1.316;0.109
53.873;-10;-0.527234;1.309;0.1
53.8974;-10;-0.154115;1.32;0.116
53.9213;-10;0.357251;1.324;0.111
53.9616;-10;-0.951959;1.325;0.105
53.985;10;0.239119;1.325;0.101
54.0168;10;-0.258717;1.325;0.088
54.0539;10;-0.255783;1.325;0.084
54.0807;10;-0.25106;1.325;0.077
54.1137;10;0.230382;1.324;0.08
54.1448;10;0.21234;1.324;0.08
54.1765;10;0.0393789;1.323;0.092
54.2143;10;0.121278;1.326;0.099
54.2502;10;0.20138;1.329;0.113
54.2758;10;0.0822785;1.328;0.118
54.3049;10;0.0579935;1.328;0.125
54.3366;10;0.174533;1.329;0.135
54.3742;-10;-0.19617;1.325;0.147
54.4011;-10;0.268622;1.331;0.156
54.4342;-10;0.0162026;1.329;0.162
54.4651;-10;0.294118;1.334;0.167
54.4992;-10;0.302265;1.337;0.174
54.5345;-10;0.247064;1.337;0.174
54.5681;-10;-0.0720133;1.337;0.166
54.5946;-10;-0.0421314;1.337;0.158
54.626;-10;-0.15735;1.333;0.151
54.6616;-10;-0.137478;1.332;0.143
54.6953;-10;0.46111;1.339;0.152
54.7213;-10;-0.33606;1.329;0.114
54.7543;-10;-0.25783;1.33;0.116
54.7846;-10;0.25179;1.328;0.109
54.8175;-10;-0.189334;1.328;0.099
54.8543;-10;-0.315319;1.323;0.091
54.8807;-10;-0.273131;1.318;0.083
54.9143;-10;0.420151;1.316;0.073
54.9449;-10;-0.512154;1.314;0.063
54.9807;10;-0.637297;1.309;0.055
55.0248;10;-0.157417;1.312;0.045
55.042;10;-0.528615;1.309;0.041
55.0743;10;-0.564386;1.306;0.028
55.1046;10;-0.211519;1.307;0.023
55.1393;10;-0.462675;1.31;0.013
55.175;-10;0.289424;1.319;0.008
55.2083;-10;0.272651;1.329;0.002
55.2357;-10;0.21813;1.334;0.001
55.2654;-10;0.0202236;1.338;-0.004
55.2974;-10;0.123566;1.352;-0.011
55.3349;-10;-0.186259;1.347;-0.016
55.3612;10;-0.0964058;1.351;-0.023
55.3972;10;-0.247652;1.353;-0.031
55.4251;10;-0.106616;1.356;-0.041
55.4659;10;-0.286149;1.357;-0.055
55.4949;10;0.242765;1.364;-0.055
55.5209;10;-0.286844;1.367;-0.061
55.5669;10;0.251839;1.384;-0.065
55.5845;-10;-0.0707499;1.385;-0.067
55.6171;-10;0.292313;1.4;-0.07
55.6548;-10;0.184482;1.409;-0.075
55.6867;-10;-0.282559;1.413;-0.076
55.7149;-10;0.222985;1.415;-0.053
55.7445;-10;-0.297943;1.417;-0.071
55.7775;10;0.525151;1.418;-0.065
55.8151;10;-0.164931;1.405;-0.059
55.841;10;-0.493892;1.4;-0.058
55.8749;10;-0.276447;1.39;-0.055
55.9047;10;-0.0668675;1.385;-0.05
55.9372;10;0.163263;1.389;-0.054
55.9741;-10;0.124628;1.394;-0.057
56.0003;-10;0.202759;1.402;-0.062
56.0349;-10;0.215218;1.41;-0.067
56.0645;-10;0.346567;1.417;-0.05
56.1075;-10;-0.0760643;1.418;-0.079
56.1355;-10;0.238653;1.419;-0.08
56.1604;10;-0.502424;1.421;-0.088
56.1951;10;-0.237252;1.421;-0.102
56.225;10;-0.493079;1.42;-0.106
56.2576;10;-0.0297624;1.424;-0.115
56.295;10;-0.566694;1.415;-0.12
56.3209;10;0.705084;1.421;-0.118
56.3545;10;0.55043;1.416;-0.113
56.3844;-10;-0.0920755;1.411;-0.106
56.4173;-10;0.0707192;1.411;-0.097
56.4697;-10;0.159674;1.414;-0.088
56.4812;-10;0.0773141;1.414;-0.086
56.5144;-10;0.316368;1.425;-0.064
56.5451;-10;0.576636;1.425;-0.074
56.5767;-10;-0.65563;1.414;-0.095
56.6143;-10;1.16839;1.425;-0.091
56.6403;-10;-0.613659;1.41;-0.115
56.6872;-10;0.0691001;1.406;-0.125
56.7055;-10;-0.416553;1.404;-0.13
56.7367;-10;-0.544884;1.397;-0.139
56.7747;-10;-0.0818269;1.397;-0.147
56.8108;-10;-0.29488;1.394;-0.155
56.8355;-10;-0.309065;1.387;-0.164
56.8643;-10;-0.269657;1.386;-0.172
56.8967;-10;-0.242057;1.381;-0.172
56.9337;-10;0.030779;1.372;-0.169
56.9611;10;-0.29622;1.36;-0.167
57.011;10;-0.0721993;1.347;-0.157
57.0275;10;-0.21411;1.341;-0.155
57.0566;10;-0.208261;1.336;-0.153
57.0946;10;-0.111248;1.328;-0.149
57.1212;10;-0.115707;1.323;-0.145
57.1545;10;-0.00378198;1.32;-0.137
57.1846;-10;0.249048;1.319;-0.131
57.2163;-10;0.113339;1.317;-0.125
57.2542;-10;0.124837;1.317;-0.117
57.2806;-10;-0.0366746;1.32;-0.112
57.314;-10;-0.0719366;1.321;-0.115
57.3446;-10;0.113909;1.324;-0.118
57.3848;10;-0.104645;1.321;-0.131
57.4142;10;-0.107348;1.32;-0.134
57.4405;10;0.554932;1.331;-0.131
57.4738;10;0.0714658;1.314;-0.152
57.5044;10;0.0658118;1.314;-0.16
57.544;10;-0.0771349;1.314;-0.169
57.5746;-10;0.117526;1.317;-0.176
57.6004;-10;0.0137873;1.325;-0.186
57.6345;-10;0.139803;1.33;-0.195
57.6644;-10;0.168608;1.336;-0.2
57.6973;-10;-0.0243055;1.337;-0.21
57.7488;-10;-0.151069;1.338;-0.214
57.7606;-10;0.0381629;1.338;-0.221
57.7944;-10;-0.204265;1.333;-0.23
57.8247;-10;-0.0187137;1.335;-0.238
57.8693;-10;-0.0987266;1.334;-0.243
57.8952;-10;-0.235452;1.323;-0.244
57.9206;-10;-0.232931;1.317;-0.243
57.9602;-10;-0.176863;1.31;-0.239
57.985;10;-0.254868;1.298;-0.236
58.017;10;-0.126216;1.293;-0.229
58.0544;10;0.271361;1.288;-0.224
58.0805;10;-0.0998607;1.282;-0.216
58.114;10;0.0843659;1.281;-0.208
58.1447;10;0.111772;1.282;-0.205
58.177;10;0.192407;1.284;-0.2
58.2139;10;0.00185406;1.287;-0.188
58.2405;10;0.153097;1.29;-0.184
58.2829;10;0.210489;1.296;-0.18
58.3049;10;0.0152691;1.296;-0.184
58.3381;10;0.0553099;1.297;-0.191
58.3811;-10;0.13915;1.302;-0.198
58.4013;-10;-0.054046;1.305;-0.206
58.4355;-10;0.2182;1.314;-0.215
58.4646;-10;0.221894;1.319;-0.225
58.512;-10;0.164886;1.321;-0.23
58.5358;-10;0.192986;1.322;-0.229
58.5604;10;-0.231652;1.318;-0.225
58.595;10;-0.0118486;1.315;-0.217
58.6274;10;-0.165545;1.309;-0.207
58.6577;10;-0.115761;1.305;-0.2
58.6944;10;-0.283962;1.298;-0.194
58.7211;10;-0.173021;1.296;-0.198
58.7542;10;0.168429;1.298;-0.204
58.7852;-10;0.0962609;1.301;-0.21
58.8313;-10;0.0558139;1.307;-0.224
58.8563;-10;0.173838;1.311;-0.229
58.8805;-10;0.0152747;1.312;-0.234
58.9143;-10;0.107724;1.313;-0.245
58.9446;-10;-0.143347;1.311;-0.254
58.9764;-10;-0.0961801;1.306;-0.259
59.0324;-10;-0.0801921;1.299;-0.27
59.047;-10;-0.132088;1.298;-0.271
59.077;-10;-0.270767;1.291;-0.271
59.1045;-10;-0.180591;1.29;-0.269
59.1388;-10;-0.0815042;1.288;-0.259
59.1818;10;-0.109614;1.287;-0.25
59.2006;10;-0.147339;1.285;-0.244
59.2346;10;-0.122544;1.281;-0.235
59.2653;10;-0.102151;1.277;-0.223
59.2965;10;-0.291123;1.275;-0.221
59.3503;10;0.200768;1.275;-0.22
59.3633;-10;-0.136586;1.272;-0.224
59.4082;-10;0.0501722;1.278;-0.235
59.4268;-10;0.0417154;1.279;-0.241
59.4569;-10;0.208789;1.285;-0.248
59.4958;-10;0.173897;1.288;-0.254
59.5286;-10;-0.125429;1.285;-0.249
59.5553;-10;-0.173278;1.281;-0.245
59.5852;10;-0.105024;1.278;-0.238
59.6165;10;-0.215409;1.271;-0.23
59.6601;10;-0.0407977;1.269;-0.218
59.681;10;-0.305958;1.264;-0.221
59.7145;10;-0.214005;1.258;-0.223
59.7449;10;0.0907719;1.26;-0.23
59.7906;-10;0.0852297;1.262;-0.243
59.8156;-10;0.205294;1.267;-0.248
59.841;-10;0.0170263;1.268;-0.256
59.8742;-10;0.170304;1.272;-0.264
59.911;-10;0.277244;1.279;-0.272
59.9387;-10;-0.131809;1.279;-0.272
