Time(s);Vsent(m/s);VMeasured(m/s);PosX(m);PosY(m)
0.0140902;24;0.565249;1.923;-0.984
0.0424116;24;0.688487;1.95;-0.98
0.0742774;24;0.566629;1.977;-0.978
0.105822;24;0.513022;1.99;-0.978
0.138979;24;0.779197;2.021;-0.97
0.169657;24;0.826828;2.042;-0.961
0.207785;24;0.788846;2.057;-0.948
0.234493;24;0.752659;2.072;-0.933
0.266381;24;0.808405;2.082;-0.915
0.299146;24;0.714654;2.091;-0.897
0.330275;24;0.665284;2.096;-0.881
0.36246;24;0.574193;2.1;-0.863
0.394047;24;0.655483;2.107;-0.845
0.426231;24;0.407201;2.106;-0.836
0.459293;24;0.528616;2.11;-0.808
0.489831;24;0.529379;2.112;-0.799
0.522638;24;0.539202;2.114;-0.78
0.553503;24;0.530053;2.112;-0.758
0.585545;24;0.541903;2.117;-0.738
0.619725;24;0.474789;2.116;-0.727
0.658019;24;0.632694;2.119;-0.684
0.684108;24;0.643374;2.12;-0.674
0.71451;24;0.612567;2.12;-0.664
0.748805;24;0.721079;2.121;-0.63
0.780014;24;0.695153;2.121;-0.607
0.810342;24;0.677684;2.123;-0.585
0.848396;24;0.643374;2.121;-0.565
0.874443;24;0.604055;2.122;-0.542
0.905874;24;0.632569;2.122;-0.52
0.938754;24;0.618536;2.123;-0.499
0.979146;24;0.586411;2.121;-0.475
1.00551;24;0.628766;2.122;-0.454
1.0341;24;0.616944;2.121;-0.432
1.06613;24;0.590091;2.12;-0.41
1.09933;24;0.589065;2.119;-0.388
1.12969;24;0.616647;2.12;-0.366
1.16284;24;0.618748;2.121;-0.346
1.19371;24;0.577497;2.117;-0.325
1.22583;24;0.597737;2.117;-0.301
1.25912;24;0.635179;2.117;-0.281
1.29002;24;0.589595;2.114;-0.257
1.32326;24;0.60652;2.113;-0.236
1.35447;24;0.60538;2.112;-0.215
1.38558;24;0.626477;2.111;-0.193
1.41954;24;0.613331;2.109;-0.173
1.45015;24;0.609043;2.108;-0.162
1.48301;24;0.61573;2.106;-0.14
1.51426;24;0.614295;2.104;-0.119
1.54582;24;0.61908;2.102;-0.097
1.57919;24;0.651825;2.102;-0.076
1.61939;24;0.606005;2.099;-0.044
1.64365;24;0.639149;2.098;-0.033
1.67455;24;0.61127;2.093;-0.012
1.70569;24;0.560839;2.088;0.009
1.73867;24;0.640208;2.085;0.033
1.76994;24;0.642954;2.083;0.052
1.80253;24;0.629089;2.08;0.074
1.83443;24;0.581417;2.073;0.096
1.86558;24;0.622867;2.07;0.115
1.90988;24;0.525402;2.064;0.147
1.93365;24;0.680406;2.063;0.16
1.96239;24;0.648707;2.058;0.18
1.99395;24;0.672847;2.056;0.202
2.02583;24;0.622902;2.054;0.221
2.05962;24;0.630311;2.05;0.241
2.0899;24;0.578864;2.046;0.263
2.12933;24;0.634719;2.045;0.283
2.15448;24;0.655407;2.043;0.305
2.18553;24;0.61673;2.038;0.325
2.21943;24;0.647287;2.034;0.345
2.25039;24;0.649476;2.032;0.366
2.28288;24;0.591441;2.024;0.386
2.31938;24;0.642458;2.023;0.405
2.3459;24;0.608994;2.017;0.427
2.37896;24;0.664528;2.012;0.448
2.40955;24;0.640871;2.011;0.456
2.44278;24;0.639197;2.006;0.477
2.47428;24;0.648907;2.001;0.497
2.50579;24;0.502138;1.993;0.516
2.53971;24;0.637396;1.992;0.536
2.56987;24;0.53229;1.985;0.555
2.60211;24;0.655181;1.982;0.575
2.6341;24;0.556561;1.974;0.594
2.66551;24;0.63752;1.972;0.612
2.70568;24;0.624165;1.965;0.633
2.73039;24;0.63036;1.962;0.652
2.76251;24;0.634488;1.955;0.672
