Time(s);Vsent(m/s);VMeasured(m/s);PosX(m);PosY(m)
0.0316853;0;-0.0717437;1.404;-0.335
0.0711899;0;0.0119362;1.403;-0.336
0.102306;0;-0.0582513;1.408;-0.335
0.128681;0;-0.0821113;1.411;-0.335
0.163096;0;0.0924957;1.408;-0.335
0.191653;0;0.112675;1.406;-0.334
0.224434;0;0.112418;1.406;-0.334
0.269282;5;-0.0851951;1.407;-0.335
0.291666;5;0.0577732;1.406;-0.334
0.322266;5;0.0534768;1.406;-0.334
0.35168;5;0.0325848;1.406;-0.332
0.384446;5;0.0506849;1.404;-0.326
0.429024;5;0.101896;1.402;-0.324
0.451915;5;0.148814;1.398;-0.319
0.482218;-5;0.154294;1.395;-0.315
0.511583;-5;0.144521;1.393;-0.313
0.543638;-5;0.117986;1.392;-0.308
0.587925;-5;0.0546088;1.392;-0.305
0.608321;-5;0.0676754;1.393;-0.306
0.642026;-5;-0.0677017;1.394;-0.309
0.672459;-5;-0.123924;1.401;-0.312
0.707636;-5;-0.127799;1.403;-0.313
0.745043;-5;-0.0907745;1.406;-0.32
0.767959;-5;-0.0818487;1.406;-0.32
0.803152;-5;-0.0801001;1.412;-0.324
0.831673;-5;-0.0950462;1.413;-0.325
0.863622;-5;-0.0647211;1.418;-0.33
0.899401;-5;0.0859823;1.422;-0.333
0.928598;-5;-0.184824;1.43;-0.336
0.959547;-5;-0.17509;1.433;-0.337
0.992575;-5;-0.155645;1.433;-0.337
1.02447;-5;-0.184332;1.441;-0.34
1.05893;-5;0.181235;1.441;-0.342
1.08826;-5;-0.180803;1.45;-0.347
1.12269;-5;-0.147853;1.451;-0.345
1.15248;-5;-0.215873;1.458;-0.346
1.18451;-5;-0.0660053;1.462;-0.348
1.21943;-5;-0.0602263;1.462;-0.348
1.24822;-5;-0.145281;1.471;-0.348
1.27954;-5;-0.143256;1.471;-0.348
1.31201;-5;-0.165051;1.479;-0.349
1.34443;-5;-0.120553;1.484;-0.349
1.37935;-5;-0.0829092;1.491;-0.349
1.40805;-5;-0.080438;1.491;-0.349
1.447;-5;-0.126777;1.498;-0.347
1.472;-5;-0.062808;1.5;-0.348
1.50424;-5;-0.112449;1.502;-0.348
1.53837;-5;-0.130985;1.508;-0.347
1.56968;-5;0.00362958;1.509;-0.346
1.59985;-5;-0.15568;1.516;-0.345
1.63179;-5;0.01934;1.519;-0.345
1.66462;-5;-0.163218;1.526;-0.344
1.69844;-5;-0.159291;1.528;-0.341
1.72961;-5;-0.0393488;1.532;-0.342
1.7603;-5;-0.158409;1.537;-0.34
1.79232;-5;-0.154627;1.541;-0.341
1.82403;-5;-0.149811;1.547;-0.34
1.85959;-5;0.152253;1.547;-0.341
1.88796;-5;-0.145449;1.553;-0.342
1.92854;-5;-0.177018;1.558;-0.342
1.95237;-5;-0.13447;1.56;-0.343
1.98454;-5;-0.165965;1.568;-0.343
2.01955;-5;-0.158278;1.571;-0.344
2.04849;-5;-0.140118;1.575;-0.346
2.08868;-5;-0.167528;1.578;-0.345
2.11256;-5;-0.155507;1.585;-0.341
2.14426;-5;-0.154984;1.587;-0.34
2.17881;-5;-0.131233;1.59;-0.336
2.20781;5;-0.13402;1.597;-0.334
2.24172;5;-0.156758;1.601;-0.33
2.27234;5;-0.0812916;1.606;-0.329
2.30435;5;0.132358;1.605;-0.325
2.33913;5;0.115478;1.605;-0.322
2.36787;5;0.0639789;1.605;-0.319
2.4029;5;-0.0433307;1.6;-0.316
2.43247;5;0.171447;1.595;-0.312
2.46415;-5;0.150837;1.595;-0.312
2.49924;-5;0.132043;1.592;-0.304
2.53158;-5;0.177398;1.589;-0.301
2.56008;-5;0.145293;1.588;-0.299
2.59225;-5;0.0218309;1.59;-0.298
2.62367;-5;-0.158978;1.597;-0.301
2.66048;-5;-0.150493;1.604;-0.3
2.68822;-5;-0.0902076;1.607;-0.3
2.7202;5;-0.132753;1.613;-0.3
2.75247;5;-0.156783;1.616;-0.3
2.78449;5;-0.115498;1.624;-0.298
2.81941;5;-0.0997439;1.624;-0.298
2.85158;5;0.0887199;1.623;-0.296
2.88261;5;0.116132;1.621;-0.296
2.91189;5;0.112672;1.615;-0.298
2.94407;5;0.135839;1.611;-0.299
2.98635;5;0.132472;1.606;-0.302
3.00785;5;0.165342;1.604;-0.301
3.04258;5;0.147533;1.598;-0.303
3.07199;5;0.0939524;1.594;-0.305
3.104;5;0.128799;1.59;-0.303
3.14991;5;0.137017;1.585;-0.301
3.16951;5;0.132556;1.582;-0.299
3.20215;5;0.147811;1.578;-0.295
3.23706;-5;0.168083;1.574;-0.294
3.26386;-5;0.0694084;1.574;-0.29
3.29911;-5;0.102598;1.573;-0.287
3.32837;-5;-0.150473;1.575;-0.288
3.35958;-5;-0.11282;1.575;-0.288
3.3924;-5;-0.0765124;1.575;-0.291
3.43057;-5;-0.0964645;1.58;-0.298
3.4595;-5;-0.147089;1.585;-0.3
3.48796;-5;0.07607;1.584;-0.301
3.52191;-5;-0.163517;1.587;-0.305
3.55977;-5;-0.179238;1.595;-0.31
3.58468;-5;-0.109525;1.596;-0.312
3.61931;-5;-0.191038;1.6;-0.315
3.6478;-5;-0.208603;1.603;-0.317
3.6878;-5;-0.169623;1.606;-0.321
3.71226;-5;-0.156701;1.606;-0.321
3.74378;-5;-0.13448;1.608;-0.326
3.77851;-5;-0.15968;1.613;-0.33
3.80766;-5;-0.131443;1.615;-0.331
3.84111;-5;-0.0851367;1.619;-0.331
3.87227;-5;-0.119978;1.626;-0.333
3.90403;-5;-0.123276;1.631;-0.333
3.93969;-5;-0.139169;1.635;-0.334
3.96768;5;-0.200497;1.641;-0.334
4.00169;5;-0.199445;1.646;-0.336
4.0318;5;-0.187236;1.652;-0.338
4.0643;5;-0.102845;1.655;-0.338
4.10008;5;-0.0980206;1.655;-0.338
4.12848;5;0.0903473;1.65;-0.335
4.17132;5;0.037188;1.646;-0.334
4.19525;5;0.11664;1.642;-0.332
4.22452;5;0.110762;1.637;-0.332
4.26413;5;0.146526;1.635;-0.331
4.28769;5;0.1252;1.626;-0.33
4.32194;5;0.147225;1.619;-0.33
4.35181;5;0.175875;1.616;-0.329
4.3838;5;0.144101;1.613;-0.329
4.4306;5;0.148008;1.605;-0.328
4.44825;5;0.0443902;1.604;-0.329
4.48556;5;0.140295;1.597;-0.329
4.51171;5;0.15974;1.593;-0.329
4.54458;5;0.1766;1.585;-0.328
4.58641;5;0.124617;1.578;-0.331
4.60784;5;0.126713;1.575;-0.332
4.64247;5;0.19839;1.566;-0.331
4.67203;5;0.00259301;1.564;-0.334
4.70391;5;0.179882;1.557;-0.331
4.73926;5;0.152081;1.553;-0.331
4.76829;5;0.1891;1.547;-0.329
4.80867;5;0.157636;1.541;-0.329
4.83254;5;0.0115863;1.54;-0.33
4.86375;5;-0.0198732;1.537;-0.327
4.90554;5;0.0785182;1.538;-0.324
4.92832;5;0.134709;1.535;-0.319
4.96174;-5;-0.155914;1.531;-0.318
4.99258;-5;0.146001;1.528;-0.315
5.02886;-5;0.077083;1.527;-0.311
5.05923;-5;0.0715599;1.527;-0.307
5.08811;-5;0.107018;1.526;-0.306
5.13018;-5;-0.100912;1.534;-0.307
5.15298;-5;-0.137964;1.535;-0.308
5.18875;-5;-0.104656;1.544;-0.307
5.21964;5;-0.167571;1.548;-0.31
5.24817;5;-0.166843;1.553;-0.309
5.28367;5;-0.16538;1.557;-0.31
5.31236;5;-0.124521;1.562;-0.308
5.34357;5;0.157691;1.561;-0.305
5.3796;5;-0.0111193;1.562;-0.304
5.40817;5;0.163844;1.557;-0.298
5.45027;5;0.0521557;1.555;-0.294
5.47347;-5;0.136011;1.554;-0.29
5.50598;-5;0.0923718;1.554;-0.287
5.55079;-5;0.093818;1.549;-0.279
5.56937;-5;0.174225;1.548;-0.278
5.602;-5;-0.173562;1.553;-0.28
5.63192;-5;-0.110342;1.554;-0.282
5.67177;-5;-0.152516;1.559;-0.289
5.70138;-5;-0.12543;1.559;-0.289
5.72849;-5;-0.143916;1.564;-0.295
5.76365;-5;-0.0435803;1.565;-0.298
5.79196;-5;-0.0972869;1.566;-0.3
5.832;-5;-0.163334;1.574;-0.305
5.86046;-5;-0.0525197;1.574;-0.308
5.88847;-5;-0.0558353;1.575;-0.311
5.92152;-5;-0.146751;1.579;-0.314
5.95262;-5;-0.064147;1.579;-0.317
5.98449;-5;-0.146231;1.584;-0.319
6.03131;-5;-0.122484;1.587;-0.324
6.04817;-5;-0.168565;1.589;-0.329
6.08197;-5;-0.0856256;1.59;-0.333
6.11834;-5;-0.15628;1.594;-0.339
6.14421;-5;-0.153345;1.596;-0.341
6.18192;-5;-0.0573835;1.597;-0.345
6.20756;-5;-0.0550102;1.598;-0.349
6.24138;-5;-0.149126;1.601;-0.35
6.27998;-5;-0.119762;1.603;-0.354
6.30552;-5;-0.14568;1.608;-0.357
6.33963;-5;0.0973793;1.609;-0.356
6.36787;-5;-0.154289;1.613;-0.356
6.402;-5;-0.160923;1.617;-0.356
6.432;-5;-0.146472;1.622;-0.352
6.46402;5;-0.112195;1.628;-0.351
6.49928;5;-0.175149;1.634;-0.348
6.53136;5;-0.128642;1.64;-0.344
6.56194;5;-0.156891;1.642;-0.343
6.59231;5;0.0998625;1.642;-0.343
6.62404;5;0.150232;1.637;-0.345
6.65882;5;0.0597107;1.634;-0.349
6.68804;5;0.086842;1.628;-0.351
6.73278;5;0.116167;1.621;-0.353
6.75548;5;0.148488;1.618;-0.354
6.78411;5;0.137617;1.613;-0.355
6.82532;5;0.168431;1.608;-0.357
6.84761;5;0.174875;1.602;-0.36
6.87968;5;0.185155;1.598;-0.359
6.91201;5;0.143934;1.593;-0.363
6.9487;5;0.178968;1.588;-0.363
6.97953;5;0.199421;1.582;-0.367
7.00782;5;0.122223;1.578;-0.369
7.03991;5;0.19969;1.572;-0.371
7.07213;5;-0.0695326;1.57;-0.376
7.10372;5;0.0906409;1.566;-0.38
7.15436;5;0.181823;1.559;-0.382
7.17149;5;0.181823;1.559;-0.382
7.20022;5;-0.0462784;1.551;-0.386
7.23254;5;0.192626;1.544;-0.388
7.26956;5;0.163383;1.541;-0.388
7.29928;5;0.163595;1.535;-0.391
7.32801;5;0.177642;1.53;-0.391
7.37208;5;0.0848303;1.526;-0.393
7.39546;5;0.081907;1.521;-0.395
7.42412;5;0.183602;1.516;-0.395
7.47394;5;0.183347;1.507;-0.4
7.48911;5;0.183347;1.507;-0.4
7.52759;5;0.109716;1.503;-0.402
7.55257;5;0.133036;1.5;-0.404
7.58621;5;0.141552;1.493;-0.407
7.61913;5;0.0442941;1.492;-0.409
7.64765;5;0.170185;1.483;-0.409
7.68143;5;0.200034;1.482;-0.411
7.7123;5;0.201758;1.475;-0.414
7.7442;5;0.191767;1.472;-0.416
7.77953;5;0.114055;1.465;-0.418
7.80966;5;0.138175;1.46;-0.418
7.83997;5;0.153581;1.454;-0.418
7.87211;5;0.182911;1.447;-0.418
7.91175;5;0.154389;1.445;-0.419
7.94157;5;0.151754;1.439;-0.418
7.96829;5;0.139519;1.434;-0.418
8.00172;5;0.143714;1.428;-0.418
8.0317;5;0.155544;1.426;-0.417
8.06996;5;0.18807;1.417;-0.415
8.09988;5;0.144008;1.414;-0.414
8.12781;5;0.180704;1.408;-0.412
8.17312;5;0.072685;1.402;-0.41
8.19155;5;0.18169;1.395;-0.408
8.2236;5;0.117339;1.389;-0.406
8.25982;5;0.198043;1.386;-0.404
8.28833;5;0.188753;1.382;-0.4
8.32147;5;0.146182;1.381;-0.398
8.36073;5;0.148629;1.38;-0.396
8.38671;5;0.136157;1.379;-0.387
8.41925;5;0.0386884;1.384;-0.384
8.44771;5;0.156987;1.384;-0.382
8.4922;-5;0.166393;1.385;-0.376
8.51496;-5;0.148067;1.385;-0.371
8.5436;-5;0.112997;1.388;-0.368
8.58776;-5;0.135606;1.388;-0.366
8.60765;-5;-0.137929;1.389;-0.372
8.64151;-5;-0.149535;1.386;-0.375
8.67173;-5;-0.0564486;1.386;-0.377
8.71182;-5;-0.148097;1.383;-0.383
8.73967;-5;-0.0310745;1.381;-0.383
8.76767;-5;-0.12834;1.376;-0.388
8.80145;-5;-0.0993924;1.376;-0.388
8.83221;-5;-0.122155;1.377;-0.395
8.87151;-5;-0.118286;1.376;-0.398
8.89964;-5;-0.139608;1.377;-0.403
8.92779;-5;-0.0359817;1.38;-0.407
8.95976;5;-0.160454;1.38;-0.413
8.99174;5;-0.0860002;1.388;-0.417
9.02376;5;-0.204188;1.388;-0.421
9.07318;5;-0.0576406;1.395;-0.426
9.09316;5;0.197051;1.395;-0.424
9.11958;5;0.139002;1.398;-0.42
9.15249;5;0.121234;1.398;-0.417
9.18415;5;0.118213;1.398;-0.417
9.23168;-5;0.14178;1.406;-0.407
9.24998;-5;0.0676314;1.405;-0.406
9.27977;-5;0.160297;1.407;-0.403
9.31228;-5;0.181501;1.41;-0.399
9.34768;-5;-0.138466;1.408;-0.401
9.37919;-5;-0.145746;1.406;-0.406
9.40763;-5;-0.142243;1.406;-0.406
9.43979;-5;-0.114027;1.404;-0.407
9.47208;-5;0.0301942;1.398;-0.407
9.50398;-5;0.0273256;1.396;-0.408
9.53956;-5;-0.178064;1.388;-0.416
9.56813;-5;-0.174157;1.388;-0.416
9.59965;-5;-0.135785;1.38;-0.418
9.63226;-5;-0.140258;1.377;-0.419
9.66391;-5;-0.159347;1.376;-0.419
9.69925;-5;-0.152893;1.37;-0.423
9.72827;-5;-0.167771;1.368;-0.426
9.77116;-5;-0.108531;1.361;-0.427
9.79229;-5;-0.136849;1.358;-0.429
9.82433;-5;-0.148064;1.357;-0.432
9.85916;-5;-0.123626;1.351;-0.436
9.88788;-5;-0.15858;1.349;-0.439
9.92179;-5;-0.0966361;1.346;-0.441
9.95226;-5;-0.147543;1.341;-0.446
9.99179;-5;-0.109188;1.341;-0.449
10.02;-5;-0.160921;1.335;-0.454
10.0483;-5;-0.150743;1.332;-0.458
10.0821;-5;-0.185727;1.333;-0.462
10.1121;-5;-0.121915;1.335;-0.466
10.1441;-5;-0.0832189;1.339;-0.468
10.192;-5;0.0599347;1.342;-0.47
10.2079;5;-0.161843;1.342;-0.474
10.2414;5;-0.130557;1.345;-0.481
10.2719;5;-0.15939;1.347;-0.484
10.3039;5;-0.0797813;1.35;-0.485
10.3456;5;0.141547;1.351;-0.481
10.3684;5;0.129289;1.351;-0.478
10.4025;5;0.120451;1.353;-0.474
10.432;5;0.118694;1.354;-0.472
10.464;-5;0.101768;1.358;-0.469
10.5;-5;0.144359;1.361;-0.463
10.528;-5;0.153437;1.361;-0.46
10.5595;-5;0.115974;1.362;-0.459
10.5923;-5;-0.120098;1.362;-0.462
10.6298;-5;-0.146613;1.363;-0.469
10.6602;-5;0.112441;1.369;-0.47
10.688;-5;-0.179626;1.368;-0.476
10.7218;5;-0.20335;1.37;-0.479
10.7524;5;-0.189853;1.372;-0.483
10.7849;5;-0.187469;1.375;-0.488
10.8197;5;-0.0201085;1.38;-0.49
10.8477;5;-0.0225186;1.38;-0.49
10.8907;5;0.158413;1.38;-0.481
10.9119;5;0.156167;1.38;-0.479
10.9439;5;0.13081;1.384;-0.474
10.9798;-5;-0.0577455;1.386;-0.47
11.0134;-5;0.22147;1.385;-0.462
11.0421;-5;0.208093;1.388;-0.459
11.0722;-5;-0.163289;1.389;-0.46
11.1046;-5;-0.152189;1.389;-0.464
11.1395;-5;-0.133482;1.388;-0.468
11.1678;-5;-0.103116;1.387;-0.471
11.2005;-5;-0.142134;1.387;-0.477
11.2317;-5;-0.143987;1.383;-0.481
11.2636;-5;-0.155543;1.381;-0.486
11.3071;-5;-0.149574;1.38;-0.489
11.3276;-5;-0.0882786;1.382;-0.493
11.3632;-5;-0.129638;1.384;-0.498
11.3921;-5;-0.121145;1.389;-0.503
11.4243;-5;-0.169501;1.39;-0.509
11.4669;5;-0.00833359;1.393;-0.513
11.4876;5;-0.0877489;1.394;-0.514
11.5231;5;-0.0778414;1.398;-0.521
11.5522;5;-0.153316;1.399;-0.525
11.5846;5;-0.103808;1.4;-0.527
11.6192;5;0.121258;1.4;-0.525
11.6561;5;0.0449684;1.399;-0.52
11.6817;5;0.127021;1.399;-0.514
11.7123;5;0.0518076;1.395;-0.511
11.7543;5;0.102197;1.393;-0.504
11.7814;5;0.178783;1.393;-0.502
11.8107;5;0.208589;1.391;-0.496
11.8402;5;0.149091;1.39;-0.491
11.8721;5;0.15276;1.388;-0.486
11.9036;5;0.0823731;1.385;-0.479
11.9398;5;0.198698;1.383;-0.471
11.9684;5;0.0672053;1.381;-0.469
12.0078;5;0.193388;1.38;-0.461
12.0321;5;0.148657;1.379;-0.456
12.0644;5;0.117858;1.378;-0.451
12.0993;5;-0.0335038;1.378;-0.447
12.1285;5;0.0814604;1.378;-0.438
12.1672;5;0.0533196;1.379;-0.436
12.1924;5;0.0782096;1.38;-0.428
12.2242;5;0.0664586;1.38;-0.428
12.2738;5;0.182986;1.385;-0.417
12.2892;5;0.182986;1.385;-0.417
12.3216;5;0.113749;1.387;-0.409
12.3521;5;0.121665;1.387;-0.407
12.3838;5;0.0693585;1.386;-0.399
12.4194;5;-0.00554408;1.389;-0.397
12.4481;5;0.181785;1.392;-0.39
12.481;5;0.167394;1.392;-0.386
12.512;5;0.231498;1.394;-0.382
12.5453;5;0.132515;1.393;-0.375
12.5882;5;0.17764;1.395;-0.371
12.6079;5;0.160159;1.395;-0.367
12.6403;5;0.129562;1.397;-0.365
12.672;5;0.0563075;1.404;-0.367
12.7041;-5;0.0667828;1.407;-0.367
12.7503;-5;0.170168;1.413;-0.365
12.7684;-5;0.0955628;1.413;-0.363
12.8018;-5;-0.0168698;1.416;-0.365
12.8325;-5;-0.122508;1.415;-0.366
12.8644;-5;0.048642;1.415;-0.372
12.9002;-5;-0.159526;1.41;-0.378
12.934;-5;-0.14482;1.407;-0.384
12.963;5;-0.0659746;1.406;-0.39
12.9924;5;-0.170179;1.4;-0.394
13.0244;5;-0.20209;1.397;-0.396
13.075;5;0.0480339;1.397;-0.405
13.0892;5;0.0436041;1.397;-0.405
13.1201;5;0.0759633;1.399;-0.407
13.1519;5;0.149256;1.406;-0.408
13.184;5;0.115143;1.408;-0.407
13.2201;-5;0.132346;1.41;-0.407
13.2485;-5;-0.168098;1.415;-0.409
13.2973;-5;0.15165;1.424;-0.41
13.315;-5;-0.18944;1.42;-0.412
13.3439;-5;-0.163057;1.418;-0.417
13.3956;-5;0.038999;1.416;-0.421
13.4113;-5;-0.0977413;1.416;-0.426
13.4403;-5;-0.0973231;1.416;-0.426
13.474;5;-0.165741;1.409;-0.433
13.5044;5;-0.143595;1.408;-0.436
13.5427;5;-0.0111688;1.408;-0.44
13.5684;5;-0.143666;1.407;-0.447
13.6008;5;-0.116777;1.407;-0.447
13.6319;5;0.147114;1.411;-0.445
13.664;5;0.105181;1.416;-0.446
13.7005;5;0.133099;1.424;-0.443
13.7285;-5;0.122542;1.426;-0.443
13.7688;-5;0.1399;1.43;-0.444
13.7923;-5;0.120777;1.435;-0.445
13.8243;-5;-0.0473721;1.435;-0.447
13.8602;-5;-0.12384;1.431;-0.45
13.8878;-5;-0.0911533;1.428;-0.454
13.9209;-5;-0.152069;1.425;-0.458
13.9526;-5;-0.0810754;1.423;-0.461
13.9884;5;-0.0173767;1.418;-0.465
14.0271;5;-0.17384;1.41;-0.471
14.0483;5;0.00176892;1.41;-0.473
14.0823;5;-0.0718671;1.409;-0.475
14.112;5;0.169933;1.412;-0.479
14.1442;5;0.145105;1.416;-0.48
14.1818;5;0.134529;1.419;-0.482
14.2079;-5;0.128295;1.422;-0.484
14.2402;-5;0.157914;1.427;-0.489
14.2725;-5;0.0438645;1.428;-0.492
14.3146;-5;-0.12121;1.429;-0.493
14.3414;-5;-0.0994794;1.425;-0.494
14.3686;-5;-0.147453;1.419;-0.494
14.4014;-5;-0.103741;1.412;-0.495
14.4321;-5;-0.0855007;1.407;-0.495
14.4643;5;-0.188293;1.4;-0.494
14.5004;5;-0.2078;1.393;-0.494
14.5327;5;-0.154375;1.39;-0.494
14.5612;5;-0.134199;1.388;-0.494
14.5927;5;0.152666;1.389;-0.496
14.6241;5;0.1084;1.392;-0.499
14.667;5;0.110454;1.399;-0.5
14.6885;5;0.137302;1.404;-0.502
14.7226;5;0.101066;1.409;-0.502
14.7519;5;0.159266;1.412;-0.504
14.7844;5;0.176248;1.421;-0.505
14.8323;5;0.168464;1.427;-0.511
14.8506;5;0.150194;1.429;-0.512
14.8805;5;0.161085;1.433;-0.515
14.9142;5;0.13552;1.436;-0.517
14.9442;5;0.163381;1.441;-0.522
14.9807;5;0.12631;1.443;-0.524
15.0078;5;0.170292;1.449;-0.528
15.0409;5;0.15787;1.451;-0.534
15.0721;5;0.130029;1.453;-0.536
15.1127;5;0.110928;1.452;-0.538
15.1407;5;0.13338;1.452;-0.543
15.1679;5;0.0785981;1.451;-0.547
15.2004;5;0.0841822;1.451;-0.551
15.2325;-5;0.103714;1.45;-0.554
15.2645;-5;0.0448903;1.446;-0.559
15.3009;-5;0.00396336;1.443;-0.565
15.3281;-5;-0.00510337;1.443;-0.565
15.3603;-5;-0.122758;1.445;-0.56
15.3921;-5;-0.107038;1.445;-0.56
15.4242;-5;-0.130914;1.444;-0.555
15.4604;-5;-0.043007;1.442;-0.549
15.4881;-5;-0.0502698;1.444;-0.546
15.5351;-5;-0.137289;1.442;-0.538
15.5517;-5;-0.0104897;1.444;-0.536
15.5844;-5;-0.199369;1.441;-0.532
15.6249;-5;-0.143407;1.44;-0.525
15.6484;-5;-0.110195;1.44;-0.523
15.6803;-5;-0.0769016;1.44;-0.516
15.712;-5;-0.153943;1.437;-0.513
15.744;-5;-0.161848;1.435;-0.507
15.784;-5;-0.0366223;1.432;-0.503
15.8078;-5;-0.177178;1.43;-0.5
15.8535;-5;-0.11249;1.429;-0.493
15.8724;-5;-0.112099;1.429;-0.491
15.904;-5;-0.142754;1.427;-0.488
15.9474;-5;-0.164898;1.426;-0.481
15.9679;-5;-0.085043;1.427;-0.477
15.9999;-5;-0.0243893;1.426;-0.472
16.0325;-5;0.0272461;1.427;-0.468
16.0743;-5;-0.153604;1.424;-0.462
16.1016;-5;-0.141353;1.424;-0.459
16.128;-5;-0.178339;1.421;-0.452
16.1673;-5;-0.00885823;1.423;-0.449
16.1922;-5;-0.189277;1.421;-0.443
16.224;-5;-0.163433;1.42;-0.44
16.2602;-5;-0.0918134;1.42;-0.438
16.288;-5;-0.0953786;1.419;-0.431
16.3203;-5;0.157483;1.416;-0.43
16.3521;-5;-0.155992;1.412;-0.426
16.3843;-5;-0.100404;1.406;-0.429
16.4283;-5;-0.126679;1.405;-0.427
16.4477;-5;-0.112406;1.397;-0.426
16.4801;5;-0.162976;1.391;-0.422
16.5146;5;-0.150835;1.388;-0.418
16.545;5;-0.0529814;1.384;-0.419
16.5799;5;-0.177285;1.383;-0.418
16.6086;5;0.18637;1.387;-0.422
16.6457;5;0.131791;1.391;-0.427
16.6722;5;0.0128182;1.395;-0.426
16.7038;5;0.124362;1.396;-0.43
16.746;5;0.125403;1.406;-0.438
16.768;5;0.0364313;1.408;-0.438
16.8041;5;-0.125267;1.408;-0.441
16.8323;5;0.16294;1.415;-0.448
16.8748;5;0.100783;1.417;-0.449
16.9011;5;0.13954;1.416;-0.452
16.9286;5;0.148909;1.416;-0.456
16.9612;-5;0.104166;1.415;-0.46
16.9958;-5;0.13223;1.412;-0.462
17.0267;-5;0.141276;1.412;-0.467
17.0736;-5;0.126168;1.412;-0.471
17.0876;-5;-0.151309;1.41;-0.467
17.1202;-5;-0.114941;1.411;-0.464
17.1525;-5;-0.0765641;1.41;-0.459
17.1843;-5;-0.115628;1.409;-0.456
17.22;-5;-0.310511;1.41;-0.429
17.248;-5;0.451113;1.41;-0.449
17.2811;-5;-0.259089;1.415;-0.445
17.3146;-5;-0.454319;1.416;-0.44
17.3452;-5;-0.379495;1.417;-0.438
17.3802;-5;-0.0972161;1.419;-0.435
17.4147;-5;-0.159877;1.421;-0.431
17.4417;-5;-0.111715;1.424;-0.429
17.4718;-5;-0.142413;1.425;-0.426
17.5041;-5;-0.143013;1.427;-0.42
17.54;-5;-0.0520687;1.429;-0.418
17.5685;-5;-0.0965573;1.428;-0.416
17.6008;-5;-0.141583;1.43;-0.411
17.6318;-5;-0.130915;1.43;-0.408
17.6754;-5;-0.119714;1.427;-0.398
17.7021;-5;-0.128359;1.427;-0.395
17.7283;5;-0.0497188;1.424;-0.391
17.7753;5;-0.149403;1.427;-0.382
17.792;5;-0.186992;1.428;-0.379
17.8317;5;0.0997563;1.425;-0.378
17.8602;5;0.177461;1.422;-0.381
17.8876;5;0.141281;1.414;-0.38
17.9348;5;0.108372;1.407;-0.384
17.9517;5;0.106622;1.405;-0.384
17.9842;-5;0.120379;1.406;-0.386
18.0358;-5;0.162925;1.395;-0.388
18.0512;-5;-0.0756122;1.397;-0.388
18.0808;-5;-0.0523224;1.396;-0.387
18.1133;-5;-0.0834696;1.394;-0.381
18.1437;-5;-0.113605;1.396;-0.376
18.1807;-5;-0.138442;1.395;-0.37
18.2084;5;0.40856;1.395;-0.366
18.2468;5;-0.405223;1.39;-0.359
18.2717;5;-0.369086;1.388;-0.355
18.3129;5;0.209421;1.384;-0.356
18.3408;5;0.279806;1.385;-0.36
18.3681;5;0.196988;1.384;-0.365
18.4004;5;0.000943554;1.381;-0.367
18.4342;5;0.156369;1.377;-0.374
18.4643;-5;0.0645576;1.375;-0.375
18.5048;-5;0.130784;1.376;-0.377
18.5283;-5;0.0769429;1.372;-0.38
18.5602;-5;0.163415;1.37;-0.385
18.595;-5;0.146014;1.368;-0.389
18.6246;-5;-0.118521;1.367;-0.388
18.6594;-5;-0.100523;1.361;-0.385
18.6943;-5;-0.113227;1.357;-0.379
18.7212;5;-0.158992;1.358;-0.376
18.7552;5;-0.0815446;1.352;-0.372
18.7836;5;-0.200157;1.35;-0.365
18.8336;5;-0.13932;1.348;-0.362
18.8494;5;0.17547;1.347;-0.365
18.8822;5;0.0115879;1.348;-0.366
18.9118;5;0.126542;1.349;-0.373
18.9439;5;0.135477;1.349;-0.375
18.9796;5;0.12017;1.354;-0.382
19.0079;5;0.11606;1.357;-0.387
19.042;5;0.149463;1.355;-0.392
19.0721;5;0.188209;1.352;-0.396
19.1044;5;0.149462;1.349;-0.398
19.1476;5;0.146698;1.346;-0.403
19.1684;5;0.140398;1.342;-0.405
19.2;5;0.125516;1.34;-0.406
19.232;-5;0.0747272;1.335;-0.406
19.2639;-5;0.108557;1.332;-0.406
19.3089;-5;0.0389856;1.33;-0.408
19.3279;-5;0.0988279;1.326;-0.408
19.3598;-5;-0.134305;1.331;-0.406
19.3918;-5;-0.10801;1.334;-0.405
19.4244;-5;-0.0823104;1.338;-0.405
19.4607;-5;-0.109198;1.341;-0.404
19.4877;-5;-0.0947416;1.343;-0.404
19.5202;-5;-0.132417;1.348;-0.401
19.5566;-5;-0.102607;1.353;-0.398
19.5846;-5;-0.159084;1.356;-0.396
19.6199;-5;-0.196578;1.358;-0.388
19.6481;-5;-0.167423;1.358;-0.388
19.6798;-5;-0.109145;1.358;-0.385
19.7125;5;-0.123913;1.358;-0.377
19.7442;5;-0.182599;1.358;-0.371
19.7803;5;0.02921;1.36;-0.366
19.8083;5;-0.204173;1.361;-0.36
19.8465;5;-0.0626464;1.358;-0.364
19.8722;5;0.188435;1.356;-0.366
19.9038;5;0.191207;1.353;-0.37
19.9403;5;0.156336;1.351;-0.376
19.9684;5;0.1908;1.347;-0.377
19.9999;5;0.0898065;1.346;-0.384
20.0321;5;0.210976;1.341;-0.386
20.0637;5;-0.180624;1.339;-0.386
20.1065;5;0.184424;1.333;-0.388
20.1282;5;0.163889;1.329;-0.386
20.1597;5;0.127735;1.327;-0.385
20.1924;5;0.165426;1.321;-0.384
20.2263;-5;0.151538;1.319;-0.383
20.2596;-5;0.0780546;1.316;-0.377
20.2885;-5;0.175453;1.311;-0.375
20.3263;-5;0.101056;1.31;-0.374
20.3518;-5;-0.108518;1.312;-0.374
20.3947;-5;-0.102614;1.317;-0.373
20.4212;-5;-0.0807234;1.319;-0.375
20.4484;-5;-0.0989384;1.32;-0.379
20.4805;-5;-0.112527;1.322;-0.383
20.5145;-5;-0.17557;1.328;-0.387
20.5443;-5;-0.119044;1.329;-0.39
20.5799;-5;-0.152831;1.332;-0.393
20.6077;-5;-0.174234;1.338;-0.394
20.6463;-5;-0.097123;1.346;-0.394
20.6717;-5;-0.162856;1.348;-0.395
20.7135;5;-0.182326;1.357;-0.395
20.7411;5;-0.051619;1.361;-0.394
20.7683;5;-0.141917;1.367;-0.394
20.7998;5;-0.105727;1.367;-0.394
20.8321;5;0.177326;1.37;-0.394
20.8639;5;0.0365755;1.372;-0.39
20.9003;5;0.144197;1.371;-0.387
20.9282;5;0.132211;1.373;-0.381
20.9621;-5;0.144032;1.372;-0.377
20.9925;-5;0.0632785;1.372;-0.374
21.0239;-5;0.164958;1.372;-0.367
21.0593;-5;-0.0854168;1.375;-0.367
21.0876;-5;-0.0825271;1.375;-0.367
21.1346;-5;-0.185181;1.384;-0.375
21.1523;-5;-0.103157;1.386;-0.376
21.1843;-5;0.122668;1.386;-0.377
21.2204;5;-0.142589;1.391;-0.383
21.2476;5;-0.100221;1.395;-0.385
21.2798;5;-0.171999;1.395;-0.39
21.3124;5;0.00859715;1.4;-0.394
21.3552;5;0.158747;1.397;-0.389
21.3819;5;0.00448772;1.396;-0.387
21.4082;5;0.150518;1.395;-0.383
21.4398;5;0.0188071;1.392;-0.378
21.4724;5;0.208207;1.387;-0.373
21.5036;5;0.205748;1.387;-0.366
21.5405;5;0.0451809;1.379;-0.365
21.5681;5;0.226638;1.377;-0.362
21.5999;5;0.217849;1.376;-0.357
21.6323;5;-0.0203811;1.369;-0.356
21.6643;5;0.220291;1.367;-0.35
21.7074;5;-0.0930484;1.364;-0.345
21.728;5;0.134084;1.36;-0.341
21.7726;5;0.0462258;1.354;-0.335
21.7922;5;0.166733;1.356;-0.333
21.8244;5;0.45718;1.365;-0.316
21.8597;5;0.242551;1.349;-0.323
21.8966;5;0.597917;1.345;-0.314
21.9225;5;0.575026;1.346;-0.311
21.9523;5;0.344359;1.337;-0.305
21.9839;5;0.105143;1.335;-0.304
22.0202;5;0.203185;1.335;-0.297
22.0482;5;-0.181116;1.329;-0.294
22.08;5;0.502452;1.326;-0.291
22.1125;5;0.42692;1.322;-0.285
22.1479;5;0.491888;1.317;-0.282
22.1802;5;0.214693;1.313;-0.28
22.2139;5;0.0818019;1.305;-0.275
22.2416;5;0.202423;1.306;-0.273
22.2722;5;0.140631;1.3;-0.27
22.3041;5;0.17781;1.296;-0.266
22.3452;5;0.157072;1.289;-0.263
22.3684;5;0.196627;1.286;-0.262
22.4126;5;0.0680306;1.278;-0.259
22.4323;5;0.173223;1.279;-0.254
22.4637;5;0.132314;1.271;-0.252
22.5002;5;0.200156;1.269;-0.247
22.5275;5;0.153285;1.266;-0.245
22.5596;5;-0.120415;1.264;-0.244
22.5945;5;0.180454;1.265;-0.235
22.6255;5;-0.00351464;1.269;-0.235
22.6742;5;-0.0121593;1.267;-0.229
22.6884;5;0.184779;1.269;-0.225
22.7285;-5;0.207027;1.274;-0.219
22.7522;-5;0.0391619;1.277;-0.219
22.7837;-5;0.182177;1.278;-0.215
22.8347;-5;0.0923683;1.28;-0.215
22.8509;-5;0.09139;1.28;-0.215
22.8801;-5;0.126715;1.279;-0.22
22.9149;-5;-0.159698;1.279;-0.225
22.9436;-5;0.196629;1.285;-0.231
22.98;5;-0.0737048;1.285;-0.235
23.0086;5;-0.266216;1.287;-0.243
23.0404;5;-0.0353613;1.288;-0.244
23.0726;5;-0.147835;1.287;-0.247
23.1041;5;0.126864;1.288;-0.243
23.1402;5;0.0587364;1.287;-0.241
23.1678;5;0.127855;1.287;-0.234
23.2096;5;0.0968193;1.287;-0.231
23.232;5;0.183994;1.287;-0.226
23.2645;5;0.193283;1.287;-0.221
23.3002;5;0.174242;1.287;-0.219
23.328;5;0.184998;1.287;-0.209
23.3774;5;0.158306;1.281;-0.2
23.3939;5;0.211351;1.281;-0.197
23.4246;5;0.0851351;1.277;-0.193
23.4604;5;0.123607;1.276;-0.189
23.4885;5;0.0822279;1.274;-0.183
23.5253;5;0.119736;1.272;-0.179
23.5525;5;0.0442605;1.267;-0.174
23.5836;5;0.18212;1.269;-0.17
23.6339;5;0.160544;1.262;-0.165
23.649;5;0.206219;1.261;-0.162
23.6798;5;0.197414;1.258;-0.16
23.7125;5;0.181893;1.256;-0.156
23.7444;5;0.187147;1.251;-0.15
23.7797;5;0.156256;1.246;-0.147
23.8145;5;0.176375;1.242;-0.143
23.8418;5;0.1585;1.242;-0.141
23.8722;5;-0.160887;1.239;-0.137
23.9046;5;0.0978858;1.24;-0.135
23.9471;5;0.0620523;1.238;-0.132
23.9679;-5;0.0976937;1.24;-0.127
24.0004;-5;0.0941457;1.243;-0.124
24.0325;-5;0.165384;1.237;-0.119
24.0642;-5;-0.0133378;1.243;-0.117
24.1;-5;-0.0834054;1.243;-0.118
24.1282;-5;-0.201498;1.246;-0.124
24.1596;-5;-0.176848;1.247;-0.126
24.1916;-5;-0.0651888;1.246;-0.127
24.2355;-5;-0.126503;1.247;-0.132
24.2617;-5;-0.156973;1.245;-0.137
24.2878;-5;-0.0634728;1.244;-0.138
24.3198;-5;0.0722645;1.246;-0.142
24.3525;-5;0.155136;1.249;-0.146
24.3844;-5;-0.169324;1.249;-0.148
24.4354;-5;0.138993;1.27;-0.141
24.4488;-5;-0.266618;1.259;-0.156
24.4811;5;-0.545775;1.263;-0.159
24.5115;5;-0.377433;1.267;-0.16
24.5442;5;-0.482401;1.267;-0.163
24.5868;5;0.428305;1.271;-0.164
24.6076;5;0.210326;1.268;-0.163
24.6405;5;-0.114885;1.266;-0.163
24.6726;5;0.17198;1.259;-0.157
24.7042;5;0.180542;1.258;-0.155
24.7408;5;0.190568;1.25;-0.149
24.7683;5;0.184898;1.25;-0.147
24.8;5;0.130623;1.244;-0.144
24.8326;5;-0.0552236;1.243;-0.144
24.8642;5;0.178358;1.242;-0.139
24.9052;5;0.157631;1.242;-0.134
24.9278;5;-0.00194433;1.245;-0.132
24.9598;-5;0.131752;1.244;-0.127
24.9921;-5;0.149577;1.248;-0.122
25.0243;-5;0.0751264;1.25;-0.12
25.0713;-5;0.0380186;1.255;-0.122
25.089;-5;-0.0794729;1.256;-0.123
25.1274;-5;-0.0292096;1.258;-0.124
25.152;-5;-0.152138;1.258;-0.132
25.1837;-5;-0.160736;1.257;-0.138
25.2213;5;-0.162911;1.257;-0.141
25.2479;5;-0.0332384;1.261;-0.144
25.2958;5;-0.1639;1.26;-0.156
25.3118;5;-0.1639;1.26;-0.156
25.3466;5;0.20129;1.267;-0.152
25.3799;5;0.206219;1.264;-0.146
25.4136;5;0.196484;1.269;-0.14
25.4413;5;0.202752;1.267;-0.137
25.4721;5;-0.017095;1.268;-0.13
25.5043;5;-0.0271186;1.266;-0.128
25.5554;5;0.13486;1.27;-0.117
25.5685;5;0.13486;1.27;-0.117
25.6003;5;0.211823;1.275;-0.115
25.632;5;-0.0102185;1.276;-0.105
25.6644;5;0.056547;1.275;-0.1
25.7004;5;-0.110703;1.274;-0.093
25.7282;5;0.24151;1.279;-0.091
25.76;5;0.461644;1.287;-0.062
25.7917;5;-0.596842;1.279;-0.081
25.8286;5;0.615651;1.283;-0.077
25.8605;5;0.912894;1.295;-0.061
25.8924;5;0.684136;1.288;-0.072
25.921;5;0.696083;1.289;-0.07
25.9525;5;-0.257915;1.293;-0.066
25.9841;-5;0.200216;1.298;-0.065
26.0261;-5;0.133081;1.302;-0.063
26.0478;-5;0.147992;1.304;-0.061
26.0823;-5;-0.0222395;1.305;-0.064
26.1124;-5;-0.13373;1.303;-0.068
26.1442;-5;-0.113125;1.306;-0.073
26.1893;-5;-0.114898;1.31;-0.08
26.2084;5;-0.114898;1.31;-0.08
26.2401;5;-0.540676;1.312;-0.087
26.2723;5;-0.46542;1.312;-0.092
26.3144;5;-0.40844;1.314;-0.094
26.3405;5;0.558142;1.312;-0.09
26.3696;5;0.262681;1.313;-0.084
26.4058;5;0.159292;1.309;-0.081
26.4323;5;0.126362;1.308;-0.08
26.4736;5;0.170189;1.301;-0.073
26.5013;5;0.160258;1.297;-0.069
26.5297;5;-0.0363693;1.293;-0.067
26.5596;5;0.175967;1.293;-0.064
26.5926;5;0.165864;1.29;-0.059
26.6246;5;0.0657125;1.282;-0.057
26.6598;5;0.125277;1.277;-0.051
26.6937;5;0.0689876;1.27;-0.049
26.7212;5;0.234736;1.269;-0.047
26.7521;5;0.230514;1.265;-0.045
26.7867;5;0.112707;1.26;-0.042
26.8207;5;0.196253;1.255;-0.038
26.8519;5;0.0950232;1.256;-0.036
26.8808;5;0.145873;1.255;-0.03
26.9125;5;0.060985;1.256;-0.028
26.9454;5;0.168847;1.255;-0.023
26.9807;-5;0.053527;1.257;-0.019
27.0078;-5;0.172203;1.254;-0.012
27.0538;-5;-0.0707263;1.256;-0.009
27.0731;-5;-0.0188291;1.257;-0.008
27.1041;-5;-0.124323;1.258;-0.011
27.1432;-5;-0.0588354;1.256;-0.014
27.1676;-5;-0.077884;1.256;-0.018
27.203;-5;-0.106214;1.259;-0.021
27.2318;-5;-0.0851144;1.262;-0.026
27.2639;-5;-0.0851144;1.262;-0.026
27.3005;-5;-0.201417;1.266;-0.031
27.3281;-5;-0.201417;1.266;-0.031
27.3605;-5;-0.119888;1.275;-0.032
27.3919;-5;-0.213423;1.28;-0.031
27.4358;-5;-0.225026;1.285;-0.029
27.4624;5;0.0435;1.284;-0.031
27.4882;5;0.0485289;1.295;-0.025
27.5339;5;-0.165127;1.296;-0.024
27.5537;5;0.0343823;1.3;-0.023
27.5846;5;0.0343823;1.3;-0.023
27.6201;5;0.216468;1.299;-0.02
27.6485;5;0.204265;1.296;-0.017
27.6803;5;0.179372;1.291;-0.013
27.712;-5;0.18611;1.289;-0.012
27.7444;-5;0.180398;1.284;-0.008
27.7801;-5;-0.111021;1.283;-0.003
27.8148;-5;-0.109805;1.285;-0.002
27.8413;-5;-0.162778;1.287;-0.002
27.8724;-5;-0.153999;1.287;-0.002
27.9157;-5;-0.164251;1.3;0
27.9402;-5;-0.144297;1.304;0
27.9681;5;-0.181709;1.308;-0.002
28;5;-0.130012;1.31;-0.002
28.0373;5;-0.314492;1.313;-0.024
28.0638;5;-0.537395;1.321;-0.004
28.0999;5;0.482939;1.325;0.023
28.1358;5;0.132171;1.322;0.002
28.1614;5;0.566369;1.321;0.005
28.1925;5;-0.408472;1.322;0.009
28.2329;-5;0.502016;1.317;0.01
28.2615;-5;0.0807727;1.315;0.017
28.291;-5;0.0807727;1.315;0.017
28.3276;-5;-0.112971;1.316;0.025
28.3526;-5;-0.219854;1.321;0.026
28.3838;-5;-0.199014;1.324;0.027
28.4199;-5;-0.117178;1.329;0.024
28.448;-5;-0.205359;1.336;0.023
28.4953;5;-0.546286;1.345;0.024
28.5116;5;-0.588235;1.348;0.022
28.5476;5;-0.0162598;1.373;0.031
28.5809;5;-0.80085;1.351;0.026
28.6078;5;-1.28152;1.352;0.021
28.6401;5;1.24086;1.35;0.028
28.6744;5;0.126004;1.35;0.037
28.7046;-5;0.559773;1.349;0.061
28.7425;-5;0.47508;1.353;0.041
28.7682;-5;0.750338;1.349;0.047
28.8003;-5;-0.701849;1.35;0.045
28.8326;-5;0.331412;1.351;0.046
28.8639;-5;0.275741;1.351;0.045
28.9;-5;-0.172555;1.35;0.04
28.9278;-5;0.106172;1.346;0.038
28.9598;-5;-0.171358;1.346;0.035
28.9917;-5;0.446239;1.347;0.053
29.0324;-5;-0.469186;1.341;0.023
29.0604;-5;-0.604897;1.341;0.02
29.0884;-5;0.843717;1.351;0.029
29.1198;-5;0.185553;1.349;0.012
29.1526;-5;-0.75761;1.347;0.009
29.1927;-5;-0.610561;1.347;0.002
29.2208;5;0.839902;1.352;0.018
29.2486;5;0.160079;1.353;-0.007
29.2808;5;-0.23197;1.355;-0.013
29.3124;5;-0.75807;1.343;-0.03
29.3452;5;0.726031;1.358;-0.019
29.381;5;-0.109108;1.362;-0.016
29.4076;5;0.522386;1.367;-0.013
29.4471;5;-0.498554;1.361;-0.022
29.4719;-5;-0.463364;1.36;-0.023
29.507;-5;0.410927;1.377;-0.003
29.5397;-5;-0.380326;1.375;-0.002
29.5683;-5;0.200219;1.38;-0.001
29.6026;-5;0.484231;1.383;-0.007
29.6324;-5;0.7601;1.386;0.015
29.6693;-5;-0.95087;1.386;-0.019
29.7002;-5;-0.677619;1.386;-0.028
29.7276;5;0.23547;1.385;-0.027
29.7599;5;-0.587395;1.384;-0.057
29.7918;5;0.906938;1.4;-0.018
29.8243;5;-1.43012;1.392;-0.04
29.8644;5;0.624744;1.395;-0.04
29.8885;5;0.624744;1.395;-0.04
29.923;5;-1.17036;1.401;-0.037
29.9524;5;0.966044;1.415;-0.022
29.9846;-5;0.988194;1.408;-0.034
30.0203;-5;1.29561;1.412;-0.031
30.0479;-5;-0.670329;1.413;-0.029
30.0875;-5;-0.448936;1.413;-0.029
30.1118;-5;1.14112;1.424;-0.015
30.1438;-5;-0.827398;1.41;-0.035
30.1797;-5;-0.576488;1.407;-0.037
30.2151;-5;-0.421431;1.404;-0.038
30.2418;-5;-0.40352;1.395;-0.039
30.2748;-5;-0.0856627;1.396;-0.042
30.3045;-5;-0.219342;1.388;-0.048
30.3402;-5;0.205511;1.389;-0.045
30.3686;-5;-0.24359;1.38;-0.049
30.4003;-5;-0.0335482;1.388;-0.058
30.4324;-5;0.657658;1.382;-0.034
30.4642;-5;-1.26955;1.369;-0.053
30.5004;-5;0.17842;1.368;-0.051
30.5341;-5;-0.933391;1.359;-0.052
30.5611;-5;0.728155;1.359;-0.052
30.5922;-5;-0.517189;1.356;-0.054
30.6241;-5;0.309784;1.353;-0.037
30.6687;-5;-0.441547;1.35;-0.067
30.6885;-5;-0.436022;1.35;-0.067
30.7271;5;-0.727431;1.344;-0.077
30.7524;5;0.241784;1.346;-0.078
30.7839;5;-0.326893;1.336;-0.083
30.8203;5;0.598003;1.358;-0.08
30.848;5;-0.642551;1.345;-0.086
30.8895;5;0.319387;1.349;-0.084
30.9125;5;0.613433;1.353;-0.081
30.9439;5;0.478544;1.36;-0.079
30.9931;-5;0.129185;1.363;-0.079
31.0086;-5;0.150663;1.363;-0.077
31.0402;-5;0.17088;1.369;-0.074
31.0722;-5;-0.125035;1.367;-0.075
31.1036;-5;-0.0541745;1.369;-0.077
31.1402;-5;-0.136592;1.366;-0.081
31.1678;-5;-0.107044;1.358;-0.083
31.2139;-5;-0.0770566;1.354;-0.088
31.2332;-5;-0.19218;1.354;-0.09
31.2644;-5;-0.179853;1.348;-0.093
31.3006;-5;-0.14405;1.348;-0.096
31.3279;-5;-0.217029;1.349;-0.102
31.36;-5;-0.132697;1.351;-0.104
31.3946;-5;-0.0718326;1.353;-0.108
31.4251;-5;-0.0666061;1.377;-0.116
31.4626;5;0.211906;1.356;-0.116
31.4877;5;-0.348028;1.359;-0.121
31.5202;5;0.572902;1.37;-0.107
31.5519;5;0.56669;1.364;-0.123
31.5871;5;-0.574645;1.369;-0.132
31.6203;5;0.447969;1.369;-0.119
31.6484;5;0.645793;1.369;-0.115
31.6801;5;0.436736;1.379;-0.1
31.7125;-5;0.570368;1.368;-0.107
31.7437;-5;0.447069;1.367;-0.103
31.7867;-5;0.491798;1.367;-0.099
31.8083;-5;0.00459861;1.372;-0.097
31.8398;-5;-0.384477;1.373;-0.097
31.8753;-5;-0.288212;1.377;-0.101
31.905;-5;-0.518725;1.381;-0.106
31.94;-5;-0.644665;1.388;-0.106
31.9678;5;-0.409406;1.377;-0.124
31.9996;5;0.131482;1.392;-0.115
32.0346;5;-0.688182;1.398;-0.118
32.0648;5;1.07341;1.393;-0.098
32.1004;5;-1.28417;1.401;-0.14
32.1284;5;1.40587;1.396;-0.115
32.1604;5;0.806058;1.397;-0.114
32.1925;5;0.396337;1.392;-0.11
32.2243;5;0.410093;1.386;-0.105
32.2596;5;-0.122383;1.388;-0.103
32.2878;5;0.0552861;1.383;-0.099
32.326;5;-0.355189;1.381;-0.094
32.3522;5;0.332479;1.377;-0.094
32.3928;5;0.460346;1.39;-0.08
32.4207;5;0.803934;1.376;-0.084
32.448;5;0.493221;1.376;-0.084
32.4802;-5;0.0926031;1.383;-0.077
32.512;-5;0.452723;1.384;-0.073
32.546;-5;0.00847808;1.387;-0.072
32.58;-5;-0.18022;1.387;-0.074
32.6082;-5;-0.154641;1.386;-0.077
32.6402;-5;-0.133243;1.386;-0.08
32.6724;-5;-0.139708;1.391;-0.084
32.7038;5;0.153772;1.397;-0.086
32.7546;5;-0.148489;1.395;-0.094
32.7714;5;-0.144759;1.397;-0.095
32.8006;5;-0.225789;1.403;-0.098
32.8319;5;-0.141039;1.405;-0.099
32.8637;5;0.11433;1.405;-0.097
32.8999;5;0.575021;1.404;-0.068
32.9283;5;0.749791;1.418;-0.079
32.9604;-5;1.04502;1.408;-0.083
32.9922;-5;0.472805;1.412;-0.079
33.0351;-5;0.958606;1.415;-0.074
33.0618;-5;-0.48721;1.416;-0.075
33.0883;-5;0.435447;1.423;-0.062
33.1343;-5;-0.890278;1.411;-0.08
33.1517;-5;-0.90835;1.409;-0.084
33.191;-5;-0.351604;1.404;-0.087
33.2203;-5;-0.320215;1.405;-0.092
33.2482;-5;-0.188985;1.406;-0.095
33.2942;-5;-0.145832;1.4;-0.102
33.3119;-5;-0.145832;1.4;-0.102
33.344;-5;-0.207055;1.395;-0.107
33.3806;-5;-0.265577;1.396;-0.11
33.4076;-5;-0.126664;1.396;-0.115
33.4403;-5;-0.36023;1.389;-0.13
33.4748;-5;-0.40622;1.39;-0.125
33.5054;-5;-0.448368;1.388;-0.148
33.5399;-5;0.829643;1.385;-0.129
33.5677;-5;-0.649084;1.382;-0.131
33.5998;-5;-1.14832;1.378;-0.134
33.6326;-5;-0.488365;1.377;-0.142
33.6752;-5;-0.626139;1.382;-0.146
33.7005;-5;-0.104239;1.388;-0.152
33.7282;5;-0.0828303;1.388;-0.152
33.7598;5;-0.21702;1.389;-0.157
33.7926;5;-0.0729307;1.387;-0.161
33.8246;5;0.00440919;1.387;-0.162
33.8763;5;0.548415;1.389;-0.154
33.8925;5;-0.577783;1.39;-0.158
33.921;5;0.517204;1.38;-0.148
33.9521;5;0.570109;1.379;-0.143
33.9844;5;0.458943;1.373;-0.14
34.0203;5;-0.456955;1.369;-0.135
34.0483;5;0.277712;1.367;-0.134
34.0822;5;0.405575;1.365;-0.128
34.1116;5;0.404194;1.363;-0.125
34.1439;5;-0.152827;1.388;-0.125
34.1929;5;0.5065;1.364;-0.115
34.2086;-5;-0.501316;1.367;-0.117
34.24;-5;0.411877;1.365;-0.108
34.2716;-5;0.619342;1.369;-0.082
34.3042;-5;-0.294649;1.364;-0.101
34.3532;-5;-0.298532;1.365;-0.105
34.3688;-5;-0.465728;1.365;-0.107
34.4006;-5;-0.487875;1.366;-0.115
34.4362;-5;-0.0597164;1.364;-0.117
34.4643;-5;-0.144271;1.364;-0.12
34.5149;-5;-0.0814789;1.362;-0.128
34.5285;-5;-0.120629;1.365;-0.13
34.5604;-5;-0.147135;1.365;-0.134
34.5918;-5;-0.125078;1.366;-0.135
34.6288;-5;0.312777;1.378;-0.127
34.6605;-5;-0.516887;1.375;-0.147
34.6877;-5;-0.504512;1.375;-0.147
34.7328;5;-0.572778;1.378;-0.154
34.7528;5;-0.224374;1.382;-0.156
34.7836;5;-0.209478;1.385;-0.162
34.8206;5;-0.17746;1.387;-0.163
34.8506;5;0.0404515;1.389;-0.163
34.8806;5;0.152609;1.389;-0.159
34.9117;5;0.150776;1.388;-0.153
34.9435;5;0.109304;1.383;-0.149
34.9939;5;0.206957;1.383;-0.143
35.0085;5;0.0707428;1.381;-0.141
35.0397;5;-0.624552;1.379;-0.136
35.0719;5;-0.966162;1.38;-0.132
35.1069;5;0.478938;1.378;-0.128
35.1445;5;0.946029;1.377;-0.121
35.1686;5;-0.242875;1.377;-0.115
35.2002;5;-0.172393;1.377;-0.111
35.2325;5;0.507777;1.388;-0.082
35.2639;5;-0.595461;1.383;-0.098
35.3005;5;0.676409;1.389;-0.096
35.3284;5;0.102218;1.387;-0.092
35.3732;5;-0.313816;1.393;-0.091
35.3924;5;-0.313816;1.393;-0.091
35.4241;5;0.213676;1.403;-0.091
35.4599;-5;-0.228799;1.403;-0.09
35.4936;-5;0.177251;1.406;-0.091
35.5206;-5;0.251713;1.411;-0.092
35.552;-5;0.531462;1.415;-0.093
35.5896;-5;-0.818872;1.416;-0.093
35.6206;-5;-0.944949;1.409;-0.093
35.6479;-5;-0.944949;1.409;-0.093
35.6805;-5;-0.473836;1.406;-0.091
35.7123;-5;-0.543313;1.396;-0.09
35.7565;-5;-0.282398;1.384;-0.091
35.7825;-5;0.336949;1.384;-0.076
35.8081;-5;-0.276277;1.388;-0.093
35.8397;-5;-0.663129;1.384;-0.096
35.8745;-5;-0.662364;1.382;-0.1
35.904;-5;0.825963;1.393;-0.091
35.9402;-5;-0.00569278;1.378;-0.11
35.9678;5;-0.217939;1.38;-0.113
36.0015;5;-0.558446;1.379;-0.12
36.0342;5;-0.296448;1.38;-0.123
36.0642;5;-0.178026;1.376;-0.127
36.1001;5;0.167594;1.38;-0.126
36.1277;5;0.190143;1.38;-0.123
36.1651;5;0.0580953;1.377;-0.115
36.192;5;0.0960043;1.377;-0.113
36.2334;5;0.201674;1.382;-0.107
36.2613;5;-0.529536;1.383;-0.104
36.2911;5;0.400202;1.384;-0.099
36.3204;5;0.314163;1.389;-0.093
36.3524;5;-0.083035;1.387;-0.087
36.3837;5;-0.347103;1.391;-0.084
36.4201;5;0.629233;1.395;-0.079
36.4479;5;0.19461;1.396;-0.075
36.4949;5;0.54658;1.399;-0.067
36.5125;5;0.297743;1.402;-0.069
36.551;5;-0.161801;1.405;-0.066
36.58;5;0.0295865;1.403;-0.037
36.6111;5;0.565305;1.415;-0.056
36.6405;5;0.554574;1.417;-0.055
36.6722;5;0.635986;1.42;-0.056
36.7044;5;0.426757;1.432;-0.064
36.7457;5;0.583917;1.438;-0.046
36.7683;5;-0.527689;1.433;-0.046
36.7998;5;0.478657;1.443;-0.057
36.832;5;-1.22675;1.439;-0.047
36.8637;5;-0.0759802;1.442;-0.023
36.9006;5;-1.23264;1.441;-0.048
36.9371;5;1.08287;1.452;-0.055
36.9623;-5;1.04593;1.452;-0.055
36.9924;-5;0.888507;1.467;-0.068
37.0237;-5;0.271895;1.462;-0.06
37.0659;-5;-0.205889;1.464;-0.061
37.0883;-5;-0.547981;1.447;-0.046
37.1253;-5;0.562033;1.462;-0.06
37.1523;-5;-0.736279;1.458;-0.061
37.1839;-5;-0.513346;1.452;-0.057
37.2264;-5;-0.796074;1.434;-0.034
37.2484;-5;0.779297;1.456;-0.062
37.2803;-5;-0.0589396;1.437;-0.069
37.3148;-5;-0.38851;1.435;-0.023
37.3446;-5;-0.0111235;1.435;-0.04
37.3804;-5;-0.235308;1.427;-0.062
37.4148;-5;-0.235308;1.427;-0.062
37.4419;-5;0.0361174;1.423;-0.037
37.472;-5;-1.03011;1.418;-0.031
37.5036;-5;0.823216;1.438;-0.021
37.5401;-5;-1.27407;1.414;-0.028
37.5681;-5;0.335864;1.416;-0.031
37.6075;-5;0.128737;1.404;-0.043
37.6319;-5;-0.981675;1.389;-0.049
37.6637;-5;-0.981675;1.389;-0.049
37.7007;-5;-0.427429;1.395;-0.014
37.7281;5;-0.28796;1.384;-0.039
37.7604;5;0.704075;1.392;-0.057
37.7926;5;-1.04449;1.381;-0.046
37.8289;5;-1.10886;1.379;-0.046
37.8608;5;-0.160021;1.384;-0.022
37.8876;5;-0.160021;1.384;-0.022
37.9261;5;0.936114;1.392;-0.043
37.9527;5;0.945482;1.398;-0.041
37.9836;5;1.3104;1.403;-0.017
38.0205;5;-0.00609617;1.402;-0.04
38.0545;5;1.62089;1.43;-0.027
38.081;5;1.60264;1.415;-0.037
38.1128;5;0.54475;1.416;-0.034
38.1549;5;-0.0567707;1.419;-0.038
38.1811;5;1.14881;1.432;-0.026
38.2082;-5;0.785891;1.435;-0.049
38.247;-5;-0.145386;1.429;-0.066
38.2717;-5;0.860616;1.436;-0.046
38.3129;-5;-0.00555531;1.429;-0.021
38.3413;-5;-0.202544;1.432;-0.048
38.3683;-5;1.63518;1.45;-0.046
38.4001;-5;0.45375;1.427;-0.055
38.4353;-5;-1.33619;1.421;-0.06
38.4644;5;-1.25051;1.414;-0.065
38.5133;5;-0.583657;1.403;-0.068
38.5313;5;0.12391;1.404;-0.074
38.5604;5;-0.0381623;1.405;-0.072
38.5917;5;-0.215;1.404;-0.07
38.6239;5;-0.0900334;1.405;-0.045
38.6613;5;-0.159358;1.41;-0.075
38.6878;5;0.0737599;1.423;-0.043
38.7204;5;1.45782;1.434;-0.053
38.7517;5;1.33794;1.43;-0.083
38.7947;5;1.03739;1.435;-0.067
38.8217;5;-0.602547;1.44;-0.066
38.8483;5;-0.403773;1.442;-0.042
38.88;5;-1.25792;1.443;-0.069
38.9123;5;-0.703204;1.44;-0.049
38.9435;5;-0.0981426;1.451;-0.051
38.9795;-5;-1.56493;1.453;-0.077
39.016;-5;0.954432;1.465;-0.099
39.0423;-5;-0.645967;1.459;-0.083
39.0723;-5;0.828074;1.461;-0.061
39.104;-5;-1.42799;1.453;-0.085
39.1415;-5;1.07323;1.454;-0.086
39.1677;-5;-1.09103;1.441;-0.086
39.2163;-5;0.0106132;1.443;-0.078
39.2326;-5;-0.727739;1.439;-0.077
39.2643;-5;-0.512945;1.436;-0.075
39.3165;-5;-0.278745;1.433;-0.071
39.3277;-5;-0.224948;1.423;-0.045
39.3602;-5;0.234507;1.434;-0.078
39.3918;-5;-0.442608;1.428;-0.067
39.4243;-5;-1.02455;1.412;-0.065
39.4608;-5;-1.2152;1.412;-0.061
39.4885;-5;-1.1137;1.407;-0.059
39.5201;-5;-1.03841;1.403;-0.058
39.5575;-5;1.11685;1.421;-0.049
39.5855;-5;-0.382711;1.397;-0.024
39.6204;-5;-0.0701776;1.388;-0.071
39.6481;-5;0.431621;1.391;-0.067
39.6796;-5;-1.13841;1.39;-0.064
39.7121;-5;1.66114;1.385;-0.04
39.7446;-5;0.844876;1.389;-0.038
39.7805;-5;-0.304178;1.372;-0.047
39.8083;-5;1.21265;1.385;-0.048
39.8574;-5;0.703882;1.376;-0.041
39.8744;-5;-0.847453;1.366;-0.048
39.9044;-5;-0.847453;1.366;-0.048
39.9409;-5;-1.20228;1.356;-0.028
39.9676;5;-1.12393;1.354;-0.027
40.0002;5;1.01821;1.35;-0.028
40.0367;5;0.153253;1.345;-0.028
40.064;5;-0.689572;1.343;-0.027
40.1132;5;1.12176;1.343;-0.029
40.1278;5;0.875955;1.346;-0.034
40.1689;5;0.370218;1.358;-0.026
40.1922;5;-0.20996;1.349;-0.038
40.2235;-5;-0.0234632;1.347;-0.045
40.2673;-5;-0.483406;1.356;-0.05
40.2883;-5;0.084859;1.358;-0.049
40.3201;-5;-1.07303;1.355;-0.05
40.3519;-5;-0.408586;1.355;-0.048
40.3839;-5;-0.740144;1.348;-0.047
40.4274;-5;-0.214094;1.348;-0.04
40.4485;-5;-0.185601;1.348;-0.037
40.4802;-5;-0.21499;1.338;-0.035
40.5153;-5;0.0670041;1.341;-0.03
40.5452;-5;0.0498175;1.339;-0.027
40.5803;-5;0.0498175;1.339;-0.027
40.6077;-5;0.340278;1.337;-0.044
40.64;-5;0.0618011;1.329;-0.016
40.6776;-5;0.577233;1.334;-0.03
40.7057;-5;-0.602884;1.319;-0.01
40.7402;-5;0.814115;1.322;-0.008
40.7677;-5;0.814115;1.322;-0.008
40.8165;-5;-0.594732;1.311;-0.007
40.8318;-5;-0.520221;1.311;-0.007
40.8645;-5;-0.441928;1.306;-0.008
40.9008;-5;-0.107033;1.301;-0.013
40.9283;-5;-0.578226;1.299;-0.014
40.9601;5;-0.210216;1.298;-0.017
40.9922;5;0.0433575;1.294;-0.02
41.0275;5;-0.19783;1.287;-0.022
41.06;5;-0.00790805;1.288;-0.026
41.0944;5;0.165331;1.288;-0.029
41.1264;5;0.259846;1.294;-0.028
41.1523;5;0.210679;1.299;-0.029
41.1845;5;0.207833;1.303;-0.029
41.2272;-5;0.19002;1.303;-0.029
41.2486;-5;0.226272;1.313;-0.028
41.28;-5;-0.0911236;1.315;-0.029
41.3123;-5;0.240619;1.319;-0.03
41.3445;-5;-0.183204;1.318;-0.035
41.3807;-5;0.015542;1.318;-0.038
41.4081;-5;0.426638;1.312;-0.043
41.4406;-5;0.135626;1.314;-0.044
41.4723;5;-0.13386;1.312;-0.05
41.5041;5;-0.273132;1.311;-0.055
41.5397;5;0.103154;1.312;-0.061
41.5685;5;0.180905;1.312;-0.06
41.6172;5;-0.491663;1.302;-0.072
41.6322;5;0.628225;1.313;-0.053
41.6642;5;0.42587;1.312;-0.049
41.717;5;0.631714;1.313;-0.04
41.7277;5;0.631714;1.313;-0.04
41.7606;5;0.747044;1.312;-0.034
41.7919;5;0.349367;1.311;-0.029
41.8242;5;0.232812;1.309;-0.026
41.8598;5;0.283771;1.307;-0.018
41.8877;5;0.254862;1.306;-0.012
41.9205;5;0.146601;1.306;-0.007
41.9585;5;0.0890161;1.307;-0.004
41.9863;5;0.172918;1.306;0.002
42.0205;5;0.0813019;1.306;0.006
42.0541;5;0.163031;1.306;0.012
42.0806;5;0.166886;1.307;0.015
42.1119;5;0.171648;1.312;0.02
42.1442;5;0.0518509;1.31;0.023
42.1801;5;0.099343;1.322;0.02
42.2076;-5;0.201866;1.324;0.022
42.2401;-5;0.197542;1.328;0.024
42.2725;-5;0.202911;1.33;0.027
42.3193;-5;-0.00779525;1.336;0.027
42.3434;-5;-0.160917;1.335;0.025
42.3684;-5;-0.133143;1.336;0.021
42.4013;-5;-0.160629;1.336;0.014
42.432;-5;-0.076567;1.34;0.01
42.4673;5;-0.16534;1.34;0.008
42.5122;5;-0.167335;1.339;0.001
42.5301;5;-0.203213;1.338;-0.004
42.5604;5;-0.14146;1.339;-0.006
42.5933;5;0.166441;1.345;-0.003
42.6241;5;0.0141242;1.348;-0.001
42.6611;5;0.168279;1.348;0.001
42.6966;5;0.307327;1.351;0.008
42.7219;-5;0.280788;1.355;0.011
42.7522;-5;0.261253;1.355;0.011
42.7842;-5;0.17656;1.359;0.016
42.8202;-5;0.0345148;1.357;0.017
42.8477;-5;-0.255793;1.381;0.008
42.889;-5;-0.548718;1.365;0.009
42.9119;-5;-0.336241;1.368;0.008
42.9436;-5;-0.353628;1.369;0.001
42.9872;5;-0.131138;1.372;-0.001
43.0083;5;-0.131029;1.378;-0.004
43.0397;5;-0.607257;1.378;-0.009
43.0722;5;-0.55911;1.382;-0.012
43.1043;5;-0.604927;1.386;-0.011
43.1565;5;1.13729;1.373;0.018
43.1681;5;-1.0196;1.376;-0.002
43.2012;5;-1.30697;1.372;-0.01
43.232;5;1.38742;1.37;0.002
43.2681;5;1.14173;1.366;0.009
43.3003;5;0.193134;1.36;0.012
43.3286;5;0.752669;1.356;0.017
43.362;5;0.373608;1.357;0.02
43.3925;5;0.295006;1.352;0.025
43.425;5;0.438766;1.35;0.03
43.4755;5;-0.744882;1.348;0.038
43.4892;5;-0.732994;1.348;0.038
43.5196;5;0.552388;1.343;0.043
43.5521;5;0.526492;1.34;0.05
43.5837;5;0.278868;1.337;0.055
43.6203;5;-0.196018;1.336;0.056
43.6477;5;0.28973;1.34;0.066
43.6805;5;0.0805355;1.335;0.069
43.7126;5;0.0805355;1.335;0.069
43.7437;5;0.0555528;1.328;0.075
43.7802;5;0.195596;1.328;0.083
43.8176;5;-0.0927277;1.326;0.084
43.8426;5;0.087292;1.328;0.085
43.8717;5;0.170352;1.332;0.09
43.9077;5;0.188854;1.335;0.097
43.9398;5;0.174919;1.337;0.102
43.9733;-5;0.122014;1.338;0.102
44.001;-5;0.210876;1.339;0.107
44.0319;-5;0.176298;1.34;0.109
44.0643;-5;0.107668;1.343;0.112
44.1161;-5;-0.12886;1.348;0.111
44.131;-5;0.0286328;1.343;0.111
44.16;-5;-0.0575263;1.351;0.109
44.1947;-5;-0.163803;1.356;0.104
44.2247;5;0.0581209;1.361;0.101
44.26;5;-0.362938;1.354;0.078
44.2884;5;-0.616924;1.367;0.092
44.3306;5;1.35808;1.37;0.112
44.3525;5;-1.42882;1.362;0.081
44.3941;5;-0.0467212;1.363;0.093
44.4207;5;1.05268;1.366;0.098
44.4512;5;0.752887;1.359;0.104
44.4802;5;-0.890056;1.354;0.109
44.5121;5;0.736965;1.356;0.113
44.5443;5;0.972727;1.357;0.133
44.5871;5;1.02672;1.349;0.12
44.6077;5;-0.780832;1.347;0.125
44.6411;5;-0.286287;1.35;0.125
44.6761;5;0.528406;1.352;0.133
44.7044;-5;-0.186822;1.354;0.135
44.7535;-5;0.51547;1.356;0.145
44.7679;-5;0.51547;1.356;0.145
44.8002;-5;0.47483;1.356;0.145
44.8317;-5;-0.303962;1.356;0.147
44.8642;-5;0.839727;1.339;0.15
44.9009;-5;0.557469;1.366;0.146
44.9355;-5;0.542734;1.373;0.139
44.9613;5;0.385683;1.383;0.152
44.9918;5;0.461015;1.383;0.156
45.0237;5;1.26978;1.374;0.158
45.0607;5;-0.485545;1.388;0.114
45.0882;5;1.65189;1.382;0.136
45.1201;5;-1.81246;1.386;0.135
45.1525;5;1.05964;1.374;0.139
45.1837;5;0.793968;1.374;0.139
45.2199;5;-0.205148;1.388;0.143
45.2477;5;-0.814178;1.364;0.145
45.2802;5;0.641009;1.357;0.148
45.312;5;0.491289;1.351;0.15
45.3441;5;0.585716;1.347;0.155
45.3801;5;-0.121725;1.339;0.157
45.4082;5;0.324345;1.336;0.157
45.4406;5;0.343982;1.33;0.164
45.4725;5;-0.124384;1.329;0.163
45.5037;5;0.480682;1.321;0.167
45.5411;5;0.0747713;1.318;0.166
45.5686;5;0.547618;1.307;0.167
45.6091;5;0.64119;1.304;0.172
45.6316;5;0.64119;1.304;0.172
45.6653;5;0.659211;1.292;0.173
45.7011;5;0.428772;1.29;0.173
45.7348;5;0.179035;1.286;0.173
45.7611;5;0.225737;1.282;0.174
45.792;5;0.187327;1.275;0.173
45.8279;5;0.210642;1.268;0.175
45.8602;5;0.120172;1.263;0.172
45.8878;5;0.227935;1.259;0.173
45.9356;5;0.116647;1.253;0.171
45.9515;5;0.168016;1.25;0.17
45.9838;5;0.184318;1.244;0.168
46.0205;5;0.207265;1.237;0.167
46.0485;5;0.207265;1.237;0.167
46.0864;5;-0.0590355;1.229;0.168
46.1122;5;0.142652;1.226;0.166
46.1438;5;0.23441;1.223;0.167
46.1804;5;0.217119;1.218;0.169
46.217;-5;-0.0406681;1.218;0.174
46.2431;-5;0.189402;1.213;0.177
46.2725;-5;0.189402;1.213;0.177
46.3038;-5;0.189402;1.213;0.177
46.3401;-5;-0.123702;1.211;0.185
46.3676;-5;-0.203204;1.213;0.181
46.4005;-5;0.0519741;1.209;0.18
46.4317;-5;-0.225063;1.213;0.177
46.4679;-5;-0.128807;1.215;0.171
46.5004;-5;-0.182893;1.219;0.165
46.5284;-5;-0.0327539;1.216;0.162
46.5604;-5;-0.117396;1.217;0.156
46.5917;-5;-0.128344;1.217;0.151
46.6237;-5;-0.206123;1.221;0.147
46.6782;-5;-0.154311;1.217;0.14
46.6899;-5;-0.193288;1.218;0.138
46.7214;-5;-0.180577;1.222;0.136
46.7522;-5;-0.0974739;1.221;0.132
46.7862;-5;-0.181975;1.223;0.127
46.8202;-5;-0.133872;1.224;0.125
46.8481;-5;-0.143461;1.226;0.121
46.8803;-5;-0.143461;1.226;0.121
46.9122;-5;-0.178735;1.23;0.114
46.9479;-5;-0.0232923;1.227;0.111
46.98;-5;-0.141951;1.226;0.106
47.0136;-5;-0.162334;1.23;0.102
47.0409;-5;-0.160395;1.23;0.1
47.0739;-5;-0.131634;1.231;0.093
47.1039;-5;-0.186178;1.235;0.09
47.1406;-5;-0.0950641;1.24;0.091
47.1684;-5;-0.142239;1.244;0.089
47.2066;-5;0.0421475;1.244;0.085
47.2324;5;-0.182788;1.255;0.084
47.2772;5;-0.204315;1.26;0.081
47.3023;5;-0.0620571;1.263;0.083
47.3284;5;0.100983;1.26;0.082
47.375;5;0.101045;1.255;0.083
47.3922;5;0.0850158;1.256;0.085
47.4236;5;0.0833633;1.245;0.083
47.4683;5;0.213336;1.247;0.087
47.4884;5;0.0962806;1.242;0.086
47.5205;5;0.0677118;1.234;0.09
47.5521;5;0.128911;1.227;0.093
47.5845;5;0.228495;1.226;0.098
47.6204;5;0.229051;1.225;0.101
47.6477;5;0.188182;1.223;0.102
47.6964;5;0.188142;1.222;0.109
47.7136;-5;0.0928423;1.223;0.112
47.7473;-5;0.145798;1.222;0.119
47.7814;-5;-0.0593484;1.221;0.121
47.8086;-5;0.210274;1.218;0.123
47.8404;-5;-0.148155;1.223;0.123
47.8724;-5;-0.108579;1.227;0.122
47.9038;-5;-0.188992;1.233;0.121
47.9552;-5;-0.275116;1.24;0.119
47.97;5;-0.213966;1.245;0.117
48.0118;5;-0.148275;1.251;0.113
48.0324;5;-0.141929;1.256;0.112
48.0736;5;0.0258816;1.26;0.112
48.1015;5;0.206206;1.259;0.115
48.1277;5;0.145216;1.26;0.118
48.1597;5;0.187249;1.261;0.124
48.1926;5;0.17732;1.262;0.129
48.2243;-5;0.158697;1.262;0.132
48.2763;-5;0.0690011;1.266;0.138
48.2905;-5;0.073356;1.266;0.138
48.3202;-5;0.128514;1.266;0.14
48.352;-5;-0.102573;1.266;0.138
48.3864;-5;-0.167958;1.263;0.135
48.4203;-5;-0.157914;1.262;0.13
48.4476;-5;-0.207009;1.261;0.124
48.488;-5;-0.0695749;1.258;0.122
48.5123;-5;0.0247805;1.253;0.118
48.5438;-5;-0.196287;1.254;0.112
48.5806;-5;-0.172298;1.254;0.108
48.6077;-5;-0.172107;1.257;0.103
48.6405;-5;-0.14131;1.258;0.102
48.6724;-5;-0.134785;1.262;0.095
48.7038;5;-0.066055;1.266;0.093
48.7478;5;-0.0572212;1.266;0.093
48.7681;5;-0.0731975;1.271;0.088
48.8102;5;-0.0618994;1.273;0.084
48.8321;5;-0.137036;1.272;0.081
48.8727;5;0.138644;1.275;0.082
48.9011;5;0.103158;1.272;0.084
48.9279;5;0.146478;1.272;0.087
48.9606;5;0.151714;1.269;0.092
48.9917;5;0.0185796;1.267;0.092
49.0262;5;0.126788;1.266;0.1
49.0606;5;0.125426;1.261;0.102
49.088;5;0.168503;1.26;0.107
49.1205;5;0.15103;1.263;0.111
49.152;5;0.172483;1.261;0.114
49.1841;5;0.166325;1.262;0.119
49.2202;-5;0.148194;1.263;0.121
49.2486;-5;0.141691;1.269;0.125
49.2805;-5;0.174073;1.268;0.128
49.3122;-5;-0.164629;1.273;0.129
49.357;-5;-0.179057;1.273;0.122
49.3824;-5;-0.178444;1.273;0.122
49.4105;-5;-0.146823;1.272;0.117
49.441;-5;-0.182183;1.273;0.111
49.4719;5;-0.254867;1.277;0.103
49.5068;5;-0.180731;1.278;0.1
49.5401;5;-0.0538712;1.283;0.093
49.5738;5;-0.11051;1.283;0.092
49.6015;5;-0.11051;1.283;0.092
49.6317;5;0.138419;1.287;0.095
49.6644;5;0.172585;1.292;0.099
49.7156;5;0.12919;1.296;0.1
49.7303;-5;0.12919;1.296;0.1
49.7601;-5;0.12919;1.296;0.1
49.7925;-5;0.216628;1.305;0.105
49.8239;-5;-0.292028;1.298;0.09
49.86;-5;0.402888;1.312;0.1
49.897;-5;-0.381261;1.308;0.095
49.9219;-5;-0.378857;1.305;0.094
49.9517;-5;-0.372937;1.304;0.089
49.9844;5;-0.450604;1.296;0.071
50.0275;5;-0.397717;1.301;0.077
50.0483;5;-0.251219;1.301;0.073
50.0801;5;-0.357337;1.301;0.071
50.1119;5;-0.393899;1.299;0.075
50.1562;5;-0.17451;1.298;0.082
50.1819;5;0.288874;1.305;0.087
50.2083;5;0.163989;1.307;0.09
50.2407;5;0.263658;1.308;0.095
50.2718;5;-0.00538236;1.309;0.101
50.3036;5;0.215771;1.313;0.103
50.3407;5;0.171826;1.315;0.104
50.3678;5;0.177624;1.318;0.105
50.4012;5;0.188837;1.325;0.105
50.4318;5;0.446427;1.34;0.116
50.4637;-5;0.586531;1.332;0.105
50.5009;-5;0.551968;1.337;0.104
50.5362;-5;0.587265;1.341;0.104
50.5617;-5;-0.255512;1.34;0.079
50.5916;-5;-0.835644;1.342;0.099
50.6236;-5;-0.893435;1.332;0.095
50.666;-5;-0.564591;1.331;0.092
50.6885;-5;-0.781512;1.326;0.088
50.7204;5;-0.469751;1.325;0.087
50.7526;5;0.49137;1.339;0.094
50.7954;5;0.00314715;1.321;0.075
50.8216;5;0.204061;1.318;0.075
50.8476;5;0.437903;1.319;0.078
50.881;5;0.251997;1.321;0.076
50.9122;5;-0.435579;1.318;0.084
50.9442;5;0.615713;1.323;0.086
50.9812;5;0.453059;1.332;0.094
51.0078;5;-0.652053;1.327;0.093
51.0465;5;0.486049;1.336;0.099
51.0717;5;0.623796;1.34;0.101
51.1046;5;0.350654;1.344;0.099
51.1521;5;-0.281067;1.346;0.1
51.1686;5;0.273542;1.35;0.1
51.1999;5;0.135079;1.354;0.097
51.2318;-5;0.0953034;1.367;0.087
51.2675;-5;-0.550142;1.352;0.083
51.3007;-5;0.711825;1.366;0.1
51.328;-5;-0.12319;1.366;0.095
51.3598;-5;-0.695125;1.361;0.091
51.3922;-5;-0.536107;1.354;0.086
51.4241;-5;-0.569484;1.358;0.085
51.4598;5;-0.416184;1.357;0.073
51.4876;5;0.791964;1.359;0.091
51.52;5;-1.35991;1.346;0.074
51.5518;5;1.18387;1.345;0.067
51.5963;5;-0.787661;1.351;0.068
51.6222;5;0.348591;1.355;0.067
51.6485;5;1.35425;1.37;0.084
51.6811;5;1.1057;1.366;0.07
51.7117;-5;-0.99946;1.366;0.045
51.748;-5;1.16935;1.376;0.068
51.7914;-5;0.44185;1.378;0.089
51.8079;-5;-0.478418;1.378;0.068
51.8407;-5;1.22898;1.396;0.079
51.872;-5;-0.978469;1.375;0.047
51.9069;-5;-0.692916;1.38;0.063
51.9523;-5;-0.823518;1.377;0.058
51.969;5;1.12932;1.387;0.068
52;5;-1.20541;1.361;0.039
52.0321;5;1.82793;1.38;0.042
52.0677;5;1.37865;1.369;0.049
52.1073;5;1.12498;1.37;0.047
52.1276;5;0.908076;1.382;0.046
52.1607;5;-0.534467;1.377;0.046
52.1925;5;0.387743;1.382;0.047
52.2355;-5;-0.483694;1.381;0.045
52.2614;-5;0.450412;1.39;0.043
52.2877;-5;-0.553203;1.396;0.044
52.3365;-5;0.482314;1.399;0.059
52.3522;-5;-0.569701;1.387;0.024
52.3845;-5;0.0821564;1.386;0.046
52.4274;-5;-1.07383;1.37;0.046
52.4478;-5;-0.0313789;1.375;0.05
52.4812;-5;-0.0208302;1.379;0.069
52.5115;-5;-1.02852;1.362;0.054
52.5438;-5;-0.38751;1.363;0.08
52.5811;-5;-1.42663;1.356;0.083
52.6151;-5;0.404251;1.357;0.062
52.6416;-5;1.0461;1.36;0.062
52.6718;-5;0.5827;1.356;0.049
52.7038;-5;0.429545;1.349;0.074
52.7411;-5;-0.069701;1.339;0.053
52.7762;-5;0.910027;1.344;0.074
52.802;-5;-0.918823;1.34;0.082
52.8319;-5;-0.729077;1.331;0.104
52.8637;-5;-0.561353;1.334;0.087
52.9001;-5;-1.23355;1.32;0.108
52.9356;-5;0.587187;1.338;0.104
52.9618;-5;-0.712282;1.326;0.095
52.9921;-5;-0.393106;1.323;0.122
53.0245;-5;0.59995;1.321;0.104
53.0607;-5;-0.179991;1.319;0.107
53.0881;-5;-0.619471;1.313;0.111
53.1276;-5;-0.74794;1.309;0.114
53.1521;-5;-0.0517947;1.309;0.116
53.1839;-5;-0.319532;1.305;0.12
53.2365;-5;0.412236;1.301;0.121
53.2479;-5;0.412236;1.301;0.121
53.2809;-5;-0.416325;1.28;0.112
53.3121;-5;-0.57353;1.289;0.124
53.3558;-5;0.03472;1.281;0.122
53.382;-5;-0.614477;1.278;0.122
53.4125;-5;-0.614477;1.278;0.122
53.4411;-5;-0.358542;1.273;0.118
53.4724;5;0.0472588;1.269;0.114
53.5037;5;-0.205464;1.264;0.113
53.5408;5;-0.620118;1.258;0.115
53.5683;5;-0.0791967;1.253;0.11
53.6006;5;-0.204787;1.254;0.108
53.6321;5;0.470076;1.256;0.103
53.6666;5;0.269041;1.262;0.101
53.7001;5;0.178739;1.265;0.096
53.7283;-5;0.193708;1.267;0.093
53.761;-5;-0.253266;1.269;0.111
53.7925;-5;0.300626;1.266;0.088
53.8237;-5;-0.315759;1.272;0.108
53.8599;-5;-1.01946;1.263;0.091
53.8878;-5;0.523066;1.265;0.092
53.9199;-5;-0.524085;1.262;0.097
53.9523;-5;-0.233484;1.259;0.098
53.998;-5;-0.219273;1.254;0.104
54.0233;-5;-0.151715;1.254;0.111
54.0484;-5;-0.0222081;1.253;0.109
54.081;-5;-0.245937;1.245;0.112
54.1116;-5;0.145926;1.246;0.11
54.1437;-5;-0.188705;1.239;0.11
54.1806;-5;-0.174958;1.235;0.11
54.2084;5;-0.0445654;1.233;0.105
54.2502;5;-0.206148;1.223;0.104
54.2725;5;-0.205935;1.218;0.103
54.3041;5;-0.222418;1.217;0.101
54.3399;5;0.150894;1.216;0.1
54.3684;5;0.143937;1.216;0.1
54.3998;5;-0.227211;1.217;0.102
54.4325;5;0.197319;1.228;0.103
54.4778;5;0.039983;1.233;0.111
54.5019;5;0.231391;1.237;0.11
54.5278;5;0.252389;1.242;0.115
54.5746;5;0.456937;1.255;0.133
54.5919;5;0.871439;1.26;0.132
54.624;5;-0.228861;1.249;0.129
54.6603;5;0.814727;1.257;0.132
54.6879;5;0.420011;1.259;0.134
54.7198;5;0.470998;1.261;0.136
54.7516;5;0.476868;1.264;0.136
54.7838;5;0.213661;1.267;0.141
54.8204;5;0.33617;1.281;0.15
54.8476;5;-0.140079;1.276;0.14
54.8802;5;0.532332;1.277;0.136
54.9169;5;-0.521924;1.281;0.137
54.9458;5;0.0916573;1.28;0.131
54.9948;-5;0.10234;1.288;0.129
55.0086;-5;0.0981339;1.288;0.129
55.0405;-5;-0.0268166;1.281;0.109
55.0717;-5;0.188739;1.293;0.121
55.1044;-5;-0.476192;1.289;0.12
55.1412;-5;-0.198726;1.282;0.122
55.1677;-5;-0.339122;1.279;0.121
55.2005;-5;-0.292608;1.272;0.12
55.2321;5;0.186365;1.269;0.118
55.2636;5;0.483971;1.263;0.118
55.3162;5;0.354752;1.263;0.118
55.3283;5;0.50063;1.265;0.116
55.3606;5;0.618264;1.267;0.119
55.3923;5;0.352792;1.272;0.118
55.4241;5;-0.133592;1.276;0.121
55.4786;5;0.155765;1.282;0.125
55.491;5;-0.174991;1.28;0.125
55.5206;5;0.327462;1.3;0.141
55.5517;5;0.327462;1.3;0.141
55.5839;5;0.904287;1.297;0.136
55.6287;5;-0.289438;1.3;0.129
55.6481;5;0.815669;1.31;0.151
55.6944;5;0.73698;1.309;0.134
55.7119;-5;-0.566134;1.309;0.13
55.7446;-5;0.647575;1.314;0.131
55.7802;-5;-0.65806;1.322;0.133
55.8081;-5;-0.517618;1.318;0.134
55.8554;-5;-0.495406;1.318;0.131
55.8716;-5;-0.566842;1.315;0.129
55.9044;-5;-0.389442;1.312;0.132
55.9406;-5;-0.560271;1.303;0.13
55.9684;-5;0.339405;1.303;0.132
55.9998;-5;-0.746251;1.29;0.117
56.0325;-5;-0.10968;1.294;0.132
56.064;-5;0.690202;1.287;0.13
56.1088;-5;0.707573;1.285;0.128
56.1279;-5;-0.471456;1.281;0.121
56.1601;-5;-0.506392;1.278;0.117
56.1923;-5;-0.45696;1.277;0.113
56.2257;5;-0.492019;1.273;0.107
56.2606;5;0.838412;1.284;0.115
56.2886;5;-0.683542;1.27;0.1
56.3347;5;0.336476;1.268;0.094
56.3523;5;0.788945;1.269;0.095
56.3841;5;-0.0504858;1.274;0.092
56.4211;5;0.768892;1.276;0.092
56.4485;5;0.835011;1.28;0.09
56.4805;-5;0.531375;1.282;0.089
56.512;-5;-0.0525165;1.281;0.111
56.5445;-5;-0.484778;1.282;0.086
56.58;-5;-0.149169;1.28;0.112
56.6079;-5;0.929992;1.301;0.087
56.6564;-5;-1.29269;1.277;0.093
56.6726;-5;-1.16299;1.277;0.093
56.7036;-5;-0.818594;1.272;0.097
56.7409;-5;-0.439112;1.27;0.1
56.768;-5;-0.123981;1.267;0.103
56.807;-5;-0.143232;1.265;0.11
56.8317;-5;-0.213855;1.262;0.111
56.8641;-5;-0.246665;1.255;0.111
56.8998;-5;0.217106;1.253;0.108
56.9277;-5;-0.248198;1.245;0.111
56.96;5;-0.564803;1.242;0.11
56.9915;5;-0.656566;1.235;0.107
57.0244;5;-0.462513;1.232;0.103
57.0673;5;-0.45031;1.232;0.103
57.0879;5;-0.198969;1.232;0.103
57.1341;5;-0.144443;1.236;0.1
57.1522;5;0.130777;1.24;0.096
57.1838;5;0.147671;1.244;0.096
57.2206;-5;0.206348;1.251;0.094
57.2478;-5;-0.0251852;1.252;0.09
57.2799;-5;0.116416;1.255;0.087
57.3116;-5;0.0991376;1.255;0.087
57.3486;-5;0.0995654;1.255;0.088
57.3806;-5;-0.0888418;1.251;0.089
57.4086;-5;-0.142092;1.246;0.092
57.4403;-5;-0.146997;1.241;0.092
57.4721;-5;0.101933;1.237;0.095
57.5042;-5;-0.161327;1.233;0.098
57.5407;-5;-0.193936;1.226;0.101
57.5684;-5;-0.179948;1.226;0.101
57.6171;-5;-0.13991;1.222;0.101
57.6337;-5;-0.175359;1.22;0.101
57.6635;-5;-0.0922037;1.215;0.096
57.7148;-5;-0.154323;1.212;0.096
57.7301;5;-0.172583;1.205;0.093
57.7602;5;-0.147662;1.202;0.091
57.7917;5;-0.0837825;1.201;0.089
57.8245;5;-0.148417;1.198;0.087
57.8775;5;-0.146023;1.199;0.089
57.8889;5;-0.146023;1.199;0.089
57.9212;5;0.174056;1.204;0.092
57.9526;5;0.19745;1.212;0.096
57.9838;5;0.193349;1.213;0.101
58.0363;5;0.174281;1.218;0.105
58.0487;5;0.190382;1.222;0.109
58.0804;5;0.181407;1.223;0.11
58.112;5;0.104283;1.229;0.111
58.1441;5;-0.148168;1.227;0.111
58.1968;5;0.199771;1.239;0.111
58.2093;-5;0.0631242;1.24;0.109
58.2401;-5;0.236225;1.242;0.11
58.2717;-5;0.0896883;1.243;0.108
58.3067;-5;-0.398733;1.244;0.106
58.3523;-5;-0.594565;1.243;0.106
58.369;-5;-0.555978;1.243;0.106
58.4011;-5;0.686797;1.255;0.106
58.4318;-5;-0.639344;1.233;0.11
58.464;-5;-0.48163;1.227;0.111
58.5068;-5;-0.162804;1.227;0.115
58.5275;-5;-0.511276;1.226;0.119
58.5606;-5;-0.392513;1.224;0.118
58.5924;-5;-0.438727;1.221;0.122
58.6242;-5;-0.00193328;1.218;0.125
58.66;-5;-0.0971311;1.215;0.131
58.6959;-5;-0.218529;1.208;0.136
58.7217;-5;0.159245;1.21;0.138
58.7525;-5;-0.190728;1.207;0.142
58.7956;-5;-0.113952;1.206;0.146
58.8223;-5;-0.173753;1.203;0.149
58.8483;-5;0.135733;1.204;0.147
58.8957;-5;-0.171234;1.199;0.155
58.9116;-5;0.121132;1.202;0.155
58.9446;-5;-0.139798;1.202;0.158
58.9808;-5;-0.173659;1.201;0.165
59.0085;-5;-0.186799;1.199;0.168
59.056;-5;-0.130295;1.199;0.175
59.072;-5;-0.157375;1.198;0.177
59.1043;-5;-0.143068;1.198;0.179
59.1442;-5;-0.0810199;1.199;0.188
59.1676;-5;-0.137354;1.199;0.19
59.2045;-5;-0.0218548;1.2;0.195
59.2321;-5;-0.157425;1.197;0.197
59.2637;-5;0.0510062;1.201;0.202
59.3006;-5;-0.122923;1.197;0.202
59.3277;-5;-0.109093;1.198;0.212
59.3604;-5;-0.171403;1.196;0.216
59.3923;-5;-0.22167;1.194;0.221
59.4244;-5;-0.209008;1.194;0.221
59.4604;-5;-0.0622466;1.197;0.229
59.4876;-5;-0.150816;1.196;0.233
59.5206;-5;-0.170117;1.196;0.238
59.5517;-5;-0.0644544;1.195;0.24
59.5842;-5;-0.173114;1.194;0.243
59.6366;-5;-0.105076;1.185;0.25
59.6478;-5;-0.185696;1.181;0.255
59.6891;-5;-0.119979;1.178;0.257
59.7117;5;-0.0257484;1.172;0.258
59.7535;5;-0.203546;1.171;0.264
59.781;5;-0.147049;1.167;0.268
59.8083;5;-0.226828;1.167;0.272
59.8553;5;0.155181;1.162;0.271
59.8718;5;0.0589676;1.167;0.269
59.9044;5;0.211485;1.166;0.266
59.9566;5;0.0957484;1.17;0.255
59.968;5;0.0957484;1.17;0.255
60;5;0.147726;1.171;0.252
60.0322;5;0.121291;1.174;0.245
60.0758;5;0.164954;1.175;0.238
60.1017;5;0.113952;1.176;0.232
60.1285;5;0.209256;1.176;0.23
60.1651;5;0.214979;1.178;0.223
60.1922;5;0.208959;1.179;0.22
60.224;5;0.237357;1.18;0.214
60.2612;5;0.126108;1.182;0.211
60.2877;5;0.195259;1.182;0.203
60.326;5;-0.0549273;1.187;0.204
60.3517;5;0.194108;1.187;0.197
60.384;5;0.186534;1.187;0.195
60.4257;5;0.179563;1.185;0.192
60.4485;5;0.0837483;1.184;0.187
60.4812;-5;0.12253;1.181;0.186
60.5119;-5;-0.0775219;1.178;0.183
60.5445;-5;0.161522;1.176;0.182
60.5809;-5;0.135457;1.172;0.181
60.6087;-5;-0.168873;1.171;0.183
60.6406;-5;-0.24699;1.171;0.192
60.6724;-5;0.123881;1.17;0.195
60.7041;5;-0.201295;1.17;0.198
60.7483;5;-0.140242;1.162;0.205
60.7682;5;-0.229141;1.164;0.211
60.8016;5;-0.162029;1.161;0.215
60.8321;5;-0.205557;1.161;0.218
60.8644;5;0.0702244;1.158;0.217
60.9008;5;-0.0414676;1.158;0.214
60.9283;5;-0.0414676;1.158;0.214
60.9608;-5;0.202225;1.151;0.208
60.9971;-5;0.165895;1.148;0.202
61.0253;-5;0.15732;1.148;0.202
61.0631;-5;0.153144;1.145;0.196
61.0879;-5;-0.17491;1.145;0.198
61.1207;-5;-0.113932;1.149;0.203
61.1521;-5;-0.0963148;1.149;0.203
61.1838;-5;-0.167715;1.148;0.212
61.2204;-5;-0.0630054;1.146;0.212
61.2585;-5;-0.0574407;1.15;0.221
61.2821;-5;-0.0469507;1.15;0.221
61.3125;-5;-0.167268;1.148;0.228
61.355;-5;-0.155614;1.144;0.232
61.3811;-5;-0.155614;1.144;0.232
61.4081;-5;0.0859593;1.139;0.237
61.446;-5;-0.117952;1.135;0.239
61.4724;5;-0.213738;1.129;0.245
61.5046;5;-0.0288958;1.125;0.248
61.5463;5;-0.246643;1.123;0.254
61.5678;5;0.0949973;1.119;0.256
61.6048;5;0.0876505;1.119;0.256
61.632;5;0.195391;1.111;0.249
61.6641;5;0.16602;1.11;0.247
61.7003;5;0.187458;1.11;0.24
61.7368;-5;0.10801;1.106;0.237
61.7621;-5;0.153056;1.103;0.231
61.7918;-5;0.125035;1.103;0.231
61.8236;-5;0.0330395;1.099;0.229
61.8609;-5;-0.142839;1.102;0.234
61.8881;-5;-0.15512;1.102;0.237
61.9204;-5;-0.0818845;1.105;0.239
61.9563;-5;0.00861735;1.108;0.246
61.9848;-5;-0.147394;1.106;0.249
62.0342;-5;-0.13284;1.11;0.257
62.0499;-5;-0.13284;1.11;0.257
62.08;-5;-0.199343;1.112;0.262
62.1117;-5;-0.133308;1.116;0.265
62.1471;-5;-0.122948;1.117;0.266
62.1919;-5;0.184071;1.12;0.273
62.2084;-5;-0.124921;1.123;0.276
62.2407;-5;-0.140326;1.126;0.28
62.2716;-5;-0.168873;1.125;0.282
62.3045;-5;-0.131293;1.126;0.285
62.3579;-5;-0.112333;1.121;0.292
62.3689;-5;-0.0453672;1.119;0.292
62.4009;-5;-0.013743;1.116;0.292
62.4321;-5;-0.189509;1.115;0.299
62.4646;5;-0.134338;1.109;0.301
62.5007;5;-0.119947;1.106;0.302
62.5282;5;-0.187164;1.101;0.306
62.5678;5;-0.157001;1.097;0.307
62.5925;5;0.13353;1.099;0.303
62.6237;5;0.0972718;1.106;0.303
62.6658;5;0.023414;1.108;0.3
62.6876;5;0.162519;1.115;0.299
62.7201;5;0.164081;1.12;0.296
62.7549;5;0.109281;1.124;0.296
62.7844;5;0.167168;1.128;0.293
62.8235;5;0.09158;1.134;0.293
62.8497;5;0.161791;1.136;0.291
62.881;5;0.0986281;1.145;0.293
62.9154;5;0.207267;1.15;0.29
62.9446;5;0.0815207;1.153;0.292
62.9805;5;0.214684;1.161;0.29
63.0084;5;0.205106;1.165;0.29
63.04;5;0.126924;1.168;0.291
63.0722;5;-0.0447707;1.171;0.289
63.1088;5;0.177553;1.175;0.286
63.14;5;0.170267;1.178;0.283
63.1678;5;0.168652;1.18;0.28
63.2005;5;0.153641;1.181;0.275
63.2351;-5;0.0729878;1.18;0.272
63.2647;-5;0.16758;1.182;0.266
63.3011;-5;-0.0472155;1.181;0.264
63.3278;-5;0.000216652;1.182;0.265
63.367;-5;-0.145804;1.18;0.267
63.3918;-5;0.00662898;1.182;0.272
63.4346;-5;-0.132583;1.177;0.277
63.4611;-5;-0.150625;1.175;0.28
63.4881;-5;-0.138961;1.173;0.285
63.5207;-5;-0.146356;1.171;0.289
63.5516;-5;-0.0931001;1.171;0.292
63.5845;-5;-0.172478;1.169;0.297
63.6206;-5;-0.118903;1.168;0.301
63.6561;-5;-0.134714;1.165;0.306
63.6813;-5;-0.0587615;1.164;0.31
