Time (s);Vsent (rad/s);Vmeasured (rad/s);25.5103;0;0
25.5114;0;0
25.5166;0;0
25.5231;0;0
25.5305;0;0
25.5316;0;0
25.5369;0;0
25.5435;0;0
25.5477;0;0
25.5518;0;0
25.5569;0;0
25.5625;0;0
25.568;0;-5.02914e-05
25.5712;0;-5.02914e-05
25.5765;0;-5.02914e-05
25.5829;0;-5.02914e-05
25.5891;0;-9.87202e-05
25.5912;0;-9.87202e-05
25.5964;0;-9.87202e-05
25.6029;0;0.00044331
25.6087;0;0.00044331
25.6118;0;0.00044331
25.6169;0;0.00044331
25.6226;0;0.000284985
25.6289;0;0.000284985
25.6321;0;0.000284985
25.6361;0;-2.98023e-05
25.6425;0;-2.98023e-05
25.6479;0;-2.98023e-05
25.6516;0;0
25.6567;0;0
25.6634;0;0
25.6679;0;0
25.672;0;0
25.6761;0;0
25.6832;0;0
25.6873;0;0
25.6914;0;0
25.6966;0;0
25.7024;0;0
25.7083;0;0
25.7116;0;0
25.7165;0;0
25.7229;0;0
25.7288;0;0
25.7316;0;0
25.7367;0;0
25.7435;0;0
25.7481;0;0
25.7513;0;0
25.7565;0;0
25.7626;0;0
25.768;0;0
25.7711;0;0
25.7762;0;0
25.7834;0;0
25.7893;0;0
25.7914;0;0
25.797;0;0
25.8027;0;0
25.8082;0;0
25.8113;0;0
25.8166;0;0
25.823;0;0
25.8291;0;0
25.8313;0;0
25.8364;0;0
25.843;0;0
25.848;0;0
25.8511;0;0
25.8569;0;0
25.8634;0;0
25.8676;0;0
25.8718;0;0
25.8771;0;0
25.8827;0;0
25.8884;0;0
25.8916;0;0
25.8967;0;0
25.9033;0;0
25.9078;1;0
25.912;1;0
25.9171;1;0
25.923;1;0
25.9283;1;0
25.9314;1;0
25.9367;1;0
25.9433;1;0
25.9477;1;0
25.9519;1;0
25.956;0;0
25.9628;0;0
25.9689;0;0.863977
25.972;0;0.863977
25.9771;0;0.863977
25.9826;0;0.863977
25.9881;0;1.00002
25.9913;0;1.00002
25.9966;0;1.00002
26.0033;0;1.00002
26.0074;1;1.00002
26.0116;1;1.00002
26.0168;1;0.136271
26.0233;1;0.136271
26.0275;1;0.136271
26.0317;1;0.136271
26.0361;1;-5.58794e-06
26.0427;1;-5.58794e-06
26.0488;1;-1.86265e-06
26.0519;1;-1.86265e-06
26.0561;1;-1.86265e-06
26.0624;1;-1.86265e-06
26.0679;1;0.863701
26.0721;1;0.863701
26.0762;1;0.863701
26.0827;1;1.00002
26.0883;1;1.00002
26.0914;1;1.00002
26.096;1;1.00002
26.1025;1;1.00002
26.1079;0;1.00002
26.112;0;1.00002
26.1166;0;1.00002
26.1229;0;1.00002
26.1304;0;1.00002
26.1315;0;1.00002
26.1367;0;1.00002
26.1431;0;1.00002
26.149;0;1.00002
26.1511;0;1.00002
26.1562;0;1.00002
26.1633;0;0.136774
26.1673;0;0.136774
26.1714;0;0.136774
26.1768;0;-7.45058e-06
26.1833;0;-7.45058e-06
26.1874;0;-7.45058e-06
26.1916;0;-7.45058e-06
26.197;0;-1.86265e-06
26.2024;0;-1.86265e-06
26.2078;0;-1.86265e-06
26.2112;0;-1.86265e-06
26.2163;0;-1.86265e-06
26.2228;0;-1.86265e-06
26.2304;0;0
26.2315;0;0
26.2368;0;0
26.243;0;0
26.2483;0;0
26.2516;0;0
26.2568;1;0
26.2634;1;0
26.2674;1;0
26.2716;1;0
26.277;1;0
26.2825;1;0
26.2881;1;0
26.2912;1;0
26.2964;1;0
26.3028;1;0
26.3095;1;0
26.3117;1;0
26.3168;1;0
26.3226;1;0.863208
26.3277;1;0.863208
26.3319;1;0.863208
26.337;1;1.00002
26.3424;1;1.00002
26.3476;1;1.00002
26.3517;1;1.00002
26.3562;1;1.00002
26.3628;1;1.00002
26.3683;1;1.00002
26.3715;1;1.00002
26.3766;1;1.00002
26.3831;1;1.00002
26.3895;1;1.00002
26.3916;1;1.00002
26.3967;1;1.00002
26.4036;1;1.00002
26.4078;1;1.00002
26.4119;1;1.00002
26.416;1;1.00002
26.4228;1;1.00002
26.4285;1;1.00002
26.4317;1;1.00002
26.4369;1;1.00002
26.4424;1;1.00002
26.4476;1;1.00002
26.4512;1;1.00002
26.4565;0;1.00002
26.4629;0;1.00002
26.4689;0;1.00002
26.472;0;1.00002
26.4762;0;1.00002
26.4827;0;1.00002
26.488;0;1.00002
26.4911;0;1.00002
26.4963;0;1.00002
26.5027;0;1.00002
26.5084;1;1.00002
26.5116;1;1.00002
26.5171;1;0.137005
26.5227;1;0.137005
26.5281;1;0.137005
26.5313;1;-7.45058e-06
26.5365;1;-7.45058e-06
26.543;1;-7.45058e-06
26.5485;1;-2.79397e-06
26.5518;1;-2.79397e-06
26.557;0;-2.79397e-06
26.5627;0;-2.79397e-06
26.568;0;0.863024
26.5721;0;0.863024
26.5762;0;0.863024
26.5829;0;1.00002
26.5885;0;1.00002
26.5916;0;1.00002
26.5965;0;1.00002
26.603;0;1.00002
26.6093;0;0.136857
26.6115;0;0.136857
26.6166;0;0.136857
26.6234;0;0.136857
26.6301;0;-6.28643e-06
26.6313;0;-6.28643e-06
26.6364;0;-6.28643e-06
26.6437;0;-2.09548e-06
26.6476;0;-2.09548e-06
26.6517;0;-2.09548e-06
26.6568;0;-6.98492e-07
26.6635;0;-6.98492e-07
26.6674;0;-6.98492e-07
26.6716;0;-6.98492e-07
26.6771;0;-2.32831e-07
26.6826;0;-2.32831e-07
26.6896;0;0
26.6917;0;0
26.6969;0;0
26.7041;0;0
26.709;0;0
26.7121;0;0
26.7163;0;0
26.7234;0;0
26.7303;0;0
26.7314;0;0
26.7368;0;0
26.7437;0;0
26.7478;0;0
26.7518;0;0
26.7569;1;0
26.7625;1;0
26.7676;1;0
26.772;1;0
26.7762;1;0
26.7827;1;0
26.7898;1;0
26.792;1;0
26.7961;1;0
26.8037;1;0.863184
26.8078;1;0.863184
26.8119;1;0.863184
26.8169;1;1.00002
26.8224;1;1.00002
26.8278;1;1.00002
26.8321;1;1.00002
26.8363;1;1.00002
26.8428;1;1.00002
26.8482;1;1.00002
26.8514;1;1.00002
26.8566;1;1.00002
26.8631;1;1.00002
26.8695;1;1.00002
26.8716;1;1.00002
26.8767;1;1.00002
26.8837;1;1.00002
26.8878;1;1.00002
26.892;1;1.00002
26.8961;1;1.00002
26.9025;1;1.00002
26.9078;1;1.00002
26.9121;1;1.00002
26.9167;1;1.00002
26.9233;1;1.00002
26.9278;1;1.00002
26.9311;1;1.00002
26.9362;1;1.00002
26.9428;1;1.00002
26.9486;1;1.00002
26.9518;1;1.00002
26.957;1;1.00002
26.9636;1;1.00002
26.9678;1;1.00002
26.972;1;1.00002
26.9761;1;1.00002
26.9827;1;1.00002
26.9884;1;1.00002
26.9915;1;1.00002
26.9966;1;1.00002
27.0033;1;1.00002
27.0075;1;1.00002
27.0114;1;1.00002
27.0169;1;1.00002
27.0235;1;1.00002
27.028;1;1.00002
27.0312;1;1.00002
27.0363;1;1.00002
27.0435;1;1.00002
27.0477;1;1.00002
27.0518;1;1.00002
27.0561;1;1.00002
27.0628;1;1.00002
27.0686;1;1.00002
27.0717;1;1.00002
27.0765;1;1.00002
27.0837;1;1.00002
27.0891;1;1.00002
27.0915;1;1.00002
27.0965;1;1.00002
27.1029;1;1.00002
27.1089;1;1.00002
27.112;1;1.00002
27.1161;1;1.00002
27.1227;1;1.00002
27.1282;1;1.00002
27.1313;1;1.00002
27.1364;1;1.00002
27.1428;1;1.00002
27.1487;1;1.00002
27.1519;1;1.00002
27.1567;0;1.00002
27.1637;0;1.00002
27.1683;0;1.00002
27.1714;0;1.00002
27.1765;0;1.00002
27.183;0;1.00002
27.1885;0;1.00002
27.1917;0;1.00002
27.1969;0;1.00002
27.2035;0;1.00002
27.2076;0;1.00002
27.2119;0;1.00002
27.217;0;0.135403
27.2225;0;0.135403
27.2284;0;0.135403
27.2315;0;0.135403
27.2366;0;-7.45058e-06
27.2436;0;-7.45058e-06
27.2481;0;-7.45058e-06
27.2511;0;-1.86265e-06
27.2564;1;-1.86265e-06
27.2627;1;-1.86265e-06
27.2687;1;-1.86265e-06
27.272;1;-1.86265e-06
27.2771;1;-1.86265e-06
27.2835;1;0
27.2877;1;0
27.2918;1;0
27.2969;1;0
27.3025;1;0
27.308;0;0
27.3111;0;0
27.3162;0;0.864595
27.3226;0;0.864595
27.3289;0;0.864595
27.3318;0;1.00002
27.3369;0;1.00002
27.3428;0;1.00002
27.3487;0;1.00002
27.3518;0;1.00002
27.357;0;1.00002
27.3627;0;1.00002
27.3684;0;0.135543
27.3716;0;0.135543
27.3768;0;0.135543
27.3825;0;-5.58794e-06
27.3878;0;-5.58794e-06
27.3921;0;-5.58794e-06
27.3969;0;-1.86265e-06
27.4035;0;-1.86265e-06
27.4079;0;-1.86265e-06
27.4112;0;0
27.4163;0;0
27.4229;0;0
27.4304;0;0
27.4315;0;0
27.4367;0;0
27.4429;0;-1.86265e-06
27.4481;0;-1.86265e-06
27.4513;0;-1.86265e-06
27.4567;0;0
27.4634;0;0
27.4675;0;0
27.4717;0;0
27.4769;0;0
27.4834;0;0
27.4874;0;0
27.492;0;0
27.4961;0;0
27.5025;0;0
27.5089;1;0
27.5111;1;0
27.5162;1;0
27.5237;1;0
27.5279;1;0
27.532;1;0
27.5368;1;0
27.5435;1;0
27.5477;1;0
27.552;1;0.864446
27.5561;0;0.864446
27.5629;0;0.864446
27.5683;0;1.00002
27.5715;0;1.00002
27.5767;0;1.00002
27.5836;0;1.00002
27.5888;0;1.00002
27.592;0;1.00002
27.5971;0;1.00002
27.6035;0;1.00002
27.6075;1;1.00002
27.6117;1;1.00002
27.6169;1;0.135832
27.6224;1;0.135832
27.6279;1;0.135832
27.631;1;0.135832
27.6362;1;-5.58794e-06
27.6427;1;-5.58794e-06
27.6483;1;-3.72529e-06
27.6514;1;-3.72529e-06
27.6566;0;-3.72529e-06
27.6634;0;-3.72529e-06
27.6687;0;0.864144
27.6718;0;0.864144
27.6771;0;0.864144
27.6838;0;1.00002
27.6877;0;1.00002
27.6919;0;1.00002
27.6969;0;1.00002
27.7035;0;1.00002
27.7079;0;1.00002
27.7121;0;1.00002
27.7163;0;0.136096
27.7229;0;0.136096
27.73;0;-3.72529e-06
27.7311;0;-3.72529e-06
27.7363;0;-3.72529e-06
27.7428;0;-3.72529e-06
27.7498;0;-3.72529e-06
27.752;0;-3.72529e-06
27.7561;1;-3.72529e-06
27.7629;1;0
27.768;1;0
27.7721;1;0
27.7771;1;0
27.7827;1;0
27.7884;1;0
27.7915;1;0
27.7965;1;0
27.803;1;0
27.8086;1;0.863876
27.8118;1;0.863876
27.8169;1;0.863876
27.8224;1;0.863876
27.8298;1;1.00002
27.8319;1;1.00002
27.8371;1;1.00002
27.8436;1;1.00002
27.8476;1;1.00002
27.8518;1;1.00002
27.857;1;1.00002
27.8628;1;1.00002
27.868;1;1.00002
27.8712;1;1.00002
27.8763;1;1.00002
27.8829;1;1.00002
27.8887;1;1.00002
27.8919;1;1.00002
27.897;1;1.00002
27.9025;1;1.00002
27.9095;1;1.00002
27.9116;1;1.00002
27.9169;1;1.00002
27.9237;1;1.00002
27.9278;1;1.00002
27.932;1;1.00002
27.9362;1;1.00002
27.9427;1;1.00002
27.9482;1;1.00002
27.9513;1;1.00002
27.9562;1;1.00002
27.9632;1;1.00002
27.9688;1;1.00002
27.972;1;1.00002
27.9762;1;1.00002
27.9826;1;1.00002
27.9895;1;1.00002
27.9918;1;1.00002
27.9969;1;1.00002
28.0028;1;1.00002
28.0084;0;1.00002
28.0115;0;1.00002
28.017;0;1.00002
28.0225;0;1.00002
28.028;0;1.00002
28.0321;0;1.00002
28.0364;0;1.00002
28.0429;0;1.00002
28.0486;0;1.00002
28.0518;0;1.00002
28.0571;1;1.00002
28.0626;1;1.00002
28.0695;1;0.13708
28.0717;1;0.13708
28.0768;1;0.13708
28.0841;1;-7.45058e-06
28.0883;1;-7.45058e-06
28.0914;1;-7.45058e-06
28.0969;1;-3.72529e-06
28.1036;1;-3.72529e-06
28.108;0;-3.72529e-06
28.1112;0;-3.72529e-06
28.1164;0;0.86293
28.1229;0;0.86293
28.1299;0;1.00002
28.1321;0;1.00002
28.1362;0;1.00002
28.1429;0;1.00002
28.1497;0;1.00002
28.1519;0;1.00002
28.1571;1;1.00002
28.1628;1;0.137039
28.168;1;0.137039
28.1711;1;0.137039
28.176;1;-7.45058e-06
28.1826;1;-7.45058e-06
28.1879;1;-7.45058e-06
28.1919;1;0
28.197;1;0
28.2025;1;0
28.2084;0;0
28.2115;0;0
28.217;0;0
28.223;0;0
28.2309;0;0.862986
28.2321;0;0.862986
28.2368;0;0.862986
28.2442;0;1.00002
28.2483;0;1.00002
28.2514;0;1.00002
28.257;1;0.136964
28.2626;1;0.136964
28.2676;1;0.136964
28.2718;1;-3.72529e-06
28.2771;1;-3.72529e-06
28.2825;1;-3.72529e-06
28.2878;1;-3.72529e-06
28.2911;1;0
28.2962;1;0
28.3027;1;0
28.3096;0;0.863072
28.3118;0;0.863072
28.3169;0;0.863072
28.3237;0;1.00002
28.3276;0;1.00002
28.3316;0;1.00002
28.336;0;1.00002
28.3431;0;1.00002
28.3482;0;1.00002
28.3515;0;1.00002
28.356;1;1.00002
28.3626;1;1.00002
28.3681;1;0.136714
28.3712;1;0.136714
28.3764;1;0.136714
28.383;1;0.136714
28.3891;1;-7.45058e-06
28.3912;1;-7.45058e-06
28.3964;1;-7.45058e-06
28.4031;1;-3.72529e-06
28.4088;1;-3.72529e-06
28.4121;1;-3.72529e-06
28.4163;1;0.863332
28.423;1;0.863332
28.4285;1;0.863332
28.4316;1;0.863332
28.4369;1;1.00002
28.4438;1;1.00002
28.448;1;1.00002
28.4516;1;1.00002
28.4569;1;1.00002
28.463;1;1.00002
28.4724;1;1.00002
28.4777;1;1.00002
28.4841;1;1.00002
28.4887;1;1.00002
28.4929;1;1.00002
28.4976;1;1.00002
28.5035;1;1.00002
28.5076;0;1.00002
28.5128;0;1.00002
28.5179;0;1.00002
28.5243;0;1.00002
28.5291;0;1.00002
28.5334;0;1.00002
28.5375;0;1.00002
28.5444;0;1.00002
28.5491;0;1.00002
28.5533;0;1.00002
28.5584;0;1.00002
28.5639;0;0.135921
28.5679;0;0.135921
28.5728;0;0.135921
28.5781;0;-7.45058e-06
28.5844;0;-7.45058e-06
28.5886;0;-7.45058e-06
28.5934;0;-7.45058e-06
28.5978;0;-7.45058e-06
28.6034;0;-7.45058e-06
28.608;0;-7.45058e-06
28.613;0;0
28.6181;0;0
28.6241;0;0
28.6295;0;0
28.6328;0;0
28.6378;0;0
28.644;0;0
28.648;0;0
28.6527;0;0
28.6579;0;0
28.6642;0;0
28.6685;0;0
28.6733;0;0
28.6778;0;0
28.684;0;0
28.6886;0;0
28.6928;0;0
28.6981;0;0
28.7043;0;0
28.709;0;0
28.7132;0;0
28.7177;0;0
28.7238;0;0
28.7278;0;0
28.7327;0;0
28.7378;0;0
28.7442;0;0
28.7485;0;0
28.7533;0;0
28.7577;1;0
28.7636;1;0
28.7682;1;0
28.7727;1;0
28.7778;1;0
28.7849;1;0
28.7895;1;0
28.7927;1;0
28.7978;1;0
28.8037;1;0
28.8077;1;0
28.8128;1;0
28.818;1;0
28.8237;1;0.864133
28.8282;1;0.864133
28.8334;1;0.864133
28.838;1;1.00002
28.8437;1;1.00002
28.8492;1;1.00002
28.8532;1;1.00002
28.8575;0;1.00002
28.8638;0;1.00002
28.8687;0;1.00002
28.8728;0;1.00002
28.8779;0;1.00002
28.8841;0;1.00002
28.8881;0;1.00002
28.8928;0;1.00002
28.8983;0;1.00002
28.9035;0;1.00002
28.9078;0;1.00002
28.9129;0;1.00002
28.9177;0;0.135481
28.9235;0;0.135481
28.9288;0;0.135481
28.9332;0;-7.45058e-06
28.9376;0;-7.45058e-06
28.9446;0;-7.45058e-06
28.9495;0;0
28.9528;0;0
28.958;0;0
28.9636;0;0
28.9676;0;0
28.9727;0;0
28.9779;0;0
28.9838;0;0
28.9879;0;0
28.9931;0;0
28.9985;0;0
29.0044;0;0
29.009;1;0
29.0134;1;0
29.0176;1;0
29.0244;1;0
29.0291;1;0
29.0333;1;0
29.0384;1;0
29.0434;1;0
29.0483;1;0
29.0525;1;0
29.0579;0;0.86455
29.0635;0;0.86455
29.0674;0;0.86455
29.0731;0;1.00002
29.0782;0;1.00002
29.0845;0;1.00002
29.0886;0;1.00002
29.0927;0;1.00002
29.0978;0;1.00002
29.1036;0;1.00002
29.1084;1;1.00002
29.1125;1;1.00002
29.1178;1;1.00002
29.1237;1;1.00002
29.1282;1;0.135347
29.1325;1;0.135347
29.1376;1;0.135347
29.1437;1;0
29.1479;1;0
29.153;1;-7.45058e-06
29.1581;0;-7.45058e-06
29.164;0;-7.45058e-06
29.1685;0;0.86467
29.1726;0;0.86467
29.1779;0;0.86467
29.1854;0;0.86467
29.1909;0;1.00002
29.1931;0;1.00002
29.1982;0;1.00002
29.2043;0;0.13534
29.2091;1;0.13534
29.2132;1;0.13534
29.2183;1;0.13534
29.2245;1;-7.45058e-06
29.2298;1;-7.45058e-06
29.2329;1;-7.45058e-06
29.2375;1;0
29.2444;1;0
29.2488;1;0
29.2529;1;0
29.2581;1;0
29.2645;1;0
29.2697;1;0.86467
29.2729;1;0.86467
29.2778;1;0.86467
29.2843;1;1.00002
29.2884;1;1.00002
29.2928;1;1.00002
29.2975;1;1.00002
29.3045;1;1.00002
29.3088;0;1.00002
29.3124;0;1.00002
29.3178;0;1.00002
29.3237;0;1.00002
29.3279;0;1.00002
29.3333;0;1.00002
29.3384;0;1.00002
29.3437;0;1.00002
29.3483;0;1.00002
29.3534;0;1.00002
29.3576;0;1.00002
29.3637;0;0.135541
29.3678;0;0.135541
29.373;0;0.135541
29.3781;0;-7.45058e-06
29.3839;0;-7.45058e-06
29.3891;0;-7.45058e-06
29.3932;0;-7.45058e-06
29.398;0;0
29.4043;0;0
29.4091;1;0
29.4134;1;0
29.4176;1;0
29.425;1;0
29.4305;1;0
29.4327;1;0
29.4377;1;0
29.4443;1;0
29.4485;1;0
29.4526;1;0
29.4579;1;0.864439
29.464;1;0.864439
29.4685;1;0.864439
29.4726;1;0.864439
29.4783;1;1.00002
29.4843;1;1.00002
29.49;1;1.00002
29.4932;1;1.00002
29.4983;1;1.00002
29.5047;1;1.00002
29.5095;0;1.00002
29.5126;0;1.00002
29.5177;0;1.00002
29.5238;0;1.00002
29.5281;0;1.00002
29.5332;0;1.00002
29.5379;0;1.00002
29.5437;0;1.00002
29.5484;0;1.00002
29.5526;0;1.00002
29.5578;0;1.00002
29.5637;0;1.00002
29.5683;0;1.00002
29.5728;0;0.136107
29.5779;0;0.136107
29.5841;0;0.136107
29.5898;0;-7.45058e-06
29.593;0;-7.45058e-06
29.5978;0;-7.45058e-06
29.6043;0;-7.45058e-06
29.6087;1;-7.45058e-06
29.6129;1;-7.45058e-06
29.618;1;0
29.6246;1;0
29.6307;1;0
29.6328;1;0
29.6378;1;0
29.644;1;0
29.6485;1;0
29.653;1;0
29.6583;0;0
29.664;0;0
29.669;0;0.863865
29.6733;0;0.863865
29.6778;0;0.863865
29.6847;0;1.00002
29.6889;0;1.00002
29.6931;0;1.00002
29.6976;0;1.00002
29.7037;0;1.00002
29.7097;1;1.00002
29.7128;1;1.00002
29.7178;1;0.136383
29.7246;1;0.136383
29.7302;1;0.136383
29.7326;1;-7.45058e-06
29.7375;1;-7.45058e-06
29.7447;1;-7.45058e-06
29.7496;1;0
29.7527;1;0
29.7577;1;0
29.7643;1;0.863589
29.7683;1;0.863589
29.7728;1;0.863589
29.7775;1;1.00002
29.7837;1;1.00002
29.7889;1;1.00002
29.7933;1;1.00002
29.7978;1;1.00002
29.804;1;1.00002
29.8095;1;1.00002
29.8128;1;1.00002
29.8179;1;1.00002
29.8243;1;1.00002
29.8299;1;1.00002
29.833;1;1.00002
29.8377;1;1.00002
29.8442;1;1.00002
29.8483;1;1.00002
29.8528;1;1.00002
29.8583;1;1.00002
29.8636;1;1.00002
29.8685;1;1.00002
29.8726;1;1.00002
29.8779;1;1.00002
29.8848;1;1.00002
29.8897;1;1.00002
29.8929;1;1.00002
29.8983;1;1.00002
29.9041;1;1.00002
29.909;1;1.00002
29.9132;1;1.00002
29.9177;1;1.00002
29.924;1;1.00002
29.9282;1;1.00002
29.9328;1;1.00002
29.9382;1;1.00002
29.944;1;1.00002
29.9491;1;1.00002
29.9534;1;1.00002
29.9578;1;1.00002
29.9647;1;1.00002
29.9697;1;1.00002
29.9729;1;1.00002
29.978;1;1.00002
29.9852;1;1.00002
29.9898;1;1.00002
29.9929;1;1.00002
29.9978;1;1.00002
30.0041;1;1.00002
30.0084;0;1.00002
30.0128;0;1.00002
30.0182;0;1.00002
30.0247;0;1.00002
30.0311;0;1.00002
30.0325;0;1.00002
30.0377;0;1.00002
30.0439;0;1.00002
30.049;0;1.00002
30.0532;0;1.00002
30.0584;1;1.00002
30.0638;1;1.00002
30.0684;1;0.136912
30.0725;1;0.136912
30.0778;1;0.136912
30.0845;1;-7.45058e-06
30.0884;1;-7.45058e-06
30.0927;1;-7.45058e-06
30.0975;1;-7.45058e-06
30.1042;1;-7.45058e-06
30.1084;1;-7.45058e-06
30.1124;1;0.863135
30.1177;1;0.863135
30.1234;1;0.863135
30.1278;1;0.863135
30.1328;1;1.00002
30.138;1;1.00002
30.1446;1;1.00002
30.1494;1;1.00002
30.1527;1;1.00002
30.1579;1;1.00002
30.1643;1;1.00002
30.168;1;1.00002
30.1732;1;1.00002
30.1777;1;1.00002
30.1835;1;1.00002
30.1875;1;1.00002
30.1932;1;1.00002
30.1975;1;1.00002
30.2042;1;1.00002
30.2088;1;1.00002
30.2132;1;1.00002
30.2183;1;1.00002
30.2248;1;1.00002
30.2306;1;1.00002
30.2327;1;1.00002
30.2377;1;1.00002
30.244;1;1.00002
30.2481;1;1.00002
30.2527;1;1.00002
30.2582;0;1.00002
30.2643;0;1.00002
30.2685;0;1.00002
30.2733;0;1.00002
30.2778;0;1.00002
30.2837;0;1.00002
30.2878;0;1.00002
30.2928;0;1.00002
30.2979;0;1.00002
30.3033;0;1.00002
30.3095;0;1.00002
30.3126;0;1.00002
30.3178;0;1.00002
30.3245;0;0.135824
30.3296;0;0.135824
30.3333;0;0.135824
30.3381;0;-1.49012e-05
30.3447;0;-1.49012e-05
30.3494;0;-1.49012e-05
30.3527;0;0
30.3579;1;0
30.3642;1;0
30.3685;1;0
30.3734;1;0
30.3776;1;0
30.3845;1;0
30.3896;1;0
30.3928;1;0
30.398;1;0
30.404;1;0.864223
30.4087;1;0.864223
30.4129;1;0.864223
30.4179;1;1.00003
30.4239;1;1.00003
30.4285;1;1.00003
30.4327;1;1.00003
30.438;1;1.00002
30.4442;1;1.00002
30.4487;1;1.00002
30.4526;1;1.00002
30.4578;0;1.00002
30.4637;0;1.00002
30.4679;0;1.00003
30.473;0;1.00003
30.4781;0;1.00003
30.4843;0;1.00002
30.4882;0;1.00002
30.4934;0;1.00002
30.4981;0;1.00002
30.5038;0;1.00002
30.5087;1;1.00002
30.5128;1;0.135392
30.5179;1;0.135392
30.5242;1;0.135392
30.5292;1;0
30.5333;1;0
30.5384;1;0
30.5445;1;0
30.5494;1;0
30.5525;1;0
30.5578;1;0
30.5641;1;0.864625
30.5679;1;0.864625
30.5732;1;0.864625
30.5783;1;1.00003
30.5846;1;1.00003
30.5892;1;1.00003
30.5933;1;1.00003
30.5978;1;1.00002
30.6037;1;1.00002
30.6084;1;1.00002
30.6129;1;1.00002
30.6181;1;1.00002
30.6241;1;1.00002
30.6289;1;1.00003
30.6332;1;1.00003
30.6383;1;1.00003
30.6447;1;1.00002
30.6489;1;1.00002
30.6531;1;1.00002
30.6583;0;1.00002
30.6644;0;1.00002
30.6686;0;1.00002
30.6727;0;1.00002
30.6784;0;1.00003
30.6844;0;1.00003
30.6893;0;1.00002
30.6925;0;1.00002
30.6977;0;1.00002
30.7036;0;1.00002
30.7082;1;0.135481
30.7134;1;0.135481
30.7175;1;0.135481
30.7243;1;0
30.7282;1;0
30.7333;1;0
30.7384;1;0
30.7444;1;0
30.75;1;0
30.7533;1;0
30.7577;1;0
30.7638;1;0
30.7687;1;0
30.7733;1;0.864491
30.7784;1;0.864491
30.7849;1;0.864491
30.79;1;1.00003
30.7932;1;1.00003
30.7974;1;1.00003
30.804;1;1.00002
30.8081;1;1.00002
30.8134;1;1.00002
30.8174;1;1.00002
30.8243;1;1.00002
30.8293;1;1.00002
30.833;1;1.00003
30.8381;1;1.00003
30.8446;1;1.00003
30.8495;1;1.00002
30.8526;1;1.00002
30.8579;0;1.00002
30.8641;0;1.00002
30.8684;0;1.00002
30.8727;0;1.00002
30.8778;0;1.00002
30.8842;0;1.00002
30.8885;0;1.00002
30.8926;0;1.00002
30.8976;0;1.00003
30.9034;0;1.00003
30.9077;0;1.00003
30.9125;0;0.136197
30.9178;0;0.136197
30.9238;0;0.136197
30.9296;0;0
30.9329;0;0
30.938;0;0
30.9445;0;0
30.9503;0;0
30.9524;0;0
30.9577;1;0
30.964;1;0
30.968;1;0
30.9731;1;0
30.9781;1;0
30.9838;1;0
30.9879;1;0
30.9932;1;0
30.9984;1;0
31.0042;1;0
31.0093;0;0.863761
31.0134;0;0.863761
31.0175;0;0.863761
31.0256;0;0.863761
31.0311;0;1.00002
31.0332;0;1.00002
31.0384;0;1.00002
31.0446;0;1.00003
31.0487;0;1.00003
31.0529;0;1.00003
31.0578;1;1.00002
31.0638;1;1.00002
31.0678;1;1.00002
31.0729;1;0.136569
31.0781;1;0.136569
31.0844;1;0.136569
31.089;1;0
31.0931;1;0
31.0977;1;0
31.1038;1;0
31.1091;0;0
31.1133;0;0
31.1175;0;0
31.1246;0;0.863403
31.1367;0;0.863403
31.1439;0;1.00002
31.149;0;1.00002
31.1521;0;1.00002
31.1576;1;0.136733
31.1637;1;0.136733
31.1698;1;0.136733
31.1725;1;0
31.1776;1;0
31.1836;1;0
31.19;1;-1.49012e-05
31.1921;1;-1.49012e-05
31.1972;1;-1.49012e-05
31.204;1;0
31.2085;0;0
31.2126;0;0
31.2171;0;0.863254
31.2242;0;0.863254
31.2296;0;0.863254
31.2319;0;0.863254
31.237;0;1.00002
31.2447;0;1.00002
31.2499;0;1.00002
31.2523;0;1.00003
31.2575;0;1.00003
31.2635;0;1.00003
31.2695;0;0.136927
31.2726;0;0.136927
31.2769;0;0.136927
31.2845;0;-1.49012e-05
31.2885;0;-1.49012e-05
31.2917;0;-1.49012e-05
31.2974;0;0
31.3041;0;0
31.3092;1;0
31.3124;1;0
31.3168;1;0
31.3242;1;0
31.3301;1;0
31.3326;1;0
31.337;1;0
31.3453;1;0
31.3503;1;0
31.3525;1;0
31.3577;0;0
31.3641;0;0.86306
31.3681;0;0.86306
31.3723;0;0.86306
31.3773;0;1.00002
31.3842;0;1.00002
31.3884;0;1.00002
31.3924;0;1.00003
31.3977;0;1.00003
31.4036;0;1.00003
31.4087;1;1.00003
31.4126;1;0.137046
31.4177;1;0.137046
31.4238;1;0.137046
31.4286;1;0
31.4327;1;0
31.4368;1;0
31.444;1;0
31.4489;1;0
31.452;1;0
31.4576;0;0.862941
31.4632;0;0.862941
31.4687;0;0.862941
31.472;0;0.862941
31.4769;0;1.00003
31.484;0;1.00003
31.4887;0;1.00003
31.4924;0;1.00002
31.4975;0;1.00002
31.5033;0;1.00002
31.5099;0;1.00002
31.512;0;1.00002
31.5172;0;1.00002
31.5238;0;0.137091
31.5285;0;0.137091
31.5318;0;0.137091
31.5373;0;-1.49012e-05
31.5443;0;-1.49012e-05
31.5487;0;-1.49012e-05
31.5518;0;-1.49012e-05
31.5567;0;0
31.5638;0;0
31.5691;0;0
31.5722;0;0
31.5775;0;0
31.5832;0;0
31.5894;0;0
31.5926;0;0
31.5967;0;0
31.6037;0;0
31.6079;1;0
31.612;1;0
31.6173;1;0
31.6246;1;0
31.63;1;0
31.6321;1;0
31.6369;1;0
31.6439;1;0
31.6483;1;0
31.652;1;0
31.6572;0;0
31.6644;0;0
31.6694;0;0.862941
31.6725;0;0.862941
31.6776;0;0.862941
31.6839;0;1.00002
31.6883;0;1.00002
31.6924;0;1.00002
31.6975;0;1.00002
31.7044;0;1.00002
31.709;0;1.00002
31.7123;0;1.00002
31.7168;0;0.137016
31.724;0;0.137016
31.7287;0;0.137016
31.7326;0;-1.49012e-05
31.7367;0;-1.49012e-05
31.7437;0;-1.49012e-05
31.7496;0;0
31.7527;0;0
31.7569;1;0
31.7643;1;0
31.7683;1;0
31.7725;1;0
31.7774;1;0
31.7849;1;0
31.7892;1;0
31.7923;1;0
31.7974;1;0
31.8031;1;0
31.8091;0;0
31.8122;0;0
31.8175;0;0
31.8248;0;0
31.8306;0;0.863031
31.8317;0;0.863031
31.8368;0;0.863031
31.8433;0;1.00002
31.8486;0;1.00002
31.8518;0;1.00002
31.8573;1;0.136912
31.863;1;0.136912
31.8685;1;0.136912
31.8727;1;0.136912
31.8769;1;0
31.8839;1;0
31.888;1;0
31.8926;1;0
31.8977;1;0
31.9036;1;0
31.9095;1;0.86312
31.9126;1;0.86312
31.9177;1;0.86312
31.9242;1;1.00003
31.9289;1;1.00003
31.932;1;1.00003
31.9376;1;1.00002
31.9432;1;1.00002
31.9488;1;1.00002
31.952;1;1.00002
31.9568;0;1.00002
31.9641;0;1.00002
31.9683;0;1.00002
31.9722;0;1.00003
31.9774;0;1.00003
31.983;0;1.00003
31.99;0;1.00002
31.9922;0;1.00002
31.9975;0;1.00002
32.0044;0;1.00002
32.0088;1;1.00002
32.0121;1;1.00002
32.0168;1;0.136361
32.0237;1;0.136361
32.0281;1;0.136361
32.0323;1;0.136361
32.0375;1;-1.49012e-05
32.0432;1;-1.49012e-05
32.0491;1;0
32.0523;1;0
32.0575;0;0
32.0646;0;0
32.0702;0;0.863701
32.0724;0;0.863701
32.0775;0;0.863701
32.0851;0;1.00002
32.089;0;1.00002
32.0921;0;1.00002
32.0977;0;1.00003
32.1035;0;1.00003
32.1077;0;1.00003
32.1118;0;1.00003
32.1176;0;0.136077
32.1231;0;0.136077
32.1305;0;-1.49012e-05
32.1327;0;-1.49012e-05
32.1368;0;-1.49012e-05
32.1439;0;-1.49012e-05
32.1491;0;0
32.1522;0;0
32.1574;0;0
32.1645;0;0
32.1686;0;0
32.1727;0;0
32.1775;0;0
32.1843;0;0
32.1885;0;0
32.1918;0;0
32.1976;0;0
32.2031;0;0
32.2092;1;0
32.2123;1;0
32.2174;1;0
32.2231;1;0
32.2299;1;0
32.232;1;0
32.2372;1;0
32.244;1;0
32.2483;1;0
32.2526;1;0
32.257;1;0
32.2642;1;0
32.2687;1;0
32.2718;1;0
32.2776;1;0.863984
32.2834;1;0.863984
32.2892;1;1.00002
32.2923;1;1.00002
32.2976;1;1.00002
32.3032;1;1.00002
32.3097;0;1.00002
32.3119;0;1.00002
32.317;0;1.00002
32.3242;0;1.00003
32.3286;0;1.00003
32.3327;0;1.00003
32.3371;0;1.00002
32.344;0;1.00002
32.3485;0;1.00002
32.3524;0;0.135645
32.3577;0;0.135645
32.3634;0;0.135645
32.3697;0;0
32.3719;0;0
32.3771;0;0
32.3844;0;0
32.3893;0;0
32.3924;0;0
32.3975;0;0
32.404;0;0
32.4082;1;0
32.4123;1;0
32.4171;1;0
32.424;1;0
32.4283;1;0
32.4322;1;0
32.4373;1;0
32.4442;1;0
32.4492;1;0
32.4523;1;0
32.4575;1;0
32.4632;1;0
32.4695;1;0.864387
32.4726;1;0.864387
32.4768;1;0.864387
32.4837;1;1.00003
32.4877;1;1.00003
32.492;1;1.00003
32.497;1;1.00002
32.5038;1;1.00002
32.508;1;1.00002
32.5121;1;1.00002
32.5172;1;1.00002
32.5243;1;1.00002
32.5297;1;1.00003
32.5318;1;1.00003
32.5371;1;1.00003
32.5445;1;1.00003
32.5492;1;1.00002
32.5525;1;1.00002
32.5577;0;1.00002
32.5637;0;1.00002
32.5677;0;1.00002
32.5718;0;1.00002
32.5769;0;1.00003
32.5839;0;1.00003
32.5878;0;1.00003
32.5918;0;-391.699
32.5971;0;-391.699
32.6042;0;-391.699
32.6088;0;0.135332
32.612;0;0.135332
32.6172;0;0.135332
32.6247;0;0.135332
32.63;0;-1.49012e-05
32.6322;0;-1.49012e-05
32.6373;0;-1.49012e-05
32.6454;0;0
32.6503;0;0
32.6524;0;0
32.6569;1;0
32.6652;1;0
32.6722;1;0
32.6774;1;0
32.6891;1;0
32.695;1;0
32.7001;1;0
32.7045;1;0
32.7091;1;0
32.7142;1;0
32.7194;1;0
32.7242;1;0.86467
32.7299;1;0.86467
32.7351;1;0.86467
32.7395;1;1.00003
32.7446;1;1.00003
32.7503;1;1.00003
32.7543;1;1.00002
32.7596;1;1.00002
32.7683;1;1.00002
32.7694;1;1.00002
32.7748;1;1.00002
32.7801;1;1.00002
32.7847;1;1.00002
32.7894;1;1.00003
32.7947;1;1.00003
32.7998;1;1.00003
32.8054;1;1.00002
32.8112;1;1.00002
32.8144;1;1.00002
32.8194;1;1.00002
32.8259;1;1.00002
32.8323;1;1.00002
32.8342;1;1.00003
32.8394;1;1.00003
32.8462;1;1.00003
32.8513;1;1.00002
32.8544;1;1.00002
32.8596;0;1.00002
32.8663;0;1.00002
32.8721;0;1.00002
32.8742;0;1.00002
32.8793;0;1.00002
32.8854;0;1.00002
32.8909;0;1.00002
32.895;0;1.00002
32.8996;0;1.00003
32.9048;0;1.00003
32.9102;0;1.00003
32.9148;0;0.136018
32.9198;0;0.136018
32.9248;0;0.136018
32.9306;0;0
32.9347;0;0
32.9397;0;0
32.9451;0;0
32.9508;0;0
32.9549;0;0
32.9601;0;0
32.9651;0;0
32.9699;0;0
32.9751;0;0
32.9794;0;0
32.9854;0;0
32.9906;0;0
32.9942;0;0
32.9993;0;0
33.0048;0;0
33.0101;1;0
33.0142;1;0
33.0195;1;0
33.0257;1;0
33.0308;1;0
33.035;1;0
33.04;1;0
33.0446;1;0
33.0499;1;0
33.055;1;0
33.06;1;0.86394
33.0643;1;0.86394
33.0697;1;0.86394
33.0744;1;1.00002
33.0796;1;1.00002
33.0853;1;1.00002
33.0901;1;1.00003
33.0942;1;1.00003
33.0993;1;1.00003
33.1047;1;1.00003
33.1099;0;1.00002
33.115;0;1.00002
33.1198;0;1.00002
33.1241;0;1.00002
33.1299;0;1.00002
33.135;0;1.00002
33.1393;0;1.00003
33.1445;0;1.00003
33.1495;0;1.00003
33.1546;0;1.00002
33.1598;1;1.00002
33.165;1;1.00002
33.1699;1;1.00002
33.1742;1;0.136659
33.1794;1;0.136659
33.1848;1;0.136659
33.1897;1;0
33.1948;1;0
33.2;1;0
33.2044;1;0
33.2094;1;0
33.2147;1;0
33.2194;1;0.863299
33.2245;1;0.863299
33.2293;1;0.863299
33.235;1;1.00003
33.2402;1;1.00003
33.2448;1;1.00003
33.2502;1;1.00002
33.2544;1;1.00002
33.2597;0;1.00002
33.2654;0;1.00002
33.2705;0;1.00002
33.2747;0;1.00002
33.2798;0;1.00002
33.2844;0;1.00003
33.2901;0;1.00003
33.2943;0;1.00003
33.3;0;1.00002
33.3046;0;1.00002
33.3104;0;1.00002
33.3143;0;0.137031
33.3196;0;0.137031
33.325;0;0.137031
33.3304;0;-1.49012e-05
33.3346;0;-1.49012e-05
33.3397;0;-1.49012e-05
33.3444;0;-1.49012e-05
33.3499;0;0
33.355;0;0
33.3592;0;0
33.3643;0;0
33.3693;0;0
33.3744;0;0
33.3792;0;0
33.3841;0;0
33.3896;0;0
33.3944;0;0
33.3995;0;0
33.4048;0;0
33.4099;0;0
33.415;0;0
33.4201;0;0
33.4246;0;0
33.4297;0;0
33.4348;0;0
33.4396;0;0
33.4448;0;0
33.4501;0;0
33.4543;0;0
33.4598;1;0
33.4684;1;0
33.4695;1;0
33.4743;1;0
33.4794;1;0
33.4846;1;0
33.4892;1;0
33.4943;1;0
33.4996;1;0
33.5048;1;0
33.5101;0;0
33.5143;0;0
33.5194;0;0
33.5243;0;0.862971
33.5301;0;0.862971
33.5342;0;0.862971
33.5398;0;1.00002
33.5442;0;1.00002
33.5501;0;1.00002
33.5547;0;0.137091
33.5599;0;0.137091
33.5642;0;0.137091
33.5697;0;-1.49012e-05
33.575;0;-1.49012e-05
33.5801;0;-1.49012e-05
33.5843;0;-1.49012e-05
33.5899;0;0
33.595;0;0
33.5998;0;0
33.6042;0;0
33.6096;0;0
33.6147;0;0
33.6201;0;0
33.6242;0;0
33.6298;0;0
33.6344;0;0
33.6395;0;0
33.6446;0;0
33.6501;0;0
33.6542;0;0
33.6594;1;0
33.6647;1;0
33.6702;1;0
33.6743;1;0
33.6796;1;0
33.6843;1;0
33.6896;1;0
33.6948;1;0
33.6993;1;0
33.7044;1;0
33.7097;0;0
33.715;0;0.862926
33.7201;0;0.862926
33.7249;0;0.862926
33.7299;0;0.862926
33.7349;0;1.00002
33.7401;0;1.00002
33.7451;0;1.00002
33.7495;0;1.00003
33.7548;0;1.00003
33.76;1;0.137091
33.7643;1;0.137091
33.7695;1;0.137091
33.7745;1;0.137091
33.7792;1;-1.49012e-05
33.7848;1;-1.49012e-05
33.7901;1;-1.49012e-05
33.7943;1;0
33.7996;1;0
33.8049;1;0
33.8097;1;0.862926
33.8152;1;0.862926
33.8193;1;0.862926
33.8248;1;0.862926
33.8302;1;1.00003
33.8343;1;1.00003
33.8395;1;1.00003
33.8446;1;1.00002
33.8496;1;1.00002
33.8548;1;1.00002
33.8602;1;1.00002
33.8642;1;1.00002
33.8695;1;1.00002
33.8744;1;1.00003
33.8796;1;1.00003
33.8848;1;1.00003
33.8896;1;1.00002
33.8947;1;1.00002
33.8998;1;1.00002
33.9043;1;1.00002
33.9094;0;1.00002
33.9146;0;1.00002
33.9198;0;1.00003
33.9242;0;1.00003
33.9295;0;1.00003
33.9347;0;1.00003
33.9399;0;1.00002
33.9441;0;1.00002
33.9497;0;1.00002
33.9543;0;1.00002
33.9597;1;1.00002
33.9641;1;1.00002
33.9696;1;0.136539
33.9747;1;0.136539
33.98;1;0.136539
33.9841;1;0.136539
33.9893;1;-1.49012e-05
33.9945;1;-1.49012e-05
33.9996;1;-1.49012e-05
34.0043;1;0.863522
34.0097;0;0.863522
34.0148;0;0.863522
34.0192;0;1.00002
34.0245;0;1.00002
34.0301;0;1.00002
34.0346;0;1.00002
34.0399;0;1.00002
34.0442;0;1.00002
34.0498;0;1.00003
34.055;0;1.00003
34.0592;1;1.00003
34.0646;1;1.00003
34.07;1;0.136152
34.0752;1;0.136152
34.0793;1;0.136152
34.0853;1;0
34.0892;1;0
34.0944;1;0
34.0995;1;0
34.1045;1;0
34.1101;1;0
34.115;1;0.863895
34.1201;1;0.863895
34.1245;1;0.863895
34.1303;1;1.00002
34.1344;1;1.00002
34.1395;1;1.00002
34.1451;1;1.00002
34.1504;1;1.00002
34.1545;1;1.00002
34.1597;1;1.00002
34.1647;1;1.00003
34.17;1;1.00003
34.1742;1;1.00003
34.1801;1;1.00002
34.1844;1;1.00002
34.1897;1;1.00002
34.1947;1;1.00002
34.1999;1;1.00002
34.2083;1;1.00002
34.2097;1;1.00003
34.2148;1;1.00003
34.2201;1;1.00003
34.2245;1;1.00003
34.2298;1;1.00002
34.2351;1;1.00002
34.2392;1;1.00002
34.2446;1;1.00002
34.2495;1;1.00002
34.2546;1;1.00002
34.26;0;1.00003
34.2655;0;1.00003
34.2705;0;1.00003
34.2744;0;1.00002
34.2796;0;1.00002
34.2847;0;1.00002
34.2893;0;1.00002
34.2946;0;1.00002
34.2997;0;1.00002
34.3086;0;0.135347
34.3097;1;0.135347
34.3148;1;0.135347
34.3198;1;0
34.3242;1;0
34.33;1;0
34.3351;1;0
34.3399;1;-1.49012e-05
34.3442;1;-1.49012e-05
34.3497;1;-1.49012e-05
34.3545;1;0
34.3597;1;0
34.3642;1;0
34.3692;1;0.864685
34.3743;1;0.864685
34.3795;1;0.864685
34.3851;1;0.864685
34.39;1;1.00002
34.3951;1;1.00002
34.3993;1;1.00002
34.4043;1;1.00002
34.4099;0;1.00002
34.4142;0;1.00002
34.4194;0;1.00003
34.4249;0;1.00003
34.4296;0;1.00003
34.4347;0;1.00003
34.4398;0;1.00002
34.4443;0;1.00002
34.4492;0;1.00002
34.4544;0;1.00002
34.4596;1;1.00002
34.465;1;1.00002
34.4697;1;0.135407
34.4749;1;0.135407
34.4799;1;-1.49012e-05
34.4843;1;-1.49012e-05
34.4896;1;-1.49012e-05
34.4947;1;-1.49012e-05
34.4993;1;0
34.5044;1;0
34.51;1;0
34.5149;1;0.864595
34.5201;1;0.864595
34.5245;1;0.864595
34.53;1;0.864595
34.535;1;1.00003
34.5401;1;1.00003
34.5444;1;1.00003
34.5498;1;1.00002
34.5549;1;1.00002
34.5601;1;1.00002
34.5644;1;1.00002
34.5696;1;1.00002
34.5748;1;1.00002
34.5802;1;1.00003
34.5842;1;1.00003
34.5895;1;1.00003
34.5944;1;1.00002
34.5996;1;1.00002
34.6047;1;1.00002
34.6096;1;1.00002
34.6148;1;1.00002
34.6199;1;1.00002
34.6245;1;1.00002
34.6299;1;1.00003
34.635;1;1.00003
34.6393;1;1.00003
34.6444;1;1.00002
34.6495;1;1.00002
34.6547;1;1.00002
34.6601;1;1.00002
34.6641;1;1.00002
34.6696;1;1.00002
34.6745;1;1.00002
34.6796;1;1.00002
34.6883;1;1.00002
34.6897;1;1.00002
34.6948;1;1.00002
34.7001;1;1.00002
34.7045;1;1.00002
34.7102;0;1.00002
34.7144;0;1.00002
34.7195;0;1.00002
34.7246;0;1.00002
34.7295;0;1.00002
34.7346;0;1.00002
34.7399;0;1.00002
34.7443;0;1.00002
34.7497;0;1.00002
34.7544;0;0.136591
34.7597;0;0.136591
34.7684;0;-7.45058e-06
34.7695;0;-7.45058e-06
34.7748;0;-7.45058e-06
34.7799;0;-7.45058e-06
34.7844;0;-7.45058e-06
34.7902;0;0
34.7943;0;0
34.7995;0;0
34.8047;0;0
34.8092;0;0
34.8143;0;0
34.8194;0;0
34.8246;0;0
34.8295;0;0
34.8351;0;0
34.8393;0;0
34.8449;0;0
34.8501;0;0
34.8542;0;0
34.8594;0;0
34.8649;0;0
34.8704;0;0
34.8745;0;0
34.8797;0;0
34.8845;0;0
34.8897;0;0
34.8949;0;0
34.8994;0;0
34.9045;0;0
34.9093;1;0
34.915;1;0
34.9202;1;0
34.9246;1;0
34.9294;1;0
34.9346;1;0
34.9399;1;0
34.9444;1;0
34.95;1;0
34.9542;1;0
34.9594;1;0
34.9648;1;0.863381
34.97;1;0.863381
34.9751;1;0.863381
34.9794;1;1.00002
34.9847;1;1.00002
34.9901;1;1.00002
34.9945;1;1.00002
34.9998;1;1.00002
35.0041;1;1.00002
35.01;0;1.00002
35.0142;0;1.00002
35.0193;0;1.00002
35.0248;0;1.00002
35.0306;0;1.00002
35.0347;0;1.00002
35.0396;0;1.00002
35.0489;0;1.00002
35.05;0;1.00002
35.0551;0;1.00002
35.0601;1;0.136994
35.0646;1;0.136994
35.07;1;0.136994
35.0743;1;-7.45058e-06
35.0794;1;-7.45058e-06
35.0851;1;-7.45058e-06
35.0897;1;0
35.0949;1;0
35.1;1;0
35.1044;1;0
35.1095;0;0
35.1147;0;0
35.1199;0;0.862993
35.1244;0;0.862993
35.1298;0;0.862993
35.135;0;0.862993
35.1392;0;1.00002
35.1445;0;1.00002
35.15;0;1.00002
35.1543;0;1.00002
35.1595;0;1.00002
35.165;0;1.00002
35.1696;0;0.137083
35.1747;0;0.137083
35.18;0;0.137083
35.1842;0;0.137083
35.19;0;0
35.1942;0;0
35.1993;0;0
35.2042;0;-7.45058e-06
35.2097;1;-7.45058e-06
35.2148;1;-7.45058e-06
35.22;1;0
35.2246;1;0
35.2296;1;0
35.2343;1;0
35.2396;1;0
35.2447;1;0
35.2492;1;0
35.2546;1;0
35.2598;1;0
35.2642;1;0
35.27;1;0.862919
35.2751;1;0.862919
35.2792;1;0.862919
35.2841;1;1.00002
35.2893;1;1.00002
35.2944;1;1.00002
35.2997;1;1.00002
35.309;1;1.00002
35.3101;0;1.00002
35.3148;0;1.00002
35.3199;0;1.00002
35.3244;0;1.00002
35.3301;0;1.00002
35.3342;0;1.00002
35.3393;0;1.00002
35.3446;0;1.00002
35.3494;0;1.00002
35.3545;0;1.00002
35.3596;1;1.00002
35.3645;1;0.137009
35.3696;1;0.137009
35.3748;1;0.137009
35.3793;1;-7.45058e-06
35.3849;1;-7.45058e-06
35.3899;1;-7.45058e-06
35.3948;1;0
35.3999;1;0
35.4062;1;0
35.4122;0;-7.45058e-06
35.4144;0;-7.45058e-06
35.4196;0;-7.45058e-06
35.4284;0;-7.45058e-06
35.4364;0;0.863031
35.4436;0;0.863031
35.4511;0;1.00002
35.4522;0;1.00002
35.4576;1;0.136904
35.4644;1;0.136904
35.4696;1;0.136904
35.4717;1;0.136904
35.4765;1;-7.45058e-06
35.4838;1;-7.45058e-06
35.4914;1;0
35.4915;1;0
35.4966;1;0
35.5033;1;0
35.5107;1;0.863135
35.5119;1;0.863135
35.5169;1;0.863135
35.5251;1;1.00002
35.5308;1;1.00002
35.5319;1;1.00002
35.5371;1;1.00002
35.544;1;1.00002
35.5529;1;1.00002
35.5587;0;1.00002
35.5655;0;1.00002
35.5714;0;1.00002
35.5736;0;1.00002
35.5787;0;1.00002
35.5853;0;1.00002
35.5913;0;1.00002
35.5935;0;1.00002
35.5987;0;1.00002
35.6057;0;1.00002
35.6105;1;1.00002
35.6136;1;1.00002
35.6185;1;0.136338
35.625;1;0.136338
35.631;1;0.136338
35.6332;1;0.136338
35.6384;1;-7.45058e-06
35.6464;1;-7.45058e-06
35.6517;1;-7.45058e-06
35.6539;1;-7.45058e-06
35.6581;1;-7.45058e-06
35.6651;1;-7.45058e-06
35.67;1;0.863716
35.6732;1;0.863716
35.6783;1;0.863716
35.6849;1;1.00002
35.6894;1;1.00002
35.6935;1;1.00002
35.6985;1;1.00002
35.705;1;1.00002
35.7103;0;1.00002
35.7134;0;1.00002
35.7181;0;1.00002
35.7253;0;1.00002
35.7316;0;1.00002
35.7337;0;1.00002
35.7388;0;1.00002
35.745;0;1.00002
35.75;0;1.00002
35.7531;0;1.00002
35.7583;1;1.00002
35.7653;1;0.135787
35.7711;1;0.135787
35.7732;1;0.135787
35.7785;1;-7.45058e-06
35.7854;1;-7.45058e-06
35.7903;1;-7.45058e-06
35.7937;1;-7.45058e-06
35.7989;1;-7.45058e-06
35.805;1;-7.45058e-06
35.8102;0;-7.45058e-06
35.8138;0;0.864267
35.8189;0;0.864267
35.8252;0;0.864267
35.8313;0;1.00002
35.8334;0;1.00002
35.8386;0;1.00002
35.8448;0;1.00002
35.8493;0;1.00002
35.8535;0;1.00002
35.8588;1;1.00002
35.8644;1;1.00002
35.8696;1;1.00002
35.8731;1;0.135496
35.8783;1;0.135496
35.8856;1;0.135496
35.8909;1;0
35.8931;1;0
35.8983;1;0
35.9054;1;0
35.9111;0;-7.45058e-06
35.9132;0;-7.45058e-06
35.9183;0;-7.45058e-06
35.9249;0;0.864543
35.9308;0;0.864543
35.9339;0;0.864543
35.9383;0;1.00002
35.9454;0;1.00002
35.9519;0;1.00002
35.9533;0;0.135407
35.9585;0;0.135407
35.9659;0;0.135407
35.9708;0;-7.45058e-06
35.9739;0;-7.45058e-06
35.9781;0;-7.45058e-06
35.9851;0;-7.45058e-06
35.9897;0;0
35.9938;0;0
35.9989;0;0
36.0046;0;0
36.0086;0;0
36.0137;0;0
36.0184;0;0
36.0246;0;0
36.0302;0;0
36.0334;0;0
36.0382;0;0
36.0456;0;0
36.0518;0;0
36.0539;0;0
36.0581;0;0
36.0657;0;0
36.0703;0;0
36.0734;0;0
36.0787;0;0
36.0847;0;0
36.0894;0;0
36.0936;0;0
36.0984;0;0
36.1046;0;0
36.11;0;0
36.1131;0;0
36.1191;0;0
36.1252;0;0
36.1317;0;0
36.1339;0;0
36.1384;0;0
36.1462;0;0
36.1508;0;0
36.154;0;0
36.1582;1;0
36.1644;1;0
36.1686;1;0
36.1737;1;0
36.1782;1;0
36.1846;1;0
36.19;1;0
36.1931;1;0
36.1984;1;0
36.2057;1;0
36.2118;0;0.864625
36.214;0;0.864625
36.2181;0;0.864625
36.2257;0;0.864625
36.2311;0;1.00002
36.2332;0;1.00002
36.2383;0;1.00002
36.2447;0;1.00002
36.2489;0;1.00002
36.253;0;1.00002
36.259;0;0.135325
36.2643;0;0.135325
36.2689;0;0.135325
36.274;0;-7.45058e-06
36.2781;0;-7.45058e-06
36.285;0;-7.45058e-06
36.29;0;-7.45058e-06
36.2933;0;0
36.2984;0;0
36.3058;0;0
36.3107;1;0
36.3138;1;0
36.319;1;0
36.3244;1;0
36.3289;1;0
36.3331;1;0
36.3388;1;0
36.3441;1;0
36.3488;1;0
36.3539;1;0
36.3581;1;0
36.3656;1;0
36.3707;1;0.864692
36.3739;1;0.864692
36.3782;1;0.864692
36.3854;1;0.864692
36.3909;1;1.00002
36.3931;1;1.00002
36.3982;1;1.00002
36.4047;1;1.00002
36.4095;1;1.00002
36.4136;1;1.00002
36.4181;1;1.00002
36.4246;1;1.00002
36.43;1;1.00002
36.4331;1;1.00002
36.4382;1;1.00002
36.4454;1;1.00002
36.4502;1;1.00002
36.4537;1;1.00002
36.4589;0;1.00002
36.465;0;1.00002
36.4702;0;1.00002
36.4733;0;1.00002
36.4784;0;1.00002
36.4848;0;1.00002
36.4889;0;1.00002
36.493;0;1.00002
36.4985;0;1.00002
36.5047;0;1.00002
36.5102;1;1.00002
36.5134;1;1.00002
36.5181;1;0.135623
36.5254;1;0.135623
36.5316;1;-7.45058e-06
36.5337;1;-7.45058e-06
36.5388;1;-7.45058e-06
36.545;1;-7.45058e-06
36.55;1;0
36.5532;1;0
36.5583;1;0
36.5647;1;0.864357
36.5688;1;0.864357
36.573;1;0.864357
36.5784;1;1.00002
36.5849;1;1.00002
36.5899;1;1.00002
36.5936;1;1.00002
36.5988;1;1.00002
36.6046;1;1.00002
36.6097;0;1.00002
36.6136;0;1.00002
36.6189;0;1.00002
36.6251;0;1.00002
36.6311;0;1.00002
36.6333;0;1.00002
36.6383;0;1.00002
36.6445;0;1.00002
36.6488;0;1.00002
36.6539;0;1.00002
36.6589;0;0.136144
36.6646;0;0.136144
36.6695;0;0.136144
36.6734;0;-7.45058e-06
36.6786;0;-7.45058e-06
36.6857;0;-7.45058e-06
36.6908;0;0
36.6939;0;0
36.6982;0;0
36.7051;0;0
36.7104;1;-7.45058e-06
36.7136;1;-7.45058e-06
36.7186;1;-7.45058e-06
36.7253;1;0
36.7295;1;0
36.7336;1;0
36.7389;1;0
36.7442;1;0
36.749;1;0
36.753;1;0
36.7582;0;0
36.7652;0;0
36.77;0;0
36.7734;0;0.863828
36.7785;0;0.863828
36.7859;0;0.863828
36.7908;0;1.00002
36.7939;0;1.00002
36.7982;0;1.00002
36.8043;0;1.00002
36.8089;0;1.00002
36.8132;0;1.00002
36.8181;0;0.136428
36.8253;0;0.136428
36.8308;0;0.136428
36.8334;0;-7.45058e-06
36.8385;0;-7.45058e-06
36.8451;0;-7.45058e-06
36.8496;0;0
36.8537;0;0
36.8589;1;0
36.8644;1;0
36.869;1;-3.72529e-06
36.8733;1;-3.72529e-06
36.8784;1;-3.72529e-06
36.8849;1;0
36.8906;1;0
36.8937;1;0
36.8982;1;0
36.9052;1;0
36.9109;0;0
36.9131;0;0
36.9186;0;0.863545
36.9288;0;0.863545
36.9358;0;1.00002
36.9389;0;1.00002
36.945;0;1.00002
36.9502;0;1.00002
36.9545;0;1.00002
36.9596;0;0.136692
36.9643;0;0.136692
36.9696;0;0.136692
36.9747;0;0.136692
36.9791;0;-7.45058e-06
36.9843;0;-7.45058e-06
36.9896;0;-7.45058e-06
36.9945;0;-3.72529e-06
36.9996;0;-3.72529e-06
37.0048;0;-3.72529e-06
37.01;1;0
37.0141;1;0
37.0192;1;0
37.0249;1;0
37.0305;1;0
37.0347;1;0
37.0389;1;0
37.0451;1;0
37.0491;1;0
37.0544;1;0
37.0589;1;0
37.0641;1;0
37.0696;1;0
37.0744;1;0.863288
37.0795;1;0.863288
37.0856;1;0.863288
37.0903;1;1.00002
37.0944;1;1.00002
37.0997;1;1.00002
37.1052;1;1.00002
37.1111;0;1.00002
37.1143;0;1.00002
37.1194;0;1.00002
37.1248;0;1.00002
37.1296;0;1.00002
37.1348;0;1.00002
37.139;0;1.00002
37.1445;0;1.00002
37.1489;0;1.00002
37.1542;0;0.137005
37.1595;0;0.137005
37.1648;0;0.137005
37.1693;0;-7.45058e-06
37.1746;0;-7.45058e-06
37.1797;0;-7.45058e-06
37.185;0;-7.45058e-06
37.1905;0;0
37.1948;0;0
37.1989;0;0
37.2045;0;0
37.209;0;0
37.2142;0;0
37.2191;0;0
37.2245;0;0
37.2291;0;0
37.2347;0;0
37.2398;0;0
37.2446;0;0
37.2503;0;0
37.2544;0;0
37.2596;0;0
37.2641;0;0
37.2693;0;0
37.2744;0;0
37.2797;0;0
37.2845;0;0
37.289;0;0
37.2942;0;0
37.2995;0;0
37.3048;0;0
37.3097;0;0
37.3148;0;0
37.3189;0;0
37.3245;0;0
37.3295;0;0
37.3347;0;0
37.3389;0;0
37.3446;0;0
37.3498;0;0
37.354;0;0
37.3592;0;0
37.3645;0;0
37.3699;0;0
37.374;0;0
37.3794;0;0
37.385;0;0
37.3893;0;0
37.3942;0;0
37.3995;0;0
37.4048;0;0
37.4096;1;0
37.4139;1;0
37.419;1;0
37.4245;1;0
37.43;1;0
37.4342;1;0
37.4393;1;0
37.4448;1;0
37.45;1;0
37.4542;1;0
37.4594;1;0.862986
37.4648;1;0.862986
37.4692;1;0.862986
37.4746;1;1.00002
37.4798;1;1.00002
37.4844;1;1.00002
37.4892;1;1.00002
37.4944;1;1.00002
37.4995;1;1.00002
37.5049;1;1.00002
37.5099;1;1.00002
37.5141;1;1.00002
37.5193;1;1.00002
37.5243;1;1.00002
37.5291;1;1.00002
37.5343;1;1.00002
37.5389;1;1.00002
37.5444;1;1.00002
37.5495;1;1.00002
37.5538;1;1.00002
37.559;0;1.00002
37.5646;0;1.00002
37.5694;0;1.00002
37.5746;0;1.00002
37.5798;0;1.00002
37.5846;0;1.00002
37.5895;0;1.00002
37.5948;0;1.00002
37.5989;0;1.00002
37.6046;0;0.137005
37.609;1;0.137005
37.6141;1;0.137005
37.6189;1;-7.45058e-06
37.6244;1;-7.45058e-06
37.629;1;-7.45058e-06
37.6346;1;-3.72529e-06
37.6398;1;-3.72529e-06
37.6442;1;-3.72529e-06
37.6489;1;0
37.6541;1;0
37.6594;0;0
37.6645;0;0
37.6696;0;0.863027
37.6747;0;0.863027
37.6799;0;1.00002
37.6846;0;1.00002
37.689;0;1.00002
37.6941;0;1.00002
37.6997;0;1.00002
37.7043;0;1.00002
37.7098;0;1.00002
37.7139;0;0.136834
37.719;0;0.136834
37.7244;0;0.136834
37.729;0;-3.72529e-06
37.7341;0;-3.72529e-06
37.7392;0;-3.72529e-06
37.7447;0;-3.72529e-06
37.7499;0;-3.72529e-06
37.754;0;-3.72529e-06
37.7593;1;-3.72529e-06
37.7641;1;0
37.7694;1;0
37.7746;1;0
37.7792;1;0
37.7851;1;0
37.7895;1;0
37.7942;1;0
37.7995;1;0
37.805;1;0
37.8095;0;0
37.8141;0;0
37.8194;0;0
37.8246;0;0
37.8295;0;0.863209
37.8347;0;0.863209
37.84;0;1.00002
37.8444;0;1.00002
37.8496;0;1.00002
37.8547;0;1.00002
37.8592;0;0.136688
37.8647;0;0.136688
37.869;0;0.136688
37.8744;0;-7.45058e-06
37.8797;0;-7.45058e-06
37.8844;0;-7.45058e-06
37.8891;0;-7.45058e-06
37.8949;0;0
37.8988;0;0
37.9044;0;0
37.909;0;0
37.9141;0;0
37.919;0;0
37.9246;0;0
37.9299;0;0
37.9341;0;0
37.9389;0;0
37.9444;0;0
37.949;0;0
37.9541;0;0
37.9594;1;0
37.9651;1;0
37.9698;1;0
37.974;1;0
37.9791;1;0
37.9846;1;0
37.9899;1;0
37.9941;1;0
37.9993;1;0
38.005;1;0
38.0091;1;0
38.0143;1;0
38.0192;1;0.863362
38.0246;1;0.863362
38.0294;1;0.863362
38.0344;1;1.00002
38.0398;1;1.00002
38.0449;1;1.00002
38.0496;1;1.00002
38.0545;1;1.00002
38.0597;1;1.00002
38.0649;1;1.00002
38.0697;1;1.00002
38.0739;1;1.00002
38.0797;1;1.00002
38.0852;1;1.00002
38.0904;1;1.00002
38.0948;1;1.00002
38.0993;1;1.00002
38.1043;1;1.00002
38.1098;0;1.00002
38.114;0;1.00002
38.1199;0;1.00002
38.1254;0;1.00002
38.1302;0;1.00002
38.1346;0;1.00002
38.1396;0;1.00002
38.1459;0;1.00002
38.1508;0;1.00002
38.1539;0;1.00002
38.1597;0;1.00002
38.1649;0;0.135859
38.1693;0;0.135859
38.174;0;0.135859
38.1793;0;-7.45058e-06
38.1852;0;-7.45058e-06
38.1905;0;-7.45058e-06
38.1945;0;-3.72529e-06
38.1998;0;-3.72529e-06
38.2051;0;-3.72529e-06
38.2099;0;-3.72529e-06
38.2144;0;0
38.2195;0;0
38.2246;0;0
38.2303;0;0
38.2344;0;0
38.2396;0;0
38.245;0;0
38.2497;0;0
38.254;0;0
