Time (s);Vsent (m/s);Vmeasured (m/s);0.00880196;0;1.84309e+06
0.0109557;0;1.84309e+06
0.0157618;0;1.84309e+06
0.0210902;0;1.84309e+06
0.0283677;0;1.84309e+06
0.0304832;0;1.84309e+06
0.0353625;0;1.84309e+06
0.0404867;0;1.84309e+06
0.0489926;0;1.84309e+06
0.050111;0;1.84309e+06
0.0552418;0;1.84309e+06
0.0603093;0;1.84309e+06
0.0684165;0;1.84309e+06
0.0705332;0;1.84309e+06
0.075636;0;1.84309e+06
0.0808168;0;1.84309e+06
0.088929;0;1.84309e+06
0.0910466;0;1.84309e+06
0.0952115;0;1.84309e+06
0.101029;0;1.84309e+06
0.108218;0;1.84309e+06
0.110374;0;1.84309e+06
0.115142;0;1.84309e+06
0.12031;0;1.84309e+06
0.128969;0;1.84309e+06
0.131096;0;1.84309e+06
0.135222;0;1.84309e+06
0.140369;0;1.84309e+06
0.148852;0;1.84309e+06
0.150968;0;1.84309e+06
0.155124;0;1.84309e+06
0.160817;0;1.84309e+06
0.167616;0;1.84309e+06
0.170792;0;1.84309e+06
0.17555;0;1.84309e+06
0.1808;0;1.84309e+06
0.187503;0;1.84309e+06
0.190622;0;1.84309e+06
0.195956;0;1.84309e+06
0.201099;0;1.84309e+06
0.208591;0;1.84309e+06
0.210715;0;1.84309e+06
0.216014;0;1.84309e+06
0.220814;0;1.84309e+06
0.227992;0;1.84309e+06
0.230171;0;1.84309e+06
0.235271;0;1.84309e+06
0.240561;0;1.84309e+06
0.248337;0;1.84309e+06
0.250451;0;1.84309e+06
0.255432;0;1.84309e+06
0.260691;0;1.84309e+06
0.267352;0;1.84309e+06
0.270465;0;1.84309e+06
0.275757;0;1.84309e+06
0.280939;0;1.84309e+06
0.288562;0;1.84309e+06
0.290718;0;1.84309e+06
0.295835;0;1.84309e+06
0.300943;0;1.84309e+06
0.308807;0;1.84309e+06
0.310926;0;1.84309e+06
0.316027;0;1.84309e+06
0.320571;0;1.84309e+06
0.328482;0;1.84309e+06
0.330594;0;1.84309e+06
0.335515;0;1.84309e+06
0.340614;0;1.84309e+06
0.348476;0;1.84309e+06
0.350635;0;1.84309e+06
0.355976;0;1.84309e+06
0.361245;0;1.84309e+06
0.368291;0;1.84309e+06
0.370411;0;1.84309e+06
0.37552;0;1.84309e+06
0.380694;0;1.84309e+06
0.387796;0;1.84309e+06
0.390921;0;1.84309e+06
0.396083;0;1.84309e+06
0.400746;0;1.84309e+06
0.407584;0;1.84309e+06
0.410768;0.5;1.84309e+06
0.41569;0.5;1.84309e+06
0.420924;0.5;1.84309e+06
0.427506;0.5;1.84309e+06
0.43063;0.5;1.84309e+06
0.436064;0.5;1.84309e+06
0.440238;0.5;1.84309e+06
0.448672;0.5;1.84309e+06
0.450799;0.5;1.84309e+06
0.455995;0.5;1.84309e+06
0.460129;0;1.84309e+06
0.468787;0;1.86703e+06
0.470965;0;1.86703e+06
0.476093;0;1.86703e+06
0.480916;0;0.139029
0.488704;0;0.139029
0.490827;0;0.139029
0.495681;0;0.225214
0.500821;0;0.225214
0.507683;0;0.225214
0.51081;0.5;0.225214
0.515896;0.5;0.139305
0.521009;0.5;0.139305
0.528208;0.5;0.085709
0.530364;0.5;0.085709
0.535469;0.5;0.085709
0.54057;0.5;0.085709
0.549545;0.5;0.0856977
0.550665;0.5;0.0856977
0.555765;0.5;0.0856977
0.560749;0.5;0.0856334
0.568632;0.5;0.0856334
0.570751;0.5;0.0856334
0.575564;0.5;0.139464
0.580805;0.5;0.139464
0.588319;0.5;0.139464
0.590477;0.5;0.139464
0.596047;0.5;0.170412
0.600159;0.5;0.170412
0.608193;0.5;0.279329
0.610312;0;0.279329
0.615597;0;0.279329
0.620779;0;0.279329
0.62868;0;0.27946
0.630802;0;0.27946
0.635974;0;0.27946
0.640565;0;0.363506
0.649323;0;0.363506
0.650498;0;0.363506
0.655516;0;0.279507
0.660666;0;0.279507
0.667869;0;0.279507
0.670985;0;0.279507
0.675744;0;0.2795
0.680951;0;0.2795
0.687569;0;0.2795
0.690957;0;0.139751
0.695081;0;0.139751
0.700186;0;0.139751
0.708912;0;0.0837704
0.711107;0;0.0837704
0.71521;0;0.0837704
0.720721;0;0.0838178
0.727983;0;0.0838178
0.730102;0;0.0838178
0.735222;0;0.0838178
0.740704;0;0.0838178
0.747982;0;0.0838178
0.750095;0;0.0838178
0.75582;0;0.0838178
0.760972;0.5;0.0838178
0.767801;0.5;0.0838178
0.770139;0.5;0.0838178
0.775252;0.5;0.0838178
0.780371;0.5;0.0838178
0.789096;0.5;0.0838178
0.790214;0.5;0.0838178
0.795327;0.5;0.0838178
0.800815;0.5;0.0838178
0.807747;0.5;0.0838178
0.810882;0.5;0.0838178
0.815716;0.5;0.0837401
0.82083;0.5;0.0837401
0.827833;0.5;0.0837401
0.831001;0.5;0.0837401
0.835959;0.5;0.139746
0.84107;0.5;0.139746
0.848157;0.5;0.222914
0.850285;0.5;0.222914
0.855399;0.5;0.222914
0.860549;0.5;0.222914
0.86904;0.5;0.196605
0.870162;0.5;0.196605
0.87531;0.5;0.196605
0.880956;0.5;0.361205
0.887918;0.5;0.361205
0.891081;0.5;0.361205
0.895194;0.5;0.361205
0.900403;0.5;0.336542
0.90919;0.5;0.336542
0.910293;0.5;0.336542
0.915936;0.5;0.39448
0.921088;0.5;0.39448
0.928548;0.5;0.39448
0.930145;0.5;0.475855
0.935283;0.5;0.475855
0.940385;0.5;0.475855
0.949413;0.5;0.475851
0.950574;0.5;0.475851
0.955675;0.5;0.475851
0.960963;0;0.533868
0.967806;0;0.533868
0.970917;0;0.533868
0.975863;0;0.475851
0.981182;0;0.475851
0.987963;0;0.475851
0.991087;0;0.475851
0.995395;0;0.475851
1.00051;0;0.475851
1.00909;0;0.452475
1.01024;0.5;0.452475
1.01535;0.5;0.452475
1.02045;0.5;0.452475
1.02968;0.5;0.41815
1.0308;0.5;0.41815
1.0359;0.5;0.41815
1.04059;0.5;0.278987
1.04868;0.5;0.278987
1.0508;0.5;0.278987
1.05601;0.5;0.196714
1.06015;0;0.196714
1.06799;0;0.196714
1.07015;0;0.196714
1.07519;0;0.196453
1.08029;0;0.196453
1.08553;0;0.196453
1.09013;0;0.27943
1.09523;0;0.27943
1.1004;0;0.27943
1.10905;0;0.362725
1.11014;0;0.362725
1.11529;0;0.362725
1.12066;0;0.33581
1.12834;0;0.33581
1.13049;0;0.33581
1.13561;0;0.279502
1.14072;0;0.279502
1.14746;0;0.279502
1.15058;0;0.279502
1.15584;0;0.195484
1.16101;0;0.195484
1.16764;0;0.195484
1.17098;0;0.084286
1.1751;0;0.084286
1.18021;0;0.084286
1.18953;0;0.0844017
1.19067;0;0.0844017
1.19578;0;0.0844017
1.2009;0;0.0844075
1.2077;0;0.0844075
1.21083;0;0.0844075
1.21585;0;0.0844075
1.22097;0;0.0844075
1.22759;0;0.0844075
1.23068;0;0.0844075
1.23511;0;0.0844075
1.24022;0;0.0844075
1.24834;0;0.0844075
1.25046;0;0.0844075
1.25557;0;0.0844075
1.26068;0.5;0.0844075
1.26921;0.5;0.0844075
1.27032;0.5;0.0844075
1.27542;0.5;0.0844075
1.28103;0.5;0.0844075
1.28785;0.5;0.0844075
1.29097;0.5;0.0844075
1.29512;0.5;0.0844075
1.30092;0.5;0.0844075
1.30755;0.5;0.0844075
1.31072;0.5;0.0844075
1.31587;0.5;0.0843346
1.321;0.5;0.0843346
1.32814;0.5;0.111195
1.33024;0.5;0.111195
1.33535;0.5;0.111195
1.3405;0.5;0.111195
1.34958;0.5;0.167647
1.35067;0.5;0.167647
1.35582;0.5;0.167647
1.36088;0.5;0.279464
1.3674;0.5;0.279464
1.37058;0.5;0.279464
1.37564;0.5;0.279339
1.38078;0.5;0.279339
1.38731;0.5;0.279339
1.39044;0.5;0.279339
1.39601;0.5;0.336363
1.40018;0.5;0.336363
1.40797;0.5;0.418596
1.41008;0.5;0.418596
1.41526;0.5;0.418596
1.42037;0.5;0.418596
1.42981;0.5;0.475985
1.43095;0.5;0.475985
1.43606;0.5;0.475985
1.44083;0.5;0.475985
1.44795;0.5;0.475985
1.45108;0.5;0.475985
1.45519;0.5;0.475985
1.46094;0.5;0.533484
1.4678;0.5;0.533484
1.47093;0.5;0.533484
1.47508;0.5;0.475985
1.4803;0.5;0.475985
1.48867;0.5;0.475985
1.49081;0.5;0.475985
1.49591;0.5;0.475985
1.50102;0.5;0.475985
1.50908;0.5;0.533484
1.51017;0.5;0.533484
1.51528;0.5;0.533484
1.52079;0.5;0.475985
1.52779;0.5;0.475985
1.53092;0.5;0.475985
1.53582;0.5;0.500481
1.54093;0.5;0.500481
1.54791;0.5;0.500481
1.55108;0.5;0.500481
1.55586;0.5;0.533484
1.5611;0.5;0.533484
1.5685;0.5;0.475985
1.5706;0.5;0.475985
1.57568;0.5;0.475985
1.58084;0.5;0.475985
1.58901;0.5;0.533484
1.59011;0.5;0.533484
1.59528;0.5;0.533484
1.60088;0.5;0.475985
1.60771;0.5;0.475985
1.61089;0.5;0.475985
1.61579;0.5;0.475985
1.6209;0.5;0.475985
1.62773;0.5;0.475985
1.63085;0.5;0.475985
1.636;0.5;0.533484
1.64013;0.5;0.533484
1.64828;0.5;0.500481
1.65038;0.5;0.500481
1.65552;0.5;0.500481
1.66064;0;0.500481
1.66955;0;0.475985
1.67069;0;0.475985
1.67579;0;0.475985
1.68086;0;0.533484
1.68795;0;0.533484
1.69108;0;0.533484
1.6952;0;0.533484
1.7011;0;0.475985
1.7078;0;0.475985
1.71093;0;0.475985
1.71609;0;0.475986
1.72033;0;0.475986
1.72854;0;0.336401
1.73067;0;0.336401
1.73584;0;0.336401
1.74098;0;0.336401
1.74917;0;0.279291
1.75026;0;0.279291
1.75535;0;0.279291
1.76107;0.5;0.222894
1.76805;0.5;0.222894
1.77014;0.5;0.222894
1.7753;0.5;0.222894
1.78088;0.5;0.139747
1.78801;0.5;0.139747
1.79016;0.5;0.139747
1.79603;0.5;0.11198
1.80018;0.5;0.11198
1.80824;0.5;0.0838281
1.81034;0;0.0838281
1.81549;0;0.0838281
1.82067;0;0.0838281
1.82978;0;0.139754
1.83087;0;0.139754
1.83601;0;0.139754
1.84085;0;0.279495
1.84813;0;0.279495
1.85028;0;0.279495
1.85538;0;0.279495
1.86079;0;0.223154
1.86753;0;0.223154
1.87066;0;0.223154
1.87594;0;0.139736
1.88112;0;0.139736
1.88814;0;0.139741
1.89023;0;0.139741
1.89541;0;0.139741
1.90052;0;0.139741
1.90987;0;0.139742
1.91102;0;0.139742
1.91512;0;0.139742
1.92095;0;0.139742
1.92854;0;0.139742
1.93064;0;0.139742
1.93571;0;0.139742
1.94021;0;0.139742
1.94832;0;0.139742
1.95041;0;0.139742
1.95519;0;0.139742
1.96034;0;0.139742
1.96853;0;0.139742
1.97066;0;0.139742
1.97577;0;0.139742
1.98087;0;0.139742
1.98793;0;0.139742
1.99106;0;0.139742
1.99517;0;0.139742
2.00073;0;0.139742
2.00737;0;0.139742
2.01047;0.5;0.139742
2.01565;0.5;0.139742
2.02025;0.5;0.139742
2.02861;0.5;0.139742
2.03075;0.5;0.139742
2.03534;0.5;0.139742
2.04056;0.5;0.139742
2.04899;0.5;0.139742
2.05009;0.5;0.139742
2.05519;0.5;0.139742
2.06039;0;0.139742
2.06788;0;0.139742
2.07576;0;0.139736
2.08299;0;0.139736
2.08995;0;0.139736
2.09104;0;0.139736
2.09678;0;0.196246
2.10278;0;0.165661
2.10923;0.5;0.165661
2.11133;0.5;0.165661
2.11677;0.5;0.139616
2.12244;0.5;0.139616
2.12855;0.5;0.0823575
2.13176;0.5;0.0823575
2.13587;0.5;0.0823575
2.14248;0.5;0.0823575
2.14891;0.5;0.0823407
2.151;0.5;0.0823407
2.15611;0;0.0823407
2.16274;0;0.0822462
2.16796;0;0.0822462
2.17105;0;0.0822462
2.17685;0;0.196983
2.18227;0;0.196983
2.18851;0;0.196983
2.19173;0;0.196983
2.19638;0;0.139393
2.20299;0;0.139393
2.20877;0;0.139288
2.21086;0;0.139288
2.21608;0;0.139288
2.22265;0;0.139288
2.22882;0;0.139228
2.23091;0;0.139228
2.23605;0;0.139228
2.24241;0;0.139222
2.24767;0;0.139222
2.25081;0;0.139222
2.25577;0.5;0.139222
2.26223;0.5;0.139222
2.2685;0.5;0.139222
2.27163;0.5;0.139222
2.2763;0.5;0.139222
2.28327;0.5;0.139222
2.28907;0.5;0.139222
2.2912;0.5;0.139222
2.29643;0.5;0.139222
2.30289;0.5;0.139222
2.30914;0.5;0.139222
2.3114;0.5;0.139222
2.31651;0.5;0.139222
2.32248;0.5;0.139188
2.3284;0.5;0.139188
2.33153;0.5;0.139188
2.33663;0.5;0.139188
2.34315;0.5;0.139098
2.34873;0.5;0.139098
2.35194;0.5;0.138927
2.35608;0.5;0.138927
2.36254;0.5;0.138927
2.3685;0.5;0.277305
2.37171;0.5;0.277305
2.37685;0.5;0.277305
2.38237;0.5;0.277305
2.38892;0.5;0.316261
2.39101;0.5;0.316261
2.39612;0.5;0.316261
2.40265;0.5;0.316261
2.40887;0.5;0.335685
2.41096;0.5;0.335685
2.41611;0.5;0.335685
2.42304;0.5;0.395185
2.42882;0.5;0.395185
2.43097;0.5;0.395185
2.43614;0.5;0.454943
2.44259;0.5;0.454943
2.44858;0.5;0.514751
2.45168;0.5;0.514751
2.45579;0.5;0.514751
2.4624;0.5;0.514751
2.46955;0.5;0.4731
2.47164;0.5;0.4731
2.47578;0.5;0.4731
2.48312;0.5;0.514751
2.48847;0.5;0.514751
2.49171;0.5;0.514751
2.49681;0.5;0.514751
2.50259;0.5;0.514751
2.50812;0;0.514751
2.51121;0;0.514751
2.51638;0;0.4731
2.52396;0;0.4731
2.52618;0;0.4731
2.53196;0;0.4731
2.53615;0;0.4731
2.5428;0;0.514751
2.54889;0;0.514751
2.55102;0;0.514751
2.5561;0.5;0.514751
2.56259;0.5;0.514751
2.56885;0.5;0.454923
2.57095;0.5;0.454923
2.57606;0.5;0.454923
2.58249;0.5;0.335597
2.58777;0.5;0.335597
2.5909;0.5;0.335597
2.5965;0.5;0.335874
2.60291;0.5;0.335874
2.60869;0;0.256849
2.61082;0;0.256849
2.61596;0;0.256849
2.62246;0;0.256849
2.62858;0;0.395266
2.63169;0;0.395266
2.63679;0;0.395266
2.64231;0;0.395266
2.64891;0;0.395264
2.651;0;0.395264
2.65614;0.5;0.395264
2.66227;0.5;0.395257
2.66821;0.5;0.395257
2.67145;0.5;0.395257
2.67669;0.5;0.336285
2.6825;0.5;0.336285
2.68802;0.5;0.336285
2.69088;0.5;0.277694
2.69603;0.5;0.277694
2.70256;0.5;0.277694
2.70865;0;0.197469
2.71174;0;0.197469
2.71589;0;0.197469
2.72273;0;0.139188
2.72797;0;0.139188
2.73111;0;0.139188
2.73631;0;0.255371
2.74276;0;0.255371
2.74904;0;0.255371
2.75113;0;0.255371
2.75624;0.5;0.336573
2.7633;0.5;0.336573
2.769;0.5;0.278576
2.7711;0.5;0.278576
2.77631;0.5;0.278576
2.7832;0.5;0.278576
2.78945;0.5;0.25506
2.79165;0.5;0.25506
2.79678;0.5;0.25506
2.80289;0.5;0.221082
2.8083;0;0.221082
2.81139;0;0.221082
2.81613;0;0.278826
2.82269;0;0.278826
2.82861;0;0.278826
2.8317;0;0.278826
2.83585;0;0.394379
2.84239;0;0.394379
2.84931;0;0.417918
2.85156;0;0.417918
2.85677;0.5;0.417918
2.8626;0.5;0.417918
2.86874;0.5;0.394571
2.87088;0.5;0.394571
2.876;0.5;0.394571
2.88325;0.5;0.336571
2.88874;0.5;0.336571
2.89086;0.5;0.336571
2.89601;0.5;0.336571
2.90235;0.5;0.220998
2.90771;0.5;0.220998
2.91088;0.5;0.220998
2.91631;0.5;0.278891
2.92277;0.5;0.278891
2.93011;0.5;0.278918
2.93123;0.5;0.278918
2.93634;0.5;0.278918
2.94332;0.5;0.278918
2.94979;0.5;0.39422
2.95091;0.5;0.39422
2.95605;0.5;0.39422
2.96257;0.5;0.39422
2.96843;0.5;0.41814
2.9717;0.5;0.41814
2.9768;0.5;0.41814
2.98248;0.5;0.475929
2.98805;0.5;0.475929
2.99117;0.5;0.475929
2.99614;0.5;0.533749
3.00262;0.5;0.533749
3.00909;0;0.533749
3.01103;0;0.475929
3.01616;0;0.475929
3.0228;0;0.475929
3.02911;0;0.533749
3.03138;0;0.533749
3.0365;0;0.533749
3.04252;0;0.475929
3.04831;0;0.475929
3.05143;0;0.475929
3.0562;0;0.475948
3.06297;0;0.475948
3.06856;0;0.475948
3.07168;0;0.475948
3.07648;0;0.336514
3.08322;0;0.336514
3.08951;0;0.279119
3.09171;0;0.279119
3.09682;0;0.279119
3.10247;0;0.279119
3.10874;0;0.253437
3.11083;0;0.253437
3.11594;0;0.253437
3.12365;0;0.139715
3.12771;0;0.139715
3.1318;0;0.139715
3.13675;0;0.0833802
3.14236;0;0.0833802
3.1481;0;0.0833802
3.15132;0;0.0833802
3.15609;0;0.0834367
3.16277;0;0.0834367
3.16928;0;0.0834367
3.17137;0;0.0834367
3.17651;0;0.0834367
3.18323;0;0.0834367
3.18936;0;0.0834367
3.19145;0;0.0834367
3.19666;0;0.0834367
3.20235;0;0.0834367
3.20775;0;0.0834367
3.21091;0;0.0834367
3.21685;0;0.0834367
3.22238;0;0.0834367
3.22808;0;0.0834367
3.23118;0;0.0834367
3.23621;0;0.0834367
3.24285;0;0.0834367
3.24953;0;0.0834367
3.25163;0;0.0834367
3.25578;0.5;0.0834367
3.26247;0.5;0.0834367
3.26806;0.5;0.0834367
3.2713;0.5;0.0834367
3.27637;0.5;0.0834367
3.28247;0.5;0.0834367
3.28793;0.5;0.0834367
3.29106;0.5;0.0834367
3.29584;0.5;0.0834367
3.30252;0.5;0.0834367
3.30781;0.5;0.0834367
3.31094;0.5;0.0834367
3.31601;0.5;0.0833555
3.3225;0.5;0.0833555
3.32829;0.5;0.139713
3.3315;0.5;0.139713
3.33666;0.5;0.139713
3.34314;0.5;0.139713
3.34967;0.5;0.196539
3.35177;0.5;0.196539
3.35588;0;0.196539
3.3625;0;0.221813
3.36795;0;0.221813
3.37105;0;0.221813
3.37579;0;0.336544
3.3823;0;0.336544
3.38771;0;0.336544
3.39087;0;0.336544
3.39599;0;0.336573
3.4024;0;0.336573
3.40813;0;0.336561
3.41122;0;0.336561
3.41644;0;0.336561
3.42308;0;0.336561
3.42976;0;0.21991
3.43085;0;0.21991
3.43599;0;0.21991
3.44314;0;0.197427
3.44873;0;0.197427
3.45087;0;0.197427
3.45579;0;0.0809804
3.46229;0;0.0809804
3.46832;0;0.0809804
3.47144;0;0.0809804
3.47662;0;0.0810457
3.48348;0;0.0810457
3.48744;0;0.0810457
3.49121;0;0.0810457
3.49658;0;0.0810457
3.50306;0;0.0810457
3.50976;0.5;0.0810457
3.5109;0.5;0.0810457
3.51601;0.5;0.0810457
3.52248;0.5;0.0810457
3.52834;0.5;0.0810457
3.53147;0.5;0.0810457
3.53667;0.5;0.0810457
3.54234;0.5;0.0810457
3.54802;0.5;0.0810457
3.55115;0.5;0.0810457
3.55612;0;0.0809478
3.56271;0;0.0809478
3.56865;0;0.139078
3.57079;0;0.139078
3.57591;0;0.139078
3.58247;0;0.139078
3.58927;0;0.197543
3.59138;0;0.197543
3.59649;0;0.197543
3.60318;0;0.256612
3.60862;0.5;0.256612
3.61172;0.5;0.256612
3.61582;0.5;0.217439
3.62231;0.5;0.217439
3.62815;0.5;0.217439
3.63139;0.5;0.217439
3.63608;0.5;0.138154
3.64261;0.5;0.138154
3.64865;0.5;0.138054
3.65175;0.5;0.138054
3.65587;0;0.138054
3.66244;0;0.138054
3.669;0;0.137955
3.67109;0;0.137955
3.67627;0;0.137955
3.68291;0;0.137751
3.68822;0;0.137751
3.69147;0;0.137751
3.69658;0;0.137751
3.7024;0;0.214767
3.70831;0.5;0.214767
3.7114;0.5;0.214767
3.7161;0.5;0.197362
3.72266;0.5;0.197362
3.72837;0.5;0.197362
3.73083;0.5;0.136903
3.73597;0.5;0.136903
3.7426;0.5;0.136903
3.74932;0.5;0.13686
3.75151;0.5;0.13686
3.75672;0.5;0.13686
3.76263;0.5;0.13686
3.76838;0.5;0.0762747
3.77152;0.5;0.0762747
3.7766;0.5;0.0762747
3.78301;0.5;0.136498
3.78902;0.5;0.136498
3.79112;0.5;0.136498
3.79638;0.5;0.196886
3.80282;0.5;0.196886
3.80824;0;0.196886
3.81149;0;0.271074
3.81674;0;0.271074
3.82227;0;0.271074
3.82941;0;0.318686
3.83151;0;0.318686
3.83661;0;0.318686
3.84396;0;0.318686
3.84888;0;0.318679
3.85099;0;0.318679
3.8561;0;0.318679
3.86331;0;0.380119
3.86887;0;0.380119
3.871;0;0.380119
3.87602;0;0.257123
3.88267;0;0.257123
3.88814;0;0.257123
3.89159;0;0.122987
3.89671;0;0.122987
3.90226;0;0.122987
3.90895;0.5;0.134371
3.91107;0.5;0.134371
3.9163;0.5;0.134371
3.92288;0.5;0.134371
3.92961;0.5;0.13447
3.93181;0.5;0.13447
3.93591;0.5;0.13447
3.94259;0.5;0.13447
3.94855;0.5;0.13447
3.95167;0.5;0.13447
3.95607;0.5;0.13447
3.9629;0.5;0.13447
3.96871;0.5;0.134365
3.97181;0.5;0.134365
3.97598;0.5;0.134365
3.98248;0.5;0.134365
3.98936;0.5;0.123023
3.99155;0.5;0.123023
3.99666;0.5;0.123023
4.00332;0.5;0.195258
4.00933;0;0.195258
4.01145;0;0.195258
4.01656;0;0.195258
4.02251;0;0.256521
4.02869;0;0.256521
4.03181;0;0.256521
4.03602;0;0.318017
4.04274;0;0.318017
4.0489;0;0.310277
4.05103;0;0.310277
4.05611;0;0.310277
4.06264;0;0.310277
4.0697;0;0.379615
4.07182;0;0.379615
4.07589;0;0.379615
4.0833;0;0.193088
4.08934;0;0.193088
4.09145;0;0.193088
4.09589;0;0.186424
4.10244;0;0.186424
4.108;0.5;0.186424
4.11113;0.5;0.186424
4.11683;0.5;0.18633
4.12246;0.5;0.18633
4.12842;0.5;0.18633
4.13108;0.5;0.124194
4.13619;0.5;0.124194
4.14286;0.5;0.124194
4.14955;0.5;0.124194
4.15167;0.5;0.124194
4.15581;0;0.124194
4.1625;0;0.124194
4.16823;0;0.124232
4.17149;0;0.124232
4.1766;0;0.124232
4.1826;0;0.130814
4.18822;0;0.130814
4.19131;0;0.130814
4.19597;0;0.186702
4.20245;0;0.186702
4.2081;0.5;0.186702
4.21159;0.5;0.254008
4.21587;0.5;0.254008
4.22246;0.5;0.254008
4.2297;0.5;0.187149
4.23085;0.5;0.187149
4.23595;0.5;0.187149
4.24302;0.5;0.128028
4.24855;0.5;0.128028
4.25168;0.5;0.128028
4.25654;0.5;0.187349
4.26357;0.5;0.187349
4.26763;0.5;0.187349
4.27172;0.5;0.188976
4.27588;0.5;0.188976
4.28239;0.5;0.188976
4.28807;0.5;0.31249
4.29133;0.5;0.31249
4.29644;0.5;0.31249
4.30297;0.5;0.31249
4.31001;0.5;0.312492
4.31111;0.5;0.312492
4.31623;0.5;0.312492
4.32396;0.5;0.374941
4.32874;0.5;0.374941
4.33086;0.5;0.374941
4.33666;0.5;0.437373
4.34331;0.5;0.437373
4.34904;0.5;0.437373
4.3512;0.5;0.437373
4.35602;0.5;0.499833
4.36258;0.5;0.499833
4.36827;0.5;0.499833
4.3714;0.5;0.499833
4.37655;0.5;0.499833
4.38317;0.5;0.499833
4.38909;0.5;0.501449
4.39121;0.5;0.501449
4.39645;0.5;0.501449
4.40315;0.5;0.499833
4.40906;0.5;0.499833
4.41122;0.5;0.499833
4.41681;0.5;0.499833
4.42252;0.5;0.499833
4.42842;0.5;0.499833
4.43154;0.5;0.499833
4.43628;0.5;0.499833
4.44313;0.5;0.499833
4.4493;0.5;0.499833
4.45144;0.5;0.499833
4.45668;0.5;0.499833
4.46344;0.5;0.499833
4.46967;0.5;0.501449
4.47085;0.5;0.501449
4.47597;0.5;0.501449
4.48255;0.5;0.499833
4.48811;0.5;0.499833
4.49121;0.5;0.499833
4.49596;0.5;0.499833
4.50255;0.5;0.499833
4.50878;0;0.499833
4.51091;0;0.499833
4.51593;0;0.499833
4.5224;0;0.499833
4.52868;0;0.501449
4.53085;0;0.501449
4.53596;0;0.501449
4.54271;0;0.501449
4.54947;0;0.499833
4.55159;0;0.499833
4.55678;0.5;0.499833
4.56277;0.5;0.437384
4.56824;0.5;0.437384
4.57136;0.5;0.437384
4.57583;0.5;0.374951
4.58237;0.5;0.374951
4.58822;0.5;0.374951
4.59147;0.5;0.374951
4.5962;0.5;0.249998
4.60267;0.5;0.249998
4.60937;0.5;0.312495
4.61147;0.5;0.312495
4.61658;0.5;0.312495
4.624;0.5;0.312495
4.62943;0.5;0.374977
4.63156;0.5;0.374977
4.63679;0.5;0.374977
4.64313;0.5;0.43747
4.64872;0.5;0.43747
4.65087;0.5;0.43747
4.65576;0.5;0.49997
4.66237;0.5;0.49997
4.66802;0.5;0.49997
4.67113;0.5;0.49997
4.67612;0.5;0.49997
4.68279;0.5;0.49997
4.6893;0.5;0.49997
4.69145;0.5;0.49997
4.69674;0.5;0.49997
4.7024;0.5;0.49997
4.70889;0.5;0.500652
4.71104;0.5;0.500652
4.71615;0.5;0.500652
4.72239;0.5;0.49997
4.728;0.5;0.49997
4.73115;0.5;0.49997
4.73684;0.5;0.49997
4.7424;0.5;0.49997
4.74794;0.5;0.49997
4.75106;0.5;0.49997
4.75607;0;0.49997
4.7626;0;0.49997
4.76904;0;0.49997
4.77122;0;0.49997
4.77631;0;0.49997
4.78358;0;0.49997
4.78606;0;0.49997
4.79106;0;0.49997
4.79618;0;0.49997
4.80373;0;0.49997
4.80785;0;0.49997
4.81097;0;0.49997
4.81678;0;0.437459
4.82225;0;0.437459
4.82817;0;0.437459
4.83142;0;0.437459
4.83604;0;0.37492
4.84263;0;0.37492
4.84966;0;0.312336
4.85178;0;0.312336
4.85586;0.5;0.312336
4.8626;0.5;0.312336
4.86926;0.5;0.19031
4.87139;0.5;0.19031
4.87663;0.5;0.19031
4.88245;0.5;0.124765
4.88795;0.5;0.124765
4.89111;0.5;0.124765
4.89579;0.5;0.124705
4.90233;0.5;0.124705
4.90797;0.5;0.124705
4.9111;0.5;0.124705
4.9159;0.5;0.124685
4.92246;0.5;0.124685
4.92901;0.5;0.249406
4.93114;0.5;0.249406
4.93656;0.5;0.249406
4.94329;0.5;0.249406
4.94967;0.5;0.253395
4.95084;0.5;0.253395
4.95595;0;0.253395
4.96322;0;0.249685
4.96875;0;0.249685
4.97087;0;0.249685
4.9768;0;0.374727
4.98239;0;0.374727
4.98802;0;0.374727
4.99114;0;0.374727
4.99607;0;0.437299
5.00257;0;0.437299
5.00914;0.5;0.376553
5.01139;0.5;0.376553
5.0165;0.5;0.376553
5.02322;0.5;0.376553
5.0301;0.5;0.312378
5.0313;0.5;0.312378
5.03641;0.5;0.312378
5.04318;0.5;0.187394
5.04873;0.5;0.187394
5.05185;0.5;0.187394
5.05667;0.5;0.249817
5.06315;0.5;0.249817
5.06889;0.5;0.249817
5.07105;0.5;0.249817
5.07607;0.5;0.314676
5.08283;0.5;0.314676
5.08952;0.5;0.312321
5.09161;0.5;0.312321
5.09672;0.5;0.312321
5.10245;0.5;0.312321
5.10874;0.5;0.43733
5.11083;0.5;0.43733
5.11598;0.5;0.43733
5.12309;0.5;0.501443
5.12908;0.5;0.501443
5.13128;0.5;0.501443
5.13684;0.5;0.499834
5.14255;0.5;0.499834
5.1483;0.5;0.499834
5.1514;0.5;0.499834
5.15619;0;0.499834
5.16296;0;0.499834
5.1695;0;0.499834
5.17159;0;0.499834
5.17687;0;0.499834
5.18258;0;0.499834
5.18871;0;0.501443
5.19085;0;0.501443
5.19595;0;0.501443
5.20243;0;0.437322
5.20793;0.5;0.437322
5.21103;0.5;0.437322
5.21673;0.5;0.374765
5.22232;0.5;0.374765
5.22798;0.5;0.374765
5.23108;0.5;0.374765
5.23595;0.5;0.312153
5.24246;0.5;0.312153
5.24854;0.5;0.187125
5.25175;0.5;0.187125
5.25582;0.5;0.187125
5.26245;0.5;0.187125
5.269;0.5;0.254027
5.27109;0.5;0.254027
5.27617;0.5;0.254027
5.28387;0.5;0.249106
5.28783;0.5;0.249106
5.29099;0.5;0.249106
5.29684;0.5;0.373543
5.30248;0.5;0.373543
5.30803;0.5;0.373543
5.3112;0.5;0.373543
5.31597;0.5;0.441271
5.32249;0.5;0.441271
5.32846;0.5;0.441235
5.33157;0.5;0.441235
5.3368;0.5;0.441235
5.34236;0.5;0.441235
5.34915;0.5;0.498181
5.35125;0.5;0.498181
5.3565;0;0.498181
5.36266;0;0.503507
5.36825;0;0.503507
5.37147;0;0.503507
5.37582;0;0.503507
5.38253;0;0.503507
5.38822;0;0.503507
5.39135;0;0.503507
5.39625;0;0.498181
5.40288;0;0.498181
5.40898;0;0.503507
5.41107;0;0.503507
5.41632;0;0.503507
5.42285;0;0.503507
5.42966;0;0.441302
5.4308;0;0.441302
5.43592;0;0.441302
5.44314;0;0.373309
5.44873;0;0.373309
5.45083;0;0.373309
5.45681;0.5;0.317381
5.46245;0.5;0.317381
5.46807;0.5;0.317381
5.4712;0.5;0.317381
5.47604;0.5;0.186086
5.48257;0.5;0.186086
5.48852;0.5;0.194233
5.49172;0.5;0.194233
5.49685;0.5;0.194233
5.50237;0.5;0.194233
5.50954;0;0.123715
5.51166;0;0.123715
5.51677;0;0.123715
5.52416;0;0.247303
5.52891;0;0.247303
5.53102;0;0.247303
5.53675;0;0.256423
5.54255;0;0.256423
5.54854;0;0.256423
5.5518;0;0.256423
5.55612;0.5;0.380045
5.56262;0.5;0.380045
5.56818;0.5;0.380045
5.57146;0.5;0.379986
5.57661;0.5;0.379986
5.58372;0.5;0.379986
5.58898;0.5;0.256069
5.5911;0.5;0.256069
5.59635;0.5;0.256069
5.60275;0.5;0.194252
5.60862;0;0.194252
5.61081;0;0.194252
5.6159;0;0.194252
5.62306;0;0.18569
5.62929;0;0.18569
5.6314;0;0.18569
5.63635;0;0.256206
5.64315;0;0.256206
5.64938;0;0.317984
5.6515;0;0.317984
5.65669;0.5;0.317984
5.66237;0.5;0.317984
5.66935;0.5;0.317858
5.6716;0.5;0.317858
5.67671;0.5;0.317858
5.68278;0.5;0.193782
5.68837;0.5;0.193782
5.69146;0.5;0.193782
5.69608;0.5;0.131919
5.70272;0.5;0.131919
5.70849;0;0.131919
5.71162;0;0.131919
5.71673;0;0.19399
5.72229;0;0.19399
5.72828;0;0.19399
5.731;0;0.193898
5.7361;0;0.193898
5.74281;0;0.193898
5.74955;0;0.317722
5.75167;0;0.317722
5.75577;0;0.317722
5.76254;0;0.25546
5.76872;0;0.25546
5.77184;0;0.25546
5.77598;0;0.25546
5.78359;0;0.200244
5.78903;0;0.200244
5.79119;0;0.200244
5.79596;0;0.124196
5.80266;0;0.124196
5.80839;0.5;0.124196
5.81168;0.5;0.124185
5.8168;0.5;0.124185
5.82232;0.5;0.124185
5.82866;0.5;0.124186
5.83178;0.5;0.124186
5.83592;0.5;0.124186
5.84328;0.5;0.124186
5.84975;0.5;0.124186
5.85091;0.5;0.124186
5.85601;0;0.124186
5.86289;0;0.124186
5.86871;0;0.124186
5.87182;0;0.124186
5.87602;0;0.0690648
5.88261;0;0.0690648
5.88826;0;0.0690648
5.89155;0;0.124317
5.89577;0;0.124317
5.90231;0;0.124317
5.90921;0.5;0.130253
5.91148;0.5;0.130253
5.91659;0.5;0.130253
5.92293;0.5;0.186854
5.92986;0.5;0.186854
5.93098;0.5;0.186854
5.93674;0.5;0.186933
5.94271;0.5;0.186933
5.94868;0.5;0.186933
5.95181;0.5;0.186933
5.95619;0;0.191498
5.9627;0;0.191498
5.96854;0;0.124766
5.9718;0;0.124766
5.97592;0;0.124766
5.98254;0;0.124766
5.98904;0;0.252601
5.99116;0;0.252601
5.99627;0;0.252601
6.00292;0;0.252601
6.0099;0;0.249894
6.01105;0;0.249894
6.01619;0;0.249894
6.02277;0;0.251004
6.02965;0;0.251004
6.03081;0;0.251004
6.03634;0;0.187494
6.04338;0;0.187494
6.04937;0;0.124999
6.0515;0;0.124999
6.05664;0;0.124999
6.06393;0;0.124999
6.06897;0;0.124999
6.07109;0;0.124999
6.07634;0;0.124999
6.08318;0;0.124999
6.08953;0;0.124999
6.09179;0;0.124999
6.09589;0;0.124999
6.10295;0;0.124999
6.10937;0.5;0.124999
6.11146;0.5;0.124999
6.11665;0.5;0.124999
6.12399;0.5;0.124999
6.12866;0.5;0.124999
6.13109;0.5;0.124999
6.13633;0.5;0.124999
6.14302;0.5;0.124999
6.14948;0.5;0.124999
6.15176;0.5;0.124999
6.15587;0;0.124999
6.16264;0;0.124999
6.1687;0;0.125
6.17181;0;0.125
6.17576;0;0.124667
6.18246;0;0.124667
6.18817;0;0.124667
6.1913;0;0.124667
6.19635;0;0.187472
6.20286;0;0.187472
6.20983;0;0.187431
6.21101;0;0.187431
6.21612;0;0.187431
6.22284;0;0.187431
6.2296;0;0.187402
6.23169;0;0.187402
6.23682;0;0.187402
6.24253;0;0.187399
6.24817;0;0.187399
6.25129;0;0.187399
6.25609;0.5;0.187399
6.26282;0.5;0.187399
6.26855;0.5;0.187399
6.27176;0.5;0.187399
6.27629;0.5;0.187399
6.28301;0.5;0.187399
6.28975;0.5;0.187399
6.29084;0.5;0.187399
6.29592;0.5;0.187399
6.3026;0.5;0.187399
6.30944;0;0.187399
6.31153;0;0.187399
6.31676;0;0.187399
6.32307;0;0.124921
6.329;0;0.124921
6.33114;0;0.124921
6.33668;0;0.124887
6.34323;0;0.124887
6.34919;0;0.124887
6.3513;0;0.124887
6.35612;0.5;0.24963
6.36282;0.5;0.24963
6.36896;0.5;0.187113
6.37107;0.5;0.187113
6.37618;0.5;0.187113
6.38269;0.5;0.187113
6.38943;0.5;0.187046
6.39163;0.5;0.187046
6.39673;0.5;0.187046
6.40266;0.5;0.182235
6.40832;0.5;0.182235
6.41142;0.5;0.182235
6.41682;0.5;0.124535
6.42239;0.5;0.124535
6.42827;0.5;0.124535
6.43139;0.5;0.124535
6.43632;0.5;0.248705
6.44289;0.5;0.248705
6.44904;0.5;0.248244
6.45117;0.5;0.248244
6.45638;0;0.248244
6.46302;0;0.248244
6.47004;0;0.379979
6.47113;0;0.379979
6.4762;0;0.379979
6.48245;0;0.380084
6.48823;0;0.380084
6.49133;0;0.380084
6.49588;0;0.441929
6.50242;0;0.441929
6.50821;0.5;0.441929
6.51145;0.5;0.441929
6.51615;0.5;0.380132
6.52263;0.5;0.380132
6.52887;0.5;0.318294
6.53097;0.5;0.318294
6.53607;0.5;0.318294
6.54282;0.5;0.318294
6.54901;0.5;0.247558
6.5511;0.5;0.247558
6.55635;0;0.247558
6.56301;0;0.256092
6.56908;0;0.256092
6.57128;0;0.256092
6.57672;0;0.309808
6.58238;0;0.309808
6.58816;0;0.309808
6.59129;0;0.309808
6.59607;0;0.379991
6.60268;0;0.379991
6.60884;0;0.371524
6.61094;0;0.371524
6.61609;0;0.371524
6.62265;0;0.371524
6.62953;0;0.31805
6.63174;0;0.31805
6.63685;0;0.31805
6.64306;0;0.18599
6.64897;0;0.18599
6.65106;0;0.18599
6.65666;0;0.124143
6.66244;0;0.124143
6.66863;0;0.124143
6.67172;0;0.124143
6.67617;0;0.124229
6.68288;0;0.124229
6.68898;0;0.124242
6.69112;0;0.124242
6.69623;0;0.124242
6.70278;0;0.124242
6.70944;0.5;0.124242
6.71153;0.5;0.124242
6.71664;0.5;0.124242
6.7232;0.5;0.124242
6.7289;0.5;0.124242
6.73099;0.5;0.124242
6.73577;0.5;0.124242
6.7425;0.5;0.124242
6.74842;0.5;0.124242
6.75163;0.5;0.124242
6.75615;0.5;0.124242
6.76278;0.5;0.124242
6.76952;0.5;0.124203
6.77162;0.5;0.124203
6.77676;0.5;0.124203
6.78275;0.5;0.124203
6.78974;0.5;0.124102
6.79083;0.5;0.124102
6.79598;0.5;0.124102
6.80311;0.5;0.13213
6.80879;0;0.13213
6.81093;0;0.13213
6.81588;0;0.247245
6.82239;0;0.247245
6.8289;0;0.247245
6.83099;0;0.247245
6.83601;0;0.318528
6.84278;0;0.318528
6.84974;0;0.318528
6.85117;0;0.380138
6.85641;0;0.380138
6.86342;0;0.380138
6.87042;0;0.307047
6.87168;0;0.307047
6.87675;0;0.307047
6.88285;0;0.257324
6.88848;0;0.257324
6.89158;0;0.257324
6.89589;0;0.122732
6.90249;0;0.122732
6.90889;0.5;0.122732
6.91099;0.5;0.122732
6.9165;0.5;0.12284
6.92341;0.5;0.12284
6.93183;0.5;0.122883
6.93701;0.5;0.122883
6.94537;0.5;0.122883
6.95046;0.5;0.122883
6.95258;0.5;0.122883
6.95773;0.5;0.122883
6.96436;0.5;0.0730311
6.96899;0.5;0.0730311
6.97208;0.5;0.0730311
6.97791;0.5;0.0733698
6.98425;0.5;0.0733698
6.98887;0.5;0.0733698
6.99208;0.5;0.0733698
6.99703;0.5;0.244737
7.00484;0.5;0.244737
7.00987;0.5;0.244737
7.01237;0.5;0.257627
7.01748;0.5;0.257627
7.02581;0.5;0.257627
7.03145;0.5;0.318409
7.03257;0.5;0.318409
7.03776;0.5;0.318409
7.04479;0.5;0.318206
7.0491;0.5;0.318206
7.05235;0.5;0.318206
7.05767;0;0.394558
7.06486;0;0.394558
7.06925;0;0.394558
7.07201;0;0.454969
7.07715;0;0.454969
7.08511;0;0.454969
7.08951;0;0.515277
7.09265;0;0.515277
7.09694;0;0.515277
7.10425;0;0.515277
7.10925;0;0.515277
7.11253;0;0.515277
7.11764;0;0.515277
7.1243;0;0.454954
7.12862;0;0.454954
7.13274;0;0.454954
7.13783;0;0.3786
7.14435;0;0.3786
7.14906;0;0.3786
7.15216;0;0.272821
7.15741;0.5;0.272821
7.16483;0.5;0.272821
7.16926;0.5;0.182633
7.17252;0.5;0.182633
7.17766;0.5;0.182633
7.18497;0.5;0.182633
7.18995;0.5;0.196527
7.19216;0.5;0.196527
7.19727;0.5;0.196527
7.20402;0.5;0.196367
7.20829;0.5;0.196367
7.21241;0.5;0.196367
7.21789;0.5;0.122363
7.22418;0.5;0.122363
7.22886;0.5;0.122363
7.23212;0.5;0.122363
7.23746;0.5;0.196358
7.24483;0.5;0.196358
7.24946;0.5;0.257575
7.25259;0.5;0.257575
7.25779;0.5;0.257575
7.26445;0.5;0.257575
7.26975;0.5;0.318555
7.27288;0.5;0.318555
7.27714;0.5;0.318555
7.28489;0.5;0.318422
7.28889;0.5;0.318422
7.29215;0.5;0.318422
7.29767;0.5;0.439541
7.30478;0.5;0.439541
7.30912;0.5;0.439541
7.31215;0.5;0.454819
7.31726;0.5;0.454819
7.32463;0.5;0.454819
7.32923;0.5;0.515383
7.33235;0.5;0.515383
7.33761;0.5;0.515383
7.34507;0.5;0.515383
7.35043;0.5;0.454821
7.35261;0.5;0.454821
7.3578;0;0.454821
7.36463;0;0.515383
7.36872;0;0.515383
7.37286;0;0.515383
7.37784;0;0.515383
7.38414;0;0.515383
7.38831;0;0.515383
7.39209;0;0.515383
7.39731;0;0.515383
7.40448;0;0.515383
7.40909;0;0.454783
7.41233;0;0.454783
7.41744;0;0.454783
7.42472;0;0.454783
7.43053;0;0.318399
7.43261;0;0.318399
7.43771;0;0.318399
7.4449;0;0.318537
7.44909;0;0.318537
7.4522;0;0.318537
7.45726;0;0.196457
7.46452;0;0.196457
7.46869;0;0.196457
7.47193;0;0.196457
7.47708;0;0.134902
7.4844;0;0.134902
7.48894;0;0.122702
7.49206;0;0.122702
7.49719;0;0.122702
7.50455;0;0.122702
7.50993;0.5;0.122748
7.51206;0.5;0.122748
7.51729;0.5;0.122748
7.52498;0.5;0.122748
7.53011;0.5;0.122748
7.53227;0.5;0.122748
7.53765;0.5;0.122748
7.54538;0.5;0.122748
7.54976;0.5;0.122748
7.55288;0.5;0.122748
7.55744;0.5;0.122748
7.56478;0.5;0.122748
7.56931;0.5;0.122683
7.57243;0.5;0.122683
7.57773;0.5;0.122683
7.58401;0.5;0.122683
7.58889;0.5;0.122513
7.59226;0.5;0.122513
7.5974;0.5;0.122513
7.60429;0.5;0.196445
7.60875;0;0.196445
7.61286;0;0.196445
7.61775;0;0.243509
7.6241;0;0.243509
7.6291;0;0.243509
7.63221;0;0.243509
7.63767;0;0.318321
7.64528;0;0.318321
7.64981;0;0.334071
7.65202;0;0.334071
7.65724;0.5;0.334071
7.66453;0.5;0.334071
7.66952;0.5;0.31792
7.67265;0.5;0.31792
7.67776;0.5;0.31792
7.68331;0.5;0.257606
7.68902;0.5;0.257606
7.69214;0.5;0.257606
7.69793;0.5;0.197384
7.70431;0.5;0.197384
7.70919;0.5;0.197384
7.71245;0.5;0.197384
7.71782;0.5;0.120442
7.72441;0.5;0.120442
7.72907;0.5;0.257573
7.73219;0.5;0.257573
7.73731;0.5;0.257573
7.74483;0.5;0.257573
7.74988;0.5;0.317462
7.752;0.5;0.317462
7.75726;0;0.317462
7.7642;0;0.376937
7.76818;0;0.376937
7.77243;0;0.376937
7.77712;0;0.395216
7.78476;0;0.395216
7.78909;0;0.395216
7.79215;0;0.473664
7.79724;0;0.473664
7.8046;0;0.473664
7.80986;0;0.514425
7.81195;0;0.514425
7.81722;0;0.514425
7.82474;0;0.514425
7.82976;0;0.454864
7.83195;0;0.454864
7.83706;0;0.454864
7.84483;0;0.335389
7.84903;0;0.335389
7.85216;0;0.335389
7.85778;0;0.317467
7.86426;0;0.317467
7.86847;0;0.317467
7.87207;0;0.197366
7.87729;0;0.197366
7.88453;0;0.197366
7.88901;0;0.13675
7.89221;0;0.13675
7.89728;0;0.13675
7.90447;0;0.13675
7.90989;0;0.121161
7.91201;0;0.121161
7.91712;0;0.121161
7.92465;0;0.121223
7.92867;0;0.121223
7.9328;0;0.121223
7.93709;0;0.121223
7.94444;0;0.121223
7.94864;0;0.121223
7.95215;0;0.121223
7.95732;0.5;0.121223
7.96468;0.5;0.121223
7.96921;0.5;0.121223
7.97231;0.5;0.121223
7.9774;0.5;0.121223
7.98492;0.5;0.121223
7.98967;0.5;0.121223
7.99283;0.5;0.121223
7.99707;0.5;0.121223
8.00439;0.5;0.121223
8.00853;0;0.121223
8.01282;0;0.121223
8.01784;0;0.121138
8.02402;0;0.121138
8.02844;0;0.121138
8.03206;0;0.136758
8.03719;0;0.136758
8.04459;0;0.136758
8.04914;0;0.180802
8.05231;0;0.180802
8.05752;0;0.180802
8.06494;0;0.180802
8.06991;0;0.197453
8.07216;0;0.197453
8.07727;0;0.197453
8.08458;0;0.197496
8.08906;0;0.197496
8.09217;0;0.197496
8.09728;0;0.1975
8.10469;0;0.1975
8.10915;0;0.1975
8.11228;0;0.1975
8.11782;0;0.1975
8.12412;0;0.1975
8.12906;0;0.1975
8.13232;0;0.1975
8.13741;0;0.1975
8.14497;0;0.1975
8.14987;0;0.1975
8.15209;0;0.1975
8.15725;0.5;0.1975
8.16429;0.5;0.1975
8.16845;0.5;0.1975
8.17256;0.5;0.1975
8.17705;0.5;0.1975
8.1843;0.5;0.1975
8.18863;0.5;0.1975
8.19222;0.5;0.1975
8.19732;0.5;0.1975
8.20452;0.5;0.1975
8.20914;0;0.119903
8.21228;0;0.119903
8.21739;0;0.119903
8.22526;0;0.119903
8.23096;0;0.119654
8.23207;0;0.119654
8.23727;0;0.119654
8.24503;0;0.257224
8.24902;0;0.257224
8.25227;0;0.257224
8.25778;0.5;0.256927
8.26415;0.5;0.256927
8.26828;0.5;0.256927
8.27201;0.5;0.197621
8.27714;0.5;0.197621
8.28458;0.5;0.197621
8.28974;0.5;0.197581
8.29286;0.5;0.197581
8.29712;0.5;0.197581
8.30448;0.5;0.197581
8.30942;0.5;0.197556
8.31269;0.5;0.197556
8.3178;0.5;0.197556
8.32485;0.5;0.117168
8.32915;0.5;0.117168
8.33231;0.5;0.117168
8.33765;0.5;0.116776
8.34399;0.5;0.116776
8.34807;0.5;0.116776
8.35189;0.5;0.255399
8.35713;0.5;0.255399
8.36445;0.5;0.255399
8.36886;0.5;0.254813
8.37216;0.5;0.254813
8.37733;0.5;0.254813
8.38467;0.5;0.254813
8.39014;0.5;0.336434
8.39227;0.5;0.336434
8.39734;0.5;0.336434
8.40436;0.5;0.336307
8.40838;0;0.336307
8.41251;0;0.336307
8.41779;0;0.418979
8.42393;0;0.418979
8.42852;0;0.418979
8.43231;0;0.475848
8.43742;0;0.475848
8.44473;0;0.475848
8.44953;0;0.558681
8.45263;0;0.558681
8.45781;0.5;0.558681
8.4645;0.5;0.558681
8.4696;0.5;0.418969
8.47273;0.5;0.418969
8.47694;0.5;0.418969
8.48489;0.5;0.393402
8.48899;0.5;0.393402
8.49223;0.5;0.393402
8.49786;0.5;0.279072
8.50432;0.5;0.279072
8.50864;0;0.279072
8.51212;0;0.278904
8.51724;0;0.278904
8.52471;0;0.278904
8.52922;0;0.394296
8.53232;0;0.394296
8.53758;0;0.394296
8.545;0;0.394296
8.54992;0;0.418188
8.55212;0;0.418188
8.55731;0.5;0.418188
8.56435;0.5;0.394345
8.5686;0.5;0.394345
8.57272;0.5;0.394345
8.57764;0.5;0.336569
8.58481;0.5;0.336569
8.58896;0.5;0.336569
8.59194;0.5;0.255527
8.59722;0.5;0.255527
8.60452;0.5;0.255527
8.60895;0.5;0.278172
8.61222;0.5;0.278172
8.61733;0.5;0.278172
8.62483;0.5;0.278172
8.62971;0.5;0.336511
8.6319;0.5;0.336511
8.63702;0.5;0.336511
8.64419;0.5;0.39497
8.6483;0.5;0.39497
8.65243;0.5;0.39497
8.65777;0.5;0.45331
8.66403;0.5;0.45331
8.66829;0.5;0.45331
8.67202;0.5;0.475605
8.67718;0.5;0.475605
8.68471;0.5;0.475605
8.6895;0.5;0.53399
8.6926;0.5;0.53399
8.69771;0.5;0.53399
8.70438;0.5;0.53399
8.709;0.5;0.475605
8.71209;0.5;0.475605
8.71735;0.5;0.475605
8.72502;0.5;0.53399
8.72938;0.5;0.53399
8.73263;0.5;0.53399
8.73773;0.5;0.475605
8.74422;0.5;0.475605
8.74852;0.5;0.475605
8.7521;0.5;0.53399
8.75731;0;0.53399
8.7648;0;0.53399
8.76926;0;0.453301
8.77239;0;0.453301
8.7777;0;0.453301
8.78503;0;0.453301
8.7902;0;0.475605
8.79233;0;0.475605
8.79744;0;0.475605
8.80487;0;0.475551
8.80897;0.5;0.475551
8.81207;0.5;0.475551
8.81777;0.5;0.395063
8.82397;0.5;0.395063
8.82851;0.5;0.395063
8.83222;0.5;0.256444
8.83746;0.5;0.256444
8.84481;0.5;0.256444
8.84945;0.5;0.197639
8.85271;0.5;0.197639
8.8579;0.5;0.197639
8.86454;0.5;0.197639
8.86964;0.5;0.27641
8.87277;0.5;0.27641
8.87788;0.5;0.27641
8.88507;0.5;0.257212
8.88927;0.5;0.257212
8.89239;0.5;0.257212
8.89779;0.5;0.395212
8.90424;0.5;0.395212
8.90848;0;0.395212
8.91214;0;0.395222
8.91725;0;0.395222
8.92467;0;0.395222
8.92962;0;0.454839
8.93272;0;0.454839
8.93783;0;0.454839
8.94438;0;0.454839
8.94932;0;0.514447
8.95241;0;0.514447
8.95762;0.5;0.514447
8.96499;0.5;0.473501
8.96957;0.5;0.473501
8.9728;0.5;0.473501
8.97774;0.5;0.37693
8.98427;0.5;0.37693
8.98839;0.5;0.37693
8.99197;0.5;0.27502
8.99708;0.5;0.27502
9.00449;0.5;0.27502
9.00895;0.5;0.197358
9.01205;0.5;0.197358
9.0173;0.5;0.197358
9.0247;0.5;0.197358
9.02981;0.5;0.257681
9.03201;0.5;0.257681
9.0371;0.5;0.257681
9.04487;0.5;0.257694
9.04909;0.5;0.257694
9.05218;0.5;0.257694
9.05759;0.5;0.379023
9.06416;0.5;0.379023
9.06852;0.5;0.379023
9.07199;0.5;0.394098
9.07725;0.5;0.394098
9.08543;0.5;0.394098
9.08978;0.5;0.515388
9.092;0.5;0.515388
9.09709;0.5;0.515388
9.10435;0.5;0.515388
9.10941;0.5;0.515388
9.11252;0.5;0.515388
9.11763;0.5;0.515388
9.12415;0.5;0.500189
9.12869;0.5;0.500189
9.13282;0.5;0.500189
9.13698;0.5;0.454764
9.14431;0.5;0.454764
9.14853;0.5;0.454764
9.15218;0.5;0.515388
9.15739;0.5;0.515388
9.16479;0.5;0.515388
9.16955;0.5;0.515388
9.17265;0.5;0.515388
9.17778;0.5;0.515388
9.18441;0.5;0.515388
9.18902;0.5;0.515388
9.19226;0.5;0.515388
9.19753;0.5;0.515388
9.20439;0.5;0.454764
9.20865;0;0.454764
9.21289;0;0.454764
9.21696;0;0.515388
9.22438;0;0.515388
9.22883;0;0.515388
9.23192;0;0.515388
9.23763;0;0.515388
9.24412;0;0.515388
9.24888;0;0.515388
9.25197;0;0.515388
9.25724;0;0.515388
9.26487;0;0.515388
9.26961;0;0.454721
9.27285;0;0.454721
9.27696;0;0.454721
9.28444;0;0.318452
9.28856;0;0.318452
9.29269;0;0.318452
9.29765;0;0.318574
9.30391;0;0.318574
9.30814;0;0.318574
9.31293;0;0.196368
9.31723;0;0.196368
9.32461;0;0.196368
9.32952;0;0.122623
9.33272;0;0.122623
9.33783;0;0.122623
9.34453;0;0.122623
9.34955;0;0.134478
9.35271;0;0.134478
9.35791;0;0.134478
9.36447;0;0.134404
9.36853;0;0.134404
9.37265;0;0.134404
9.37704;0;0.134404
9.38435;0;0.134404
9.38843;0;0.134404
9.39218;0;0.134404
9.39729;0;0.134404
9.40453;0;0.134404
9.40921;0.5;0.134404
9.41231;0.5;0.134404
9.41742;0.5;0.134404
9.42541;0.5;0.134404
9.43073;0.5;0.134404
9.43282;0.5;0.134404
9.43705;0.5;0.134404
9.44495;0.5;0.134404
9.4493;0.5;0.134404
9.45254;0.5;0.134404
9.45765;0.5;0.134404
9.46489;0.5;0.134404
9.46904;0.5;0.134404
9.47191;0.5;0.134509
9.47705;0.5;0.134509
9.4843;0.5;0.134509
9.48862;0.5;0.122612
9.49272;0.5;0.122612
9.49698;0.5;0.122612
9.50434;0.5;0.122612
9.50969;0;0.183474
9.51197;0;0.183474
9.51707;0;0.183474
9.52533;0;0.257639
9.53054;0;0.257639
9.53264;0;0.257639
9.53783;0;0.31838
9.54422;0;0.31838
9.54845;0;0.31838
9.55205;0;0.257684
9.55729;0.5;0.257684
9.56455;0.5;0.257684
9.56899;0.5;0.197291
9.5722;0.5;0.197291
9.57736;0.5;0.197291
9.58483;0.5;0.197291
9.58995;0.5;0.120616
9.59216;0.5;0.120616
9.59726;0.5;0.120616
9.60452;0.5;0.120627
9.60867;0;0.120627
9.6128;0;0.120627
9.61773;0;0.120522
9.62404;0;0.120522
9.62828;0;0.120522
9.632;0;0.180415
9.63707;0;0.180415
9.64448;0;0.180415
9.64886;0;0.197529
9.65195;0;0.197529
9.65716;0;0.197529
9.66463;0;0.197529
9.66956;0;0.197587
9.67265;0;0.197587
9.67786;0;0.197587
9.68503;0;0.19761
9.68946;0;0.19761
9.69271;0;0.19761
9.69694;0;0.119259
9.70457;0;0.119259
9.70887;0.5;0.119259
9.71196;0.5;0.119259
9.71754;0.5;0.119259
9.72515;0.5;0.119259
9.73091;0.5;0.119259
9.732;0.5;0.119259
9.73724;0.5;0.119259
9.74463;0.5;0.119259
9.74943;0.5;0.119259
9.7527;0.5;0.119259
9.75791;0.5;0.119259
9.76481;0.5;0.119155
9.76888;0.5;0.119155
9.77197;0.5;0.119155
9.77768;0.5;0.11889
9.78456;0.5;0.11889
9.78972;0.5;0.11889
9.79189;0.5;0.197641
9.79722;0.5;0.197641
9.80477;0.5;0.197641
9.80948;0;0.1976
9.81268;0;0.1976
9.81779;0;0.1976
9.82432;0;0.1976
9.82929;0;0.3365
9.83243;0;0.3365
9.83753;0;0.3365
9.84481;0;0.336563
9.84911;0;0.336563
9.85221;0;0.336563
9.85766;0.5;0.336573
9.87032;0.5;0.336573
9.87841;0.5;0.336573
9.88057;0.5;0.336573
9.88743;0.5;0.255159
9.89205;0.5;0.255159
9.89618;0.5;0.13932
9.90035;0.5;0.13932
9.91038;0;0.116073
9.91553;0;0.116073
9.92062;0;0.0811871
9.93068;0;0.0811871
9.9357;0;0.116
9.94081;0;0.116
9.94892;0;0.116
9.95104;0;0.116
9.95649;0.5;0.278739
9.9618;0.5;0.278739
9.97;0.5;0.197102
9.97112;0.5;0.197102
9.97642;0.5;0.197102
9.98151;0.5;0.197102
9.98973;0.5;0.115258
9.99089;0.5;0.115258
9.996;0.5;0.115258
10.0017;0.5;0.197038
10.0091;0.5;0.197038
10.0113;0.5;0.197038
10.0158;0.5;0.196924
10.021;0.5;0.196924
10.0288;0.5;0.196924
10.0309;0.5;0.196924
10.0366;0.5;0.253805
10.0417;0.5;0.253805
10.0504;0.5;0.336138
10.0516;0.5;0.336138
10.0557;0;0.336138
10.0608;0;0.336138
10.0694;0;0.419159
10.0715;0;0.419159
10.0766;0;0.419159
10.0808;0;0.419159
10.089;0;0.419205
10.0911;0;0.419205
10.096;0;0.475535
10.1012;0;0.475535
10.1089;0.5;0.475535
10.111;0.5;0.475535
10.1167;0.5;0.419195
10.1208;0.5;0.419195
10.1292;0.5;0.419195
10.1315;0.5;0.419133
10.1366;0.5;0.419133
10.1407;0.5;0.419133
10.1498;0.5;0.279322
10.1509;0.5;0.279322
10.156;0.5;0.279322
10.1612;0.5;0.279322
10.1692;0.5;0.279208
10.1715;0.5;0.279208
10.1766;0.5;0.279208
10.181;0.5;0.39368
10.1887;0.5;0.39368
10.1909;0.5;0.39368
10.1967;0.5;0.418692
10.2008;0.5;0.418692
10.2087;0;0.475973
10.2108;0;0.475973
10.216;0;0.475973
10.2211;0;0.475973
10.2301;0;0.533236
10.2313;0;0.533236
10.2364;0;0.533236
10.2416;0;0.475973
10.2496;0;0.475973
10.2517;0;0.475973
10.2558;0.5;0.475973
10.2617;0.5;0.475981
10.2693;0.5;0.475981
10.2714;0.5;0.475981
10.2761;0.5;0.360981
10.2813;0.5;0.360981
10.289;0.5;0.254954
10.2911;0.5;0.254954
10.2962;0.5;0.254954
10.3013;0.5;0.254954
10.3098;0;0.336573
10.3109;0;0.336573
10.3161;0;0.336573
10.3207;0;0.336569
10.33;0;0.336569
10.3311;0;0.336569
10.3363;0;0.336569
10.3408;0;0.475772
10.3489;0;0.475772
10.3511;0;0.475772
10.356;0.5;0.475784
10.3612;0.5;0.475784
10.3691;0.5;0.452967
10.3712;0.5;0.452967
10.3763;0.5;0.452967
10.3816;0.5;0.452967
10.3895;0.5;0.336538
10.3916;0.5;0.336538
10.3958;0.5;0.336538
10.4008;0.5;0.33646
10.4087;0;0.33646
10.4109;0;0.33646
10.416;0;0.33646
10.4213;0;0.277536
10.4295;0;0.277536
10.4316;0;0.277536
10.4364;0;0.395223
10.4416;0;0.395223
10.4494;0;0.395226
10.4516;0;0.395226
10.4557;0;0.395226
10.4608;0;0.395226
10.4692;0;0.454205
10.4715;0;0.454205
10.4766;0;0.454205
10.4808;0;0.336179
10.4885;0;0.336179
10.4916;0;0.336179
10.4967;0;0.197642
10.5008;0;0.197642
10.509;0;0.197642
10.5111;0;0.197642
10.5157;0;0.197623
10.5208;0;0.197623
10.5292;0;0.119492
10.5315;0;0.119492
10.5366;0;0.119492
10.5417;0;0.119492
10.55;0;0.11965
10.5512;0;0.11965
10.5564;0;0.11965
10.5611;0;0.0779052
10.5687;0;0.0779052
10.5709;0;0.0779052
10.576;0;0.0779052
10.581;0;0.0779052
10.5887;0;0.0779052
10.5909;0;0.0779052
10.5967;0;0.0779052
10.6008;0;0.0779052
10.6089;0;0.0779052
10.611;0;0.0779052
10.6162;0;0.0779052
10.6214;0;0.0779052
10.63;0;0.0779052
10.6312;0;0.0779052
10.6364;0;0.0779052
10.6411;0;0.0779052
10.649;0;0.0779052
10.6512;0;0.0779052
10.6564;0.5;0.0779052
10.661;0.5;0.0779052
10.6684;0.5;0.0779052
10.6716;0.5;0.0779052
10.6759;0.5;0.0779052
10.681;0.5;0.0779052
10.6893;0.5;0.0779052
10.6914;0.5;0.0779052
10.6967;0.5;0.0779052
10.7009;0.5;0.0779052
10.7096;0;0.0779052
10.7108;0;0.0779052
10.7159;0;0.0779052
10.721;0;0.0779052
10.7297;0;0.0780205
10.7308;0;0.0780205
10.7366;0;0.1193
10.7407;0;0.1193
10.7495;0;0.1193
10.7516;0;0.1193
10.7561;0;0.0785173
10.7613;0;0.0785173
10.7693;0;0.0785488
10.7715;0;0.0785488
10.7767;0;0.0785488
10.7808;0;0.0785488
10.79;0;0.0405289
10.7912;0;0.0405289
10.7963;0;0.0405289
10.8009;0;0.0405289
10.8089;0.5;0.0405289
10.811;0.5;0.0405289
10.8162;0.5;0.0405289
10.821;0.5;0.0405289
10.8289;0.5;0.0405289
10.831;0.5;0.0405289
10.8358;0.5;0.0405289
10.8409;0.5;0.0405289
10.8493;0.5;0.0405289
10.8514;0.5;0.0405289
10.8566;0.5;0.0405289
10.8608;0.5;0.0405289
10.8695;0.5;0.0403109
10.8716;0.5;0.0403109
10.8757;0.5;0.0403109
10.8811;0.5;0.138291
10.889;0.5;0.138291
10.8911;0.5;0.138291
10.8967;0.5;0.197634
10.901;0.5;0.197634
10.9086;0.5;0.197634
10.9107;0.5;0.197634
10.9166;0.5;0.197577
10.9207;0.5;0.197577
10.9284;0.5;0.197577
10.9316;0.5;0.33653
10.9357;0.5;0.33653
10.9408;0.5;0.33653
10.9491;0.5;0.336571
10.9513;0.5;0.336571
10.9565;0;0.336571
10.9616;0;0.394463
10.9696;0;0.394463
10.9717;0;0.394463
10.9758;0;0.394463
10.981;0;0.475936
10.9886;0;0.475936
10.9917;0;0.475936
10.9966;0;0.475938
11.0017;0;0.475938
11.0093;0.5;0.475938
11.0107;0.5;0.475918
11.0158;0.5;0.475918
11.0209;0.5;0.475918
11.0292;0.5;0.394585
11.0313;0.5;0.394585
11.0364;0.5;0.394585
11.0416;0.5;0.394585
11.0501;0.5;0.278275
11.0512;0.5;0.278275
11.0565;0.5;0.278275
11.0608;0.5;0.255996
11.0687;0.5;0.255996
11.0708;0.5;0.255996
11.0762;0.5;0.395073
11.0814;0.5;0.395073
11.0896;0.5;0.416748
11.0917;0.5;0.416748
11.0959;0.5;0.416748
11.101;0.5;0.416748
11.109;0;0.51228
11.1111;0;0.51228
11.1163;0;0.51228
11.1214;0;0.51228
11.1301;0;0.47539
11.1312;0;0.47539
11.1367;0;0.533996
11.1408;0;0.533996
11.1489;0;0.533996
11.151;0;0.533996
11.1562;0;0.47539
11.1614;0;0.47539
11.1693;0;0.453769
11.1714;0;0.453769
11.1767;0;0.453769
11.1808;0;0.453769
11.189;0;0.395176
11.1912;0;0.395176
11.1963;0;0.395176
11.2016;0;0.277144
11.2094;0.5;0.277144
11.2115;0.5;0.277144
11.2159;0.5;0.19764
11.221;0.5;0.19764
11.229;0.5;0.19764
11.2311;0.5;0.19764
11.2366;0.5;0.137989
11.2417;0.5;0.137989
11.2504;0.5;0.119519
11.2515;0.5;0.119519
11.2567;0;0.119519
11.2608;0;0.119519
11.2695;0;0.119603
11.2715;0;0.119603
11.2766;0;0.119603
11.2813;0;0.257347
11.2888;0;0.257347
11.2909;0;0.257347
11.2961;0;0.19761
11.3012;0;0.19761
11.3088;0;0.19761
11.3109;0;0.19761
11.3165;0;0.257161
11.3216;0;0.257161
11.3308;0;0.257161
11.3362;0;0.119031
11.3433;0;0.119031
11.3504;0;0.0784934
11.3514;0;0.0784934
11.3567;0.5;0.0784934
11.3632;0.5;0.0784754
11.3689;0.5;0.0784754
11.3711;0.5;0.0784754
11.3762;0.5;0.0784754
11.3829;0.5;0.0784754
11.3889;0.5;0.0784754
11.391;0.5;0.0784754
11.3964;0.5;0.0784754
11.4032;0.5;0.0784754
11.4097;0;0.0784754
11.4118;0;0.0784754
11.4159;0;0.0784754
11.4226;0;0.0784754
11.4302;0;0.0785874
11.4314;0;0.0785874
11.4365;0;0.0785874
11.4433;0;0.118774
11.4492;0;0.118774
11.4513;0;0.118774
11.4566;0;0.138356
11.4625;0;0.138356
11.4687;0;0.138356
11.4708;0;0.138356
11.4766;0;0.138371
11.4833;0;0.138371
11.4896;0;0.138371
11.4908;0;0.138371
11.4958;0;0.138371
11.5025;0;0.138371
11.5096;0.5;0.138371
11.5117;0.5;0.138371
11.5168;0.5;0.138371
11.5225;0.5;0.138371
11.5289;0.5;0.138371
11.531;0.5;0.138371
11.5358;0.5;0.138371
11.5427;0.5;0.138371
11.5487;0.5;0.138371
11.5509;0.5;0.138371
11.5561;0.5;0.138371
11.5628;0.5;0.138371
11.5691;0.5;0.138425
11.5712;0.5;0.138425
11.5763;0.5;0.138425
11.5831;0.5;0.138425
11.5894;0.5;0.118151
11.5915;0.5;0.118151
11.5967;0.5;0.118151
11.603;0.5;0.197592
11.6094;0;0.197592
11.6116;0;0.197592
11.6167;0;0.197592
11.6226;0;0.255956
11.6294;0;0.255956
11.6315;0;0.255956
11.6365;0;0.27849
11.6433;0;0.27849
11.6498;0;0.336553
11.6509;0;0.336553
11.6561;0;0.336553
11.6628;0;0.336553
11.6697;0;0.336511
11.6709;0;0.336511
11.676;0;0.336511
11.6831;0;0.254445
11.6891;0;0.254445
11.6912;0;0.254445
11.6963;0;0.254445
11.7042;0;0.1395
11.7091;0;0.1395
11.7112;0;0.1395
11.7158;0;0.13946
11.7226;0;0.13946
11.7297;0;0.139443
11.7309;0;0.139443
11.736;0;0.139443
11.743;0;0.139443
11.75;0;0.139443
11.7512;0;0.139443
11.7564;0;0.139443
11.7631;0;0.139443
11.7688;0;0.139443
11.771;0;0.139443
11.7759;0;0.139443
11.7827;0;0.139443
11.789;0;0.139443
11.7911;0;0.139443
11.7963;0;0.139443
11.8031;0;0.139443
11.8097;0;0.139443
11.811;0;0.139443
11.8161;0;0.139443
11.823;0;0.139443
11.8296;0;0.139443
11.8317;0;0.139443
11.8359;0;0.139443
11.8433;0;0.139443
11.8494;0;0.139443
11.8517;0;0.139443
11.8568;0;0.139443
11.8625;0;0.139443
11.8686;0;0.139443
11.8717;0;0.139443
11.8762;0;0.139443
11.8831;0;0.139443
11.8895;0;0.139443
11.8916;0;0.139443
11.8968;0;0.139443
11.9025;0;0.139443
11.9098;0.5;0.139443
11.9109;0.5;0.139443
11.9161;0.5;0.139443
11.9227;0.5;0.139443
11.9288;0.5;0.139443
11.931;0.5;0.139443
11.9367;0.5;0.139443
11.9425;0.5;0.139443
11.9486;0.5;0.139443
11.9518;0.5;0.139443
11.9562;0.5;0.139468
11.963;0.5;0.139468
11.9694;0.5;0.139527
11.9717;0.5;0.139527
11.9769;0.5;0.139527
11.9828;0.5;0.139527
11.9902;0.5;0.196718
11.9913;0.5;0.196718
11.9964;0.5;0.196718
12.0028;0.5;0.19637
12.0088;0.5;0.19637
12.0109;0.5;0.19637
12.0168;0.5;0.335704
12.0224;0.5;0.335704
12.0289;0.5;0.335704
12.031;0.5;0.335704
12.0363;0.5;0.363411
12.0431;0.5;0.363411
12.0497;0.5;0.41924
12.0518;0.5;0.41924
12.0559;0;0.41924
12.0626;0;0.41924
12.0699;0;0.419219
12.071;0;0.419219
12.0761;0;0.419219
12.0831;0;0.503476
12.0897;0;0.503476
12.0908;0;0.503476
12.0959;0;0.474695
12.1026;0;0.474695
12.1088;0.5;0.474695
12.1109;0.5;0.474695
12.1164;0.5;0.503418
12.1233;0.5;0.503418
12.1313;0.5;0.335257
12.1366;0.5;0.335257
12.1434;0.5;0.335257
12.1503;0.5;0.279503
12.1515;0.5;0.279503
12.1567;0;0.279503
12.1635;0;0.33582
12.1694;0;0.33582
12.1715;0;0.33582
12.1767;0;0.362669
12.1842;0;0.362669
12.1884;0;0.362669
12.1915;0;0.362669
12.1972;0;0.419159
12.2047;0;0.419159
12.2096;0;0.419146
12.2118;0;0.419146
12.2169;0;0.419146
12.2246;0;0.419146
12.2304;0;0.336084
12.2315;0;0.336084
12.2366;0;0.336084
12.2433;0;0.253579
12.2493;0;0.253579
12.2514;0;0.253579
12.2567;0.5;0.139553
12.2635;0.5;0.139553
12.2695;0.5;0.139553
12.2718;0.5;0.139473
12.2769;0.5;0.139473
12.2845;0.5;0.139473
12.2889;0.5;0.139434
12.292;0.5;0.139434
12.2971;0.5;0.139434
12.3047;0.5;0.139434
12.3097;0;0.139433
12.3118;0;0.139433
12.317;0;0.139433
12.3231;0;0.0818557
12.3306;0;0.0818557
12.3318;0;0.0818557
12.3367;0;0.11487
12.3447;0;0.11487
12.3493;0;0.11487
12.3524;0;0.139603
12.3566;0;0.139603
12.3645;0;0.139603
12.3689;0;0.196553
12.372;0;0.196553
12.3773;0;0.196553
12.3829;0;0.196553
12.3894;0;0.196445
12.3916;0;0.196445
12.3967;0;0.196445
12.4047;0;0.196435
12.4094;0;0.196435
12.4115;0;0.196435
12.417;0;0.196435
12.4249;0;0.196435
12.4293;0;0.196435
12.4323;0;0.196435
12.4365;0;0.196435
12.4433;0;0.196435
12.4496;0;0.196435
12.4519;0;0.196435
12.457;0.5;0.196435
12.4662;0.5;0.196435
12.471;0.5;0.196435
12.4722;0.5;0.196435
12.4774;0.5;0.196435
12.4845;0.5;0.196435
12.4888;0.5;0.196435
12.4919;0.5;0.196435
12.4971;0.5;0.196435
12.5048;0.5;0.196435
12.5098;0.5;0.196435
12.512;0.5;0.196435
12.5166;0.5;0.139697
12.5232;0.5;0.139697
12.5313;0.5;0.139722
12.5314;0.5;0.139722
12.5365;0.5;0.139722
12.5434;0.5;0.139722
12.5501;0.5;0.252087
12.5522;0.5;0.252087
12.5565;0.5;0.252087
12.5634;0.5;0.2238
12.5693;0.5;0.2238
12.5716;0.5;0.2238
12.5769;0.5;0.334636
12.5847;0.5;0.334636
12.5892;0.5;0.334636
12.5922;0.5;0.36415
12.5973;0.5;0.36415
12.6031;0.5;0.36415
12.6103;0;0.36426
12.6124;0;0.36426
12.6166;0;0.36426
12.6233;0;0.36426
12.6307;0;0.503883
12.6319;0;0.503883
12.637;0;0.503883
12.6432;0;0.473154
12.6493;0;0.473154
12.6514;0;0.473154
12.6566;0;0.449369
12.6643;0;0.449369
12.6687;0;0.449369
12.6717;0;0.449369
12.6772;0;0.3642
12.6848;0;0.3642
12.6895;0;0.279388
12.6917;0;0.279388
12.6968;0;0.279388
12.7045;0;0.279388
12.7098;0;0.223957
12.7119;0;0.223957
12.717;0;0.223957
12.7235;0;0.139754
12.7296;0;0.139754
12.7317;0;0.139754
12.7368;0;0.112202
12.7444;0;0.112202
12.7486;0;0.112202
12.7519;0;0.112202
