Time (s);Vsent (rad/s);Vmeasured (rad/s)0.15;0;0
0.3;0;0.000193715
0.45;0;0
0.6;0;0
0.75;0;0
0.9;0;0
1.05;0;0
1.2;0;0
1.35;1;1.00002
1.5;0;0
1.65;1;1.00002
1.8;1;1.00002
1.95;0;0
2.1;0;0
2.25;0;0
2.4;1;1.00002
2.55;1;1.00002
2.7;1;1.00003
2.85;1;1.00002
3;0;0
3.15;1;1.00002
3.3;0;0
3.45;0;0
3.6;0;0
3.75;0;0
3.9;1;1.00002
4.05;1;1.00002
4.2;1;1.00002
4.35;1;1.00003
4.5;1;1.00002
4.65;1;1.00003
4.8;1;1.00002
4.95;1;1.00003
5.1;0;0
5.25;0;0
5.4;1;1.00002
5.55;0;0
5.7;0;0
5.85;0;0
6;0;0
6.15;1;1.00002
6.3;0;0
6.45;1;1.00002
6.6;0;0
6.75;0;0
6.9;1;1.00002
7.05;1;1.00002
7.2;1;1.00002
7.35;1;1.00002
7.5;1;1.00002
7.65;0;0
7.8;1;1.00002
7.95;0;0
8.1;1;1.00002
8.25;0;0
8.4;1;1.00002
8.55;0;0
8.7;1;1.00002
8.85;1;1.00002
9;1;1.00002
9.15;0;0
9.3;0;0
9.45;0;0
9.6;0;0
9.75;0;0
9.9;1;1.00002
10.05;1;1.00002
10.2;0;0
10.35;0;0
10.5;0;0
10.65;1;1.00002
10.8;0;0
10.95;1;1.00002
11.1;0;-4.65661e-07
11.25;1;1.00002
11.4;1;1.00002
11.55;0;0
11.7;0;0
11.85;1;1.00002
12;1;1.00002
12.15;0;0
12.3;0;0
12.45;1;1.00002
12.6;0;0
12.75;1;1.00002
12.9;1;1.00002
13.05;1;1.00002
13.2;1;1.00002
13.35;1;1.00002
13.5;1;1.00002
13.65;0;0
13.8;1;1.00002
13.95;1;1.00002
14.1;1;1.00002
14.25;1;1.00002
14.4;0;0
14.55;0;0
14.7;1;1.00002
14.85;1;1.00002
15;0;0
15.15;1;1.00003
15.3;1;1.00002
15.45;1;1.00002
15.6;0;0
15.75;1;1.00002
15.9;1;1.00002
16.05;1;1.00003
16.2;0;0
16.35;0;0
16.5;1;1.00002
16.65;0;0
16.8;1;1.00002
16.95;0;0
17.1;1;1.00002
17.25;0;0
17.4;0;0
17.55;1;1.00002
17.7;0;0
17.85;1;1.00002
18;0;0
18.15;0;0
18.3;0;0
18.45;1;1.00002
18.6;0;0
18.75;0;0
18.9;1;1.00002
19.05;0;0
19.2;1;1.00002
19.35;1;1.00002
19.5;0;0
19.65;1;1.00002
19.8;0;0
19.95;0;0
20.1;0;0
20.25;1;1.00002
20.4;1;1.00002
20.55;0;0
20.7;0;0
20.85;1;1.00002
21;1;1.00002
21.15;1;1.00002
21.3;0;0
21.45;0;0
21.6;1;1.00002
21.75;1;1.00002
21.9;1;1.00002
22.05;1;1.00002
22.2;0;-2.32831e-07
22.35;0;0
22.5;0;0
22.65;1;1.00002
22.8;1;1.00002
22.95;0;0
23.1;1;1.00002
23.25;1;1.00002
23.4;0;0
23.55;0;0
23.7;0;0
23.85;0;0
24;1;1.00002
24.15;0;0
24.3;0;0
24.45;0;0
24.6;1;1.00002
24.75;0;0
24.9;1;1.00002
25.05;1;1.00002
25.2;1;1.00002
25.35;0;0
25.5;1;1.00002
25.65;0;0
25.8;1;1.00002
25.95;1;1.00002
26.1;1;1.00002
26.25;1;1.00003
26.4;0;0
26.55;1;1.00002
26.7;1;1.00002
26.85;0;0
27;1;1.00002
27.15;1;1.00002
27.3;1;1.00003
27.45;1;1.00002
27.6;1;-391.699
27.75;0;0
27.9;0;0
28.05;0;0
28.2;0;0
28.35;1;1.00003
28.5;1;1.00002
28.65;0;0
28.8;1;1.00003
28.95;0;0
29.1;0;0
29.25;1;1.00002
29.4;1;1.00003
29.55;0;0
29.7;1;1.00002
29.85;0;0
30;1;1.00002
30.15;1;1.00002
30.3;0;0
30.45;1;1.00002
30.6;1;1.00002
30.75;0;0
30.9;1;1.00002
31.05;0;0
31.2;1;1.00002
31.35;0;0
31.5;0;0
31.65;0;0
31.8;0;0
31.95;0;0
32.1;1;1.00002
32.25;0;0
32.4;0;0
32.55;1;1.00002
32.7;1;1.00002
32.85;1;1.00002
33;0;0
33.15;1;1.00002
33.3;1;1.00002
33.45;0;0
33.6;0;0
33.75;1;1.00002
33.9;0;0
34.05;0;0
34.2;1;1.00002
34.35;0;0
34.5;0;0
34.65;1;1.00002
34.8;1;1.00002
34.95;0;0
35.1;0;0
35.25;0;0
35.4;0;0
35.55;0;0
35.7;0;0
35.85;1;1.00002
36;1;1.00002
36.15;1;1.00002
36.3;0;0
36.45;1;1.00002
36.6;0;0
36.75;0;0
36.9;1;1.00002
37.05;0;0
37.2;0;0
37.35;0;0
37.5;1;1.00002
37.65;1;1.00002
37.8;1;1.00002
37.95;0;0
38.1;0;0
38.25;0;0
