Time(s);Vsent(m/s);VMeasured(m/s);PosX(m);PosY(m)
0.0155192;0.00749988;0.0512132;1.008;-0.729
0.0310027;0.029992;0.0512132;1.008;-0.729
0.049218;0.0524571;0.0512132;1.008;-0.729
0.0610208;0.0748751;0.0468198;1.008;-0.729
0.0753068;0.0972256;0.0248369;1.009;-0.726
0.0960854;0.119489;0;1.009;-0.729
0.112721;0.126887;-0.0811435;1.008;-0.728
0.120514;0.141644;-0.0811435;1.008;-0.728
0.136067;0.163672;-0.068033;1.008;-0.728
0.150941;0.178277;-0.0468198;1.008;-0.728
0.16751;0.19281;0.0555369;1.01;-0.73
0.180618;0.214464;0.0555369;1.01;-0.73
0.195978;0.235925;0.0599303;1.011;-0.731
0.212775;0.257173;0.0599303;1.011;-0.731
0.23646;0.27819;0.112699;1.016;-0.731
0.244468;0.285141;0.112699;1.016;-0.731
0.255025;0.298957;0.106485;1.016;-0.731
0.270887;0.319455;0.112699;1.016;-0.731
0.285452;0.339665;0.0902965;1.017;-0.732
0.30034;0.359569;0.0902965;1.017;-0.732
0.322885;0.366133;0.130199;1.022;-0.735
0.330446;0.37915;0.112008;1.022;-0.735
0.346582;0.392015;0.145623;1.024;-0.735
0.36025;0.411018;0.186723;1.028;-0.734
0.37744;0.423482;0.121421;1.031;-0.732
0.390687;0.435776;0.121421;1.031;-0.732
0.406668;0.447897;0.133188;1.033;-0.734
0.420625;0.465739;0.22203;1.038;-0.736
0.435674;0.483163;0.164607;1.038;-0.736
0.450747;0.500152;0.189392;1.043;-0.734
0.467994;0.516691;0.225;1.048;-0.736
0.480935;0.532765;0.189244;1.052;-0.739
0.497398;0.543215;0.323336;1.058;-0.74
0.51351;0.553449;0.292019;1.061;-0.74
0.526852;0.56346;0.299161;1.068;-0.743
0.540703;0.578054;0.282624;1.071;-0.744
0.555162;0.592128;0.266889;1.076;-0.742
0.574108;0.605669;0.302448;1.08;-0.742
0.590536;0.614394;0.275651;1.086;-0.741
0.600423;0.618664;0.275651;1.086;-0.741
0.61515;0.631103;0.306449;1.093;-0.745
0.630809;0.642974;0.324049;1.097;-0.746
0.645772;0.654267;0.349022;1.102;-0.746
0.660415;0.66497;0.352862;1.109;-0.748
0.675883;0.675075;0.306048;1.113;-0.748
0.695724;0.684573;0.400597;1.124;-0.745
0.710855;0.687602;0.330577;1.13;-0.751
0.720463;0.693455;0.35479;1.135;-0.747
0.736937;0.701712;0.502719;1.145;-0.752
0.752414;0.706867;0.409749;1.149;-0.75
0.765367;0.711738;0.409749;1.149;-0.75
0.780237;0.716326;0.465834;1.158;-0.75
0.795771;0.718512;0.519787;1.168;-0.75
0.81056;0.724639;0.427082;1.173;-0.75
0.825197;0.730113;0.47722;1.181;-0.751
0.840979;0.734931;0.480934;1.19;-0.751
0.855193;0.739087;0.424288;1.199;-0.756
0.878337;0.742578;0.584785;1.211;-0.754
0.896527;0.743594;0.479666;1.216;-0.757
0.903871;0.745401;0.574382;1.226;-0.757
0.915149;0.746911;0.539947;1.234;-0.757
0.930273;0.748614;0.50569;1.244;-0.756
0.952761;0.749644;0.555748;1.253;-0.756
0.960814;0.749838;0.555748;1.253;-0.756
0.975766;0.749956;0.570748;1.264;-0.756
0.990639;0.749862;0.567267;1.272;-0.757
1.00681;0.749424;0.600934;1.284;-0.757
1.02012;0.748205;0.589171;1.295;-0.762
1.03614;0.747018;0.598456;1.303;-0.761
1.05367;0.745532;0.632179;1.313;-0.761
1.06785;0.743749;0.601246;1.324;-0.764
1.08065;0.740515;0.63696;1.337;-0.764
1.09681;0.739289;0.64787;1.346;-0.765
1.11141;0.736616;0.649367;1.356;-0.764
1.13087;0.732053;0.629189;1.366;-0.763
1.14059;0.730386;0.600531;1.377;-0.764
1.15577;0.724946;0.600531;1.377;-0.764
1.1739;0.718853;0.659766;1.4;-0.765
1.19087;0.714432;0.689538;1.412;-0.764
1.20102;0.712114;0.689538;1.412;-0.764
1.21515;0.704734;0.661248;1.421;-0.764
1.23167;0.69672;0.661248;1.432;-0.764
1.24734;0.691028;0.64365;1.443;-0.765
1.26085;0.68506;0.613369;1.453;-0.764
1.27552;0.678818;0.659766;1.465;-0.765
1.29023;0.672304;0.644586;1.475;-0.764
1.30614;0.665522;0.644586;1.475;-0.764
1.32018;0.65485;0.677052;1.498;-0.763
1.33511;0.643588;0.677052;1.498;-0.763
1.35049;0.631748;0.643965;1.508;-0.762
1.36761;0.619339;0.661429;1.519;-0.762
1.38043;0.606372;0.660748;1.53;-0.762
1.39574;0.597424;0.628362;1.54;-0.761
1.41064;0.583555;0.597036;1.548;-0.762
1.42605;0.569161;0.601682;1.559;-0.762
1.4406;0.554254;0.599889;1.57;-0.763
1.45609;0.544038;0.599373;1.58;-0.762
1.47858;0.538849;0.604964;1.589;-0.76
1.48851;0.528308;0.617854;1.6;-0.761
1.50068;0.512102;0.619722;1.611;-0.761
1.51564;0.501042;0.585352;1.619;-0.76
1.53245;0.489781;0.568127;1.627;-0.761
1.54967;0.478324;0.570197;1.638;-0.76
1.56015;0.466675;0.570197;1.638;-0.76
1.57856;0.460781;0.512548;1.645;-0.76
1.59017;0.442823;0.539671;1.655;-0.759
1.61326;0.424467;0.511496;1.672;-0.76
1.62019;0.412017;0.511496;1.672;-0.76
1.63555;0.405729;0.478629;1.679;-0.757
1.6524;0.386626;0.518149;1.689;-0.758
1.66758;0.373696;0.489985;1.697;-0.758
1.68059;0.360617;0.452509;1.702;-0.759
1.69587;0.340729;0.482589;1.712;-0.756
1.71712;0.327299;0.444504;1.719;-0.758
1.73311;0.320535;0.39281;1.724;-0.756
1.7405;0.313738;0.39281;1.724;-0.756
1.75591;0.300052;0.505993;1.735;-0.758
1.77077;0.286246;0.189961;1.737;-0.754
1.78723;0.272325;0.465565;1.747;-0.754
1.80086;0.251241;0.399787;1.747;-0.754
1.81513;0.237058;0.382082;1.758;-0.754
1.83075;0.222781;0.237739;1.759;-0.755
1.84864;0.208414;0.320074;1.768;-0.754
1.86104;0.18671;0.152314;1.769;-0.752
1.87626;0.172146;0.340585;1.779;-0.752
1.8915;0.157513;0.25583;1.781;-0.754
1.90589;0.142817;0.189783;1.783;-0.752
1.92058;0.128064;0.189783;1.783;-0.752
1.93592;0.120668;0.339853;1.79;-0.752
1.95114;0.10584;0.149246;1.791;-0.753
1.96603;0.0835209;0.231578;1.796;-0.751
1.98111;0.0611266;0.267186;1.801;-0.753
1.99507;0.0386773;0.144237;1.802;-0.752
2.01276;0.0161932;0.218389;1.805;-0.753
2.03068;-0.00630544;0;1.805;-0.75
2.04079;-0.0138047;-0.0658246;1.804;-0.752
2.0562;-0.0362913;0.229709;1.811;-0.751
2.07032;-0.0587453;0.145537;1.812;-0.752
2.08615;-0.0811464;0.124324;1.812;-0.752
2.10071;-0.103474;0.115607;1.812;-0.752
2.11909;-0.118309;0.0556066;1.812;-0.752
2.13614;-0.133097;0.0406066;1.812;-0.752
2.1501;-0.140471;-0.115146;1.807;-0.751
2.16094;-0.162506;-0.115146;1.807;-0.751
2.17572;-0.184395;-0.141213;1.804;-0.751
2.19106;-0.206119;-0.135;1.804;-0.751
2.20775;-0.227656;-0.165;1.804;-0.751
2.221;-0.248989;-0.0873567;1.803;-0.752
2.23625;-0.256051;-0.0661435;1.803;-0.752
2.25201;-0.270098;-0.10633;1.8;-0.751
2.26647;-0.284036;-0.155488;1.795;-0.75
2.28069;-0.304729;-0.171827;1.791;-0.748
2.2959;-0.325148;-0.188411;1.789;-0.749
2.31889;-0.345274;-0.222108;1.786;-0.749
2.33482;-0.351915;-0.217795;1.781;-0.748
2.34071;-0.35852;-0.217795;1.781;-0.748
2.35548;-0.36509;-0.0843299;1.78;-0.746
2.37101;-0.384577;-0.15462;1.777;-0.749
2.38603;-0.403718;-0.30453;1.768;-0.747
2.4006;-0.422495;-0.181505;1.767;-0.746
2.4186;-0.434804;-0.268146;1.764;-0.746
2.43606;-0.446938;-0.284012;1.758;-0.748
2.45032;-0.452938;-0.158902;1.755;-0.745
2.46075;-0.470665;-0.317432;1.747;-0.743
2.476;-0.487969;-0.282408;1.745;-0.742
2.49025;-0.504833;-0.344539;1.736;-0.739
2.5053;-0.521243;-0.344539;1.736;-0.739
2.52078;-0.531924;-0.241804;1.734;-0.741
2.5361;-0.537184;-0.285227;1.728;-0.738
2.55094;-0.552642;-0.319687;1.723;-0.735
2.56585;-0.567602;-0.335514;1.716;-0.735
2.58093;-0.582051;-0.383087;1.71;-0.735
2.59588;-0.595977;-0.415737;1.701;-0.734
2.61965;-0.609366;-0.278933;1.698;-0.731
2.63704;-0.613708;-0.417577;1.689;-0.729
2.64422;-0.617988;-0.362105;1.685;-0.727
2.6554;-0.630457;-0.370161;1.676;-0.722
2.67057;-0.642358;-0.444914;1.67;-0.723
2.68606;-0.653682;-0.369739;1.664;-0.72
2.70026;-0.664417;-0.369739;1.664;-0.72
2.71868;-0.667863;-0.354533;1.652;-0.716
2.73617;-0.674554;-0.434959;1.642;-0.714
2.75059;-0.677799;-0.375351;1.636;-0.71
2.76089;-0.680975;-0.375351;1.636;-0.71
2.77584;-0.690096;-0.461915;1.628;-0.71
2.79024;-0.698596;-0.476822;1.618;-0.704
2.80566;-0.706466;-0.508095;1.611;-0.704
2.82054;-0.713702;-0.422761;1.605;-0.7
2.83573;-0.720294;-0.503179;1.596;-0.697
2.85062;-0.726239;-0.490469;1.587;-0.697
2.87703;-0.73153;-0.49396;1.579;-0.695
2.88397;-0.733148;-0.490567;1.572;-0.693
2.89822;-0.736163;-0.491582;1.562;-0.689
2.91414;-0.740133;-0.527814;1.552;-0.686
2.93044;-0.743437;-0.532361;1.545;-0.686
2.94068;-0.74439;-0.532361;1.545;-0.686
2.95591;-0.746801;-0.504908;1.536;-0.681
2.97139;-0.748541;-0.548494;1.527;-0.68
2.98763;-0.749326;-0.536468;1.516;-0.676
3.0005;-0.749942;-0.582518;1.506;-0.672
3.0178;-0.749978;-0.638835;1.494;-0.675
3.03066;-0.749714;-0.523182;1.489;-0.672
3.05226;-0.74915;-0.573396;1.478;-0.668
3.06056;-0.748286;-0.589863;1.468;-0.666
3.07541;-0.74643;-0.509518;1.46;-0.663
3.0902;-0.743902;-0.509518;1.46;-0.663
3.10824;-0.740704;-0.59012;1.439;-0.659
3.12082;-0.738201;-0.59012;1.439;-0.659
3.13589;-0.736839;-0.470233;1.432;-0.654
3.15896;-0.732312;-0.545115;1.414;-0.651
3.17191;-0.730656;-0.545115;1.414;-0.651
3.18081;-0.727126;-0.4804;1.406;-0.647
3.19536;-0.721285;-0.523242;1.395;-0.641
3.21401;-0.71703;-0.610084;1.386;-0.641
3.23049;-0.712488;-0.562114;1.379;-0.641
3.24104;-0.71011;-0.547341;1.369;-0.637
3.25514;-0.702552;-0.478967;1.359;-0.63
3.27023;-0.694361;-0.478967;1.359;-0.63
3.28565;-0.685545;-0.537352;1.352;-0.632
3.30063;-0.676113;-0.611534;1.341;-0.63
3.31524;-0.666072;-0.501441;1.335;-0.627
3.33046;-0.655431;-0.433004;1.326;-0.62
3.35913;-0.644201;-0.525182;1.309;-0.62
3.36557;-0.640328;-0.525182;1.309;-0.62
3.38023;-0.628327;-0.498202;1.302;-0.617
3.3907;-0.624201;-0.474025;1.293;-0.613
3.40643;-0.611448;-0.467386;1.287;-0.611
3.42036;-0.598145;-0.448108;1.28;-0.609
3.4352;-0.588977;-0.478425;1.271;-0.607
3.4505;-0.574784;-0.447363;1.264;-0.607
3.466;-0.560074;-0.457114;1.255;-0.603
3.48077;-0.54486;-0.457114;1.255;-0.603
3.49579;-0.529155;-0.458433;1.25;-0.602
3.51323;-0.512974;-0.414739;1.244;-0.601
3.53021;-0.496332;-0.42046;1.237;-0.601
3.54094;-0.479243;-0.348731;1.231;-0.599
3.55563;-0.461723;-0.360457;1.226;-0.598
3.57626;-0.443787;-0.370721;1.219;-0.596
3.59581;-0.437719;-0.315574;1.208;-0.591
3.60107;-0.431607;-0.315574;1.208;-0.591
3.61576;-0.413014;-0.366534;1.203;-0.591
3.63017;-0.39405;-0.304114;1.197;-0.587
3.64818;-0.374731;-0.270178;1.194;-0.589
3.66071;-0.355076;-0.290166;1.19;-0.588
3.67593;-0.341793;-0.290166;1.19;-0.588
3.69154;-0.328374;-0.294745;1.185;-0.587
3.70717;-0.314823;-0.232101;1.181;-0.585
3.72034;-0.301146;-0.273728;1.175;-0.582
3.73526;-0.294263;-0.31919;1.17;-0.582
3.75053;-0.273438;-0.123541;1.169;-0.584
3.76565;-0.252366;-0.23833;1.164;-0.58
3.78105;-0.231068;-0.143485;1.162;-0.583
3.79608;-0.209562;-0.161882;1.158;-0.577
3.81275;-0.187867;-0.130514;1.157;-0.579
3.83026;-0.166003;-0.240791;1.154;-0.579
3.84066;-0.143989;-0.222126;1.151;-0.578
3.85569;-0.121847;-0.155975;1.149;-0.578
3.87642;-0.0995939;-0.0537171;1.148;-0.575
3.89553;-0.0921555;-0.163461;1.145;-0.574
3.90081;-0.0847078;-0.163461;1.145;-0.574
3.91526;-0.0623171;-0.132691;1.145;-0.574
3.93019;-0.0398702;-0.115931;1.142;-0.571
3.94804;-0.0173874;-0.0929969;1.142;-0.571
3.96054;0.00511098;-0.0744558;1.142;-0.571
3.98105;0.0201086;-0.0788492;1.142;-0.571
3.9945;0.0350982;0;1.142;-0.575
4.01441;0.0575544;-0.0426467;1.141;-0.572
4.02029;0.0650293;-0.0406819;1.141;-0.572
4.03547;0.0799588;-0.0387171;1.141;-0.572
4.05013;0.102291;-0.0387171;1.141;-0.572
4.06556;0.124532;0.0496296;1.142;-0.574
4.08042;0.14666;0.0599303;1.143;-0.575
4.09552;0.168656;0;1.143;-0.571
4.11887;0.183237;0.0936396;1.144;-0.572
4.13675;0.190501;0.0936396;1.144;-0.572
4.14424;0.197745;-0.0936396;1.143;-0.571
4.15527;0.219357;-0.0662132;1.142;-0.57
4.17699;0.233656;0.06;1.143;-0.571
4.18712;0.254928;0.0434605;1.144;-0.573
4.20009;0.27597;-0.0687171;1.143;-0.572
4.21591;0.296764;0.0687171;1.144;-0.571
4.23002;0.31048;0.0987171;1.147;-0.574
4.24808;0.330819;0;1.147;-0.57
4.26047;0.35086;0;1.147;-0.57
4.27545;0.370585;0.117426;1.148;-0.571
4.29038;0.389977;0.102426;1.148;-0.571
4.30715;0.409018;0.0574264;1.148;-0.571
4.32059;0.42769;0.0256066;1.148;-0.571
4.33537;0.43383;0.0256066;1.148;-0.571
4.35023;0.451986;0.0980598;1.152;-0.571
4.37653;0.469735;0.146717;1.155;-0.569
4.38343;0.475558;0.146717;1.155;-0.569
4.39801;0.487061;0.180493;1.158;-0.57
4.41382;0.503949;0;1.158;-0.568
4.43009;0.520384;0.0646296;1.159;-0.57
4.44018;0.525759;0.0646296;1.159;-0.57
4.45568;0.541565;0.170975;1.163;-0.57
4.47036;0.556885;0.0540671;1.164;-0.567
4.49637;0.571703;0.148086;1.17;-0.568
4.50548;0.576529;0.148086;1.17;-0.568
4.52056;0.586007;0.209425;1.174;-0.568
4.5304;0.599784;0.174889;1.176;-0.569
4.54614;0.61302;0.111143;1.178;-0.567
4.56006;0.625705;0.158132;1.181;-0.569
4.57574;0.629809;0.176321;1.185;-0.567
4.59175;0.641741;0;1.185;-0.565
4.60548;0.653095;0.204623;1.19;-0.568
4.62022;0.663862;0.198552;1.193;-0.566
4.63625;0.670708;0.198552;1.193;-0.566
4.6532;0.677286;0.259061;1.2;-0.568
4.66724;0.683594;0.259061;1.2;-0.568
4.68031;0.692541;0.234208;1.204;-0.567
4.69529;0.700865;0.227556;1.208;-0.569
4.71427;0.706065;0.250775;1.212;-0.569
4.73034;0.710982;0.26026;1.217;-0.57
4.74013;0.713334;0.274614;1.222;-0.571
4.75559;0.719961;0.317971;1.229;-0.571
4.77067;0.72594;0.242413;1.233;-0.575
4.78545;0.731266;0.342671;1.239;-0.573
4.80036;0.735933;0.370847;1.245;-0.574
4.81504;0.739939;0.272356;1.247;-0.575
4.83002;0.743278;0.272356;1.247;-0.575
4.8468;0.745949;0.3162;1.254;-0.577
4.8602;0.747948;0.336632;1.261;-0.576
4.87662;0.748908;0.252021;1.264;-0.578
4.89661;0.749567;0.346614;1.279;-0.584
4.91186;0.749784;0.346614;1.279;-0.584
4.92093;0.749994;0.400156;1.286;-0.583
4.93507;0.749904;0.435371;1.292;-0.584
4.95023;0.749206;0.41803;1.301;-0.585
4.97607;0.747834;0.384311;1.306;-0.587
4.98441;0.747834;0.42785;1.314;-0.587
4.99656;0.746545;0.438225;1.321;-0.588
5.01355;0.745789;0.364449;1.327;-0.591
5.0295;0.743073;0.45391;1.336;-0.593
5.04017;0.74089;0.45391;1.336;-0.593
5.0551;0.737061;0.464982;1.344;-0.593
5.07099;0.732569;0.434896;1.351;-0.596
5.08573;0.727417;0.505251;1.36;-0.595
5.10115;0.721611;0.48721;1.368;-0.596
5.11557;0.715155;0.461001;1.374;-0.596
5.13179;0.708056;0.423727;1.381;-0.599
5.14774;0.70032;0.478713;1.392;-0.596
5.16072;0.691953;0.455645;1.4;-0.6
5.17613;0.689026;0.567345;1.41;-0.599
5.19625;0.682964;0.580081;1.419;-0.601
5.21151;0.67983;0.555617;1.428;-0.602
5.22048;0.67336;0.555617;1.428;-0.602
5.23582;0.66315;0.541591;1.436;-0.601
5.25087;0.656011;0.543097;1.446;-0.6
5.26533;0.644812;0.570839;1.457;-0.601
5.28034;0.633032;0.542362;1.464;-0.601
5.29564;0.628979;0.571429;1.474;-0.601
5.31116;0.620683;0.55568;1.483;-0.601
5.3265;0.612139;0.54;1.493;-0.601
5.34107;0.598865;0.523263;1.5;-0.603
5.35904;0.59432;0.545311;1.511;-0.6
5.37123;0.585053;0.554983;1.52;-0.602
5.38973;0.575551;0.598521;1.532;-0.602
5.40064;0.565819;0.605541;1.54;-0.601
5.42042;0.560868;0.571541;1.549;-0.6
5.43027;0.54568;0.571541;1.549;-0.6
5.44608;0.530001;0.569093;1.558;-0.601
5.46105;0.519283;0.509564;1.566;-0.602
5.4754;0.513845;0.540647;1.576;-0.603
5.49135;0.497227;0.542513;1.585;-0.603
5.51673;0.480161;0.541496;1.602;-0.602
5.52452;0.474376;0.541496;1.602;-0.602
5.53951;0.462663;0.495748;1.609;-0.602
5.55414;0.444749;0.508958;1.619;-0.601
5.57068;0.426435;0.503743;1.629;-0.603
5.58011;0.420244;0.541219;1.638;-0.602
5.59529;0.401421;0.55955;1.646;-0.602
5.61009;0.382238;0.55955;1.646;-0.602
5.62509;0.36271;0.513801;1.653;-0.602
5.64021;0.342856;0.487238;1.662;-0.604
5.65551;0.322693;0.43465;1.668;-0.602
5.67745;0.30224;0.468103;1.684;-0.603
5.69311;0.295361;0.468103;1.684;-0.603
5.70038;0.281515;0.333283;1.686;-0.602
5.71573;0.260537;0.406139;1.695;-0.604
5.73116;0.239324;0.398137;1.701;-0.602
5.74599;0.217896;0.322627;1.706;-0.604
5.76106;0.2035;0.387829;1.712;-0.602
5.77521;0.196271;0.322437;1.716;-0.603
5.79173;0.17447;0.340105;1.723;-0.602
5.80549;0.152512;0.340105;1.723;-0.602
5.82038;0.130417;0.308647;1.729;-0.606
5.83523;0.108205;0;1.729;-0.602
5.85215;0.0858946;0.368681;1.736;-0.604
5.87774;0.0709771;0.168185;1.74;-0.604
5.88761;0.0709771;0.168185;1.74;-0.604
5.89511;0.0560312;0.252849;1.745;-0.604
5.9109;0.0410629;0.215858;1.75;-0.605
5.92863;0.0185816;0.184466;1.752;-0.606
5.94019;0.00358346;-0.145833;1.751;-0.605
5.95583;-0.0114161;-0.1078;1.75;-0.604
5.97101;-0.0264111;0.0489737;1.751;-0.602
5.98936;-0.0413955;0.0687171;1.752;-0.601
6.00006;-0.0563633;0.0687171;1.752;-0.601
6.01531;-0.078771;0.0537171;1.752;-0.601
6.03046;-0.101108;-0.0537171;1.751;-0.602
6.05884;-0.123354;-0.0256066;1.751;-0.602
6.06927;-0.123354;-0.0748165;1.749;-0.601
6.07693;-0.138124;-0.0748165;1.749;-0.601
6.09121;-0.152838;0.0741476;1.751;-0.603
6.10594;-0.167492;0.0847542;1.751;-0.603
6.12084;-0.189345;-0.0847542;1.75;-0.604
6.13534;-0.211028;-0.0618198;1.75;-0.604
6.15597;-0.232521;-0.0555369;1.748;-0.602
6.1786;-0.239639;-0.108541;1.745;-0.602
6.18245;-0.246734;-0.182268;1.739;-0.601
6.19623;-0.260849;-0.182268;1.739;-0.601
6.21419;-0.274859;-0.181858;1.738;-0.602
6.2335;-0.295667;-0.195199;1.735;-0.601
6.24088;-0.309392;-0.195199;1.735;-0.601
6.25609;-0.322994;-0.174516;1.731;-0.601
6.27105;-0.343152;-0.178741;1.728;-0.602
6.29581;-0.363001;-0.22472;1.72;-0.6
6.30399;-0.363001;-0.22472;1.72;-0.6
6.31871;-0.376054;-0.231636;1.716;-0.6
6.33105;-0.395349;-0.194755;1.714;-0.599
6.34589;-0.414288;-0.194755;1.714;-0.599
6.3605;-0.426709;-0.200426;1.705;-0.597
6.37557;-0.432855;-0.200426;1.705;-0.597
6.39155;-0.451032;-0.154067;1.704;-0.598
6.40535;-0.468803;-0.304342;1.696;-0.598
6.42077;-0.486152;-0.197768;1.694;-0.596
6.43578;-0.503064;-0.264216;1.688;-0.594
6.45394;-0.519523;-0.328394;1.681;-0.59
6.47716;-0.535514;-0.348332;1.672;-0.589
6.48605;-0.535514;-0.348332;1.672;-0.589
6.49622;-0.545908;-0.259868;1.67;-0.588
6.51069;-0.561089;-0.304607;1.661;-0.588
6.5254;-0.575764;-0.239176;1.658;-0.585
6.54061;-0.589922;-0.350388;1.65;-0.584
6.55596;-0.599066;-0.157918;1.649;-0.582
6.57742;-0.60797;-0.363564;1.638;-0.577
6.59322;-0.612331;-0.363564;1.638;-0.577
6.60082;-0.62087;-0.363493;1.635;-0.576
6.61552;-0.633211;-0.397221;1.626;-0.576
6.63028;-0.641122;-0.385285;1.622;-0.574
6.647;-0.648777;-0.343174;1.614;-0.57
6.66073;-0.659772;-0.386207;1.61;-0.569
6.67531;-0.666772;-0.339592;1.604;-0.567
6.69155;-0.676772;-0.410879;1.596;-0.567
6.70519;-0.686163;-0.320241;1.59;-0.563
6.72073;-0.694937;-0.459411;1.58;-0.56
6.73519;-0.703085;-0.410149;1.574;-0.556
6.7524;-0.7106;-0.447938;1.569;-0.556
6.77083;-0.715256;-0.400004;1.562;-0.552
6.78046;-0.717476;-0.400004;1.562;-0.552
6.79569;-0.723706;-0.4391;1.553;-0.552
6.81043;-0.729285;-0.34423;1.547;-0.547
6.82528;-0.734208;-0.505806;1.538;-0.548
6.84093;-0.73847;-0.342497;1.532;-0.541
6.85577;-0.740942;-0.475954;1.526;-0.54
6.87716;-0.743118;-0.466693;1.519;-0.539
6.89494;-0.744094;-0.378089;1.512;-0.534
6.90247;-0.745824;-0.453571;1.503;-0.532
6.91526;-0.747256;-0.395183;1.498;-0.529
6.93116;-0.748388;-0.439965;1.492;-0.528
6.94731;-0.749221;-0.388815;1.484;-0.523
6.96045;-0.749909;-0.388815;1.484;-0.523
6.97541;-0.749988;-0.405859;1.478;-0.524
6.99157;-0.749776;-0.423364;1.47;-0.521
7.00588;-0.748889;-0.390296;1.464;-0.517
7.0208;-0.747329;-0.413111;1.458;-0.516
7.03513;-0.745914;-0.445758;1.449;-0.513
7.05182;-0.744202;-0.365635;1.445;-0.511
7.06697;-0.742192;-0.418304;1.437;-0.51
7.08034;-0.73862;-0.355446;1.433;-0.508
7.09585;-0.734383;-0.377007;1.424;-0.505
7.11371;-0.731192;-0.415446;1.416;-0.501
7.13029;-0.725856;-0.367279;1.412;-0.499
7.14031;-0.723932;-0.415919;1.406;-0.497
7.15584;-0.717727;-0.415919;1.406;-0.497
7.17039;-0.710875;-0.386114;1.4;-0.497
7.18614;-0.703384;-0.329021;1.394;-0.495
7.20064;-0.69526;-0.349304;1.389;-0.496
7.21586;-0.689496;-0.379335;1.381;-0.495
7.2301;-0.683457;-0.346382;1.376;-0.493
7.24625;-0.677143;-0.313552;1.371;-0.49
7.26084;-0.667166;-0.400542;1.363;-0.492
7.27593;-0.656589;-0.266429;1.359;-0.488
7.29584;-0.645421;-0.35476;1.353;-0.491
7.31387;-0.641569;-0.384169;1.348;-0.491
7.32232;-0.633672;-0.298356;1.343;-0.488
7.33533;-0.621353;-0.315232;1.339;-0.489
7.3538;-0.608474;-0.315232;1.339;-0.489
7.37046;-0.595048;-0.348513;1.326;-0.487
7.38104;-0.590453;-0.348513;1.326;-0.487
7.39567;-0.576316;-0.330979;1.321;-0.486
7.41106;-0.56166;-0.306582;1.317;-0.488
7.42579;-0.546499;-0.33622;1.31;-0.487
7.44073;-0.530846;-0.283279;1.306;-0.485
7.45852;-0.520144;-0.280996;1.301;-0.488
7.47632;-0.514715;-0.293099;1.297;-0.486
7.49103;-0.498121;-0.296628;1.292;-0.486
7.50066;-0.492489;-0.282693;1.288;-0.487
7.51562;-0.4753;-0.263929;1.284;-0.487
7.53033;-0.457684;-0.268024;1.279;-0.488
7.5456;-0.439656;-0.268024;1.279;-0.488
7.56063;-0.427417;-0.25241;1.275;-0.487
7.57566;-0.421232;-0.278154;1.269;-0.489
7.59141;-0.40243;-0.286237;1.265;-0.488
7.6055;-0.383265;-0.252346;1.262;-0.489
7.62071;-0.363755;-0.249149;1.259;-0.489
7.63598;-0.343918;-0.229281;1.254;-0.489
7.65324;-0.323771;-0.239183;1.249;-0.49
7.67042;-0.303333;-0.205742;1.247;-0.489
7.68053;-0.289555;-0.239502;1.243;-0.49
7.69578;-0.268672;-0.246873;1.238;-0.49
7.718;-0.247547;-0.185388;1.238;-0.49
7.73761;-0.240456;-0.241847;1.233;-0.49
7.74087;-0.23334;-0.241847;1.233;-0.49
7.75552;-0.219038;0;1.233;-0.493
7.77198;-0.204649;-0.164164;1.231;-0.492
7.78944;-0.190179;-0.185235;1.228;-0.494
7.80045;-0.175632;-0.205049;1.223;-0.495
7.81542;-0.153682;-0.088392;1.222;-0.493
7.8305;-0.131593;-0.066896;1.221;-0.496
7.8584;-0.109386;-0.0724264;1.217;-0.497
7.8687;-0.109386;-0.0724264;1.217;-0.497
7.87641;-0.0945259;-0.0724264;1.216;-0.495
7.89088;-0.0796276;-0.132426;1.214;-0.496
7.90967;-0.0646975;-0.0861512;1.213;-0.497
7.92033;-0.0422556;-0.108974;1.211;-0.498
7.9353;-0.0197757;-0.108974;1.211;-0.498
7.95385;0.00272203;0;1.211;-0.495
7.97584;0.0252173;0;1.211;-0.497
7.98389;0.0327117;0;1.211;-0.497
7.99553;0.0476898;-0.068033;1.21;-0.498
8.01064;0.0701195;0.0580279;1.211;-0.496
8.02553;0.092486;-0.0749303;1.21;-0.497
8.04049;0.114769;-0.0643237;1.21;-0.497
8.05544;0.129569;0.0730408;1.211;-0.496
8.0703;0.144316;0.0599303;1.211;-0.496
8.08803;0.159006;-0.0686474;1.21;-0.497
8.10071;0.18092;0.0880408;1.212;-0.495
8.11576;0.202671;0.0749303;1.212;-0.495
8.13394;0.224239;0.100337;1.214;-0.496
8.15248;0.231385;0.0703374;1.214;-0.496
8.16096;0.245606;0.0703374;1.214;-0.496
8.17586;0.266751;-0.0406066;1.213;-0.497
8.19075;0.287657;0.10116;1.217;-0.496
8.21179;0.308304;0.035145;1.218;-0.492
8.22074;0.315125;0.038783;1.218;-0.492
8.23594;0.335398;0.182884;1.221;-0.491
8.25107;0.355369;0.124211;1.221;-0.491
8.27848;0.37502;0.153167;1.227;-0.489
8.28424;0.37502;0.153167;1.227;-0.489
8.29653;0.387934;0.0463329;1.228;-0.486
8.3122;0.400693;0.211038;1.233;-0.488
8.32998;0.413292;0.0697743;1.234;-0.485
8.34074;0.425726;0.0697743;1.234;-0.485
8.35537;0.444055;0.220646;1.237;-0.485
8.37037;0.461985;0.220646;1.237;-0.485
8.38638;0.479499;0.183919;1.242;-0.485
8.40038;0.496582;0.12651;1.244;-0.483
8.41787;0.502177;0.179774;1.248;-0.481
8.43388;0.513217;0.226358;1.252;-0.479
8.44843;0.524052;0.154868;1.254;-0.477
8.46074;0.53991;0.23896;1.259;-0.475
8.476;0.555282;0.250286;1.263;-0.475
8.49045;0.570154;0.218058;1.268;-0.471
8.51063;0.584513;0.21246;1.271;-0.468
8.5204;0.589183;0.21246;1.271;-0.468
8.5377;0.598346;0.249686;1.273;-0.468
8.55456;0.60727;0.211197;1.283;-0.462
8.56793;0.615951;0.211197;1.283;-0.462
8.58099;0.628509;0.221247;1.288;-0.457
8.59545;0.640501;0.2959;1.293;-0.461
8.61792;0.648177;0.307824;1.298;-0.457
8.63418;0.651918;0.33067;1.303;-0.454
8.6404;0.659203;0.349129;1.308;-0.453
8.65528;0.669636;0.349129;1.308;-0.453
8.67631;0.679466;0.249662;1.318;-0.446
8.68707;0.682607;0.272489;1.322;-0.449
8.70024;0.69162;0.272489;1.322;-0.449
8.71526;0.697284;0.350532;1.328;-0.448
8.73532;0.705255;0.305773;1.338;-0.442
8.74937;0.707772;0.336682;1.343;-0.441
8.76049;0.714895;0.336682;1.343;-0.441
8.77544;0.721376;0.354575;1.35;-0.44
8.79614;0.727207;0.296122;1.355;-0.436
8.8129;0.729006;0.33028;1.359;-0.435
8.82154;0.732384;0.368959;1.366;-0.435
8.83585;0.735469;0.308741;1.372;-0.431
8.85299;0.739545;0.357777;1.379;-0.428
8.87614;0.741893;0.377628;1.383;-0.427
8.88414;0.741893;0.308367;1.389;-0.422
8.89543;0.743944;0.398237;1.396;-0.422
8.91043;0.746462;0.398237;1.396;-0.422
8.92533;0.748309;0.260819;1.4;-0.418
8.94048;0.749482;0.412007;1.407;-0.418
8.95599;0.749889;0.295882;1.411;-0.415
8.9774;0.749997;0.37009;1.423;-0.41
8.99289;0.749938;0.37009;1.423;-0.41
9.00042;0.749596;0.34844;1.429;-0.408
9.0156;0.74852;0.367288;1.435;-0.406
9.03105;0.746771;0.298116;1.439;-0.404
9.04525;0.744349;0.360467;1.447;-0.401
9.0604;0.741258;0.36511;1.452;-0.401
9.07553;0.738826;0.306731;1.457;-0.398
9.09102;0.734625;0.306731;1.457;-0.398
9.11647;0.729762;0.366131;1.471;-0.397
9.1232;0.729762;0.366131;1.471;-0.397
9.13784;0.726156;0.377399;1.476;-0.397
9.15123;0.720201;0.364935;1.481;-0.397
9.16584;0.713599;0.348693;1.486;-0.397
9.18102;0.706355;0.3;1.491;-0.397
9.1951;0.698474;0.327739;1.498;-0.396
9.2115;0.692871;0.289032;1.502;-0.394
9.23013;0.686991;0.3436;1.509;-0.392
9.24088;0.683948;0.38735;1.516;-0.392
9.25577;0.674408;0.311849;1.519;-0.393
9.27111;0.664262;0.366636;1.526;-0.393
9.29671;0.653518;0.332434;1.531;-0.393
9.30715;0.649806;0.317434;1.537;-0.393
9.31967;0.642187;0.315;1.54;-0.393
9.33735;0.63431;0.315;1.547;-0.393
9.34626;0.630277;0.315;1.547;-0.393
9.36029;0.622021;0.3;1.551;-0.393
9.37566;0.617799;0.208492;1.555;-0.397
9.39056;0.604766;0.367923;1.563;-0.396
9.40514;0.591189;0.297147;1.566;-0.397
9.42111;0.57708;0.348478;1.573;-0.399
9.43521;0.562451;0.347179;1.578;-0.398
9.45307;0.547316;0.329152;1.585;-0.4
9.47061;0.531689;0.327865;1.59;-0.403
9.48017;0.521004;0.327865;1.59;-0.403
9.49572;0.504587;0.378151;1.597;-0.403
9.51628;0.487716;0.301333;1.608;-0.408
9.53376;0.481994;0.364202;1.613;-0.408
9.54089;0.470406;0.364202;1.613;-0.408
9.55519;0.452673;0.349202;1.619;-0.408
9.57061;0.434532;0.326735;1.625;-0.409
9.597;0.416001;0.362483;1.637;-0.41
9.60603;0.416001;0.362483;1.637;-0.41
9.61577;0.403437;0.271719;1.64;-0.412
9.63017;0.390712;0.348298;1.648;-0.414
9.64627;0.371334;0.323624;1.653;-0.416
9.66098;0.351621;0.345036;1.659;-0.415
9.67588;0.331592;0.345036;1.659;-0.415
9.69038;0.311264;0.36497;1.664;-0.416
9.70586;0.290656;0.288091;1.669;-0.419
9.72113;0.269787;0.341719;1.675;-0.42
9.73519;0.248675;0.28825;1.679;-0.418
9.7533;0.227339;0.320788;1.684;-0.418
9.76962;0.213;0.291635;1.689;-0.42
9.78114;0.198576;0.309827;1.695;-0.421
9.79587;0.176793;0.189669;1.696;-0.422
9.8169;0.162181;0.298232;1.703;-0.422
9.83685;0.154851;0.262455;1.706;-0.422
9.84022;0.147505;0.147728;1.709;-0.426
9.85503;0.140144;0.219099;1.713;-0.422
9.87189;0.11798;0.23934;1.716;-0.423
9.88828;0.0957107;0.217473;1.719;-0.425
9.90014;0.073355;0.217473;1.719;-0.425
9.91517;0.0509332;0.16755;1.719;-0.425
9.93102;0.0284656;0.15259;1.723;-0.427
9.94605;0.00597239;0.140163;1.725;-0.426
9.96017;-0.0165262;0.15956;1.729;-0.427
9.97597;-0.0390099;0.120692;1.73;-0.428
9.99025;-0.0614586;0;1.73;-0.426
10.0051;-0.0838519;0;1.73;-0.426
10.0206;-0.10617;0;1.73;-0.426
10.0361;-0.128392;0;1.73;-0.423
10.0536;-0.150499;0.0468198;1.731;-0.424
10.0707;-0.17247;0;1.731;-0.427
10.0811;-0.187033;0;1.731;-0.427
10.0959;-0.208734;-0.098033;1.729;-0.425
10.1161;-0.230248;-0.0540983;1.728;-0.423
10.1335;-0.237374;-0.105967;1.726;-0.423
10.1408;-0.251555;-0.105967;1.726;-0.423
10.1557;-0.272635;-0.0599303;1.725;-0.422
10.1767;-0.286554;-0.159754;1.72;-0.422
10.1862;-0.307214;-0.104246;1.719;-0.421
10.2006;-0.327599;-0.147426;1.717;-0.421
10.2155;-0.334329;0.104246;1.718;-0.422
10.2301;-0.354317;-0.130264;1.714;-0.421
10.2461;-0.373985;-0.112836;1.711;-0.417
10.2601;-0.393317;-0.112836;1.711;-0.417
10.2761;-0.412295;-0.20306;1.708;-0.417
10.2926;-0.430902;-0.158585;1.706;-0.419
10.3111;-0.443092;-0.162426;1.7;-0.413
10.3207;-0.449121;-0.162426;1.7;-0.413
10.3358;-0.461043;-0.23214;1.697;-0.413
10.3511;-0.47858;-0.158828;1.694;-0.409
10.3658;-0.495686;-0.152925;1.692;-0.41
10.381;-0.512346;-0.152925;1.692;-0.41
10.3952;-0.528544;-0.217082;1.684;-0.406
10.4113;-0.53908;-0.259145;1.677;-0.403
10.4298;-0.5494;-0.280654;1.674;-0.402
10.4411;-0.564467;-0.167605;1.674;-0.402
10.4559;-0.579026;-0.167605;1.674;-0.402
10.4709;-0.593064;-0.249712;1.668;-0.401
10.4862;-0.606568;-0.221791;1.662;-0.399
10.5007;-0.619527;-0.209083;1.658;-0.396
10.5175;-0.623723;-0.219198;1.655;-0.393
10.5335;-0.631927;-0.303973;1.65;-0.394
10.5483;-0.639879;-0.212116;1.646;-0.39
10.5607;-0.651326;-0.330653;1.638;-0.387
10.5784;-0.658632;-0.285111;1.638;-0.387
10.5953;-0.669097;-0.292913;1.633;-0.385
10.6129;-0.672452;-0.296277;1.627;-0.382
10.6201;-0.678959;-0.263562;1.622;-0.38
10.6353;-0.685196;-0.280116;1.616;-0.374
10.6506;-0.694035;-0.280116;1.616;-0.374
10.6656;-0.70225;-0.337839;1.613;-0.375
10.6802;-0.709833;-0.318518;1.607;-0.372
10.6955;-0.716777;-0.320336;1.604;-0.372
10.7112;-0.721048;-0.211512;1.599;-0.367
10.7295;-0.725031;-0.290822;1.594;-0.364
10.7412;-0.730461;-0.303348;1.588;-0.361
10.7572;-0.732126;-0.384153;1.582;-0.361
10.7744;-0.735234;-0.241637;1.579;-0.358
10.7864;-0.738049;-0.317419;1.573;-0.355
10.8007;-0.741717;-0.293028;1.568;-0.352
10.8152;-0.742791;-0.290854;1.563;-0.349
10.8321;-0.745569;-0.276461;1.561;-0.348
10.8457;-0.747675;-0.276461;1.561;-0.348
10.8607;-0.749109;-0.279421;1.556;-0.347
10.876;-0.749868;-0.284804;1.55;-0.346
10.8994;-0.749953;-0.314755;1.54;-0.345
10.9171;-0.749831;-0.314755;1.54;-0.345
10.9216;-0.749634;-0.343416;1.533;-0.343
10.9352;-0.749362;-0.317977;1.529;-0.344
10.9507;-0.748098;-0.319726;1.523;-0.345
10.9659;-0.74616;-0.332196;1.518;-0.346
10.9801;-0.74355;-0.31645;1.512;-0.345
10.9951;-0.741439;-0.311236;1.508;-0.346
11.0111;-0.739031;-0.319573;1.502;-0.346
11.0298;-0.736327;-0.333088;1.496;-0.346
11.041;-0.731719;-0.333088;1.496;-0.346
11.056;-0.726454;-0.375367;1.487;-0.347
11.0707;-0.720534;-0.234498;1.484;-0.351
11.086;-0.713966;-0.405831;1.477;-0.351
11.1002;-0.70923;-0.372488;1.471;-0.354
11.1157;-0.706755;-0.374826;1.464;-0.352
11.1317;-0.698909;-0.30695;1.461;-0.354
11.1463;-0.690433;-0.376162;1.452;-0.358
11.1603;-0.681336;-0.379978;1.447;-0.359
11.1755;-0.671626;-0.389992;1.439;-0.361
11.1944;-0.661311;-0.439525;1.432;-0.363
11.218;-0.650402;-0.362252;1.427;-0.365
11.227;-0.646635;-0.388672;1.422;-0.365
11.238;-0.638907;-0.367316;1.415;-0.366
11.2513;-0.626837;-0.367316;1.415;-0.366
11.2692;-0.614203;-0.348281;1.409;-0.367
11.2802;-0.605472;-0.377307;1.402;-0.367
11.2958;-0.591923;-0.388194;1.396;-0.368
11.3109;-0.582594;-0.347133;1.39;-0.371
11.3293;-0.573032;-0.382825;1.384;-0.372
11.3407;-0.55826;-0.411364;1.375;-0.374
11.356;-0.542986;-0.358215;1.372;-0.375
11.3762;-0.527223;-0.379185;1.365;-0.376
11.3944;-0.521862;-0.379185;1.365;-0.376
11.4023;-0.510985;-0.334989;1.353;-0.379
11.4159;-0.499904;-0.346278;1.348;-0.381
11.4382;-0.488623;-0.369205;1.341;-0.38
11.448;-0.471336;-0.369205;1.341;-0.38
11.4604;-0.453625;-0.38029;1.334;-0.381
11.4758;-0.447629;-0.362221;1.329;-0.382
11.4909;-0.429378;-0.358013;1.324;-0.383
11.5061;-0.410739;-0.345512;1.318;-0.384
11.5209;-0.391731;-0.32168;1.312;-0.386
11.5356;-0.372371;-0.332496;1.307;-0.385
11.5517;-0.352676;-0.308492;1.301;-0.389
11.5706;-0.339368;-0.32452;1.298;-0.389
11.5808;-0.332663;-0.316527;1.292;-0.39
11.5954;-0.31235;-0.314662;1.287;-0.391
11.6158;-0.291757;-0.266375;1.283;-0.392
11.6338;-0.284833;-0.289573;1.279;-0.392
11.6409;-0.270901;-0.289573;1.279;-0.392
11.6562;-0.249801;-0.233154;1.276;-0.393
11.6769;-0.235609;-0.249079;1.267;-0.395
11.6863;-0.214145;-0.249079;1.267;-0.395
11.7008;-0.192489;-0.205974;1.265;-0.394
11.7171;-0.18523;-0.237392;1.261;-0.395
11.7304;-0.170659;-0.200635;1.257;-0.397
11.7506;-0.156019;-0.159883;1.254;-0.4
11.761;-0.141317;0;1.254;-0.398
11.7752;-0.11916;-0.215923;1.25;-0.399
11.7932;-0.0968954;-0.185486;1.248;-0.399
11.811;-0.0745437;-0.116159;1.246;-0.401
11.8205;-0.059604;-0.116159;1.246;-0.401
11.8359;-0.0371517;-0.124945;1.244;-0.399
11.8562;-0.014666;-0.0596555;1.243;-0.401
11.8735;-0.00716683;-0.128641;1.24;-0.403
11.8809;0.00783292;-0.128641;1.24;-0.403
11.8952;0.0303248;-0.105821;1.24;-0.403
11.9111;0.0453055;-0.127181;1.238;-0.403
11.9353;0.060268;0.0943237;1.239;-0.404
11.9431;0.0677406;0.0599303;1.239;-0.404
11.9556;0.0901148;0.0599303;1.239;-0.404
11.9707;0.112408;0.0468198;1.239;-0.404
11.9862;0.1346;0.0318198;1.239;-0.404
12.0005;0.156671;0.0318198;1.239;-0.404
12.0155;0.171307;0.0212132;1.239;-0.404
12.0318;0.193132;0.0212132;1.239;-0.404
12.0461;0.214783;0.0256066;1.24;-0.403
12.0604;0.236241;0.0623901;1.242;-0.402
12.0755;0.257486;0.0923901;1.244;-0.401
12.094;0.2785;-0.0774342;1.243;-0.4
12.1107;0.299262;0.128764;1.246;-0.399
12.121;0.319756;0.132188;1.248;-0.399
12.1356;0.339962;0.0847542;1.249;-0.398
12.158;0.359861;0.12708;1.252;-0.396
12.1774;0.366424;0.0894559;1.253;-0.397
12.1806;0.372949;0.153628;1.257;-0.396
12.1958;0.385888;0.153628;1.257;-0.396
12.2122;0.398672;0.167143;1.259;-0.396
12.2295;0.411297;0.195773;1.266;-0.393
12.2405;0.423757;0.195773;1.266;-0.393
12.2564;0.429924;0.147188;1.269;-0.39
12.2733;0.442128;0.232836;1.273;-0.391
12.2862;0.454155;0.254047;1.279;-0.389
12.3005;0.466;0.257091;1.283;-0.387
12.3153;0.471854;0.28279;1.288;-0.385
12.3316;0.489128;0.201634;1.29;-0.383
12.3455;0.505962;0.265286;1.295;-0.383
12.36;0.52234;0.243204;1.298;-0.383
12.3754;0.538249;0.244091;1.304;-0.381
12.3987;0.553673;0.244091;1.304;-0.381
12.4168;0.558705;0.27611;1.313;-0.38
12.4215;0.568599;0.27611;1.313;-0.38
12.436;0.573461;0.296711;1.319;-0.377
12.4504;0.587702;0.294923;1.324;-0.375
12.4664;0.601414;0.31332;1.33;-0.376
12.4801;0.614585;0.333858;1.336;-0.373
12.4953;0.623058;0.333858;1.342;-0.37
12.5108;0.631283;0.382488;1.348;-0.37
12.5291;0.639255;0.393319;1.355;-0.369
12.5404;0.650733;0.386689;1.361;-0.369
12.5553;0.661625;0.406386;1.37;-0.366
12.5703;0.671922;0.389167;1.375;-0.368
12.5859;0.681614;0.389167;1.375;-0.368
12.6003;0.690693;0.413146;1.383;-0.365
12.6183;0.6964;0.409962;1.39;-0.361
12.6345;0.701829;0.422179;1.397;-0.359
12.6476;0.706978;0.493296;1.406;-0.359
12.6602;0.71417;0.388101;1.411;-0.356
12.6754;0.720719;0.467678;1.421;-0.353
12.6936;0.726619;0.499069;1.429;-0.353
12.7106;0.731865;0.435386;1.435;-0.351
12.7202;0.733468;0.523384;1.446;-0.348
12.7357;0.737835;0.470644;1.452;-0.347
12.7507;0.741539;0.461355;1.461;-0.343
12.7658;0.744575;0.557966;1.471;-0.342
12.7806;0.746941;0.557966;1.471;-0.342
12.7952;0.748635;0.506713;1.479;-0.341
12.8105;0.749655;0.446292;1.486;-0.336
12.8292;0.75;0.548728;1.496;-0.335
12.8403;0.74967;0.495203;1.504;-0.332
12.858;0.749076;0.558569;1.515;-0.329
12.8776;0.748182;0.582183;1.524;-0.328
12.8869;0.747622;0.576569;1.534;-0.326
12.9001;0.746988;0.504242;1.541;-0.322
12.9151;0.746279;0.573053;1.552;-0.321
12.9315;0.743706;0.571046;1.562;-0.318
12.9459;0.740462;0.527188;1.568;-0.317
12.9608;0.736553;0.528033;1.579;-0.311
12.976;0.731981;0.528033;1.579;-0.311
12.993;0.72675;0.585796;1.589;-0.311
13.0106;0.722899;0.569674;1.606;-0.305
13.0202;0.720865;0.569674;1.606;-0.305
13.0355;0.714331;0.533886;1.615;-0.302
13.0572;0.707154;0.552914;1.626;-0.298
13.075;0.70462;0.603902;1.645;-0.295
13.0806;0.699341;0.603902;1.645;-0.295
13.096;0.690899;0.535561;1.653;-0.291
13.1168;0.681834;0.581379;1.664;-0.289
13.1263;0.678676;0.543799;1.672;-0.286
13.1403;0.668796;0.571678;1.682;-0.284
13.157;0.665368;0.494699;1.689;-0.28
13.1728;0.661874;0.550069;1.699;-0.279
13.1877;0.654687;0.537861;1.708;-0.276
13.2007;0.643417;0.537861;1.708;-0.276
13.2157;0.631568;0.555945;1.718;-0.274
13.2307;0.619151;0.513133;1.724;-0.272
13.2515;0.606176;0.512237;1.734;-0.268
13.2601;0.60173;0.534645;1.743;-0.266
13.2756;0.597223;0.502931;1.751;-0.264
13.2905;0.583346;0.468827;1.757;-0.261
13.3059;0.568944;0.486674;1.767;-0.257
13.3211;0.55403;0.518511;1.776;-0.256
13.3353;0.538617;0.44599;1.782;-0.253
13.358;0.52272;0.54028;1.792;-0.251
13.376;0.517315;0.45944;1.798;-0.249
13.3834;0.506352;0.475164;1.807;-0.247
13.3952;0.495186;0.475164;1.807;-0.247
13.4105;0.478067;0.453634;1.812;-0.246
13.4256;0.460518;0.411535;1.819;-0.245
13.4401;0.442554;0.43938;1.828;-0.242
13.4561;0.436477;0.375154;1.832;-0.241
13.4707;0.417986;0.437828;1.841;-0.239
13.4869;0.405449;0.410792;1.846;-0.238
13.5005;0.386341;0.370982;1.853;-0.236
13.5171;0.373407;0.42898;1.86;-0.236
13.5333;0.360325;0.29255;1.864;-0.233
13.548;0.347098;0.409202;1.872;-0.233
13.5608;0.327;0.409202;1.872;-0.233
13.5759;0.306607;0.329605;1.875;-0.232
13.5929;0.285938;0.295196;1.879;-0.231
13.6181;0.265012;0.298517;1.891;-0.228
13.6263;0.265012;0.298517;1.891;-0.228
13.6372;0.250927;0.290302;1.896;-0.225
13.6505;0.229614;0.250131;1.896;-0.225
13.6662;0.208094;0.289941;1.905;-0.222
13.6803;0.186387;0.0879298;1.906;-0.219
13.6983;0.179114;0.220594;1.908;-0.219
13.7165;0.164513;0.205377;1.912;-0.215
13.7302;0.157187;0.201725;1.917;-0.219
13.7411;0.13512;0.0563608;1.918;-0.214
13.7555;0.11293;0.0563608;1.918;-0.214
13.7711;0.0906393;0.0534191;1.918;-0.214
13.7863;0.0682668;0.260425;1.924;-0.213
13.8004;0.0533164;0.204351;1.927;-0.212
13.8157;0.0458329;0.0771267;1.928;-0.21
13.8313;0.0233577;0.0854185;1.929;-0.208
13.8571;0.000861431;-0.0730408;1.928;-0.209
13.8638;-0.00663848;-0.0730408;1.928;-0.209
13.878;-0.0216356;0.0813637;1.93;-0.208
13.8919;-0.0441131;0.0647801;1.93;-0.208
13.906;-0.0665509;0;1.93;-0.206
13.9207;-0.0889289;0;1.93;-0.206
13.9356;-0.0963714;0.0568328;1.932;-0.207
13.9572;-0.118638;0.0367082;1.933;-0.205
13.9749;-0.126038;0.0624342;1.934;-0.206
13.9804;-0.140798;0.0624342;1.934;-0.206
13.9951;-0.162831;-0.145659;1.93;-0.207
14.0104;-0.184718;-0.127672;1.93;-0.207
14.0367;-0.206439;-0.0755519;1.929;-0.206
14.0462;-0.206439;-0.0755519;1.929;-0.206
14.062;-0.220817;0.033541;1.93;-0.208
14.0724;-0.242217;0;1.93;-0.206
14.0858;-0.263399;-0.068033;1.929;-0.207
14.1006;-0.284344;0.0724264;1.93;-0.208
14.1173;-0.29127;-0.102426;1.928;-0.208
14.132;-0.305034;0.0662132;1.929;-0.209
14.1546;-0.325448;0.0618198;1.929;-0.209
14.1623;-0.332189;0.0618198;1.929;-0.209
14.1756;-0.34557;-0.125573;1.924;-0.208
14.194;-0.358813;0;1.924;-0.21
14.212;-0.378406;0;1.918;-0.212
14.2207;-0.391281;0;1.918;-0.212
14.236;-0.403999;-0.13255;1.917;-0.213
14.2569;-0.416555;-0.212753;1.913;-0.214
14.276;-0.422771;-0.166488;1.91;-0.215
14.2803;-0.428944;-0.122273;1.908;-0.217
14.2954;-0.447205;-0.165691;1.906;-0.216
14.3104;-0.465064;-0.165691;1.906;-0.216
14.3288;-0.482504;-0.189629;1.898;-0.218
14.3403;-0.49951;-0.189629;1.898;-0.218
14.3553;-0.516066;-0.141341;1.896;-0.22
14.3702;-0.532158;-0.132624;1.895;-0.219
14.3857;-0.547771;-0.178129;1.89;-0.221
14.401;-0.557907;-0.204417;1.886;-0.221
14.4154;-0.562891;-0.0662259;1.885;-0.224
14.4308;-0.577505;-0.278212;1.879;-0.224
14.4457;-0.591599;-0.277303;1.873;-0.226
14.4608;-0.60516;-0.237778;1.871;-0.227
14.4752;-0.618177;-0.305438;1.865;-0.228
14.4941;-0.630637;-0.200317;1.862;-0.231
14.51;-0.64253;-0.32227;1.853;-0.232
14.521;-0.653845;-0.32227;1.853;-0.232
14.5358;-0.664571;-0.106931;1.852;-0.235
14.5507;-0.6747;-0.376025;1.843;-0.237
14.5652;-0.684221;-0.31761;1.841;-0.238
14.5801;-0.693126;-0.352927;1.832;-0.239
14.5955;-0.701407;-0.247552;1.83;-0.241
14.6103;-0.709058;-0.341755;1.821;-0.243
14.6398;-0.713804;-0.343267;1.81;-0.247
14.6456;-0.71607;-0.343267;1.81;-0.247
14.6566;-0.720387;-0.383468;1.805;-0.246
14.6711;-0.724416;-0.329798;1.799;-0.248
14.6863;-0.729916;-0.410489;1.789;-0.252
14.701;-0.734759;-0.418379;1.783;-0.253
14.716;-0.73894;-0.418379;1.783;-0.253
14.7325;-0.742457;-0.400961;1.777;-0.256
14.7516;-0.74443;-0.333492;1.763;-0.259
14.7602;-0.745306;-0.333492;1.763;-0.259
14.7752;-0.746106;-0.404295;1.756;-0.262
14.7981;-0.74806;-0.489759;1.736;-0.265
14.8176;-0.748562;-0.489759;1.736;-0.265
14.8211;-0.748988;-0.486334;1.73;-0.267
14.8354;-0.749617;-0.540667;1.72;-0.269
14.8514;-0.749946;-0.473908;1.713;-0.271
14.8705;-0.749976;-0.491983;1.703;-0.274
14.8802;-0.749457;-0.487287;1.697;-0.276
14.8961;-0.748264;-0.508885;1.687;-0.277
14.917;-0.746397;-0.527643;1.678;-0.279
14.9329;-0.745626;-0.527643;1.678;-0.279
14.9408;-0.743859;-0.509768;1.669;-0.281
14.9555;-0.740651;-0.520126;1.661;-0.284
14.9702;-0.736777;-0.546886;1.651;-0.286
14.9986;-0.73224;-0.617157;1.629;-0.289
15.0046;-0.73224;-0.617157;1.629;-0.289
15.0162;-0.728849;-0.612352;1.62;-0.291
15.032;-0.725166;-0.622606;1.609;-0.294
15.0457;-0.719099;-0.540968;1.602;-0.297
15.0609;-0.712384;-0.555965;1.593;-0.298
15.0752;-0.705028;-0.556094;1.584;-0.298
15.094;-0.697038;-0.52759;1.574;-0.3
15.1102;-0.688421;-0.556209;1.565;-0.301
15.1206;-0.679184;-0.556209;1.565;-0.301
15.1395;-0.675969;-0.560252;1.546;-0.303
15.1551;-0.669336;-0.55662;1.536;-0.306
15.1701;-0.665919;-0.55662;1.536;-0.306
15.1806;-0.655269;-0.58665;1.526;-0.308
15.1958;-0.64403;-0.557951;1.517;-0.31
15.2102;-0.632212;-0.552868;1.51;-0.31
15.2256;-0.619824;-0.554872;1.499;-0.312
15.2411;-0.606879;-0.545998;1.49;-0.312
15.2553;-0.597944;-0.497018;1.483;-0.314
15.2703;-0.584096;-0.546907;1.474;-0.314
15.2865;-0.569721;-0.542644;1.463;-0.315
15.3004;-0.554834;-0.542644;1.463;-0.315
15.316;-0.539447;-0.426471;1.458;-0.318
15.3322;-0.523575;-0.536218;1.448;-0.319
15.3516;-0.507232;-0.502172;1.43;-0.32
15.3608;-0.496082;-0.502172;1.43;-0.32
15.3757;-0.484734;-0.529653;1.423;-0.32
15.3979;-0.473192;-0.446546;1.418;-0.321
15.4177;-0.467349;-0.482796;1.408;-0.322
15.4212;-0.46146;-0.417713;1.402;-0.321
15.435;-0.449544;-0.411221;1.395;-0.323
15.4531;-0.437448;-0.442679;1.388;-0.325
15.4703;-0.425177;-0.411533;1.381;-0.326
15.4806;-0.418978;-0.444469;1.373;-0.326
15.496;-0.40013;-0.444469;1.373;-0.326
15.5106;-0.380922;-0.420706;1.367;-0.327
15.5363;-0.361372;-0.371609;1.356;-0.327
15.5457;-0.354782;-0.371609;1.356;-0.327
15.5613;-0.341496;-0.335679;1.35;-0.329
15.5706;-0.321314;-0.395989;1.341;-0.328
15.5858;-0.300841;-0.334754;1.337;-0.33
15.6008;-0.280099;-0.387781;1.331;-0.33
15.6151;-0.266129;-0.346963;1.326;-0.332
15.6395;-0.252053;-0.290758;1.322;-0.333
15.6549;-0.244976;-0.307624;1.317;-0.333
15.6608;-0.237876;-0.277624;1.313;-0.333
15.6756;-0.216433;-0.271847;1.308;-0.333
15.6937;-0.194797;-0.24;1.306;-0.333
15.7098;-0.172984;-0.228199;1.301;-0.335
15.7208;-0.151016;-0.228199;1.301;-0.335
15.7357;-0.128913;-0.215777;1.299;-0.335
15.7505;-0.106693;-0.178553;1.296;-0.334
15.7652;-0.0843769;-0.195093;1.293;-0.335
15.7806;-0.0619851;-0.163461;1.29;-0.336
15.7955;-0.0470251;-0.172302;1.288;-0.336
15.8101;-0.0245515;-0.118295;1.286;-0.334
15.8281;-0.00205592;-0.114754;1.284;-0.336
15.8404;0.0204415;-0.153959;1.281;-0.335
15.8557;0.0429206;0;1.281;-0.337
15.8708;0.0653611;0;1.281;-0.337
15.8995;0.0877427;0;1.281;-0.337
15.909;0.0951867;-0.0424264;1.28;-0.336
15.917;0.110045;-0.0424264;1.28;-0.336
15.9304;0.12486;0.0362132;1.281;-0.335
15.9499;0.146986;0.0256066;1.281;-0.335
15.9605;0.161665;0.0662132;1.283;-0.335
15.9758;0.18356;0;1.283;-0.337
15.9937;0.20529;0;1.283;-0.337
16.0097;0.226835;0.0636396;1.284;-0.336
16.0209;0.248176;0.0836656;1.286;-0.335
16.0351;0.269294;0.0702492;1.286;-0.335
16.0505;0.290169;0.123915;1.29;-0.333
16.0656;0.310783;0.123915;1.29;-0.333
16.0805;0.331118;0.123915;1.29;-0.333
16.0989;0.33783;0.181847;1.296;-0.331
16.1168;0.351154;0.174205;1.301;-0.329
16.1304;0.357764;0.174205;1.301;-0.329
16.1404;0.377375;0.217624;1.304;-0.329
16.1554;0.390261;0.174615;1.307;-0.327
16.1711;0.409297;0.239861;1.311;-0.327
16.1859;0.427964;0.246919;1.317;-0.326
16.2003;0.440196;0.215841;1.32;-0.324
16.2161;0.452251;0.292531;1.326;-0.325
16.2306;0.469994;0.197278;1.328;-0.323
16.2564;0.487314;0.247751;1.332;-0.323
16.2635;0.487314;0.254816;1.337;-0.321
16.2774;0.498618;0.254816;1.337;-0.321
16.2908;0.515199;0.242435;1.343;-0.317
16.3061;0.531316;0.338944;1.349;-0.317
16.3207;0.546955;0.373211;1.356;-0.315
16.3388;0.552059;0.376399;1.361;-0.314
16.3567;0.562101;0.377916;1.368;-0.313
16.37;0.567038;0.411753;1.376;-0.313
16.3802;0.581508;0.355912;1.381;-0.311
16.3956;0.595453;0.392669;1.387;-0.31
16.4105;0.608863;0.425233;1.396;-0.309
16.4271;0.621725;0.425233;1.396;-0.309
16.4405;0.634028;0.411202;1.41;-0.305
16.4555;0.64576;0.411202;1.41;-0.305
16.4721;0.653259;0.4655;1.427;-0.304
16.4861;0.664017;0.4655;1.427;-0.304
16.5007;0.674177;0.482601;1.435;-0.302
16.5159;0.683731;0.542036;1.446;-0.3
16.5395;0.689758;0.537513;1.463;-0.299
16.5574;0.692669;0.537513;1.463;-0.299
16.5611;0.69551;0.47186;1.469;-0.296
16.5758;0.698282;0.523372;1.48;-0.297
16.5905;0.706177;0.504725;1.489;-0.293
16.6058;0.713436;0.549036;1.498;-0.293
16.6204;0.720054;0.572735;1.507;-0.291
16.6356;0.724106;0.568937;1.517;-0.29
16.6522;0.727868;0.571937;1.527;-0.289
16.6795;0.73134;0.597696;1.538;-0.287
16.6872;0.73134;0.632274;1.549;-0.286
16.7011;0.735997;0.589134;1.556;-0.286
16.711;0.737403;0.589134;1.556;-0.286
16.7292;0.741177;0.605296;1.568;-0.283
16.7405;0.744284;0.547172;1.576;-0.28
16.7561;0.746721;0.566622;1.586;-0.279
16.7703;0.748487;0.659448;1.599;-0.279
16.7985;0.749578;0.676579;1.621;-0.278
16.8076;0.749578;0.676579;1.621;-0.278
16.8181;0.749931;0.64177;1.629;-0.277
16.8316;0.749898;0.614909;1.64;-0.276
16.8455;0.749191;0.614909;1.64;-0.276
16.8604;0.747809;0.622262;1.65;-0.274
16.8772;0.747198;0.649585;1.664;-0.274
16.894;0.745754;0.668385;1.674;-0.272
16.9078;0.744011;0.709421;1.687;-0.271
16.9209;0.740839;0.664884;1.696;-0.268
16.9375;0.739633;0.684403;1.709;-0.269
16.9512;0.735572;0.680807;1.719;-0.268
16.9694;0.732498;0.682187;1.732;-0.267
16.9804;0.727336;0.704675;1.743;-0.266
16.9955;0.72152;0.659464;1.753;-0.265
17.0107;0.715055;0.634812;1.762;-0.263
17.026;0.707946;0.648382;1.775;-0.262
17.0404;0.702853;0.648382;1.775;-0.262
17.0555;0.700201;0.625206;1.785;-0.26
17.0768;0.691825;0.622193;1.805;-0.257
17.0925;0.688894;0.622193;1.805;-0.257
17.1005;0.682826;0.623383;1.816;-0.258
17.1151;0.673213;0.621317;1.827;-0.255
17.1356;0.666467;0.636283;1.838;-0.253
17.1516;0.662994;0.669412;1.849;-0.253
17.1603;0.65585;0.608691;1.857;-0.251
17.1759;0.644642;0.604133;1.867;-0.252
17.1935;0.636847;0.570908;1.877;-0.249
17.2094;0.624678;0.578907;1.887;-0.248
17.2209;0.616252;0.615712;1.898;-0.246
17.238;0.611947;0.615833;1.908;-0.244
17.2526;0.60758;0.606424;1.917;-0.244
17.27;0.598665;0.613326;1.928;-0.242
17.2803;0.594117;0.613326;1.928;-0.242
17.299;0.584844;0.605676;1.938;-0.242
17.3101;0.575337;0.536546;1.944;-0.241
17.3264;0.560647;0.587534;1.956;-0.242
17.3409;0.550572;0.54682;1.965;-0.24
17.359;0.545451;0.54265;1.974;-0.239
17.3714;0.535048;0.586967;1.983;-0.24
17.3866;0.52443;0.514955;1.99;-0.24
17.4009;0.513603;0.499721;2;-0.236
17.4161;0.496978;0.565733;2.011;-0.237
17.4331;0.479905;0.565733;2.011;-0.237
17.4501;0.468283;0.5347;2.024;-0.234
17.4607;0.462401;0.5347;2.024;-0.234
17.4759;0.444481;0.548068;2.036;-0.232
17.4905;0.426161;0.479944;2.043;-0.234
17.506;0.407457;0.457239;2.048;-0.232
17.5207;0.388386;0.535932;2.059;-0.233
17.5354;0.368966;0.498753;2.069;-0.231
17.5509;0.349214;0.41726;2.073;-0.229
17.5695;0.33587;0.470485;2.079;-0.228
17.5805;0.315605;0.309035;2.083;-0.231
17.5952;0.295055;0.366635;2.093;-0.227
17.6172;0.274239;0.355975;2.096;-0.228
17.6344;0.267245;0.355975;2.096;-0.228
17.6423;0.253177;0.422012;2.106;-0.225
17.6553;0.231887;0.414678;2.11;-0.226
17.6718;0.217577;0.335722;2.115;-0.225
17.6906;0.203179;0.293799;2.117;-0.224
17.7002;0.19595;0.259534;2.123;-0.223
17.7159;0.174146;0.291268;2.129;-0.223
17.7301;0.152186;0.244782;2.131;-0.223
17.7457;0.130089;0.346241;2.14;-0.223
17.7607;0.107875;0.27;2.14;-0.223
17.7796;0.0930103;0.220644;2.144;-0.224
17.7953;0.0781085;0.169607;2.146;-0.222
17.8098;0.0706455;0.177824;2.151;-0.223
17.8202;0.0482171;0.177824;2.151;-0.223
17.8353;0.0257454;0.20281;2.154;-0.222
17.8501;0.0032504;0.15781;2.154;-0.222
17.8666;-0.0192475;0;2.154;-0.22
17.8808;-0.041728;0.107434;2.156;-0.22
17.898;-0.0566955;0.0295521;2.157;-0.224
17.9145;-0.0716402;0.116159;2.159;-0.222
17.9288;-0.0865563;0.201722;2.165;-0.226
17.9406;-0.108864;0;2.165;-0.224
17.955;-0.131073;-0.195262;2.162;-0.222
17.9706;-0.153164;0.201953;2.164;-0.223
17.9877;-0.175118;-0.192624;2.159;-0.223
18;-0.196914;-0.192624;2.159;-0.223
18.0155;-0.218533;0.0664263;2.16;-0.22
18.0309;-0.239955;-0.140291;2.158;-0.222
18.0454;-0.261161;-0.127181;2.158;-0.222
18.0602;-0.282132;-0.134861;2.155;-0.222
18.0754;-0.30285;-0.102426;2.155;-0.222
18.0937;-0.323294;-0.053033;2.154;-0.223
18.1093;-0.343448;0.0574264;2.155;-0.224
18.1201;-0.363293;-0.0962132;2.152;-0.224
18.1356;-0.38281;-0.183088;2.145;-0.222
18.1569;-0.395632;-0.139037;2.144;-0.223
18.1736;-0.401984;-0.186896;2.142;-0.224
18.1803;-0.414566;-0.191165;2.138;-0.227
18.1952;-0.433127;-0.191165;2.138;-0.227
18.2106;-0.451298;-0.234754;2.131;-0.227
18.2259;-0.469063;-0.180996;2.129;-0.225
18.2403;-0.480673;-0.356066;2.12;-0.226
18.2556;-0.486406;-0.286606;2.116;-0.229
18.2718;-0.503311;-0.28652;2.112;-0.231
18.2858;-0.519763;-0.347516;2.107;-0.23
18.3011;-0.535747;-0.367483;2.097;-0.231
18.316;-0.55125;-0.324212;2.094;-0.232
18.3331;-0.566256;-0.334668;2.09;-0.232
18.3508;-0.580752;-0.353248;2.083;-0.234
18.3611;-0.590127;-0.270168;2.079;-0.235
18.3791;-0.599266;-0.351048;2.071;-0.235
18.3934;-0.608165;-0.377167;2.062;-0.241
18.4066;-0.612524;-0.377167;2.062;-0.241
18.4211;-0.62523;-0.367769;2.058;-0.239
18.436;-0.633389;-0.458902;2.05;-0.241
18.4508;-0.641295;-0.488025;2.041;-0.241
18.4693;-0.648944;-0.377475;2.036;-0.243
18.481;-0.65993;-0.498995;2.025;-0.245
18.4979;-0.666925;-0.548483;2.014;-0.245
18.5175;-0.673653;-0.39983;2.012;-0.246
18.5269;-0.676916;-0.546246;2;-0.246
18.5411;-0.683239;-0.441002;1.992;-0.251
18.5555;-0.686298;-0.456482;1.985;-0.25
18.5719;-0.69221;-0.559543;1.975;-0.253
18.5865;-0.700558;-0.529556;1.966;-0.251
18.6003;-0.708276;-0.529556;1.966;-0.251
18.6153;-0.715356;-0.548974;1.956;-0.252
18.6391;-0.719719;-0.522877;1.94;-0.255
18.6571;-0.721792;-0.522877;1.94;-0.255
18.6616;-0.725723;-0.542979;1.93;-0.256
18.6756;-0.727579;-0.511889;1.922;-0.255
18.6901;-0.731074;-0.483484;1.912;-0.258
18.7071;-0.734276;-0.591528;1.901;-0.259
18.721;-0.738528;-0.546427;1.891;-0.264
18.7371;-0.740994;-0.578792;1.883;-0.261
18.7526;-0.742115;-0.572861;1.874;-0.264
18.7727;-0.744136;-0.601368;1.863;-0.263
18.7805;-0.745035;-0.601368;1.863;-0.263
18.796;-0.746609;-0.577673;1.853;-0.265
18.8104;-0.74841;-0.627191;1.841;-0.268
18.8352;-0.749537;-0.633193;1.821;-0.271
18.8405;-0.749537;-0.633193;1.821;-0.271
18.8558;-0.749914;-0.638956;1.811;-0.271
18.8741;-0.749917;-0.611103;1.8;-0.273
18.8878;-0.749544;-0.65712;1.789;-0.275
18.9001;-0.748423;-0.648417;1.778;-0.276
18.9155;-0.746627;-0.67936;1.766;-0.277
18.9336;-0.74416;-0.63004;1.758;-0.278
