Time(s);Vsent(rad/s);VMeasured(rad/s);Rotation(rad)
0.015332;0.0249996;-1.82883;-4.88076
0.0240453;0.0499967;1.21422;-4.86134
0.0388676;0.124948;0.566019;-4.85228
0.0587597;0.199787;-2.46075;-4.89165
0.0749708;0.274446;1.18334;-4.87272
0.0835462;0.348858;0.30972;-4.86776
0.101217;0.373595;-1.47233;-4.89132
0.116762;0.422956;0.195408;-4.88819
0.131242;0.472147;-1.5314;-4.9127
0.143972;0.545574;-1.5314;-4.9127
0.158969;0.594257;-0.418993;-4.9194
0.174143;0.642701;1.61459;-4.89357
0.194459;0.690889;0.516551;-4.89705
0.204159;0.738801;0.516551;-4.89705
0.224311;0.786416;0.139849;-4.89481
0.236791;0.810108;0.332908;-4.88949
0.250865;0.857244;0.639417;-4.87926
0.263617;0.904039;1.48195;-4.85554
0.278687;0.927301;-0.131261;-4.85764
0.295043;0.996523;0.550165;-4.84884
0.323788;1.04218;0.775656;-4.83643
0.341106;1.10987;1.30552;-4.80129
0.35608;1.15445;1.30552;-4.80129
0.376144;1.22044;0.595291;-4.78884
0.384835;1.2422;0.595291;-4.78884
0.399417;1.28534;1.08392;-4.7715
0.420448;1.32797;1.53898;-4.74687
0.436203;1.34908;2.13142;-4.71277
0.444088;1.37006;1.6429;-4.68648
0.459512;1.3909;1.27976;-4.66601
0.474348;1.45259;1.00709;-4.64989
0.500033;1.51297;0.772648;-4.63753
0.508586;1.53279;1.75714;-4.60942
0.520232;1.57198;2.07596;-4.5762
0.534142;1.61054;2.07596;-4.5762
0.549811;1.66717;0.824546;-4.56301
0.564102;1.7223;1.39485;-4.54069
0.579693;1.74034;0.938889;-4.52567
0.594909;1.77588;1.98678;-4.49388
0.612834;1.81072;2.40117;-4.45546
0.623936;1.86161;2.01355;-4.42325
0.638935;1.91082;1.84228;-4.39377
0.658159;1.95832;1.6311;-4.36767
0.677544;2.00405;2.29159;-4.33101
0.684125;2.03354;1.77271;-4.30264
0.698924;2.04798;2.20161;-4.26742
0.716794;2.07624;1.45787;-4.24409
0.731654;2.10368;2.04431;-4.21138
0.743894;2.14325;2.04431;-4.21138
0.759091;2.15601;2.46359;-4.17196
0.777171;2.18089;3.28552;-4.1194
0.795083;2.20489;1.91589;-4.08874
0.804842;2.21657;1.31795;-4.06765
0.824366;2.22802;2.03289;-4.03513
0.834078;2.26103;3.21203;-3.98374
0.858573;2.29201;3.20644;-3.93243
0.864427;2.30188;1.1304;-3.91435
0.879691;2.31152;2.7988;-3.86957
0.894842;2.3301;2.34642;-3.83202
0.913887;2.34775;3.13191;-3.78191
0.92481;2.37246;3.13191;-3.78191
0.940246;2.38775;2.24436;-3.746
0.95664;2.4089;1.98724;-3.71421
0.977156;2.42787;1.55703;-3.64886
0.984244;2.43371;1.55703;-3.64886
0.999149;2.43931;3.50905;-3.59272
1.01434;2.44977;3.99172;-3.52885
1.02962;2.45925;1.32006;-3.50773
1.04434;2.47163;1.62609;-3.48171
1.06282;2.47865;3.68849;-3.4227
1.08335;2.48467;2.1164;-3.38883
1.09272;2.48731;3.97745;-3.3252
1.10448;2.4897;1.85324;-3.29554
1.11968;2.49374;1.85324;-3.29554
1.13572;2.49678;2.47933;-3.25587
1.15413;2.49881;2.21553;-3.16732
1.16475;2.49946;2.21553;-3.16732
1.18336;2.5;3.57684;-3.11009
1.20167;2.49954;2.4859;-3.07032
1.21323;2.49893;2.81829;-3.02522
1.22462;2.49697;2.68593;-2.98225
1.23959;2.49562;1.13636;-2.96407
1.2538;2.49216;3.25203;-2.91203
1.27089;2.48771;2.78453;-2.86748
1.28432;2.47916;2.59211;-2.82601
1.29947;2.46838;2.59211;-2.82601
1.31775;2.45539;3.10262;-2.72785
1.33561;2.44018;1.87622;-2.69783
1.34487;2.42882;1.87622;-2.69783
1.3591;2.41649;2.34583;-2.6603
1.38321;2.40319;1.94364;-2.56619
1.39949;2.39618;1.94364;-2.56619
1.40491;2.38893;2.01794;-2.53391
1.41959;2.37371;2.30183;-2.49708
1.43555;2.35755;3.48052;-2.44139
1.45106;2.34044;3.25518;-2.3893
1.46444;2.3224;2.85376;-2.34364
1.4792;2.31303;1.34141;-2.32218
1.49533;2.29359;3.28197;-2.26967
1.51846;2.27324;2.74001;-2.22583
1.52787;2.26273;2.98945;-2.178
1.54259;2.25198;2.98945;-2.178
1.55409;2.21841;1.77481;-2.1496
1.57512;2.18283;1.98232;-2.11788
1.584;2.15802;3.01049;-2.06972
1.59972;2.13235;2.82464;-2.02452
1.62415;2.10583;1.87411;-1.99454
1.63676;2.10583;2.80487;-1.94966
1.64406;2.07846;2.27087;-1.91332
1.65942;2.03585;1.96852;-1.88183
1.67456;2.00643;2.41297;-1.84322
1.69529;1.9762;3.07502;-1.79402
1.7049;1.94518;3.07502;-1.79402
1.71937;1.91339;2.36077;-1.75625
1.73417;1.86426;2.29819;-1.71948
1.76568;1.81346;1.60331;-1.6523
1.78534;1.79616;1.86402;-1.62248
1.79861;1.76103;2.822;-1.57732
1.81815;1.70701;1.23041;-1.55764
1.83556;1.67014;3.24019;-1.50579
1.84132;1.6326;1.33637;-1.48441
1.85599;1.57508;2.74672;-1.44046
1.87282;1.53594;1.11234;-1.42267
1.88987;1.47608;2.55601;-1.38177
1.90076;1.41489;2.55601;-1.38177
1.91902;1.37339;1.70194;-1.32398
1.93582;1.33134;1.20382;-1.30472
1.95399;1.31011;1.28503;-1.28416
1.96164;1.26727;1.28503;-1.28416
1.97652;1.20206;2.08782;-1.25075
1.99221;1.13576;2.07596;-1.21754
2.01155;1.06845;1.17841;-1.19868
2.02113;1.02304;1.32815;-1.17743
2.03567;0.977212;1.12896;-1.15937
2.05346;0.930998;1.23193;-1.13966
2.0703;0.884411;1.51104;-1.11548
2.08166;0.813873;1.58343;-1.09015
2.1042;0.766437;1.40068;-1.06774
2.12679;0.742603;1.40068;-1.06774
2.13276;0.718695;0.872831;-1.05377
2.14171;0.670665;1.66515;-1.02713
2.15601;0.598123;-0.232415;-1.03085
2.17621;0.525043;0.701576;-1.01962
2.20135;0.500575;-0.0215792;-1.00369
2.21796;0.42688;1.40897;-0.981148
2.23193;0.377532;0.594899;-0.97163
2.24965;0.303233;0.730516;-0.959941
2.2617;0.228662;0.266046;-0.955685
2.27866;0.178829;0.537319;-0.947088
2.29512;0.128924;0.147939;-0.944721
2.31185;0.0789685;0.684441;-0.93377
2.32158;0.00398163;0.684441;-0.93377
2.3367;-0.0710088;0.15561;-0.93128
2.35724;-0.145935;-0.272958;-0.932758
2.3764;-0.220731;0.0807419;-0.931467
2.38198;-0.245621;0.0807419;-0.931467
2.39743;-0.295327;-0.537319;-0.940064
2.41195;-0.344915;0.521932;-0.931713
2.43002;-0.394364;-0.0965051;-0.933257
2.4421;-0.468237;0.416205;-0.926597
2.45765;-0.541688;-0.251655;-0.930624
2.47639;-0.590388;-0.997567;-0.946585
2.49476;-0.614651;-0.26692;-0.950856
2.50232;-0.66299;-0.26692;-0.950856
2.51684;-0.734996;-1.01996;-0.967175
2.53226;-0.80634;-0.665468;-0.977822
2.55009;-0.876958;-0.637959;-0.98803
2.56233;-0.946787;0.0305176;-0.987542
2.57878;-0.99287;-0.614915;-0.99738
2.6011;-1.03856;0.114186;-0.995553
2.62755;-1.06124;-2.12091;-1.02949
2.62784;-1.08383;-0.65382;-1.03995
2.64291;-1.1063;-0.751877;-1.05198
2.65617;-1.15091;-0.883174;-1.06611
2.67645;-1.21697;-1.59734;-1.09167
2.68153;-1.23874;-1.59734;-1.09167
2.69679;-1.28192;-2.26656;-1.12793
2.71319;-1.34573;-1.50657;-1.15204
2.73034;-1.40832;-1.17366;-1.17082
2.74166;-1.46964;-1.00222;-1.18685
2.75643;-1.52964;-1.09227;-1.20433
2.77607;-1.58827;-2.02278;-1.23669
2.79482;-1.62656;-2.59499;-1.27821
2.80232;-1.64547;-2.393;-1.3165
2.81689;-1.6642;-0.726361;-1.32812
2.83265;-1.71942;-1.5247;-1.35252
2.85003;-1.77308;-2.23489;-1.38828
2.86149;-1.80797;-2.85491;-1.43395
2.87824;-1.84214;-0.513387;-1.44217
2.9077;-1.89201;-2.43784;-1.48117
2.92366;-1.92431;-3.21239;-1.53257
2.93865;-1.95584;-2.31656;-1.56964
2.95743;-2.00167;-1.84114;-1.59909
2.979;-2.04569;-4.74817;-1.68329
2.98343;-2.05996;-4.74817;-1.68329
2.99796;-2.08788;-1.31671;-1.70435
3.0163;-2.11496;-1.81951;-1.73347
3.03169;-2.14119;-2.43153;-1.77237
3.04274;-2.16657;-2.4931;-1.81226
3.05774;-2.20302;-1.76652;-1.84052
3.07688;-2.22621;-4.73854;-1.91634
3.09497;-2.24851;-1.67087;-1.94308
3.10342;-2.25933;-1.67087;-1.94308
3.11809;-2.29041;-1.16968;-1.96179
3.1328;-2.31944;-2.37042;-1.99972
3.15031;-2.34638;-4.45149;-2.07094
3.1637;-2.3712;-3.26304;-2.12315
3.17789;-2.37901;-0.701908;-2.13438
3.1951;-2.40098;-2.04249;-2.16706
3.21174;-2.41443;-4.14289;-2.23335
3.22305;-2.4328;-2.8332;-2.27868
3.23823;-2.44897;-1.91236;-2.30927
3.25689;-2.46294;-2.92064;-2.35601
3.27667;-2.47103;-3.47034;-2.41153
3.28371;-2.4747;-3.47034;-2.41153
3.298;-2.47812;-2.34185;-2.449
3.32419;-2.48691;-2.39417;-2.52986
3.34009;-2.48691;-2.39417;-2.52986
3.3445;-2.48934;-3.86685;-2.59173
3.35852;-2.49345;-2.00323;-2.62378
3.37694;-2.49657;-2.55237;-2.66462
3.39515;-2.49869;-3.98295;-2.72835
3.40323;-2.49937;-3.04618;-2.77709
3.41863;-2.49999;-3.56347;-2.8341
3.4418;-2.49961;-2.5632;-2.87512
3.46003;-2.49905;-1.79321;-2.90381
3.46294;-2.49823;-3.25747;-2.95593
3.47941;-2.49585;-4.1838;-3.02287
3.49457;-2.49247;-2.6378;-3.06507
3.5112;-2.4881;-3.59633;-3.12261
3.52358;-2.47967;-3.59633;-3.12261
3.53874;-2.46901;-2.63577;-3.16479
3.5669;-2.45613;-3.06364;-3.25397
3.57617;-2.45613;-1.37671;-3.276
3.58546;-2.44632;-1.37671;-3.276
3.59792;-2.43552;-4.68358;-3.35094
3.61794;-2.42375;-2.51088;-3.39111
3.63504;-2.40428;-2.30476;-3.42799
3.64294;-2.39731;-3.93742;-3.49099
3.65831;-2.37496;-2.61662;-3.53285
3.68222;-2.35887;-2.93305;-3.57978
3.69907;-2.35047;-2.3584;-3.61751
3.70572;-2.34184;-2.3584;-3.61751
3.71848;-2.31454;-3.86443;-3.67935
3.73299;-2.28515;-2.49627;-3.71929
3.76384;-2.25371;-2.88921;-3.80528
3.78286;-2.22024;-3.74018;-3.86512
3.80038;-2.19681;-1.45946;-3.88847
3.82005;-2.18477;-3.60958;-4.00223
3.82459;-2.18477;-3.60958;-4.00223
3.83938;-2.17251;-2.84551;-4.04776
3.85501;-2.13443;-2.04112;-4.08042
3.87058;-2.09442;-2.47293;-4.11999
3.88475;-2.05254;-2.47293;-4.11999
3.89956;-2.0088;-2.44975;-4.15918
3.91456;-1.96326;-3.2371;-4.21098
3.93544;-1.91595;-2.12179;-4.29465
3.94417;-1.88345;-2.12179;-4.29465
3.95916;-1.83329;-2.99715;-4.3426
3.97427;-1.78148;-2.80104;-4.38742
3.99005;-1.72807;-2.16535;-4.42207
4.00395;-1.6731;-2.58726;-4.46346
4.02239;-1.65444;-2.19027;-4.49851
4.0358;-1.63562;-2.29717;-4.53526
4.05384;-1.59748;-1.65673;-4.56177
4.06477;-1.57817;-2.59014;-4.60321
4.07933;-1.5193;-2.59014;-4.60321
4.10529;-1.45906;-2.13339;-4.67662
4.1176;-1.45906;-1.64389;-4.70292
4.12666;-1.41817;-1.64389;-4.70292
4.1397;-1.37671;-2.11211;-4.73671
4.15714;-1.3135;-2.23051;-4.7724
4.17634;-1.2491;-1.91795;-4.80309
4.18422;-1.22739;-1.63737;-4.82929
4.19933;-1.20555;-1.59734;-4.85484
4.21409;-1.13931;-2.49646;-4.89479
4.23037;-1.07205;-1.70658;-4.92209
4.24434;-1.00382;-0.847934;-4.93566
4.25994;-0.934692;-1.62609;-4.96168
4.27691;-0.864721;-1.64219;-4.98795
4.29428;-0.817637;-1.13656;-5.00614
4.30443;-0.793971;-1.13656;-5.00614
4.3192;-0.722508;-2.11365;-5.03995
4.34224;-0.650394;-0.922629;-5.09245
4.35871;-0.626222;-0.922629;-5.09245
4.36705;-0.601989;-0.185631;-5.09542
4.37967;-0.528935;-1.56658;-5.12049
4.39589;-0.455406;-1.08885;-5.13791
4.41503;-0.406155;-1.20537;-5.1572
4.42447;-0.381467;-1.02178;-5.17354
4.43957;-0.356741;0.129475;-5.17147
4.45582;-0.282359;-1.99555;-5.2034
4.47018;-0.207724;-1.99555;-5.2034
4.48448;-0.132901;-0.831575;-5.21671
4.49924;-0.0579581;0.0305176;-5.21622
4.5145;0.0170366;-0.960223;-5.23158
4.53503;0.0920159;-0.304412;-5.23645
4.54409;0.14196;-0.740016;-5.24829
4.55991;0.216764;-0.152588;-5.25073
4.57398;0.291373;-0.940129;-5.26578
4.59033;0.36572;0.575402;-5.25657
4.60465;0.439737;-0.0835758;-5.25791
4.61918;0.488866;0;-5.25791
4.6349;0.5378;0.0610352;-5.25693
4.6533;0.586519;-0.236388;-5.26071
4.66406;0.65915;-0.236388;-5.26071
4.67972;0.731189;0.0682394;-5.25962
4.69416;0.80257;0.256239;-5.25552
4.71484;0.873228;1.09334;-5.23371
4.72407;0.943101;1.09334;-5.23371
4.73922;0.989215;0.450588;-5.2265
4.75517;1.05764;1.15948;-5.20795
4.76996;1.12511;-0.0431584;-5.20864
4.78415;1.19157;2.35781;-5.17092
4.8054;1.23528;0.766901;-5.15865
4.81749;1.25696;1.20208;-5.13941
4.84047;1.2785;0.791111;-5.12676
4.844;1.29992;1.40666;-5.10425
4.85994;1.34237;1.40666;-5.10425
4.87679;1.38428;0.870962;-5.07754
4.89463;1.42563;1.06813;-5.06045
4.905;1.4461;1.06813;-5.06045
4.91988;1.50662;2.03174;-5.02794
4.93484;1.56578;1.68087;-5.00104
4.96587;1.62354;0.785499;-4.94614
4.98157;1.66123;1.09949;-4.92855
4.99727;1.69826;1.89511;-4.89823
5.01276;1.75253;2.84886;-4.85265
5.03036;1.80522;1.469;-4.82914
5.04171;1.85628;1.45146;-4.80592
5.05714;1.90568;1.74584;-4.77799
5.08348;1.95336;1.44132;-4.75493
5.09949;1.95336;2.80785;-4.71
5.10733;1.98417;1.57488;-4.6848
5.11593;2.0289;1.57488;-4.6848
5.13272;2.0718;2.08458;-4.65145
5.14982;2.11283;2.09684;-4.6179
5.16168;2.15197;1.871;-4.58796
5.17641;2.17698;3.59251;-4.53048
5.19487;2.20113;1.67852;-4.50363
5.21082;2.2244;1.0753;-4.48642
5.22169;2.25762;3.2914;-4.43376
5.23689;2.27865;1.56673;-4.40869
5.25784;2.30847;2.95394;-4.36143
5.27648;2.31795;3.10097;-4.31181
5.28129;2.3272;3.10097;-4.31181
5.29648;2.345;2.02071;-4.27948
5.31977;2.36994;1.90345;-4.21348
5.33473;2.37778;1.90345;-4.21348
5.34337;2.39274;4.44415;-4.14238
5.36;2.4134;1.81464;-4.11334
5.37647;2.42596;1.40434;-4.09087
5.39406;2.43188;2.90136;-4.04445
5.40196;2.44298;3.04518;-3.99573
5.41655;2.45311;2.76817;-3.95144
5.43156;2.46226;2.69268;-3.90835
5.46;2.47042;2.62985;-3.86628
5.46355;2.47413;3.09292;-3.81679
5.47587;2.47759;3.09292;-3.81679
5.49403;2.48378;2.87118;-3.77085
5.51083;2.48897;2.82538;-3.70412
5.52139;2.49488;2.82538;-3.70412
5.54204;2.49758;3.63018;-3.64604
5.56063;2.49856;3.26668;-3.59377
5.57408;2.49928;0.664418;-3.58314
5.58174;2.49995;3.24414;-3.53123
5.59632;2.49838;3.54281;-3.47455
5.61464;2.49455;2.5106;-3.43438
5.63599;2.49076;2.31021;-3.39742
5.64104;2.48848;3.10982;-3.34766
5.65634;2.48319;3.10982;-3.34766
5.68234;2.4734;3.50281;-3.25766
5.69821;2.4734;1.91151;-3.22708
5.70506;2.46563;1.91151;-3.22708
5.71687;2.45212;3.35039;-3.17347
5.7349;2.43642;2.5312;-3.13298
5.75167;2.42472;1.95392;-3.10171
5.76095;2.40537;2.31233;-3.06472
5.77639;2.39126;3.24787;-3.01275
5.79465;2.3762;2.97735;-2.96511
5.8105;2.36019;1.83683;-2.93572
5.82135;2.34323;2.76278;-2.89152
5.83626;2.31604;2.76278;-2.89152
5.85736;2.28676;2.79563;-2.80905
5.87642;2.27655;2.70046;-2.76584
5.88102;2.2661;2.70046;-2.76584
5.8962;2.24453;1.86152;-2.73606
5.91285;2.2105;2.32569;-2.69885
5.92973;2.17448;3.95313;-2.6356
5.94115;2.1365;0.873898;-2.62162
5.95925;2.0966;2.85278;-2.57597
5.98742;2.06894;3.09164;-2.48573
6.0075;2.05481;1.88785;-2.45553
6.01756;2.01117;1.77743;-2.42709
6.03249;1.96572;2.85156;-2.38146
6.04976;1.9185;2.38345;-2.34333
6.06285;1.86956;2.38345;-2.34333
6.07894;1.83599;2.55255;-2.30249
6.09468;1.80169;2.46056;-2.26312
6.1104;1.76667;0.832694;-2.2498
6.12287;1.71282;2.26285;-2.21359
6.13796;1.65742;2.95741;-2.16627
6.16623;1.60054;1.53777;-2.09905
6.17816;1.60054;0.934913;-2.08409
6.18277;1.58125;0.934913;-2.08409
6.19839;1.54221;1.89867;-2.05371
6.21298;1.50255;2.99591;-2.00577
6.23007;1.44194;1.82641;-1.97655
6.24332;1.38004;1.3137;-1.95553
6.25906;1.33807;1.75037;-1.92753
6.27644;1.29557;0.920102;-1.91281
6.2942;1.25255;2.37071;-1.87487
6.30281;1.23085;2.37071;-1.87487
6.31845;1.16503;1.47533;-1.85127
6.3421;1.09816;1.16489;-1.80351
6.35967;1.07564;1.16489;-1.80351
6.36828;1.05302;1.37637;-1.78148
6.38097;0.984537;1.70084;-1.75427
6.39734;0.938383;1.47075;-1.73074
6.41431;0.891855;1.19897;-1.71155
6.42333;0.868455;-0.226325;-1.71518
6.43791;0.821399;-0.226325;-1.71518
6.45281;0.774013;2.82052;-1.67005
6.46985;0.726318;1.1982;-1.65088
6.48283;0.654237;0.909667;-1.63632
6.49807;0.581568;1.12855;-1.61827
6.51604;0.508374;0.899371;-1.60388
6.53604;0.459321;0.960223;-1.58584
6.54357;0.434724;0.960223;-1.58584
6.56525;0.410083;0.0965051;-1.58429
6.57352;0.385402;1.71421;-1.55687
6.59046;0.335926;1.71421;-1.55687
6.6026;0.286315;0.537319;-1.54441
6.61841;0.261466;0.992184;-1.52853
6.63469;0.186771;0.401976;-1.5221
6.66476;0.136876;0.327976;-1.51685
6.6801;0.0619386;0.0915527;-1.51539
6.69732;0.0119449;0;-1.51539
6.71986;-0.0630484;0.77925;-1.5069
6.73608;-0.0630484;0.77925;-1.5069
6.73982;-0.113017;0.652394;-1.49647
6.75686;-0.16294;0.228373;-1.49281
6.77138;-0.212797;-0.328685;-1.49807
6.79005;-0.287418;0.320071;-1.49295
6.79992;-0.36178;0.185631;-1.48998
6.81511;-0.411178;-0.0940615;-1.49148
6.83595;-0.460412;0.21471;-1.48805
6.86413;-0.509461;-1.56092;-1.51302
6.86506;-0.533911;-0.188123;-1.51603
6.8802;-0.558307;0.125827;-1.51402
6.8903;-0.606929;0.125827;-1.51402
6.91629;-0.655309;-0.217939;-1.51751
6.92025;-0.679402;-0.609972;-1.52727
6.93541;-0.727381;-0.387826;-1.53347
6.95231;-0.775069;-1.74384;-1.56137
6.96997;-0.822447;-1.09078;-1.57883
6.98028;-0.892892;-0.460806;-1.5862
6.99632;-0.962533;-0.417322;-1.59288
7.01707;-1.03131;-1.15888;-1.61142
7.04107;-1.05403;-1.28611;-1.632
7.04143;-1.07665;-1.5279;-1.65644
7.05736;-1.12155;-1.45595;-1.67974
7.07153;-1.16601;-1.45595;-1.67974
7.09062;-1.23182;-0.803088;-1.69259
7.09988;-1.27508;-0.899112;-1.70697
7.11657;-1.31783;-1.886;-1.73715
7.13436;-1.36005;-1.62681;-1.76318
7.16055;-1.40173;-0.704226;-1.77444
7.16139;-1.42236;-1.1339;-1.79259
7.17513;-1.46319;-2.35682;-1.8303
7.19003;-1.50344;-2.36136;-1.86808
7.21447;-1.56268;-1.63295;-1.89421
7.21982;-1.60139;-0.392006;-1.90048
7.2414;-1.63946;-2.60332;-1.94213
7.25718;-1.65825;-2.60332;-1.94213
7.27151;-1.69534;-2.19239;-1.97721
7.2808;-1.74969;-2.30668;-2.01412
7.29909;-1.78505;-1.98232;-2.04583
7.31749;-1.81969;-2.16954;-2.10488
7.33519;-1.83675;-2.16954;-2.10488
7.33994;-1.85361;-2.22644;-2.1405
7.35686;-1.88679;-2.77229;-2.18486
7.37128;-1.91921;-1.28539;-2.20543
7.39005;-1.96641;-2.24539;-2.24135
7.4003;-1.99689;-2.45374;-2.28061
7.41832;-2.02657;-2.61386;-2.32244
7.43601;-2.06957;-1.36669;-2.3443
7.45195;-2.08349;-2.9466;-2.39145
7.46064;-2.1107;-2.9466;-2.39145
7.4757;-2.14994;-3.01273;-2.43965
7.49061;-2.18724;-1.00709;-2.45577
7.52392;-2.21102;-3.17468;-2.50656
7.52422;-2.22257;-1.97301;-2.53813
7.54015;-2.24502;-4.00617;-2.60223
7.55487;-2.25591;-1.17742;-2.62107
7.57367;-2.28721;-2.46454;-2.6605
7.58154;-2.30694;-3.0688;-2.7096
7.59959;-2.3348;-2.8115;-2.75458
7.61469;-2.3522;-2.73916;-2.79841
7.63603;-2.36867;-2.04124;-2.83107
7.64045;-2.37655;-3.19064;-2.88212
7.65542;-2.39159;-3.19064;-2.88212
7.67003;-2.41235;-3.95872;-2.94546
7.69024;-2.43095;-1.10203;-2.96309
7.70038;-2.44213;-3.88284;-3.02522
7.71806;-2.45234;-2.35771;-3.06294
7.73557;-2.46581;-3.45365;-3.1182
7.75235;-2.46981;-1.88353;-3.14833
7.76037;-2.48031;-4.42966;-3.21921
7.77542;-2.48859;-2.32158;-3.25635
7.80658;-2.49463;-3.47624;-3.35002
7.82611;-2.4974;-3.23061;-3.40171
7.84112;-2.49918;-2.49627;-3.44165
7.85173;-2.49998;-2.49627;-3.44165
7.87619;-2.49925;-4.0733;-3.55977
7.88176;-2.49753;-4.0733;-3.55977
7.89761;-2.4963;-1.96959;-3.59129
7.91215;-2.4911;-1.95654;-3.62259
7.92962;-2.48365;-4.4897;-3.69443
7.94264;-2.47397;-3.66962;-3.75314
7.95902;-2.46207;-1.57813;-3.77839
7.97586;-2.44794;-2.30092;-3.81521
7.99392;-2.43731;-4.83374;-3.89255
8.00249;-2.43162;-2.23791;-3.92835
8.01757;-2.41311;-1.90259;-3.95879
8.04562;-2.39242;-4.72337;-4.03437
8.05893;-2.39242;-2.93409;-4.08131
8.068;-2.38505;-2.36639;-4.11917
8.08268;-2.36958;-2.12486;-4.15317
8.09569;-2.34461;-2.12486;-4.15317
8.1166;-2.31753;-3.4085;-4.26359
8.12228;-2.30804;-3.4085;-4.26359
8.13763;-2.28837;-2.33089;-4.30089
8.15248;-2.26778;-2.73337;-4.34462
8.17048;-2.24628;-3.51098;-4.4008
8.18173;-2.21236;-2.35623;-4.4385
8.19849;-2.17644;-2.77976;-4.48297
8.21434;-2.1514;-1.98502;-4.51473
8.23574;-2.12551;-2.96135;-4.56211
8.24232;-2.09876;-3.0008;-4.61013
8.257;-2.08507;-3.0008;-4.61013
8.27284;-2.04276;-3.55647;-4.66703
8.29049;-1.99861;-1.68958;-4.69406
8.30182;-1.96818;-3.30848;-4.747
8.31919;-1.93696;-3.02685;-4.79543
8.3345;-1.90496;-1.89548;-4.82576
8.35273;-1.8722;-1.72369;-4.85333
8.3628;-1.82166;-1.72612;-4.88095
8.37748;-1.76949;-4.5356;-4.95352
8.3985;-1.71572;-2.04203;-4.98619
8.41551;-1.6604;-1.69165;-5.01326
8.42162;-1.62269;-1.69165;-5.01326
8.43767;-1.60359;-3.64849;-5.09463
8.45237;-1.56492;-3.64849;-5.09463
8.47083;-1.52561;-2.40126;-5.16889
8.48258;-1.46552;-2.40126;-5.16889
8.49774;-1.40411;-1.76018;-5.19705
8.5172;-1.34143;-3.37084;-5.25098
8.53527;-1.32027;-0.507456;-5.27857
8.54172;-1.27755;-0.507456;-5.27857
8.55681;-1.256;-2.86305;-5.32437
8.58274;-1.19059;-1.97691;-5.356
8.59978;-1.19059;-2.08112;-5.3893
8.60878;-1.14639;-2.71276;-5.43271
8.61864;-1.07924;-1.70084;-5.45992
8.63323;-1.01111;-0.621318;-5.46986
8.65266;-0.942073;-1.63309;-5.49599
8.6622;-0.872188;-1.63309;-5.49599
8.67803;-0.848716;-1.69426;-5.5231
8.69409;-0.801518;-0.550588;-5.53191
8.71031;-0.754001;-1.19177;-5.55098
8.72237;-0.682164;-2.19674;-5.58612
8.73722;-0.609714;-1.17603;-5.60494
8.75238;-0.536716;-2.34692;-5.64249
8.7756;-0.487777;-0.204718;-5.64577
8.7826;-0.438644;-0.052858;-5.64661
8.7974;-0.41401;-1.84304;-5.6761
8.81238;-0.339871;-0.768418;-5.6884
8.83102;-0.265425;-1.41688;-5.71107
8.84182;-0.190741;-1.41688;-5.71107
8.85885;-0.115885;-0.914263;-5.7257
8.87576;-0.0409247;0.223217;-5.72212
8.89402;0.00907344;-0.977287;-5.7459
8.9027;0.0340724;-0.977287;-5.7459
8.91732;0.109039;-1.01262;-5.7621
8.94354;0.183907;-0.376247;-5.77878
8.96372;0.183907;-0.376247;-5.77878
8.96443;0.233732;0.503773;-5.77072
8.98015;0.283463;0.210328;-5.76735
8.99927;0.33308;0.164342;-5.76472
9.01688;0.40725;-0.243185;-5.76861
9.02212;0.431896;-0.243185;-5.76861
9.03723;0.481054;0.186881;-5.76562
9.06117;0.554425;0.468324;-5.76108
9.0775;0.578775;0.468324;-5.76108
9.08348;0.603066;0.633931;-5.75094
9.09751;0.675569;0.232415;-5.74722
9.11736;0.747464;-0.0373762;-5.74782
9.13486;0.771282;0.397901;-5.74145
9.1422;0.818686;0.702902;-5.7302
9.15751;0.889172;0.165753;-5.72755
9.17294;0.958857;0.356547;-5.72185
9.19029;1.02768;0.906077;-5.70735
9.20233;1.07305;0.769629;-5.69504
9.21683;1.11799;0.769629;-5.69504
9.23539;1.16249;0.884491;-5.65683
9.25226;1.20652;0.835486;-5.64347
9.26223;1.22835;0.835486;-5.64347
9.27658;1.29311;0.74096;-5.63161
9.29854;1.35671;1.78201;-5.6031
9.31676;1.39843;0.695242;-5.54164
9.32183;1.41909;0.695242;-5.54164
9.33724;1.45996;0.870694;-5.52771
9.35199;1.52018;0.418993;-5.521
9.3701;1.57903;2.45099;-5.48179
9.3825;1.61747;0.785203;-5.46922
9.39828;1.65527;1.79568;-5.44049
9.41619;1.69241;0.953897;-5.42523
9.43476;1.72887;3.32989;-5.37195
9.44233;1.74684;3.32989;-5.37195
9.45704;1.7997;1.97596;-5.34034
9.4722;1.85094;1.03379;-5.3238
9.49026;1.90051;2.40795;-5.28527
9.50242;1.94838;0.164342;-5.28264
9.51759;1.96394;2.43851;-5.24362
9.53482;2.00946;1.46154;-5.22024
9.55169;2.0388;2.84043;-5.17479
9.56269;2.08128;2.63073;-5.1327
9.57681;2.12189;0.413399;-5.12609
9.60675;2.16059;3.33359;-5.07275
9.62217;2.17306;2.87588;-5.02674
9.63826;2.19734;1.45739;-5.00342
9.6538;2.22075;1.33689;-4.98203
9.67021;2.25419;3.45081;-4.92681
9.68229;2.2856;3.48674;-4.87103
9.69942;2.29562;1.75515;-4.84294
9.71479;2.32428;1.88637;-4.81276
9.73501;2.34223;2.26347;-4.77655
9.74199;2.35924;2.22424;-4.74096
9.76087;2.37531;3.00616;-4.69286
9.77647;2.39042;3.32043;-4.63973
9.79038;2.40459;2.02255;-4.60737
9.80212;2.41131;2.02255;-4.60737
9.81678;2.42402;1.91662;-4.57671
9.83498;2.43577;3.49602;-4.52077
9.85234;2.44654;1.68129;-4.45176
9.86284;2.46087;1.68129;-4.45176
9.87755;2.47298;4.45499;-4.38048
9.89841;2.48286;0.305938;-4.37558
9.91692;2.49051;2.29585;-4.27634
9.92209;2.49051;2.29585;-4.27634
9.93725;2.49436;2.86191;-4.23055
9.95239;2.49827;3.09029;-4.18111
9.98224;2.49994;1.39485;-4.10607
10.0019;2.49979;3.61635;-4.0482
10.0151;2.49865;2.68627;-4.00522
10.0302;2.49771;2.46548;-3.96578
10.0424;2.49337;2.46548;-3.96578
10.0587;2.48679;2.57634;-3.92455
10.0818;2.48116;1.23022;-3.85103
10.0976;2.47798;1.23022;-3.85103
10.1043;2.47454;3.0844;-3.80168
10.1176;2.46275;3.79281;-3.74099
10.1331;2.44875;1.63409;-3.71484
10.1556;2.43254;2.69199;-3.67177
10.1628;2.42052;3.75354;-3.61172
10.1779;2.41414;2.18612;-3.57674
10.194;2.40067;1.84455;-3.54723
10.2107;2.38624;3.50374;-3.49117
10.2226;2.3628;3.50374;-3.49117
10.244;2.34599;2.56293;-3.41023
10.2645;2.33724;3.31903;-3.35713
10.2706;2.32825;3.31903;-3.35713
10.2829;2.29989;2.35722;-3.31941
10.2985;2.26945;0.531218;-3.31091
10.3168;2.23698;4.87785;-3.23287
10.3349;2.21421;2.67158;-3.19012
10.3429;2.20249;0.639417;-3.17989
10.3575;2.16602;3.5272;-3.12346
10.3731;2.1276;1.88476;-3.0933
10.3905;2.08727;2.54698;-3.05255
10.4029;2.04505;2.54698;-3.05255
10.419;2.01589;2.94352;-3.00545
10.4349;1.98592;1.81887;-2.97635
10.4522;1.95515;2.31394;-2.93933
10.4632;1.90754;2.73082;-2.89564
10.4839;1.87484;2.0377;-2.86303
10.5021;1.85821;2.3855;-2.82486
10.5145;1.84139;1.97797;-2.79322
10.5225;1.78984;2.73482;-2.74946
10.5379;1.73668;2.3489;-2.71188
10.5556;1.68196;2.19388;-2.67678
10.5756;1.64463;0.531218;-2.66828
10.5832;1.62572;0.531218;-2.66828
10.5977;1.60665;2.98555;-2.62051
10.6126;1.54847;2.40252;-2.58207
10.6442;1.4889;1.22605;-2.53153
10.6609;1.44844;1.77861;-2.50307
10.6819;1.4074;2.21805;-2.45123
10.6902;1.3658;2.21805;-2.45123
10.7047;1.32365;2.42798;-2.41238
10.7192;1.30237;1.49087;-2.38853
10.7365;1.25944;1.37789;-2.36648
10.7569;1.19409;1.71936;-2.33897
10.7658;1.17207;0.645217;-2.32865
10.7792;1.12767;1.39952;-2.30626
10.7985;1.06024;2.74901;-2.26227
10.8162;1.01475;0.861014;-2.2485
10.825;0.991851;0.861014;-2.2485
10.8394;0.968854;0.857219;-2.23478
10.8544;0.922571;1.77756;-2.20634
10.8826;0.85246;0.853408;-2.17613
10.8921;0.85246;1.0666;-2.15906
10.9017;0.805289;1.0666;-2.15906
10.915;0.757796;1.95213;-2.12783
10.9302;0.685994;0.880798;-2.11373
10.9449;0.613575;1.21996;-2.09421
10.9601;0.564985;0.360444;-2.08845
10.9749;0.516169;0.662312;-2.07785
11.0015;0.467146;0.69323;-2.06676
11.0093;0.467146;0.772648;-2.0544
11.0253;0.417937;0.988657;-2.03858
11.0383;0.343815;0.988657;-2.03858
11.0519;0.294225;1.24901;-2.01859
11.065;0.244517;0.498663;-2.01062
11.0797;0.219625;-0.247926;-2.01458
11.0958;0.169777;1.2677;-1.9943
11.11;0.0948854;0.371263;-1.98836
11.1243;0.019908;-0.0570932;-1.98927
11.1442;-0.00509183;0.276349;-1.98485
11.1605;-0.0300911;0.299788;-1.98005
11.1729;-0.0550874;0.0215792;-1.97971
11.1847;-0.130033;0.252578;-1.97567
11.2;-0.179936;0.252578;-1.97567
11.2168;-0.229767;-0.416205;-1.98233
11.235;-0.279506;-0.423415;-1.98143
11.2451;-0.304335;-0.423415;-1.98143
11.2595;-0.353899;-0.101215;-1.98305
11.2752;-0.427973;-0.427792;-1.98989
11.3052;-0.501663;-0.401397;-1.99631
11.3213;-0.526129;-0.22939;-1.99998
11.3353;-0.5749;-1.37501;-2.02198
11.3512;-0.623442;0.17128;-2.01924
11.3805;-0.671735;-0.284649;-2.03179
11.396;-0.743663;-0.284649;-2.03179
11.4109;-0.791248;-1.12628;-2.04981
11.4302;-0.862026;-0.273809;-2.05788
11.4416;-0.932028;-0.273809;-2.05788
11.4588;-0.978234;-0.323688;-2.06306
11.4762;-1.0468;-0.924142;-2.07784
11.4937;-1.06945;-1.16449;-2.09648
11.5013;-1.11443;-1.50533;-2.12056
11.5156;-1.18105;-2.23646;-2.15635
11.5335;-1.24662;-1.7897;-2.18498
11.5545;-1.31106;-1.41606;-2.20764
11.5614;-1.35336;-0.315677;-2.21269
11.5774;-1.39513;-1.15768;-2.23121
11.6058;-1.43634;-1.31901;-2.25232
11.6231;-1.47697;-2.38149;-2.29042
11.6363;-1.51702;-1.37196;-2.31237
11.6563;-1.57594;-1.42197;-2.33512
11.675;-1.59527;-2.00451;-2.39794
11.6818;-1.63344;-2.00451;-2.39794
11.6964;-1.68948;-2.01031;-2.43011
11.7122;-1.74399;-2.003;-2.46216
11.7305;-1.79693;-2.50763;-2.50228
11.7414;-1.84826;-0.79931;-2.51507
11.7559;-1.88156;-1.87374;-2.54505
11.7753;-1.9141;-0.822849;-2.55821
11.7928;-1.94588;-4.22934;-2.62588
11.8018;-1.96148;-4.22934;-2.62588
11.8168;-2.00709;-1.5224;-2.65024
11.8372;-2.05089;-2.3856;-2.72919
11.8521;-2.09285;-2.26429;-2.76542
11.8615;-2.11978;-2.26429;-2.76542
11.8763;-2.14586;-1.80112;-2.79423
11.8927;-2.17109;-3.24572;-2.84617
11.9099;-2.19544;-2.19918;-2.88135
11.921;-2.23032;-2.98212;-2.92907
11.9406;-2.2632;-3.08009;-2.97835
11.9519;-2.27371;-2.21048;-3.01372
11.9751;-2.29404;-1.92438;-3.04451
11.9815;-2.31345;-3.23717;-3.0963
11.9968;-2.32281;-3.23717;-3.0963
12.0117;-2.34949;-2.56638;-3.13736
12.0296;-2.37406;-2.72339;-3.18094
12.0419;-2.38926;-2.65084;-3.22335
12.0602;-2.39649;-3.66072;-3.28192
12.0757;-2.41677;-2.67053;-3.32465
12.0931;-2.42908;-1.52927;-3.34912
12.101;-2.44572;-3.31327;-3.40213
12.1164;-2.46016;-4.22239;-3.46969
12.1309;-2.46856;-2.11684;-3.50356
12.1549;-2.47597;-2.50986;-3.54372
12.1613;-2.48239;-2.49319;-3.58361
12.176;-2.48782;-2.49319;-3.58361
12.194;-2.49225;-3.1185;-3.70225
12.2105;-2.49569;-1.46424;-3.72568
12.221;-2.49897;-1.46424;-3.72568
12.2511;-2.4999;-2.81374;-3.8314
12.2792;-2.5;-2.56047;-3.87237
12.2832;-2.49984;-2.6077;-3.91409
12.2979;-2.49878;-4.1799;-3.98097
12.3117;-2.49672;-1.86776;-4.01085
12.3306;-2.49175;-2.77027;-4.05518
12.3415;-2.48455;-2.77027;-4.05518
12.3587;-2.4785;-3.53999;-4.17405
12.3751;-2.47146;-1.9849;-4.20581
12.394;-2.46344;-3.29543;-4.25854
12.4018;-2.45905;-3.29543;-4.25854
12.4163;-2.44443;-4.51098;-4.33071
12.4448;-2.42761;-1.8972;-4.40317
12.4555;-2.42761;-3.13355;-4.45331
12.4626;-2.41518;-3.13355;-4.45331
12.4765;-2.4086;-2.4843;-4.49305
12.4952;-2.38742;-3.84376;-4.55455
12.5164;-2.37211;-2.82678;-4.59978
12.5211;-2.37211;-3.18011;-4.65067
12.5372;-2.35585;-3.34329;-4.70416
12.553;-2.3297;-1.6781;-4.73101
12.586;-2.30144;-3.96072;-4.82651
12.6015;-2.29156;-1.57177;-4.85166
12.616;-2.28146;-3.4156;-4.90631
12.6354;-2.26056;-3.4156;-4.90631
12.6521;-2.22751;-2.52724;-5.00769
12.6633;-2.20437;-2.52724;-5.00769
12.6765;-2.16801;-1.74837;-5.03567
12.6931;-2.12969;-2.61145;-5.07745
12.7164;-2.10308;-2.51421;-5.18038
12.722;-2.08946;-2.51421;-5.18038
12.7367;-2.06159;-2.31927;-5.21749
12.7601;-2.01824;-2.9417;-5.26456
12.775;-2.00339;-2.30173;-5.30139
12.7833;-1.97308;-2.42779;-5.34023
12.7998;-1.95763;-2.04625;-5.37297
12.8164;-1.91011;-3.57938;-5.43024
12.835;-1.89388;-2.87572;-5.47625
12.8415;-1.86087;-2.87572;-5.47625
12.8577;-1.80995;-2.04044;-5.5089
12.8738;-1.75741;-2.0708;-5.54203
12.8922;-1.70328;-1.66696;-5.5687
12.9011;-1.64763;-3.61403;-5.62653
12.9169;-1.62874;-2.30456;-5.6634
12.9342;-1.59049;-1.12338;-5.68138
12.9559;-1.55159;-3.06425;-5.7304
12.9646;-1.51208;-2.84993;-5.776
12.9769;-1.45168;-1.5827;-5.80132
13;-1.41069;-2.4033;-5.83978
13.0157;-1.38998;-1.60911;-5.86552
13.0212;-1.34815;-1.60911;-5.86552
13.0367;-1.32702;-2.51607;-5.90578
13.0527;-1.26288;-0.997333;-5.92174
13.0711;-1.19759;-1.71909;-5.99289
13.0818;-1.13123;-1.71909;-5.99289
13.0995;-1.06384;-2.67167;-6.03564
13.116;-1.01839;-0.623563;-6.04561
13.1342;-0.995505;-1.52851;-6.07007
13.1411;-0.949444;-1.08371;-6.08741
13.156;-0.879646;-2.69303;-6.1305
13.1723;-0.809057;-2.0314;-6.163
13.1904;-0.73774;-0.654532;-6.17347
13.2018;-0.689822;-1.38076;-6.19556
13.2163;-0.641628;-1.38076;-6.19556
13.2353;-0.593178;-1.45819;-6.24949
13.2511;-0.544491;-1.13575;-6.26766
13.2616;-0.520064;-1.13575;-6.26766
13.2846;-0.471057;-1.27374;-6.30113
13.2997;-0.446482;-1.27374;-6.30113
13.3179;-0.421862;0.105716;-6.29944
13.322;-0.397199;-0.844081;-6.31295
13.3381;-0.347758;-0.495853;-6.32088
13.3573;-0.298178;-0.882118;-6.335
13.3754;-0.273342;-0.969153;-6.3505
13.3818;-0.223591;-0.977287;-6.36614
13.396;-0.148802;-0.761111;-6.37832
13.4147;-0.098864;-1.3853;-6.40048
13.4305;-0.0488867;-0.871764;-6.41443
13.4418;0.0261097;-0.871764;-6.41443
13.4581;0.0511066;-0.733379;-6.42616
13.4761;0.126057;0.164342;-6.42353
13.4925;0.151018;-0.194213;-6.42664
13.5014;0.200893;-0.657372;-6.43716
13.5169;0.275549;-0.674849;-6.44796
13.531;0.349957;-0.105716;-6.44965
13.5577;0.399392;-0.0807419;-6.45094
13.5612;0.42405;0.188123;-6.44793
13.5765;0.473237;0.279698;-6.44346
13.5934;0.522236;-0.0215792;-6.4438
13.6107;0.571025;-0.110033;-6.44556
13.6215;0.643774;-0.110033;-6.44556
13.6419;0.715944;0.0965051;-6.44402
13.6548;0.739861;1.10119;-6.4264
13.6759;0.78747;0.473761;-6.4147
13.6814;0.834764;0.473761;-6.4147
13.697;0.858287;-0.167152;-6.41738
13.7129;0.928332;0.986536;-6.40159
13.7305;0.997541;1.54834;-6.37682
13.7411;1.04319;0.897038;-6.36247
13.7582;1.08841;1.4254;-6.33966
13.776;1.13321;1.90418;-6.30919
13.7924;1.17754;0.235401;-6.30543
13.8012;1.19954;0.235401;-6.30543
13.8166;1.26479;0.336387;-6.30005
13.8372;1.32891;1.42687;-6.26495
13.8571;1.39182;1.3473;-6.24339
13.861;1.41252;1.3473;-6.24339
13.878;1.45349;1.81156;-6.21441
13.8939;1.49388;1.47659;-6.19078
13.911;1.53367;0.556477;-6.18188
13.9218;1.5922;1.93512;-6.15092
13.9373;1.6493;2.24933;-6.11493
13.9565;1.70491;1.56107;-6.08995
13.9756;1.72311;1.65392;-6.06349
13.9813;1.75899;1.03356;-6.04695
13.9966;1.77666;1.03356;-6.04695
14.0125;1.82862;1.45787;-6.02362
14.0309;1.87893;1.87746;-5.95059
14.0415;1.91154;1.87746;-5.95059
14.0581;1.95901;2.25285;-5.91455
14.0759;2.00471;1.11464;-5.89671
14.0922;2.03418;2.01355;-5.8645
14.1014;2.04862;2.20806;-5.82917
14.1173;2.09067;2.05658;-5.79626
14.137;2.13085;1.88773;-5.76606
14.1576;2.16911;2.59382;-5.72456
14.1615;2.18143;2.37268;-5.6866
14.1776;2.20542;1.64786;-5.66023
14.2071;2.22852;2.95229;-5.61299
14.2238;2.25073;1.72464;-5.5854
14.2389;2.27205;2.89171;-5.53913
14.2551;2.29245;2.67707;-5.4963
14.2759;2.31194;3.70928;-5.41477
14.2825;2.32133;3.70928;-5.41477
14.2978;2.3305;1.52454;-5.39038
14.3224;2.35659;2.69674;-5.34723
14.3384;2.35659;2.74052;-5.30339
14.3421;2.36482;2.40117;-5.26497
14.3576;2.38057;2.57815;-5.22372
14.3759;2.39536;1.12379;-5.20574
14.3922;2.40919;3.86263;-5.14393
14.4024;2.41575;3.86263;-5.14393
14.4221;2.42814;2.02313;-5.06869
14.4386;2.43396;2.25316;-5.03264
14.455;2.43955;2.55173;-4.99181
14.4633;2.44999;2.55173;-4.99181
14.4783;2.45945;2.93512;-4.94485
14.4925;2.46793;2.23833;-4.90904
14.5222;2.47542;2.20024;-4.8207
14.5385;2.48192;3.83162;-4.75939
14.5552;2.48742;2.46709;-4.71992
14.5757;2.49193;1.88982;-4.68968
14.5834;2.49382;2.93782;-4.64267
14.5974;2.49683;2.93782;-4.64267
14.6157;2.49885;2.7867;-4.59809
14.6327;2.49987;0.957795;-4.53739
14.6427;2.5;0.957795;-4.53739
14.658;2.49952;3.58407;-4.48005
14.6759;2.49692;3.83563;-4.41868
14.692;2.49394;1.48508;-4.39492
14.7032;2.48996;2.22832;-4.35926
14.7177;2.48213;3.31137;-4.30628
14.7392;2.47206;3.13749;-4.25608
14.7567;2.46821;2.25181;-4.22005
14.763;2.45977;2.8144;-4.17502
14.7781;2.45518;2.8144;-4.17502
14.7922;2.43994;2.21238;-4.13962
14.8105;2.4225;3.27003;-4.0873
14.8225;2.40288;3.07729;-4.03807
14.8461;2.3886;1.81528;-3.96682
14.8592;2.3811;1.81528;-3.96682
14.8753;2.37337;4.30372;-3.89796
14.883;2.35718;1.84657;-3.86841
14.9038;2.34005;0.874164;-3.85443
14.9123;2.32199;4.24243;-3.78655
14.9316;2.303;3.23436;-3.7348
14.9428;2.28308;1.36379;-3.71298
14.9581;2.27278;2.54972;-3.67218
14.9757;2.24052;3.2455;-3.62025
14.992;2.21789;2.30244;-3.58342
15.003;2.19438;2.30244;-3.58342
15.0182;2.15746;2.5324;-3.5429
15.0392;2.11861;2.02106;-3.46813
15.0576;2.10523;3.29678;-3.41538
15.0625;2.09164;3.29678;-3.41538
15.0773;2.06384;1.78788;-3.38678
15.0923;2.02059;2.70769;-3.34346
15.111;1.97552;1.70084;-3.31624
15.1229;1.92868;3.04626;-3.2675
15.1375;1.89648;1.82271;-3.23834
15.1576;1.86352;3.16248;-3.18774
15.1751;1.84677;2.72809;-3.14409
15.1825;1.8127;2.72809;-3.14409
15.2041;1.79539;2.76379;-3.08847
15.2155;1.76024;2.76379;-3.08847
15.2309;1.7062;2.91928;-3.04177
15.2432;1.68784;1.04543;-3.02504
15.2575;1.65062;1.90321;-2.99459
15.2756;1.61274;2.54203;-2.95392
15.2919;1.57421;1.76837;-2.92562
15.3022;1.53506;2.58519;-2.88426
15.318;1.47518;0.985591;-2.86849
15.3395;1.41398;1.42507;-2.84569
15.3559;1.39329;2.89453;-2.79938
15.3627;1.3515;2.89453;-2.79938
15.3776;1.3304;0.554801;-2.7905
15.393;1.2878;2.54048;-2.74985
15.4105;1.24469;1.40632;-2.72735
15.423;1.1791;1.07313;-2.71018
15.4392;1.11244;1.38042;-2.68809
15.4575;1.06745;1.86888;-2.65819
15.475;1.04479;1.11255;-2.64039
15.4833;0.999156;1.54261;-2.61571
15.4982;0.97619;1.32006;-2.59459
15.5125;0.906715;1.98466;-2.56283
15.5306;0.836424;0.5988;-2.55325
15.5424;0.789142;1.39118;-2.53099
15.5581;0.741543;1.39118;-2.53099
15.5754;0.693648;-0.230403;-2.53468
15.5927;0.645476;0.79931;-2.51543
15.6032;0.621292;0.79931;-2.51543
15.6224;0.572739;0.874164;-2.50144
15.6402;0.548376;1.23833;-2.46989
15.6573;0.523958;1.23833;-2.46989
15.6631;0.523958;1.23833;-2.46989
15.678;0.474967;0.958767;-2.43173
15.6942;0.425786;1.08177;-2.41442
15.7219;0.351701;0.684781;-2.39185
15.7257;0.351701;0.684781;-2.39185
15.7384;0.326932;0.364299;-2.38602
15.7573;0.2773;-0.0610352;-2.387
15.7754;0.25244;0.118194;-2.38511
15.7831;0.202649;0.118194;-2.38511
15.7979;0.177721;0.224258;-2.38152
15.8134;0.102842;0.227351;-2.37788
15.8307;0.0278709;-0.410573;-2.38445
15.8431;-0.0221283;0.887382;-2.37025
15.8573;-0.0721186;0.215792;-2.3668
15.875;-0.12208;0.361089;-2.36102
15.8968;-0.171993;-0.127664;-2.36306
15.905;-0.221836;0.25895;-2.35892
15.9176;-0.271591;0.154106;-2.35646
15.9392;-0.346014;-0.0863167;-2.35784
15.9569;-0.370756;0.0373762;-2.35724
15.9627;-0.420126;0.0373762;-2.35724
15.9781;-0.444749;-0.431585;-2.36414
15.9967;-0.518341;-0.28053;-2.36863
16.0119;-0.567148;-0.703234;-2.37988
16.0222;-0.615727;-0.880269;-2.39397
16.0403;-0.639926;-0.208102;-2.3973
16.0574;-0.712129;-0.732426;-2.40902
16.0755;-0.736057;-0.470803;-2.41655
16.083;-0.78369;-1.45771;-2.43987
16.0974;-0.83101;-0.390816;-2.44613
16.1222;-0.877998;-1.02315;-2.4625
16.1398;-0.877998;-0.934664;-2.47745
16.1427;-0.901361;-0.934664;-2.47745
16.1592;-0.924634;-0.735282;-2.48922
16.1751;-0.9709;-0.938641;-2.50423
16.1924;-1.01678;-0.400235;-2.51064
16.203;-1.03957;-1.08586;-2.52801
16.2182;-1.1073;-1.44164;-2.55108
16.2375;-1.17403;-2.31585;-2.58813
16.257;-1.21794;-0.249797;-2.59213
16.2632;-1.26136;-0.999199;-2.60811
16.2778;-1.28288;-2.04932;-2.6409
16.2944;-1.32553;-1.90529;-2.67139
16.3221;-1.38852;-1.9501;-2.70259
16.3223;-1.38852;-1.9501;-2.70259
16.3397;-1.40924;-2.20003;-2.75161
16.3568;-1.45025;-0.974902;-2.76721
16.3749;-1.49068;-1.61113;-2.79299
16.3828;-1.51068;-1.61113;-2.79299
16.404;-1.55021;-2.60583;-2.83468
16.415;-1.60835;-1.38042;-2.85677
16.4306;-1.66503;-1.41737;-2.87945
16.4428;-1.6836;-2.40756;-2.91797
16.4575;-1.72022;-1.10772;-2.93569
16.4783;-1.75616;-3.19319;-2.98678
16.4939;-1.77386;-1.6395;-3.01302
16.5027;-1.80874;-1.21307;-3.03243
16.5234;-1.84289;-1.21307;-3.03243
16.5395;-1.89273;-3.42894;-3.12168
16.5568;-1.90897;-1.13902;-3.1399
16.5627;-1.94087;-1.13902;-3.1399
16.5782;-1.95653;-1.18412;-3.15885
16.5924;-2.00233;-4.17181;-3.2256
16.6105;-2.04633;-2.045;-3.25832
16.6231;-2.08849;-1.58593;-3.28369
16.6406;-2.12877;-2.22235;-3.31925
16.6569;-2.14177;-3.81767;-3.38033
16.6753;-2.16713;-0.721214;-3.39187
16.6827;-2.17948;-4.37674;-3.4619
16.7045;-2.19162;-1.82921;-3.49117
16.7138;-2.22671;-2.15759;-3.52569
16.7304;-2.2598;-2.14732;-3.56004
16.7427;-2.27038;-2.14732;-3.56004
16.7595;-2.29086;-2.6102;-3.60181
16.7748;-2.31042;-4.00373;-3.66587
16.7922;-2.32906;-2.48411;-3.70561
16.8024;-2.35526;-2.4986;-3.74559
16.818;-2.37155;-1.82488;-3.77479
16.8338;-2.39421;-3.94723;-3.83794
16.8572;-2.41472;-2.71834;-3.88144
16.8632;-2.42107;-2.40601;-3.91993
16.8782;-2.43305;-2.11607;-3.95379
16.8943;-2.4492;-3.4252;-4.00859
16.9105;-2.46313;-3.80979;-4.06955
16.9232;-2.4712;-3.80979;-4.06955
16.9409;-2.48143;-3.12849;-4.14018
16.958;-2.48435;-4.41195;-4.21077
16.9744;-2.48702;-2.21753;-4.24625
16.9828;-2.49161;-2.21753;-4.24625
16.9981;-2.49663;-1.86726;-4.27613
17.0126;-2.4994;-3.18516;-4.32709
17.0302;-2.49992;-3.36607;-4.38095
17.0426;-2.49819;-2.50596;-4.42104
17.0586;-2.49579;-4.46643;-4.49251
17.0744;-2.49239;-2.60618;-4.5342
17.0914;-2.48799;-2.7988;-4.57898
17.103;-2.47953;-2.44166;-4.61805
17.1237;-2.47265;-2.55446;-4.65892
17.1451;-2.46884;-2.55446;-4.65892
17.1519;-2.46478;-3.28517;-4.75661
17.1632;-2.45113;-3.28517;-4.75661
17.1782;-2.44609;-3.03668;-4.8052
17.1958;-2.43527;-3.48313;-4.86093
17.2152;-2.42348;-3.56523;-4.91797
17.223;-2.41722;-1.75156;-4.946
17.2424;-2.40398;-4.2868;-5.01459
17.2574;-2.397;-2.14363;-5.04888
17.2709;-2.37461;-2.97923;-5.09655
17.2831;-2.35009;-2.87264;-5.14251
17.2994;-2.33257;-2.41692;-5.18119
17.3158;-2.31412;-3.27387;-5.23357
17.3331;-2.29474;-2.41779;-5.27225
17.343;-2.2847;-2.41779;-5.27225
17.3578;-2.25323;-3.84982;-5.33385
17.3858;-2.21973;-3.51204;-5.41947
17.3958;-2.21973;-3.51204;-5.41947
17.403;-2.18423;-2.43085;-5.45836
17.4177;-2.15947;-3.21457;-5.5098
17.4384;-2.12072;-2.65066;-5.55221
17.4561;-2.10737;-2.17019;-5.58693
17.4629;-2.08005;-3.78771;-5.64754
17.4781;-2.06608;-2.77464;-5.69193
17.4937;-2.02293;-2.23302;-5.72766
17.5238;-1.97796;-1.72396;-5.75524
17.546;-1.93121;-2.80686;-5.85243
17.5545;-1.91523;-2.80686;-5.85243
17.5702;-1.86617;-1.84518;-5.88196
17.5846;-1.81544;-2.31786;-5.91904
17.5994;-1.7807;-2.46737;-5.95852
17.6155;-1.74525;-2.55337;-5.99938
17.6336;-1.7091;-3.0754;-6.04858
17.6449;-1.65361;-2.7251;-6.09218
17.6591;-1.59662;-1.80112;-6.121
17.6854;-1.55783;-2.50846;-6.16114
17.6961;-1.55783;-2.34026;-6.19858
17.7043;-1.51842;-2.34026;-6.19858
17.7198;-1.47839;-2.26994;-6.2349
17.739;-1.41726;-2.26645;-6.28933
17.7567;-1.39659;-2.0726;-6.32249
17.7648;-1.35484;-2.0726;-6.32249
17.7791;-1.33377;-1.83163;-6.35179
17.794;-1.26974;-1.98877;-6.38361
17.8108;-1.20457;-2.05488;-6.41649
17.8241;-1.13832;-2.97977;-6.46417
17.8399;-1.07105;-1.47423;-6.48776
17.8565;-1.0028;-1.10098;-6.50537
17.8751;-0.956806;-2.14036;-6.53962
17.8848;-0.933662;-1.20421;-6.55888
17.9012;-0.910424;-1.68792;-6.58589
17.9161;-0.863679;-1.68792;-6.58589
17.9324;-0.792919;-1.05054;-6.6027
17.944;-0.745345;-2.21942;-6.63821
17.959;-0.721445;-1.83962;-6.66764
17.9744;-0.673431;-0.625427;-6.67765
17.9913;-0.625148;-1.99111;-6.70951
18.0046;-0.55226;-1.12317;-6.72748
18.0196;-0.478875;-0.278865;-6.73194
18.0382;-0.40506;-1.10751;-6.74966
18.056;-0.330879;-0.368114;-6.75555
18.0646;-0.281256;-1.37535;-6.77756
18.0797;-0.256401;-0.405437;-6.78404
18.0942;-0.181693;-0.405437;-6.78404
18.1271;-0.106821;-1.37738;-6.83032
18.1478;-0.0568482;-0.487328;-6.84113
18.1608;-0.00685306;-0.487328;-6.84113
18.1738;0.0681385;-0.243185;-6.84502
18.1968;0.143069;-1.03491;-6.86585
18.2025;0.192955;-1.03491;-6.86585
18.2185;0.21787;-0.152588;-6.86829
18.2337;0.267633;-0.186881;-6.87128
18.2498;0.317289;-0.200117;-6.87449
18.263;0.391528;0.453677;-6.86723
18.2781;0.465416;0.463828;-6.85981
18.2927;0.538884;-0.345941;-6.86534
18.3154;0.611868;0.439072;-6.85831
18.3222;0.660221;1.47848;-6.83466
18.3378;0.732251;1.47848;-6.83466
18.3525;0.803621;-0.411705;-6.84125
18.3879;0.874269;0.535583;-6.82701
18.4064;0.920933;0.528141;-6.81856
18.4214;0.990234;1.05497;-6.80168
18.4397;1.01314;0;-6.80168
18.4556;1.08124;1.16569;-6.78303
18.4635;1.10373;1.16569;-6.78303
18.4782;1.1261;1.28031;-6.76254
18.493;1.19255;1.0163;-6.74628
18.5106;1.25792;1.81964;-6.71717
18.5239;1.32215;-0.422314;-6.72392
18.5386;1.3852;2.19154;-6.68886
18.5659;1.447;0.65382;-6.6784
18.5784;1.447;0.881326;-6.6643
18.5852;1.46732;1.70331;-6.63704
18.5989;1.5075;1.90088;-6.60663
18.6198;1.56665;1.55614;-6.58173
18.6344;1.58605;0.893136;-6.56744
18.643;1.62438;0.893136;-6.56744
18.6594;1.66206;3.42357;-6.51266
18.6763;1.69908;0.519249;-6.50435
18.6918;1.73541;1.21594;-6.4849
18.7037;1.77105;1.33759;-6.4635
18.7189;1.82318;2.56447;-6.42247
18.733;1.85703;1.92402;-6.39168
18.7565;1.89013;2.94652;-6.34454
18.7636;1.92247;1.00894;-6.3284
18.778;1.93836;1.87597;-6.29838
18.8014;1.98484;1.82015;-6.26926
18.8163;1.99995;2.89766;-6.2229
18.8231;2.04404;2.89766;-6.2229
18.8398;2.07242;1.6692;-6.19619
18.8565;2.09997;1.75767;-6.16807
18.8743;2.12668;2.20447;-6.13279
18.8835;2.13971;1.39585;-6.11046
18.8991;2.17753;2.72851;-6.0668
18.9134;2.21339;3.0807;-6.01751
18.9303;2.24726;3.27643;-5.96509
18.9432;2.2791;0.328685;-5.95983
18.9664;2.29919;3.03323;-5.9113
18.9787;2.3089;1.71326;-5.88389
18.9938;2.31837;2.72262;-5.84033
19.0033;2.33661;2.72262;-5.84033
19.0229;2.35392;2.11453;-5.75753
19.0331;2.37029;2.11453;-5.75753
19.0567;2.38571;1.36805;-5.69169
19.0635;2.40018;1.36805;-5.69169
19.0787;2.40705;3.89889;-5.62931
19.0937;2.42623;2.85001;-5.58371
19.1102;2.44322;2.00335;-5.55165
19.1235;2.45801;3.4286;-5.49679
19.1384;2.47059;0.719598;-5.48528
19.1563;2.48095;3.63909;-5.42705
19.1747;2.48661;3.28814;-5.37444
19.1835;2.48907;3.28814;-5.37444
19.199;2.49496;2.18366;-5.33951
19.2136;2.49859;1.70631;-5.3122
19.2325;2.49998;4.11519;-5.24636
19.2438;2.49912;2.06223;-5.21337
19.259;2.4973;2.73908;-5.16954
19.2868;2.49448;4.20951;-5.08037
19.2949;2.49448;4.20951;-5.08037
19.303;2.48838;2.31666;-5.0433
19.3187;2.48004;2.80279;-4.99845
19.3396;2.46946;1.8813;-4.96835
19.3556;2.46544;3.00282;-4.92031
19.3633;2.45667;3.00282;-4.92031
19.3788;2.45191;3.11057;-4.87054
19.3929;2.43617;2.44804;-4.83137
19.4246;2.41823;3.60887;-4.74072
19.4437;2.40507;2.17833;-4.70587
19.4553;2.38352;3.45412;-4.65061
19.4704;2.35982;2.15273;-4.61616
19.4965;2.34284;3.27935;-4.56369
19.5003;2.334;2.33189;-4.52638
19.5162;2.31562;2.31927;-4.48927
19.5324;2.29631;2.10603;-4.45558
19.5509;2.27609;3.17842;-4.40472
19.5605;2.24404;3.43912;-4.3497
19.5764;2.20998;1.7123;-4.3223
19.6053;2.17393;2.49935;-4.28231
19.6212;2.16147;2.4719;-4.24276
19.6358;2.13592;2.83821;-4.19735
19.6582;2.09599;2.90745;-4.10919
19.672;2.08226;1.79152;-4.08053
19.6804;2.05417;1.79152;-4.08053
19.697;2.02527;2.57526;-4.03932
19.7155;1.99555;1.95725;-4.00801
19.7326;1.98039;3.28566;-3.95544
19.7411;1.94948;1.57842;-3.93018
19.7561;1.90166;2.15608;-3.89569
19.7704;1.85212;2.54762;-3.85492
19.7957;1.80092;2.37228;-3.81697
19.8006;1.78349;2.37228;-3.81697
19.8168;1.7481;1.91443;-3.78634
19.8327;1.6937;1.60853;-3.7606
19.8503;1.63779;3.03645;-3.71202
19.8613;1.58039;1.0642;-3.69499
19.8787;1.52158;2.74477;-3.65107
19.895;1.46139;1.92982;-3.6202
19.9157;1.42054;1.86039;-3.59043
19.9211;1.39989;2.23083;-3.55474
19.9362;1.35819;1.28521;-3.53417
19.9504;1.29462;1.14432;-3.51586
19.9703;1.22989;2.08983;-3.48243
19.9809;1.16405;2.08983;-3.48243
19.9959;1.11957;2.25574;-3.44634
20.016;1.07464;1.78096;-3.40145
20.0322;1.05202;1.78096;-3.40145
20.0413;1.00645;2.21679;-3.36599
20.0558;0.937354;0.797268;-3.35323
20.0703;0.867414;0.606527;-3.34353
20.0953;0.796694;1.2211;-3.31219
20.1013;0.749144;1.2211;-3.31219
20.116;0.701295;0.278865;-3.30773
20.1318;0.653166;2.01263;-3.27552
20.1508;0.604775;0.317148;-3.27045
20.161;0.531741;1.49166;-3.24658
20.188;0.482782;1.30855;-3.22565
20.201;0.482782;1.25124;-3.20563
20.2156;0.458229;1.25124;-3.20563
20.2213;0.43363;0.510658;-3.19746
20.2361;0.384305;-0.0215792;-3.1978
20.2616;0.310034;-0.123963;-3.19433
20.2775;0.310034;-0.123963;-3.19433
20.2808;0.285212;0.9971;-3.17837
20.2953;0.235485;0.767508;-3.16609
20.316;0.160724;0.550165;-3.15729
20.3322;0.135768;0;-3.15729
20.3408;0.0858178;0.623936;-3.14731
20.3565;0.0108347;0.357851;-3.14158
20.3709;-0.0641583;0.622441;-3.13162
20.4042;-0.114126;0.622441;-3.13162
20.4045;-0.139093;0.586623;-3.11508
20.4193;-0.164047;0.586623;-3.11508
20.4346;-0.213903;-0.298231;-3.11986
20.4506;-0.263674;0.0647376;-3.11882
20.4604;-0.338126;0.0915527;-3.11736
20.4789;-0.412273;0.167152;-3.11468
20.4964;-0.48605;-0.938641;-3.1297
20.516;-0.510548;0.446956;-3.12255
20.5214;-0.534995;-0.533405;-3.13108
20.5361;-0.583727;-0.514293;-3.13931
20.5505;-0.65638;-1.16569;-3.15796
20.5704;-0.728443;-0.127664;-3.16001
20.5805;-0.776124;-0.127664;-3.16001
20.5985;-0.823495;-0.680689;-3.1709
20.6157;-0.893929;-0.60499;-3.19363
20.6328;-0.917231;-0.60499;-3.19363
20.6415;-0.963557;-1.55733;-3.21855
20.6558;-1.03232;-1.41737;-3.24122
20.6763;-1.10015;-1.73178;-3.26893
20.695;-1.16699;-1.13123;-3.28703
20.7014;-1.21098;-1.13123;-3.28703
20.7157;-1.25447;-0.439602;-3.31089
20.7329;-1.29747;-2.07282;-3.34405
20.7501;-1.33995;-0.988422;-3.35987
20.7615;-1.40265;-0.988422;-3.35987
20.7862;-1.44376;-2.33418;-3.41503
20.7956;-1.44376;-1.20459;-3.4343
20.8118;-1.48428;-2.54487;-3.47502
20.8213;-1.54396;-2.54487;-3.47502
20.8394;-1.58297;-2.06888;-3.50812
20.8563;-1.6403;-2.12519;-3.54213
20.8738;-1.65908;-1.25199;-3.56216
20.8805;-1.69615;-1.62294;-3.58812
20.8961;-1.75048;-1.17167;-3.60687
20.9105;-1.80323;-3.8074;-3.66779
20.9313;-1.85436;-0.978954;-3.68345
20.9409;-1.88752;-2.80744;-3.72837
20.9561;-1.91993;-2.35968;-3.76613
20.9743;-1.95156;-2.08726;-3.79952
20.9907;-1.98242;-1.86452;-3.82936
21.0014;-2.02722;-1.86452;-3.82936
21.0155;-2.07019;-1.47233;-3.85291
21.0468;-2.1113;-2.99194;-3.94632
21.0645;-2.12458;-1.54713;-3.97107
21.077;-2.13765;-1.75926;-3.99922
21.0931;-2.16315;-4.47332;-4.07079
21.1104;-2.18778;-1.01927;-4.0871
21.1224;-2.22308;-2.78143;-4.1316
21.139;-2.25639;-2.78879;-4.17622
21.1562;-2.27746;-3.48246;-4.23194
21.1737;-2.29763;-2.55072;-4.27275
21.1822;-2.30737;-2.55072;-4.27275
21.2025;-2.32615;-2.38852;-4.36221
21.2193;-2.33519;-2.07921;-4.39548
21.2342;-2.35258;-4.44803;-4.46665
21.2427;-2.37689;-4.44803;-4.46665
21.257;-2.39906;-0.660904;-4.47722
21.2786;-2.41908;-2.51329;-4.51743
21.2949;-2.43691;-3.59037;-4.57488
21.3021;-2.44759;-2.38452;-4.61303
21.3241;-2.45728;-3.12946;-4.6631
21.3404;-2.46176;-3.11177;-4.71289
21.3535;-2.46998;-2.92455;-4.75968
21.3622;-2.48045;-2.92455;-4.75968
21.3773;-2.4862;-3.19793;-4.81085
21.3965;-2.49095;-1.30944;-4.87285
21.4149;-2.4947;-5.52168;-4.9612
21.4224;-2.4962;-5.52168;-4.9612
21.4414;-2.49846;-2.00544;-4.99328
21.4549;-2.49971;-2.26892;-5.02959
21.4708;-2.49997;-2.85703;-5.0753
21.4828;-2.49923;-3.73743;-5.1351
21.4977;-2.49748;-3.09029;-5.18454
21.5149;-2.493;-3.05526;-5.23343
21.5442;-2.48876;-2.72433;-5.3216
21.5642;-2.48352;-2.15587;-5.35609
21.5789;-2.47381;-3.23832;-5.40791
