Time(s);Vsent(rad/s);VMeasured(rad/s);Rotation(rad)
0.0136253;0;-0.150755;1.93803
0.020268;0;-0.150755;1.93803
0.0308576;0;1.53795;1.96263
0.0426653;0;-1.00874;1.9465
0.0501808;0;0.235714;1.95027
0.0603033;0;0.235714;1.95027
0.0725019;100;-0.00682473;1.95016
0.0807253;100;-0.769675;1.93784
0.0910424;100;-0.663146;1.92723
0.111483;100;1.26614;1.94749
0.121615;100;-0.641435;1.93472
0.136691;100;1.55573;1.95961
0.143391;100;-0.975467;1.94401
0.152158;100;-0.975467;1.94401
0.162616;100;1.72563;1.97162
0.172558;100;2.02389;2.004
0.182062;100;2.63181;2.04611
0.198269;100;2.96502;2.09355
0.209126;100;4.11965;2.15946
0.211574;0;4.11965;2.15946
0.22504;0;2.77314;2.20383
0.232511;0;2.93544;2.2508
0.242125;0;3.72049;2.31033
0.256076;0;3.72049;2.31033
0.262541;0;3.85162;2.37195
0.271674;0;3.49842;2.42793
0.291881;0;3.24544;2.47985
0.302157;0;2.48463;2.57218
0.318863;0;1.55187;2.59701
0.327673;0;1.25618;2.61711
0.332047;0;1.25618;2.61711
0.344408;0;1.83208;2.64643
0.353049;0;-0.681236;2.63553
0.362513;0;1.36223;2.65732
0.372582;0;1.12063;2.67525
0.382057;0;1.12063;2.67525
0.392501;0;-0.4168;2.66858
0.402995;0;0.482038;2.6763
0.413573;0;-0.574902;2.6671
0.423572;0;-0.00199676;2.66707
0.433473;0;-0.112534;2.66527
0.445394;0;-0.112534;2.66527
0.453426;0;0.312433;2.67026
0.462844;0;0.366718;2.67613
0.477299;0;0.217468;2.67961
0.482581;0;0.500321;2.68762
0.492228;0;1.34224;2.70909
0.506598;0;1.08516;2.72645
0.512659;0;1.08516;2.72645
0.522542;0;-0.0343025;2.72591
0.533131;0;0.357151;2.73162
0.542182;0;0.489578;2.73945
0.552901;0;0.292823;2.74414
0.565858;100;0.0599027;2.7451
0.572258;100;0.0599027;2.7451
0.582804;100;-1.24;2.72526
0.592879;100;-0.806972;2.71235
0.60226;100;-0.806972;2.71235
0.612002;100;-0.115737;2.71049
0.624354;100;-1.14462;2.69218
0.635055;100;-0.0273883;2.69174
0.642156;100;0.224948;2.69534
0.658865;100;1.34704;2.71689
0.66668;100;3.5463;2.77363
0.671935;100;4.32539;2.84284
0.682543;100;4.32539;2.84284
0.693385;0;3.3903;2.89709
0.702966;0;3.66719;2.95576
0.71537;0;3.72177;3.01531
0.722361;0;4.30483;3.08419
0.732824;0;-388.327;3.15414
0.746731;0;-388.327;3.15414
0.756454;0;3.21746;3.20562
0.76243;0;4.66926;3.28033
0.773903;0;4.78663;3.35691
0.783054;0;3.25912;3.40906
0.792728;0;3.25912;3.40906
0.80979;0;3.87445;3.47105
0.815849;0;3.87445;3.47105
0.822433;0;2.84265;3.56423
0.838607;0;2.84265;3.56423
0.84231;0;0.733301;3.62086
0.852281;0;2.25034;3.65686
0.8681;0;0.904649;3.67134
0.872006;0;0.904649;3.67134
0.882879;0;2.04352;3.70403
0.90346;0;-0.474766;3.69644
0.91801;100;-1.17786;3.69623
0.928634;100;-1.17786;3.69623
0.933945;100;1.35528;3.71791
0.943865;100;-1.52706;3.69348
0.954845;100;-0.477493;3.68584
0.964115;100;0.404418;3.69231
0.974203;0;0.331819;3.69762
0.992244;0;-0.406265;3.69112
1.00146;0;2.29405;3.72783
1.00369;0;2.29405;3.72783
1.02084;0;1.62876;3.75389
1.02893;0;2.83016;3.79917
1.03377;0;2.21212;3.83456
1.05116;100;2.21212;3.83456
1.05443;100;2.1105;3.86833
1.06446;100;3.10829;3.91806
1.0807;100;1.12702;3.9361
1.08423;100;1.12702;3.9361
1.09437;100;2.64271;3.97838
1.10765;100;0.94448;3.99349
1.11693;0;1.47967;4.01717
1.12453;0;1.75147;4.04519
1.13713;0;2.19552;4.08032
1.14547;0;3.32758;4.13356
1.15365;0;4.83203;4.21087
1.16633;0;4.83203;4.21087
1.17434;0;1.52934;4.23534
1.18438;100;2.32184;4.27249
1.20007;100;4.0565;4.33739
1.20615;100;4.0565;4.33739
1.21674;100;2.28111;4.40537
1.22408;100;2.28111;4.40537
1.23448;100;0.836655;4.41876
1.24386;100;2.99203;4.46663
1.25441;100;-0.354759;4.46095
1.26428;100;-0.354759;4.46095
1.27457;100;2.05434;4.51123
1.28391;100;2.05434;4.51123
1.2985;100;3.4513;4.56645
1.30587;100;2.52657;4.60688
1.314;100;2.62159;4.64882
1.33065;0;3.91734;4.7115
1.33383;0;3.91734;4.7115
1.34449;0;4.65274;4.78594
1.35604;0;1.71687;4.81341
1.36433;0;4.96161;4.8928
1.37384;0;2.53277;4.93332
1.38728;0;4.14827;4.9997
1.39514;0;4.14827;4.9997
1.40451;0;1.48517;5.02346
1.41434;0;2.02552;5.05587
1.42416;0;1.72156;5.08341
1.43453;0;2.02543;5.11582
1.44548;0;2.02543;5.11582
1.45445;0;1.24992;5.13582
1.4638;100;0.136353;5.138
1.47813;100;0.699207;5.14919
1.48912;100;0.867471;5.16307
1.49363;100;-0.0498146;5.16227
1.50553;100;-0.0498146;5.16227
1.51426;100;0.32752;5.16751
1.5236;100;-1.19849;5.14833
1.53602;100;-1.14474;5.13002
1.54423;100;-0.712961;5.11861
1.55376;100;0.463791;5.12603
1.57344;100;-0.205204;5.12275
1.57378;100;-0.205204;5.12275
1.58491;100;1.80499;5.15163
1.5952;100;2.73085;5.19532
1.60378;0;2.09062;5.22877
1.61414;0;2.41103;5.26735
1.62826;0;3.04891;5.31613
1.63621;0;3.04891;5.31613
1.64381;0;4.18238;5.38305
1.66199;0;3.14159;5.49514
1.66882;0;3.14159;5.49514
1.674;0;3.66262;5.55374
1.68908;0;3.66262;5.55374
1.69392;0;2.04094;5.5864
1.70435;0;2.64996;5.6288
1.72491;0;1.33805;5.65021
1.7352;100;2.62539;5.69221
1.74982;100;1.73078;5.72487
1.75553;100;0.459719;5.73222
1.76575;100;0.459719;5.73222
1.77626;100;0.489894;5.74006
1.78704;100;0.0772662;5.7413
1.79534;100;1.66943;5.76801
1.81721;0;1.66943;5.76801
1.82796;0;0.145417;5.7748
1.83875;0;4.34665;5.84435
1.84721;0;2.68789;5.88736
1.85776;0;3.92023;5.95008
1.87108;0;3.11626;5.99994
1.88112;100;2.9516;6.04717
1.88747;100;2.9516;6.04717
1.90443;100;4.63049;6.12125
1.91505;100;2.88302;6.19809
1.91741;100;2.88302;6.19809
1.93223;100;0.414432;6.20472
1.9375;100;2.21818;6.24021
1.94732;100;2.21818;6.24021
1.96277;100;2.5435;6.28091
1.96869;100;3.30325;0.0505742
1.9774;100;2.16884;0.0852756
1.99327;100;3.69068;0.144327
2.00173;100;3.26509;0.196568
2.00821;100;3.26509;0.196568
2.02618;100;5.37781;0.282613
2.04214;100;4.08312;0.406483
2.05677;100;4.21012;0.473845
2.06682;100;5.44383;0.560946
2.07236;100;4.03721;0.625541
2.08862;100;2.82281;0.670706
2.09315;100;2.82281;0.670706
2.10315;100;5.39772;0.75707
2.11775;100;3.3661;0.810927
2.12638;100;4.72524;0.886531
2.13326;100;4.16063;0.953101
2.15103;100;3.39203;1.00737
2.15916;100;4.77982;1.08385
2.1626;100;4.77982;1.08385
2.17435;100;3.72063;1.14338
2.18531;100;5.43029;1.23027
2.19231;100;6.13806;1.32847
2.20701;100;6.13806;1.32847
2.2192;100;4.70343;1.44803
2.22256;100;4.70343;1.44803
2.23365;100;4.69602;1.52317
2.24268;100;5.90228;1.6176
2.25249;100;3.02342;1.66598
2.27154;100;3.02342;1.66598
2.28209;100;8.50324;1.80203
2.28235;100;8.50324;1.80203
2.30133;0;3.84337;1.86352
2.30748;0;4.85241;1.94116
2.31262;0;4.34076;2.01061
2.33038;0;4.34076;2.01061
2.33438;0;3.03167;2.05912
2.34242;0;4.87342;2.13709
2.35638;0;4.34089;2.20655
2.36912;0;4.07346;2.27172
2.37253;100;3.87372;2.3337
2.38859;100;2.94851;2.38088
2.39883;100;1.87211;2.41083
2.40223;100;1.87211;2.41083
2.42173;100;2.18213;2.44575
2.42835;100;0.965327;2.46119
2.43316;100;0.965327;2.46119
2.44995;100;2.66093;2.50377
2.45336;100;2.66093;2.50377
2.46329;100;2.66093;2.50377
2.47307;100;2.13337;2.5379
2.48436;100;6.4223;2.64066
2.49275;100;6.4223;2.64066
2.5033;100;4.96209;2.72005
2.51802;100;8.41379;2.85467
2.52234;100;8.41379;2.85467
2.5325;100;8.41379;2.85467
2.54308;100;6.02895;2.95114
2.55249;100;7.77556;3.07554
2.56228;100;7.77556;3.07554
2.57287;100;-386.405;3.17626
2.58221;100;5.5781;3.26551
2.59265;100;6.28711;3.43615
2.60564;100;5.33418;3.5215
2.61598;100;4.2903;3.59015
2.62252;100;5.24704;3.6741
2.63311;100;5.24704;3.6741
2.64268;0;5.02065;3.75443
2.65281;0;4.02369;3.81881
2.66276;0;4.02369;3.81881
2.67258;0;3.71736;3.94812
2.68273;0;3.71736;3.94812
2.69345;0;4.21685;4.01559
2.70238;0;2.3066;4.0525
2.71274;0;5.06061;4.13346
2.72326;0;0.89933;4.14785
2.7326;0;0.89933;4.14785
2.74305;0;2.47823;4.18751
2.75305;0;2.22887;4.22317
2.76234;0;1.82024;4.25229
2.77283;0;1.44184;4.27536
2.78668;100;-0.428885;4.2685
2.79266;100;0.858426;4.28223
2.80284;100;0.858426;4.28223
2.81446;100;0.718586;4.29373
2.82225;100;0.119798;4.29565
2.8324;100;0.119798;4.29565
2.84849;100;1.45869;4.33337
2.8531;100;1.45869;4.33337
2.86257;100;1.41622;4.35603
2.87236;100;0.382215;4.36214
2.88282;100;2.57616;4.40336
2.89261;100;0.481807;4.41107
2.90843;100;0.481807;4.41107
2.91917;100;3.48981;4.48231
2.92251;0;3.48981;4.48231
2.94066;0;2.65295;4.52476
2.94886;0;2.4752;4.56436
2.9525;0;3.41395;4.61898
2.96526;0;4.12828;4.68504
2.97224;0;4.03325;4.74957
2.98237;0;4.03325;4.74957
2.99308;100;3.6397;4.8078
3.00312;100;3.05346;4.85666
3.01284;100;2.29429;4.89337
3.03091;100;1.48635;4.91715
3.04127;100;0.253215;4.9212
3.04264;100;0.253215;4.9212
3.06125;100;0.639319;4.93143
3.06826;100;-0.177883;4.92858
3.07256;100;-0.415727;4.92193
3.08906;100;0.232525;4.92565
3.09323;100;-2.4834;4.88592
3.10245;100;-2.4834;4.88592
3.11477;100;4.4068;4.95643
3.12315;100;1.07598;4.97364
3.13263;100;1.92101;5.00438
3.14752;100;3.64421;5.06269
3.15278;100;3.64421;5.06269
3.16302;100;3.02259;5.11105
3.17304;100;3.89019;5.17329
3.18834;100;3.06316;5.2223
3.19288;100;4.09786;5.28787
3.20253;0;3.93746;5.35087
3.21896;0;3.75706;5.41098
3.22312;0;3.75706;5.41098
3.23232;0;3.89365;5.47328
3.24669;0;3.8012;5.5341
3.25304;0;3.90915;5.59664
3.26249;0;3.90915;5.59664
3.27291;100;1.16355;5.61526
3.2831;100;5.42463;5.70205
3.29255;100;0.734389;5.7138
3.30323;100;0.734389;5.7138
3.31289;100;0.576168;5.74009
3.3228;100;0.482004;5.7478
3.33944;100;0.482004;5.7478
3.34678;100;-0.434425;5.74085
3.35316;100;-0.463806;5.73343
3.36364;100;2.07483;5.76662
3.37225;100;0.397649;5.77298
3.38218;100;2.49392;5.81289
3.39815;100;2.49392;5.81289
3.41046;100;2.84879;5.88085
3.41285;100;2.84879;5.88085
3.42376;100;3.00524;5.92893
3.4332;100;2.60589;5.97063
3.44305;100;2.60589;5.97063
3.4542;100;3.49798;6.02659
3.46314;100;3.62453;6.08459
3.47234;100;2.39125;6.12285
3.48895;0;4.02432;6.18723
3.49905;0;4.72318;6.26281
3.50239;0;3.29227;0.0322965
3.51726;0;3.7201;0.0918181
3.52247;0;3.7201;0.0918181
3.53226;0;4.10863;0.157556
3.55172;0;3.74898;0.278323
3.55808;0;3.74898;0.278323
3.56255;0;3.74898;0.278323
3.57575;0;1.99694;0.310274
3.58467;0;4.48359;0.382011
3.59309;0;0.759022;0.394156
3.60343;0;3.77546;0.454563
3.61257;0;1.51146;0.478746
3.62306;100;1.51146;0.478746
3.63629;100;0.687283;0.489743
3.64668;100;-0.304567;0.48487
3.65316;100;1.31902;0.505974
3.66664;100;1.31902;0.505974
3.67622;100;1.03039;0.520121
3.68281;100;1.03039;0.520121
3.69541;0;0.702843;0.531367
3.70311;0;0.891175;0.545626
3.71293;0;3.50806;0.601755
3.72629;0;1.2295;0.621427
3.73262;0;1.2295;0.621427
3.74333;0;3.17273;0.67219
3.75661;0;1.55185;0.69702
3.76239;100;2.98764;0.744822
3.77244;100;1.76092;0.772997
3.79359;100;1.27416;0.793384
3.80425;100;0.253376;0.797438
3.81972;100;1.72439;0.825028
3.82572;0;-0.117999;0.82314
3.83392;0;0.148859;0.825522
3.84491;0;0.148859;0.825522
3.85433;0;1.86124;0.86677
3.86411;0;0.800312;0.879575
3.87849;0;0.800312;0.879575
3.88509;0;0.800312;0.879575
3.89599;100;5.49867;0.967554
3.90821;100;1.86382;0.997375
3.91787;100;1.46355;1.02079
3.92398;100;1.46355;1.02079
3.93882;100;0.702612;1.03203
3.94411;100;0.0113472;1.03221
3.95436;100;-0.199534;1.02902
3.96543;0;0.916332;1.04368
3.9746;0;0.889905;1.05792
3.9838;0;0.889905;1.05792
4.00762;0;1.29656;1.08559
4.01875;0;2.67708;1.12842
4.03512;0;1.44465;1.15153
4.04053;0;3.59364;1.20903
4.04864;0;0.314608;1.21407
4.06378;0;2.33217;1.25138
4.068;0;2.33217;1.25138
4.07813;0;1.6497;1.27778
4.10363;0;0.773378;1.29015
4.11424;100;0.359207;1.31922
4.12893;100;0.610948;1.329
4.13431;100;1.44227;1.35207
4.14441;100;-1.19916;1.33289
4.15424;100;-1.19916;1.33289
4.16518;100;0.00116974;1.33291
4.17441;0;-0.838742;1.31949
4.18784;0;-0.228584;1.31583
4.19464;0;0.243232;1.31972
4.2047;0;0.505716;1.32781
4.21664;0;0.505716;1.32781
4.22379;0;1.82854;1.35707
4.23386;0;0.44629;1.36421
4.25233;100;1.77867;1.45025
4.26151;100;1.77867;1.45025
4.26476;100;1.38216;1.47236
4.28226;100;1.84787;1.50193
4.28433;100;1.84787;1.50193
4.29474;100;1.07785;1.51917
4.30858;100;0.794612;1.53189
4.31505;0;0.60235;1.54152
4.32364;0;1.09658;1.55907
4.33823;0;1.09658;1.55907
4.34465;0;2.26656;1.59533
4.35442;0;2.56827;1.63643
4.37278;0;4.11422;1.74414
4.37396;0;4.11422;1.74414
4.38395;0;4.11422;1.74414
4.40093;0;2.57632;1.78536
4.41037;0;4.02371;1.92602
4.41475;0;4.02371;1.92602
4.43264;0;2.72735;1.96966
4.43974;0;3.43939;2.02469
4.44398;0;1.92615;2.05551
4.45415;0;1.92615;2.05551
4.46441;0;1.70915;2.08286
4.47449;0;0.528499;2.09131
4.49278;0;3.68111;2.15021
4.50423;0;0.294119;2.13342
4.51782;0;0.359267;2.13917
4.52527;100;0.359267;2.13917
4.53491;100;-0.0301301;2.13869
4.54714;100;-0.157595;2.13617
4.55435;100;0.512958;2.14437
4.56429;100;-1.78003;2.11589
4.58043;100;-1.78003;2.11589
4.5849;100;0.73871;2.12771
4.59498;0;-0.333011;2.12239
4.61663;0;-0.401378;2.11596
4.62785;0;1.0706;2.15827
4.64032;0;0.343591;2.16377
4.64921;0;2.06411;2.19679
4.65771;0;2.06411;2.19679
4.66687;0;0.646219;2.20713
4.67758;0;0.495151;2.21506
4.6873;0;1.23343;2.23479
4.71053;0;1.04536;2.26269
4.72108;0;0.191242;2.26575
4.73317;100;0.191242;2.26575
4.74142;100;0.499591;2.27374
4.75114;100;0.298619;2.27852
4.76349;100;0.838876;2.29194
4.77191;100;-0.650212;2.28154
4.78085;100;1.45265;2.30478
4.79288;100;1.45265;2.30478
4.80114;0;-1.07604;2.28756
4.8115;0;2.09123;2.32102
4.83237;0;2.15265;2.37832
4.84386;0;2.15265;2.37832
4.85658;0;2.8085;2.42325
4.86264;0;2.63509;2.46542
4.87331;100;3.15437;2.51589
4.886;100;3.0617;2.56487
4.89313;100;3.26216;2.61707
4.90335;100;1.70536;2.64435
4.91435;100;1.70536;2.64435
4.92335;100;2.6868;2.68734
4.93273;100;1.86704;2.71722
4.94568;100;2.47799;2.75686
4.95323;100;1.57973;2.78214
4.96347;100;2.19816;2.81731
4.97919;100;2.87636;2.86333
4.99435;100;2.34117;2.90079
5.01328;0;3.61833;2.99261
5.01753;0;3.61833;2.99261
5.0245;0;4.5971;3.06616
5.04239;0;3.4585;3.1215
5.04455;0;3.4585;3.1215
5.05465;0;-389.121;3.17875
5.06514;0;4.64226;3.25303
5.0751;0;4.15061;3.31944
5.08455;100;3.6688;3.37814
5.09878;100;3.6688;3.37814
5.10486;100;4.10394;3.4438
5.11465;100;3.18736;3.4948
5.13237;100;4.57658;3.63218
5.14358;100;3.91842;3.69487
5.14421;100;3.91842;3.69487
5.16124;0;3.83639;3.75625
5.16951;0;5.01339;3.83647
5.17479;0;5.01339;3.83647
5.18947;0;3.28808;3.88908
5.19443;0;4.03638;3.95366
5.20471;0;4.90558;4.03215
5.22872;0;3.74821;4.16662
5.23932;0;2.58513;4.20798
5.24895;0;2.58513;4.20798
5.25943;0;2.94869;4.25516
5.26983;0;2.11436;4.28899
5.27965;0;1.28313;4.30952
5.28966;0;0.308767;4.31446
5.29909;0;0.308767;4.31446
5.31049;0;0.644848;4.32477
5.31923;0;0.456646;4.33208
5.32908;0;-0.710055;4.32072
5.3474;0;0.732139;4.33243
5.35757;0;-0.973351;4.31686
5.35907;100;-0.973351;4.31686
5.37427;100;1.42713;4.33969
5.37972;100;-0.838973;4.32627
5.38979;100;-0.481635;4.31857
5.39909;100;-0.481635;4.31857
5.40965;100;-1.10692;4.28858
5.41935;100;0.685543;4.29955
5.43943;100;0.685543;4.29955
5.44962;100;0.0873804;4.29677
5.46415;100;1.52274;4.32114
5.46984;100;1.33169;4.34244
5.48019;100;3.46724;4.39792
5.49172;100;3.46724;4.39792
5.50059;0;3.41938;4.45263
5.51037;0;3.06577;4.50168
5.5222;0;4.4722;4.57324
5.5299;0;2.08655;4.60662
5.54048;0;2.81107;4.6516
5.55835;0;4.0967;4.71714
5.56738;0;1.15263;4.73559
5.56978;0;1.15263;4.73559
5.58915;0;2.15809;4.77012
5.59885;0;1.09067;4.78757
5.60033;0;1.09067;4.78757
5.61407;0;1.05198;4.8044
5.62003;0;-0.23926;4.80057
5.62983;0;0.686221;4.81155
5.64896;100;-0.815324;4.79851
5.65536;100;-0.233412;4.79477
5.65972;100;-0.233412;4.79477
5.67996;100;-0.530235;4.79051
5.69111;100;0.578672;4.79977
5.70539;100;0.0102147;4.79994
5.71038;100;1.15617;4.81843
5.72079;100;1.15617;4.81843
5.7379;100;0.659317;4.8169
5.74148;100;0.659317;4.8169
5.75074;100;-0.506133;4.8088
5.77354;100;3.54945;4.86559
5.78391;100;2.57462;4.93285
5.79632;100;2.41992;4.97157
5.80383;100;2.41992;4.97157
5.8141;100;3.48785;5.02738
5.82372;100;3.61355;5.0852
5.83442;100;4.1004;5.1508
5.84426;0;4.1004;5.1508
5.85676;0;2.91434;5.19743
5.86414;0;2.629;5.23949
5.87365;0;4.33517;5.30886
5.88799;0;4.17696;5.37569
5.89424;0;2.93163;5.4226
5.90409;0;3.96782;5.48608
5.92661;0;2.56957;5.52719
5.93689;0;3.95788;5.59052
5.95022;0;1.73694;5.61831
5.95862;0;4.53133;5.69081
5.96696;0;1.59027;5.71626
5.97746;0;1.82658;5.74548
5.98763;100;0.864189;5.75931
5.9968;100;0.864189;5.75931
6.00774;100;0.696737;5.77046
6.01696;100;1.21813;5.78995
6.02712;100;0.0954978;5.79147
6.04713;100;-1.03083;5.77498
6.05716;100;0.325382;5.80288
6.07639;100;0.325382;5.80288
6.08151;100;1.61795;5.82877
6.08828;100;3.59087;5.88622
6.1067;100;3.78356;5.94676
6.1116;100;2.60361;5.98842
6.11784;100;2.60361;5.98842
6.13072;100;5.43815;6.07543
6.13949;100;3.72075;6.13496
6.14772;100;4.52461;6.20735
6.15997;100;5.8916;0.0184348
6.16739;100;3.21728;0.0699112
6.17804;100;5.08243;0.15123
6.19071;100;5.08243;0.15123
6.19753;100;4.31825;0.220322
6.20809;100;4.20414;0.287588
6.22187;100;4.7947;0.364304
6.22777;100;3.41971;0.419019
6.23719;100;4.02171;0.483366
6.25311;100;4.02171;0.483366
6.25908;100;3.17528;0.534171
6.26763;0;5.05806;0.6151
6.28581;0;3.02384;0.663481
6.29171;0;4.85469;0.741156
6.29786;0;4.85469;0.741156
6.31254;0;3.12609;0.791174
6.32038;0;3.12609;0.791174
6.32793;0;4.10611;0.856871
6.34247;0;4.10611;0.856871
6.34746;0;4.18721;0.923867
6.35726;0;4.18721;0.923867
6.37406;0;7.49252;1.04375
6.37782;0;3.00054;1.09176
6.38802;0;3.24492;1.14367
6.40528;0;2.60347;1.18533
6.41375;0;1.4429;1.23709
6.42269;0;0.729851;1.24877
6.428;0;0.729851;1.24877
6.43859;0;2.31694;1.28584
6.4479;0;1.12896;1.30391
6.45768;0;-0.622548;1.29394
6.46813;100;0.639305;1.30417
6.47739;100;0.639305;1.30417
6.4876;100;-0.50164;1.29615
6.49781;100;-0.516132;1.28789
6.50777;100;1.23332;1.30762
6.51826;100;-0.426263;1.3008
6.53412;100;-1.0426;1.28412
6.53733;100;-1.0426;1.28412
6.54813;100;1.89568;1.31445
6.5584;100;0.557676;1.32337
6.56816;100;1.28685;1.34396
6.57799;100;1.82925;1.37323
6.59058;100;1.82925;1.37323
6.59806;100;1.7598;1.40139
6.60788;0;2.90004;1.44779
6.62071;0;2.41236;1.48639
6.62811;0;2.81626;1.53145
6.63774;0;4.19231;1.59852
6.64945;0;4.19231;1.59852
6.65794;0;2.48811;1.63833
6.66752;0;4.39586;1.70867
6.6875;100;3.4798;1.76434
6.69851;100;4.28119;1.87806
6.71389;100;4.28119;1.87806
6.71847;100;2.48564;1.91783
6.7279;100;2.84504;1.96335
6.7445;100;2.21173;1.99874
6.75307;100;3.76877;2.05904
6.75824;100;2.45354;2.09829
6.77039;100;2.45354;2.09829
6.77844;100;2.69508;2.14141
6.78815;100;2.04402;2.17412
6.79925;100;2.61144;2.2159
6.80838;100;2.61073;2.25767
6.81807;0;2.39938;2.29606
6.83124;0;2.39938;2.29606
6.84069;0;3.15385;2.4121
6.84792;0;3.15385;2.4121
6.86544;0;4.07402;2.47728
6.86975;0;4.66113;2.55186
6.87802;0;3.48064;2.60755
6.89638;0;3.21278;2.65895
6.90092;0;3.36449;2.71279
6.90805;0;3.36449;2.71279
6.92114;0;1.33507;2.73415
6.93097;0;1.42436;2.75694
6.93816;0;0.900626;2.77135
6.95118;0;0.590205;2.78079
6.95802;0;0.590205;2.78079
6.96796;0;-0.615954;2.77094
6.98361;0;0.547767;2.7797
6.99092;0;0.547767;2.7797
6.99978;0;0.10477;2.77744
7.01779;0;0.137463;2.77964
7.02816;0;-1.0384;2.76303
7.04617;0;-0.209123;2.75968
7.05022;0;-0.523865;2.7513
7.05871;0;-0.0647455;2.75026
7.07403;0;-0.0647455;2.75026
7.08219;0;-0.657871;2.73974
7.08864;0;-0.795454;2.72701
7.09987;100;-0.260994;2.72283
7.10794;100;-0.335321;2.71747
7.1184;100;-0.540867;2.70881
7.12846;100;-0.251666;2.70479
7.14413;100;-0.251666;2.70479
7.15316;100;0.813663;2.71781
7.15816;100;0.228748;2.72147
7.17154;0;0.103429;2.72312
7.17803;0;1.84357;2.75262
7.18834;0;1.84357;2.75262
7.20024;0;1.97712;2.78425
7.20893;0;3.37517;2.83825
7.21822;0;3.90294;2.9007
7.23538;0;4.06493;2.96574
7.2433;0;4.16885;3.03244
7.24796;0;4.16885;3.03244
7.25891;0;3.6692;3.09115
7.26826;0;-389.538;3.14173
7.27807;0;3.09576;3.19126
7.28931;0;2.73764;3.23507
7.29865;0;2.73764;3.23507
7.30848;0;2.09443;3.26858
7.31883;0;1.46326;3.29199
7.32804;0;1.86175;3.32178
7.33831;0;1.70262;3.34902
7.34969;0;1.11887;3.36692
7.35809;0;1.11887;3.36692
7.36882;0;1.40193;3.38935
7.3805;100;0.721827;3.4009
7.38865;100;-0.775754;3.38849
7.39832;100;0.2525;3.39253
7.41879;100;0.695109;3.40365
7.42962;100;-0.157833;3.40113
7.44807;0;1.30701;3.42204
7.4518;0;0.429273;3.42891
7.4591;0;2.03392;3.46145
7.46969;0;1.58185;3.48676
7.4791;0;1.58185;3.48676
7.48949;0;2.73179;3.53047
7.50333;0;2.85654;3.57617
7.50974;100;6.19926;3.67536
7.51979;100;-0.0980645;3.67379
7.53387;100;3.39073;3.72804
7.53888;100;3.39073;3.72804
7.54908;100;1.19716;3.7472
7.5709;100;0.218406;3.75069
7.58314;100;-0.863835;3.75811
7.59721;100;0.141054;3.76037
7.60139;100;0.348032;3.76594
7.61098;100;0.348032;3.76594
7.62292;100;1.14207;3.79878
7.63188;100;1.14207;3.79878
7.64143;100;0.881493;3.81289
7.66608;100;1.90581;3.84338
7.67706;100;2.54914;3.92903
7.69377;100;2.54914;3.92903
7.70058;100;2.56063;4.01707
7.70708;100;4.30232;4.08591
7.71633;100;4.30232;4.08591
7.72647;0;3.81194;4.1469
7.73671;0;4.9085;4.22543
7.74623;0;3.79232;4.28611
7.75642;0;3.79232;4.28611
7.76619;0;2.76443;4.33034
7.77722;0;4.98214;4.41006
7.78616;0;4.12002;4.47598
7.7971;100;2.74305;4.51986
7.80797;100;3.20527;4.57115
7.81653;100;2.38732;4.60935
7.82684;100;2.38732;4.60935
7.84621;100;1.86747;4.66107
7.85691;100;1.0271;4.67751
7.86964;0;1.0271;4.67751
7.87725;0;-0.281394;4.67301
7.88639;0;3.01567;4.72126
7.90586;0;2.55104;4.79968
7.91321;0;3.46705;4.85516
7.9167;0;3.46705;4.85516
7.92844;0;3.46705;4.85516
7.93709;100;2.48678;4.96836
7.94631;100;2.48678;4.96836
7.95744;100;3.41327;5.02297
7.96707;100;1.41767;5.04565
7.97655;100;3.09022;5.0951
7.98808;100;0.542186;5.10377
7.99726;100;2.70198;5.147
8.00671;100;2.70198;5.147
8.02094;100;2.85943;5.19275
8.02679;100;2.96324;5.24017
8.03672;100;2.92902;5.28703
8.05832;100;4.32021;5.35615
8.06841;100;3.8831;5.41828
8.08073;100;4.34864;5.48786
8.09039;100;4.73275;5.56359
8.09901;100;5.02975;5.64406
8.10868;100;5.02975;5.64406
8.11914;100;4.30065;5.78998
8.12914;100;5.64039;5.88023
8.14152;100;5.64039;5.88023
8.14915;100;4.09783;5.94579
8.15852;100;3.46941;6.0013
8.17237;100;6.13869;6.09952
8.1783;100;3.50483;6.1556
8.1884;100;3.50483;6.1556
8.19851;100;4.66224;6.23019
8.20854;0;3.93399;0.00995321
8.2189;0;3.81699;0.0710251
8.23085;0;4.17725;0.137861
8.23848;0;4.17725;0.137861
8.24878;0;3.65965;0.196416
8.26394;0;4.02762;0.260857
8.26923;0;3.52894;0.31732
8.27884;100;3.12423;0.367308
8.30338;100;4.4207;0.493906
8.31386;100;3.65445;0.552377
8.32445;100;3.65445;0.552377
8.33386;100;4.27282;0.620742
8.34362;100;0.880126;0.634824
8.35433;100;1.35022;0.656428
8.36393;100;2.16641;0.691091
8.37427;100;2.82805;0.736339
8.38401;100;0.0315085;0.736844
8.39431;100;0.0315085;0.736844
8.40384;100;1.61427;0.762672
8.41596;100;1.96138;0.794054
8.4237;0;1.39352;0.81635
8.43439;0;2.7018;0.859579
8.45371;0;4.11629;0.986067
8.46514;0;4.11629;0.986067
8.47835;0;2.86177;1.03186
8.48401;100;2.91674;1.07852
8.49477;100;3.52103;1.13486
8.50472;100;2.06575;1.16791
8.51448;100;2.06575;1.16791
8.52478;100;1.91128;1.19849
8.53405;100;0.313208;1.2035
8.54435;100;1.19694;1.22265
8.55464;100;1.14382;1.24096
8.56501;100;1.14382;1.24096
8.57441;100;1.51648;1.26522
8.58412;100;1.38541;1.28739
8.59671;100;2.13699;1.32158
8.60471;100;2.20211;1.35681
8.61382;100;2.24347;1.39271
8.63569;100;3.78938;1.52049
8.64671;100;3.78938;1.52049
8.66104;100;3.48411;1.57623
8.66667;100;3.99175;1.6401
8.67663;100;4.68098;1.715
8.69864;100;3.76578;1.8335
8.70926;100;5.43044;1.92039
8.71943;100;5.43044;1.92039
8.72931;100;4.03935;1.98502
8.73953;100;6.01944;2.08133
8.75048;100;3.94121;2.14439
8.75949;100;5.90442;2.23886
8.76879;100;4.90473;2.31734
8.77952;100;4.90473;2.31734
8.78877;100;4.57129;2.39048
8.79969;100;4.79355;2.46717
8.82074;100;3.95942;2.53052
8.83138;100;3.50645;2.64764
8.84117;0;3.50645;2.64764
8.85105;0;3.77141;2.70799
8.8615;0;4.83276;2.78531
8.87318;0;4.83276;2.78531
8.88065;0;3.87111;2.89856
8.89126;0;3.87111;2.89856
8.90299;0;3.87111;2.89856
8.91185;0;4.01218;3.03154
8.92104;0;2.43196;3.07045
8.94423;0;2.57409;3.11163
8.95483;0;0.0051856;3.12871
8.96449;0;0.0051856;3.12871
8.97533;0;-0.926703;3.12635
8.98466;0;-0.926703;3.12635
8.99486;0;0.620678;3.13628
9.00494;0;-0.274196;3.13189
9.01476;0;0.592098;3.14137
9.025;0;-0.330016;3.13609
9.03436;0;0.328735;3.14135
9.04416;0;0.328735;3.14135
9.0572;0;1.60542;3.17844
9.06464;0;1.60542;3.17844
9.07486;0;-0.123739;3.17646
9.09;0;0.455946;3.18376
9.09527;0;0.0122339;3.18395
9.1049;0;-0.261962;3.17976
9.11434;100;-0.261962;3.17976
9.12472;100;-0.0969917;3.17821
9.1355;100;0.202715;3.18145
9.15902;100;-0.361919;3.17249
9.17964;100;-0.735685;3.16072
9.18999;100;0.218585;3.17768
9.20582;100;2.777;3.22211
9.21257;100;2.777;3.22211
9.21985;100;2.12145;3.25605
9.23254;100;2.54092;3.29671
9.23995;100;3.25142;3.34873
9.25069;100;3.76867;3.40903
9.26629;0;3.22585;3.46064
9.27029;0;3.22585;3.46064
9.28028;0;3.67965;3.51952
9.29377;0;3.3921;3.57379
9.30008;0;4.67016;3.64851
9.31079;0;2.50518;3.6886
9.33603;100;3.96684;3.80243
9.34657;100;3.69444;3.86154
9.36373;100;3.69444;3.86154
9.3678;100;4.67855;3.9364
9.37672;100;3.54069;3.99305
9.39417;100;5.0856;4.13949
9.39629;0;5.0856;4.13949
9.40714;0;4.44907;4.21068
9.42935;0;4.00498;4.36279
9.43967;0;4.00498;4.36279
9.45401;0;2.95765;4.41011
9.4595;0;4.16572;4.47677
9.46941;0;2.60524;4.51845
9.48231;0;2.60524;4.51845
9.48943;0;2.29792;4.55522
9.49987;0;1.74902;4.5832
9.52186;0;3.08061;4.63249
9.53231;100;1.21526;4.67709
9.54806;100;0.344932;4.68261
9.55263;100;2.40963;4.72116
9.56283;100;2.40963;4.72116
9.57218;100;1.356;4.74286
9.58229;100;-0.0595003;4.74191
9.59202;100;2.93578;4.78888
9.6117;100;0.989355;4.80713
9.61196;100;0.989355;4.80713
9.62195;100;2.10392;4.84079
9.63501;100;2.10392;4.84079
9.64198;100;1.39561;4.86312
9.65208;100;2.27492;4.89952
9.66351;100;3.03692;4.94811
9.67195;0;3.56111;5.00509
9.68205;0;3.56111;5.00509
9.6919;0;3.08405;5.05443
9.7024;0;3.48499;5.11019
9.71215;0;3.09347;5.15969
9.73229;0;2.36399;5.26535
9.74298;100;4.15631;5.33185
9.75502;100;4.15631;5.33185
9.76328;100;3.37755;5.38589
9.77322;100;2.56884;5.42699
9.78545;100;2.24759;5.46295
9.79303;100;2.24759;5.46295
9.80239;100;2.41577;5.50161
9.82374;0;2.41577;5.50161
9.83443;0;1.32819;5.56147
9.84876;0;2.09963;5.59507
9.85434;0;2.09963;5.59507
9.86448;0;2.09963;5.59507
9.87502;0;4.75037;5.67107
9.88442;100;4.75037;5.67107
9.89383;100;1.88361;5.70121
9.90561;100;6.88184;5.81132
9.91446;100;3.58485;5.86868
9.92386;100;3.08219;5.91799
9.93696;100;3.07514;5.96719
9.9448;100;3.23703;6.01899
9.95424;100;2.55693;6.0599
9.9679;100;1.25821;6.08003
9.97393;100;2.13377;6.11417
9.98394;100;2.88527;6.16033
9.99876;100;2.88527;6.16033
10.0047;100;2.8924;6.20661
10.0146;100;2.09392;6.24011
10.026;0;3.70207;0.0161613
10.0347;0;2.89897;0.0625447
10.0441;0;2.89897;0.0625447
10.0616;0;4.11546;0.128392
10.0689;0;5.48837;0.260021
10.0739;0;5.48837;0.260021
10.0883;100;3.82208;0.321174
10.0942;100;3.58235;0.378492
10.1047;100;3.82962;0.439765
10.1283;100;5.24088;0.52362
10.1384;100;3.31923;0.576727
10.1544;100;2.33241;0.614046
10.1603;100;2.55845;0.654981
10.1691;100;2.06015;0.687943
10.1795;100;2.06015;0.687943
10.1892;100;2.13097;0.722039
10.199;100;3.12166;0.771985
10.2102;100;2.92042;0.818712
10.2187;100;0.649624;0.829106
10.2289;0;2.8614;0.874888
10.24;0;2.8614;0.874888
10.2485;0;3.7544;0.934959
10.259;0;2.29834;0.971732
10.2712;0;4.19737;1.03889
10.2788;0;3.02466;1.08728
10.2891;0;4.70889;1.16263
10.303;100;2.10061;1.19624
10.3087;100;2.10061;1.19624
10.3188;100;3.06392;1.24526
10.3317;100;2.61393;1.28708
10.3403;100;1.72999;1.31476
10.3495;100;1.57257;1.33992
10.3747;100;2.88371;1.41492
10.386;0;2.08547;1.44828
10.3953;0;2.08547;1.44828
10.4049;0;3.24899;1.50027
10.4156;0;1.58159;1.52557
10.4289;0;3.99446;1.58948
10.4363;100;3.18809;1.64049
10.445;100;2.5674;1.68157
10.4548;100;2.5674;1.68157
10.4651;100;2.16328;1.71618
10.4758;100;2.24449;1.7521
10.4865;100;0.610515;1.76186
10.4952;100;0.93516;1.77683
10.5054;0;1.99025;1.80867
10.5308;0;2.40086;1.85975
10.5508;0;2.04423;1.89246
10.5615;0;2.48792;1.96842
10.5809;0;2.48792;1.96842
10.5915;0;3.64567;2.08361
10.6027;0;2.44397;2.12272
10.615;0;2.75774;2.16684
10.6214;0;2.75774;2.16684
10.6378;0;3.38589;2.22101
10.6451;0;1.36738;2.24289
10.6519;0;0.815332;2.25594
10.6733;0;0.883773;2.27008
10.6839;0;-0.19446;2.27445
10.6964;0;-0.19446;2.27445
10.7058;0;-0.201821;2.27122
10.7136;0;0.308186;2.27615
10.726;0;0.0311434;2.27665
10.7337;0;-0.538275;2.26804
10.7441;0;0.804573;2.28091
10.7662;0;-1.97409;2.24933
10.7772;0;-0.100419;2.24772
10.7924;0;0.0793785;2.24899
10.7986;0;-0.354588;2.24332
10.8065;0;0.20054;2.24652
10.8207;0;0.20054;2.24652
10.8267;0;-0.819892;2.23341
10.8369;0;0.381902;2.23952
10.8479;0;-0.159279;2.23697
10.8567;100;-1.90109;2.20655
10.8667;100;0.294819;2.21127
10.8785;100;0.294819;2.21127
10.8872;100;-0.328571;2.20601
10.8965;100;-0.204727;2.20273
10.908;100;0.346392;2.20828
10.9171;100;0.309691;2.21323
10.9265;0;-0.438198;2.20622
10.9413;0;0.706255;2.21752
10.9465;0;0.706255;2.21752
10.9566;0;1.5185;2.24182
10.9721;0;0.47262;2.24938
10.977;0;1.38012;2.27146
10.9866;0;1.53673;2.29605
11.0039;0;0.614628;2.30588
11.0079;0;0.614628;2.30588
11.0169;0;0.28187;2.31039
11.0362;0;1.34136;2.33185
11.0365;0;0.101775;2.33348
11.047;0;-0.59332;2.32399
11.0628;0;-0.703529;2.31273
11.0715;100;1.28536;2.3333
11.0767;100;1.28536;2.3333
11.0928;100;-0.956312;2.318
11.0966;100;-0.124007;2.31601
11.1065;100;-0.129372;2.31394
11.1238;100;0.92639;2.32877
11.1275;100;0.92639;2.32877
11.1372;100;0.786886;2.34136
11.1549;100;-1.23368;2.32162
11.1589;100;0.373885;2.3276
11.1665;100;0.221089;2.33114
11.1767;100;0.221089;2.33114
11.1869;100;0.321627;2.33628
11.1965;100;1.93514;2.36724
11.2067;100;2.84652;2.41279
11.2166;100;2.84652;2.41279
11.2268;100;2.97835;2.49858
11.2367;100;2.97835;2.49858
11.2508;100;3.02915;2.54704
11.2564;100;2.52253;2.5874
11.2667;100;4.21534;2.65485
11.279;0;3.34866;2.70843
11.2869;0;3.34866;2.70843
11.2964;0;3.40752;2.76295
11.3094;0;3.31669;2.81602
11.3168;0;3.31669;2.81602
11.3262;0;3.31669;2.81602
11.3472;100;3.80839;2.87695
11.3576;100;7.29851;2.99373
11.3703;100;7.29851;2.99373
11.3781;100;4.22142;3.06127
11.3882;100;-386.175;3.16566
11.4021;100;2.76323;3.20987
11.4075;100;3.21168;3.26126
11.4178;100;2.91359;3.30788
11.4278;100;2.64846;3.35025
11.4383;100;2.26395;3.38647
11.448;100;4.12291;3.45244
11.458;100;3.72165;3.51199
11.4678;100;4.54167;3.58465
11.4782;0;4.54167;3.58465
11.4875;0;2.14466;3.61897
11.4984;0;3.25543;3.67106
11.5079;0;4.33473;3.74041
11.5183;0;4.33473;3.74041
11.5276;0;2.86447;3.78624
11.5376;0;3.90032;3.84865
11.5489;0;3.44828;3.90382
11.5577;0;4.42277;3.97459
11.5675;0;1.04345;3.99128
11.5828;0;2.25815;4.02741
11.5881;0;2.25815;4.02741
11.5976;0;0.236943;4.0312
11.6146;0;0.279412;4.03567
11.6191;100;1.30273;4.05652
11.628;100;-0.356346;4.05081
11.6444;100;-0.473395;4.04324
11.6497;100;0.19753;4.0464
11.6582;100;0.19753;4.0464
11.6718;100;-0.81341;4.03339
11.6824;100;-1.00408;4.01732
11.688;0;0.510961;4.0255
11.7017;0;-0.0862181;4.02412
11.7077;0;-0.0862181;4.02412
11.718;0;-0.987321;4.00832
11.7341;0;0.822604;4.02148
11.7399;0;2.35263;4.05912
11.7479;0;0.498191;4.06709
11.7654;0;2.3056;4.10398
11.7699;0;0.926301;4.1188
11.7776;0;0.926301;4.1188
11.803;0;0.0140071;4.12188
11.8132;0;-0.353962;4.11622
11.8254;100;-0.590548;4.10677
11.8334;100;-1.14167;4.0885
11.8438;100;0.393957;4.09481
11.8543;100;0.393957;4.09481
11.8636;100;-0.604391;4.09089
11.8733;100;-0.604391;4.09089
11.8864;100;-0.574052;4.08171
11.8932;0;-0.256971;4.0776
11.9038;0;0.296876;4.08235
11.9138;0;0.296876;4.08235
11.9241;0;0.934675;4.0973
11.933;0;0.892088;4.11157
11.9471;0;0.892088;4.11157
11.9532;0;1.75893;4.15538
11.9638;0;1.15138;4.1738
11.9873;0;1.29342;4.20993
12.0018;0;1.29342;4.20993
12.0095;0;-0.14843;4.23778
12.018;0;-0.14843;4.23778
12.0275;0;0.408739;4.24432
12.0377;100;0.647277;4.25467
12.0478;100;0.721723;4.26622
12.0584;100;-0.2909;4.26157
12.0676;100;-0.2909;4.26157
12.0775;100;0.192523;4.26465
12.0875;100;-0.67237;4.25389
12.0991;100;-0.674248;4.2431
12.1077;100;-0.176072;4.24028
12.118;100;-0.176072;4.24028
12.1369;100;-0.0578761;4.23936
12.1464;100;4.21981;4.30688
12.1482;100;2.02203;4.33923
12.1613;100;3.52404;4.39561
12.1677;100;2.31438;4.43264
12.1774;0;2.31438;4.43264
12.1989;0;4.6301;4.54007
12.2092;0;3.98695;4.60386
12.2257;0;4.30892;4.72524
12.2299;0;4.30892;4.72524
12.2391;0;4.59686;4.79879
12.2544;0;2.54849;4.83957
12.2596;0;2.54849;4.83957
12.2695;0;4.40957;4.91012
12.2814;0;4.40957;4.91012
12.295;0;2.23254;5.00689
12.2994;0;2.23254;5.00689
12.3162;0;2.21887;5.04239
12.323;0;2.11653;5.07625
12.3299;0;0.858672;5.08999
12.3393;0;0.673845;5.10077
12.3493;0;0.596881;5.11032
12.36;0;0.272572;5.11468
12.3823;0;-1.01965;5.09837
12.393;0;-0.40108;5.09195
12.4047;0;0.477239;5.09959
12.4132;0;-1.08998;5.08215
12.4231;0;-0.188909;5.07913
12.4335;0;-0.188909;5.07913
12.4427;0;0.429869;5.086
12.4528;0;-0.580356;5.07672
12.4721;0;-0.0478551;5.07595
12.4729;0;0.173315;5.07873
12.4825;0;0.00716001;5.07884
12.4952;0;0.00716001;5.07884
12.5024;0;0.753194;5.09089
12.5131;0;-0.347845;5.08533
12.5332;0;0.317618;5.09041
12.5437;0;-0.470869;5.09009
12.5602;0;0.0509769;5.09091
12.5637;0;-0.555322;5.08203
12.5744;0;-0.555322;5.08203
12.5893;0;-0.555322;5.08203
12.5938;100;-1.68628;5.05504
12.6039;100;-0.414304;5.04842
12.6201;100;0.334732;5.05377
12.6234;100;0.334732;5.05377
12.6337;100;0.334732;5.05377
12.6489;100;-0.135742;5.0516
12.6542;100;0.489898;5.05944
12.6638;100;0.411496;5.06602
12.6857;100;-1.61168;5.0337
12.6964;100;0.0345111;5.03425
12.7106;100;0.0345111;5.03425
12.7161;100;1.3353;5.05562
12.7267;100;1.83561;5.08499
12.7391;100;1.83561;5.08499
12.7465;100;1.9442;5.14299
12.7566;100;3.7875;5.20359
12.7787;100;1.80104;5.23241
12.789;100;4.15393;5.29887
12.8005;0;3.248;5.35084
12.809;0;3.67188;5.40959
12.8191;0;4.12494;5.47559
12.8293;0;3.66487;5.53423
12.8391;0;7.23526;5.64999
12.8492;0;7.23526;5.64999
12.859;0;2.46307;5.6894
12.8692;100;4.51555;5.76165
12.879;100;4.24683;5.8296
12.89;100;4.24683;5.8296
12.8994;100;3.50276;5.88564
12.9094;100;1.73763;5.91344
12.9197;100;1.73763;5.91344
12.9293;100;2.73806;5.95725
12.9391;0;3.50533;6.01334
12.9518;0;2.12253;6.08779
12.9593;0;2.12253;6.08779
12.9688;0;3.41247;6.14239
12.9807;0;2.81287;6.18739
12.9895;0;4.28845;6.25601
12.9987;0;2.44808;0.0119931
13.0087;0;2.44808;0.0119931
13.0191;0;6.97967;0.123668
13.0291;0;4.06757;0.188749
13.0399;0;4.81275;0.265753
13.0495;0;1.25397;0.285816
13.0589;0;2.39849;0.324192
13.0707;0;2.39849;0.324192
13.0793;100;3.31344;0.377207
13.0896;100;0.266796;0.381476
13.1046;100;1.62151;0.438831
13.1095;100;1.62151;0.438831
13.1193;100;1.62151;0.438831
13.1335;100;1.62151;0.438831
13.1419;100;0.13675;0.441019
13.1489;0;2.31435;0.478048
13.1625;0;1.43331;0.500981
13.1691;0;1.70621;0.52828
13.1789;0;3.96186;0.59167
13.1924;0;3.96186;0.59167
13.1996;0;3.46677;0.647139
13.2097;0;1.38218;0.669253
13.2271;0;4.15248;0.82635
13.2354;0;4.15248;0.82635
13.239;0;2.81933;0.87146
13.2566;0;1.5793;0.896728
13.2609;0;1.5793;0.896728
13.2693;0;4.43366;0.967667
13.2886;0;3.34072;1.02112
13.2923;0;1.11638;1.03898
13.299;0;1.76315;1.06719
13.3262;0;1.09334;1.08407
13.3372;0;-0.319965;1.07895
13.3537;0;0.0942945;1.08046
13.357;100;0.0942945;1.08046
13.3673;100;-1.06774;1.06337
13.3768;100;-0.198819;1.06019
13.3869;100;-0.440069;1.05315
13.3965;100;0.475056;1.06075
13.4069;100;0.475056;1.06075
13.4169;100;0.158817;1.06329
13.4265;100;-0.354186;1.05762
13.4367;100;-0.728488;1.04597
13.4465;100;2.04264;1.07865
13.4573;100;1.46052;1.10202
13.4688;100;1.46052;1.10202
13.4771;100;1.47957;1.12569
13.4871;100;0.254244;1.12976
13.5098;100;2.98542;1.20562
13.5285;100;1.59927;1.23121
13.537;100;3.63467;1.28937
13.5402;100;1.89611;1.3197
13.5549;100;3.43788;1.37471
13.5604;100;3.43788;1.37471
13.5701;0;3.09715;1.42426
13.5806;0;4.75471;1.50034
13.6008;0;4.28452;1.62547
13.6118;0;4.28452;1.62547
13.623;0;3.70994;1.68483
13.6312;0;4.37408;1.75482
13.6408;0;3.78423;1.81537
13.6508;0;3.66515;1.87401
13.6609;0;4.1773;1.94084
13.6715;0;4.1773;1.94084
13.6813;0;3.40197;1.99528
13.6913;0;2.99942;2.04327
13.7008;0;1.34276;2.06475
13.7221;0;0.436634;2.11989
13.7322;0;1.17882;2.13875
13.7469;0;1.17192;2.15751
13.7526;0;1.17192;2.15751
13.7628;0;-0.171363;2.15476
13.7728;100;0.1041;2.15643
13.783;100;0.777677;2.16887
13.7924;100;-0.364646;2.16304
13.8135;100;-0.364646;2.16304
13.8234;100;1.57483;2.1807
13.8362;100;-1.20698;2.16139
13.8443;0;0.329375;2.16666
13.8538;0;0.329375;2.16666
13.8636;0;1.63932;2.20749
13.8738;0;1.63932;2.20749
13.8834;0;1.51268;2.23169
13.8939;0;2.77118;2.27603
13.9042;0;1.52072;2.30036
13.9136;0;1.52072;2.30036
13.9357;0;2.63378;2.37975
13.9536;0;-0.110179;2.37798
13.9581;0;0.717789;2.38947
13.9662;0;-0.412747;2.38286
13.9758;0;-0.0226945;2.3825
13.9893;0;-0.0226945;2.3825
13.9966;0;-0.612289;2.36948
14.0058;0;-0.612289;2.36948
14.0178;0;0.835285;2.38285
14.0258;0;-0.938252;2.36784
14.0364;0;0.0691712;2.36894
14.0461;0;0.0691712;2.36894
14.0561;0;0.314534;2.37398
14.0664;0;0.0230074;2.37434
14.0765;0;-0.310406;2.36938
14.0865;0;-0.389799;2.36314
14.0958;0;-0.650927;2.35273
14.1075;0;-0.127897;2.35068
14.1158;0;-0.256956;2.34657
14.1261;0;-0.256956;2.34657
14.1383;0;0.169456;2.34928
14.1461;0;0.855178;2.36296
14.1558;0;-0.00430644;2.36289
14.1695;0;-0.00430644;2.36289
14.1765;0;0.397161;2.36925
14.186;0;0.351816;2.37488
14.2;0;-0.284508;2.37033
14.2062;0;-0.671759;2.35958
14.2162;0;-0.125051;2.35758
14.2263;0;-0.125051;2.35758
14.2361;0;0.127107;2.35961
14.2461;0;-0.090152;2.35817
14.2704;0;0.0716895;2.35932
14.2813;0;-0.397101;2.3482
14.2918;0;0.404894;2.35468
14.3009;0;-0.0774115;2.35344
14.3105;0;-0.0774115;2.35344
14.3228;0;-0.77571;2.34103
14.3308;100;1.35744;2.36275
14.3409;100;-0.335589;2.35738
14.3614;100;0.0819117;2.37455
14.3722;100;-0.573039;2.36538
14.3857;100;-0.573039;2.36538
14.3915;100;0.215039;2.36882
14.4018;0;0.0703782;2.36995
14.4216;0;1.50965;2.41663
14.4325;0;3.57474;2.47383
14.4428;0;1.16876;2.49253
14.452;0;1.16876;2.49253
14.4621;0;3.01827;2.54082
14.4723;100;2.10573;2.57451
14.4826;100;3.61137;2.6323
14.4918;100;3.61137;2.6323
14.5029;100;3.88418;2.69444
14.5117;100;3.06882;2.74354
14.5223;100;2.59881;2.78513
14.5344;100;2.73728;2.82892
14.5423;100;2.20463;2.8642
14.5528;100;2.9742;2.91178
14.5791;100;2.85247;3.00142
14.5994;100;2.35677;3.03913
14.6106;0;3.73323;3.09886
14.6215;0;-389.79;3.14541
14.6303;0;4.45093;3.21663
14.6401;0;4.28742;3.28523
14.664;0;4.30274;3.42455
14.675;0;3.2403;3.47639
14.6868;0;3.2403;3.47639
14.694;0;4.54894;3.61052
14.7048;0;4.54894;3.61052
14.7202;0;1.32625;3.63174
14.7241;0;3.29967;3.68453
14.7341;0;2.49919;3.72452
14.7477;0;1.80517;3.7534
14.757;0;1.48046;3.77709
14.7646;0;1.48046;3.77709
14.7838;0;1.81301;3.78444
14.7914;0;1.81301;3.78444
14.7944;0;-0.735745;3.77267
14.8131;0;0.460654;3.78004
14.8164;0;0.460654;3.78004
14.8244;100;-0.297725;3.77528
14.8456;100;0.0213683;3.77562
14.8566;100;0.376835;3.77519
14.8659;100;-0.32115;3.77005
14.8767;100;2.00182;3.80208
14.8863;100;2.00182;3.80208
14.9007;100;-1.15265;3.78364
14.9058;100;2.73466;3.82739
14.9164;100;2.73466;3.82739
14.9427;100;3.71355;3.98992
14.9576;100;5.16856;4.07262
14.9635;100;4.33271;4.14194
14.9735;100;4.13661;4.20813
15.0023;100;4.03561;4.36786
15.023;100;4.75623;4.44396
15.0336;100;4.02108;4.58942
15.0562;100;4.57507;4.66262
15.0673;100;4.8339;4.73996
15.0865;100;4.69396;4.81506
15.0967;0;4.46863;4.95054
15.115;0;4.38117;5.02063
15.1195;0;4.69387;5.09574
15.1272;0;4.69387;5.09574
15.1531;0;5.89793;5.31354
15.1688;100;5.89793;5.31354
15.1759;100;2.64009;5.35578
15.1836;100;2.56565;5.39683
15.195;100;2.69903;5.44001
15.204;100;0.703901;5.45128
15.2137;100;0.703901;5.45128
15.2233;100;0.847101;5.46483
15.2446;0;2.47838;5.51834
15.2554;0;-0.797007;5.50559
15.2681;0;-0.797007;5.50559
15.2755;0;2.83593;5.57331
15.2853;0;4.28462;5.64186
15.2954;0;4.28462;5.64186
15.3048;0;2.46555;5.68131
15.3148;0;2.65907;5.72385
15.3253;0;5.45369;5.81111
15.3358;0;1.84094;5.84057
15.3454;0;1.84094;5.84057
15.3649;0;2.1616;5.93008
15.3749;0;0.548884;5.93886
15.3856;0;1.7869;5.96745
15.3958;0;1.33469;5.9888
15.4049;0;1.33469;5.9888
15.4157;0;1.36547;6.01065
15.4255;0;1.72628;6.03827
15.4356;0;1.80235;6.06711
15.4576;0;1.31675;6.10572
15.4755;0;0.712374;6.11712
15.4807;0;0.443229;6.12421
15.488;0;0.443229;6.12421
15.5032;0;0.336932;6.1296
15.5076;100;-0.888001;6.11539
15.5183;100;0.35351;6.12105
15.5279;100;-0.359033;6.1153
15.5491;100;0.127044;6.11734
15.5629;100;-0.359257;6.11159
15.5692;100;-0.359257;6.11159
15.5792;100;0.636187;6.10534
15.591;100;5.03575;6.18591
15.6036;100;-2.77911;6.14144
15.6097;100;1.68208;6.16836
15.6286;100;1.68208;6.16836
15.6402;100;2.19609;6.24965
15.6586;100;3.79623;0.0272031
15.6613;100;3.37808;0.0812523
15.6705;100;3.37808;0.0812523
15.6812;100;4.84282;0.158737
15.6912;100;3.67558;0.217547
15.7009;100;4.76803;0.293835
15.7104;100;3.11713;0.343709
15.7322;100;3.11713;0.343709
15.7544;100;3.40494;0.554759
15.7656;100;4.57065;0.627889
15.782;100;3.95593;0.691184
15.7879;100;4.36706;0.761057
15.7947;100;4.3417;0.830524
15.8255;100;4.27904;0.969116
15.8432;100;6.42982;1.11316
15.8521;100;6.42982;1.11316
15.8561;100;3.59773;1.17073
15.8714;100;4.76544;1.24698
15.8758;100;4.0426;1.31166
15.8858;100;4.0426;1.31166
15.9084;100;4.62434;1.38565
15.9187;100;3.48672;1.44143
15.9318;100;3.23391;1.49318
15.9389;100;5.50847;1.58131
15.9488;100;4.62846;1.65537
15.9741;100;4.72357;1.81336
15.9849;100;5.03174;1.89386
15.9945;100;5.6499;1.98426
16.0052;100;5.25715;2.06838
16.0147;100;4.45138;2.1396
16.037;100;4.29973;2.29713
16.0536;100;4.40222;2.36756
16.0575;100;4.66135;2.44214
16.0675;0;4.11658;2.50801
16.08;0;4.11658;2.50801
16.0879;0;4.42307;2.57878
16.0977;0;4.77004;2.6551
16.1099;0;4.30164;2.72393
16.1178;0;4.22154;2.79147
16.1276;0;4.22154;2.79147
16.147;0;4.41404;2.86209
16.1598;0;3.9386;2.96687
16.1792;0;1.2747;2.98727
16.1829;0;2.34805;3.02484
16.1904;0;-0.114426;3.023
16.2091;0;-0.114426;3.023
16.2127;100;-0.446662;3.01124
16.2203;100;-0.446662;3.01124
16.2338;100;-0.248969;3.00726
16.24;100;0.262156;3.01145
16.25;100;0.0532418;3.0123
16.282;100;-0.0237972;3.01911
16.2999;0;1.85317;3.05866
16.3073;0;1.85317;3.05866
16.3126;0;2.8937;3.10496
16.3327;0;-389.215;3.19545
16.3434;0;-389.215;3.19545
16.3582;0;3.47751;3.25109
16.3629;0;3.00321;3.29914
16.3728;0;3.54567;3.35587
16.3889;0;1.24934;3.37586
16.393;0;1.24934;3.37586
16.4037;0;1.60998;3.40162
16.4178;0;0.531226;3.41012
16.4231;0;-0.132024;3.40801
16.4336;0;1.08051;3.4253
16.462;0;-0.113085;3.42349
16.4726;0;-1.21918;3.41749
16.4827;0;-0.17944;3.41462
16.4925;0;-0.512972;3.40641
16.5029;0;-0.512972;3.40641
16.5131;0;0.106931;3.40812
16.5229;0;-0.814423;3.39509
16.5323;0;-0.334665;3.38973
16.5465;0;-0.334665;3.38973
16.5531;0;-0.273377;3.38597
16.563;100;-0.273377;3.38597
16.5773;100;0.766337;3.39965
16.5827;100;0.766337;3.39965
16.593;100;-0.740558;3.3878
16.6021;100;-0.277251;3.38336
16.6126;100;0.885054;3.39752
16.6228;100;-0.738353;3.38571
16.6458;0;-0.738353;3.38571
16.6628;0;0.816837;3.39159
16.6664;0;0.816837;3.39159
16.6764;0;1.48745;3.41538
16.7012;0;1.1593;3.43393
16.7118;100;2.04507;3.51124
16.7297;100;1.51297;3.53545
16.7329;100;2.18406;3.57039
16.7422;100;1.01398;3.58662
16.7608;100;1.01398;3.58662
16.7651;100;0.611797;3.59641
16.7717;0;0.0905097;3.59785
16.7905;0;1.02077;3.63794
16.7938;0;1.02077;3.63794
16.8028;0;1.4165;3.66061
16.8142;0;1.4165;3.66061
16.8218;0;2.73049;3.70429
16.8319;0;1.90486;3.73477
16.8462;0;1.36368;3.75659
16.8517;0;1.36368;3.75659
16.8622;0;0.720695;3.76812
16.8767;0;1.18244;3.78704
16.8818;0;-0.863224;3.77323
16.8922;0;-0.636145;3.76305
16.9039;100;-0.118509;3.76115
16.9119;100;-0.118509;3.76115
16.922;100;0.362903;3.76696
16.9534;100;-0.221744;3.74464
16.9699;100;-0.221744;3.74464
16.9736;100;0.0939369;3.76037
16.984;100;1.44085;3.78342
17.0022;100;1.44085;3.78342
17.0077;100;2.76139;3.82761
17.0138;100;1.80233;3.85644
17.0259;100;3.1254;3.90645
17.0353;100;2.8017;3.95128
17.044;100;2.8017;3.95128
17.0602;100;3.02948;3.99975
17.0635;100;4.64764;4.07411
17.0741;100;2.81444;4.11914
17.1011;100;4.34832;4.18871
17.1194;100;4.39645;4.33537
17.1227;100;4.47357;4.40694
17.1319;100;5.03945;4.48757
17.1433;100;5.03945;4.48757
17.1516;100;5.57964;4.6526
17.1618;100;5.57964;4.6526
17.1721;100;2.6245;4.69459
17.1973;100;3.73752;4.84006
17.2151;100;4.38575;4.91023
17.2188;100;3.57992;4.96751
17.2281;100;4.87246;5.04547
17.2437;100;4.87246;5.04547
17.248;100;5.41122;5.13205
17.2581;0;3.53426;5.1886
17.2788;0;4.9555;5.26789
17.2898;0;4.73156;5.42136
17.3099;0;3.9747;5.55616
17.3207;100;3.9747;5.55616
17.3314;100;3.08872;5.60558
17.3401;100;2.73193;5.64929
17.3503;100;4.57608;5.7225
17.3753;100;0.512861;5.75473
17.3946;100;1.45157;5.77795
17.3993;0;2.32672;5.81518
17.406;0;2.32672;5.81518
17.4254;0;1.29522;5.87172
17.436;0;2.91845;5.91842
17.4561;0;4.09696;5.98397
17.4664;100;1.02035;6.0003
17.4771;100;2.61693;6.04217
17.4877;100;1.09272;6.05965
17.4965;100;2.33436;6.097
17.5062;100;0.836482;6.11038
17.5178;100;0.836482;6.11038
17.5268;100;1.00754;6.13571
17.5367;0;1.00754;6.13571
17.5511;0;0.137368;6.1379
17.5567;0;2.24936;6.17389
17.5671;0;2.70064;6.2171
17.5768;0;2.73421;6.26085
17.5867;0;2.73421;6.26085
17.5969;100;6.22081;0.0771995
17.6189;100;2.19232;0.120283
17.6337;100;2.60927;0.162031
17.6414;100;0.730944;0.173726
17.6492;100;1.04744;0.190485
17.6633;100;0.225512;0.194094
17.6712;0;0.225512;0.194094
17.6799;0;0.397279;0.20045
17.6915;0;2.70227;0.243686
17.6995;0;0.504017;0.251751
17.7092;0;3.12644;0.301774
17.7221;0;3.12644;0.301774
17.7299;0;2.64352;0.34407
