Time(s);Vsent(rad/s);VMeasured(rad/s);Rotation(rad)
0.00736002;0;0.472777;0.3891
0.0387734;0;0.53905;0.390499
0.0676763;0;0.194213;0.38584
0.100391;0;-0.332908;0.376313
0.133043;0;-0.164342;0.38337
0.166549;0;-0.413961;0.378127
0.195761;0;0.318613;0.38437
0.227335;0;-0.755276;0.371941
0.2588;0;-0.361089;0.37891
0.291709;0;0.0889733;0.378234
0.326781;0;0.44539;0.383599
0.357931;0;-0.292715;0.376219
0.388247;0;0.136479;0.377311
0.41889;0;-0.0988883;0.385146
0.451118;0;-0.422314;0.378389
0.48658;0;-0.724435;0.381797
0.515164;0;0.384813;0.388299
0.549083;0;-0.407156;0.37911
0.587189;0;0.6902;0.384314
0.611296;0;0.0431584;0.379701
0.646098;0;-0.742215;0.37247
0.675358;0;0.888169;0.397188
0.709028;0;0.753733;0.388274
0.739417;0;-0.0215792;0.385391
0.771545;0;-0.168539;0.379933
0.806451;0;0.217939;0.374658
0.835768;0;0.528582;0.383115
0.875739;0;-0.447997;0.376292
0.898755;0;0.58304;0.385621
0.93352;0;-1.05077;0.379749
0.967474;0;-0.603062;0.380481
0.995557;0;0.0610352;0.381457
1.02988;0;-1.16849;0.374486
1.05943;0;0.0305176;0.384442
1.09771;0;0.0570932;0.382963
1.12785;0;-0.210328;0.375785
1.15515;0;-0.588604;0.373836
1.18951;0;0;0.37952
1.21903;0;0.0431584;0.379439
1.25614;0;-0.0482525;0.381755
1.2868;0;-0.278865;0.378065
1.31501;0;-0.568481;0.377341
1.34934;0;-0.0863167;0.381634
1.37938;0;0.0610352;0.374752
1.41789;0;-0.168539;0.380406
1.44789;0;0.0647376;0.381787
1.47484;0;-0.20698;0.384671
1.51875;0;0.147939;0.377761
1.54117;0;0.201277;0.379558
1.57132;0;0.262522;0.385095
1.60663;0;0.0682394;0.380148
1.63482;0;-0.232415;0.383794
1.66938;0;-0.052858;0.377689
1.699;0;0.226325;0.38131
1.73129;0;-0.28053;0.380079
1.76646;0;0.213623;0.383688
1.79478;0;-0.17128;0.380947
1.82973;0;0.0863167;0.376989
1.85879;0;0.449553;0.384181
1.89161;0;0.624682;0.38536
1.9266;0;0.687157;0.387402
1.95578;0;-0.775055;0.375001
1.99854;0;-0.568481;0.380162
2.02303;0;-0.0215792;0.379817
2.05081;0;0.480108;0.385994
2.08708;0;0.0610352;0.382631
2.11852;0;0.215792;0.382995
2.14767;0;-0.228373;0.376622
2.18226;0;-0.10349;0.381426
2.21074;0;0.294301;0.385646
2.24623;0;0.302109;0.383714
2.27509;0;-0.0215792;0.380564
2.30741;0;-0.607295;0.382627
2.33902;0;0.0807419;0.381405
2.37492;0;0.656308;0.384772
2.40622;0;-0.173977;0.382679
2.43847;0;0.185631;0.381491
2.46789;0;0.0682394;0.381892
2.49957;0;0.294301;0.38416
2.53102;0;0.418993;0.382357
2.56611;0;-0.195408;0.380813
2.59526;0;0.105716;0.385088
2.62676;0;-0.363019;0.377453
2.65916;0;0.320798;0.382586
2.69127;0;-0.0940615;0.381081
2.73681;0;0.0305176;0.38401
2.75502;0;-0.337078;0.381154
2.78825;0;-0.0863167;0.379285
2.8195;0;0.297449;0.384044
2.85109;0;0.300564;0.383732
2.88689;0;-0.0431584;0.381141
2.91508;0;0;0.381141
2.94687;0;-0.477677;0.37459
2.97918;0;0.0305176;0.382171
3.0117;0;0.152588;0.381766
3.04714;0;-0.21471;0.379754
3.07539;0;0.0305176;0.379644
3.10955;0;0.800474;0.393142
3.13909;0;-0.443294;0.373677
3.17098;0;-0.419548;0.377386
3.20671;0;0.138174;0.380573
3.23475;0;-0.173977;0.377301
3.26676;0;0.740331;0.392056
3.29937;0;-0.147939;0.388265
3.33159;0;0.802217;0.386178
3.37654;0;0.123963;0.379481
3.39489;0;0.614915;0.385973
3.42955;0;0.58264;0.386391
3.45874;0;-0.469813;0.377961
3.49105;0;-0.12207;0.379134
3.53659;0;0.247926;0.383101
3.55557;0;-0.123963;0.380629
3.58702;0;0.378714;0.383468
3.61922;0;-0.845184;0.379916
3.65144;0;0;0.382045
3.6991;0;0.0431584;0.379603
3.71726;0;-0.147939;0.377236
3.74716;0;0.146357;0.379578
3.77898;0;-0.427247;0.381206
3.81104;0;-0.367481;0.378256
3.84671;0;-0.0647376;0.391403
3.87916;0;-0.254415;0.379959
3.90867;0;0.0373762;0.380557
3.93913;0;0.319343;0.384202
3.97239;0;0.0778049;0.385102
4.00664;0;-0.486371;0.379046
4.03494;0;0.0965051;0.385905
4.06731;0;-0.10349;0.380763
4.09922;0;-0.0915527;0.380635
4.13902;0;-0.413961;0.380975
4.16824;0;-0.23441;0.377225
4.195;0;0.209218;0.387782
4.22709;0;0.577422;0.383498
4.25893;0;0.312712;0.384244
4.29124;0;-0.0747525;0.383739
4.32656;0;0.0305176;0.380915
4.35907;0;0.165753;0.380441
4.39015;0;-0.606911;0.376936
4.41912;0;-0.292715;0.383055
4.45194;0;-0.441188;0.37427
4.48683;0;-0.836878;0.373228
4.51942;0;0.555221;0.387816
4.54754;0;-0.200117;0.379068
4.57949;0;-0.30972;0.382114
4.61102;0;0.341197;0.385362
4.64623;0;0.255329;0.38193
4.6748;0;0.101215;0.383895
4.7068;0;0.168539;0.381089
4.73955;0;-0.59176;0.375242
4.77194;0;0.19301;0.383982
4.81799;0;-0.0988883;0.37943
4.83575;0;-0.512479;0.371231
4.86931;0;0.567662;0.388194
4.89905;0;0.516101;0.380298
4.93152;0;-0.407156;0.380149
4.9665;0;-0.253498;0.375748
4.99574;0;0.289515;0.381294
5.03537;0;-0.0305176;0.379079
5.05965;0;-0.0682394;0.382131
5.09813;0;0.249797;0.380453
5.12684;0;-0.136479;0.37827
5.15511;0;-0.410573;0.376384
5.18744;0;0.498663;0.38933
5.21971;0;-0.26692;0.372021
5.25074;0;0.1918;0.384431
5.29904;0;-0.197777;0.377501
5.3179;0;0.275505;0.381909
5.34907;0;0.687496;0.38515
5.37968;0;0.0215792;0.387837
5.41518;0;-0.0682394;0.382113
5.44716;0;-0.710153;0.379194
5.47582;0;-0.338457;0.37487
5.51514;0;-0.285466;0.380741
5.53889;0;-0.0610352;0.377971
5.57311;0;0.276349;0.385557
5.60636;0;0.0305176;0.376038
5.63498;0;-0.0305176;0.381042
5.67859;0;0.311967;0.387125
5.69878;0;-0.186881;0.374948
5.73096;0;-0.20698;0.379364
5.77815;0;-0.366847;0.37664
5.7972;0;-0.364938;0.376003
5.82708;0;0.415085;0.382645
5.85978;0;0.0215792;0.3807
5.89139;0;-0.152588;0.377166
5.92688;0;0.348623;0.381911
5.95476;0;0.0570932;0.382825
5.98946;0;0.540775;0.391477
6.02048;0;0.617936;0.391174
6.05075;0;-0.0215792;0.377192
6.08728;0;0.519697;0.387997
6.11522;0;-0.185631;0.381733
6.14712;0;0.512024;0.38958
6.17978;0;0.250728;0.382414
6.21956;0;0.160036;0.385666
6.24649;0;-0.0807419;0.384374
6.27526;0;-0.46232;0.380103
6.31953;0;-0.456746;0.373677
6.34083;0;0.605759;0.383369
6.37144;0;0.0431584;0.380505
6.40746;0;-0.485413;0.380046
6.43497;0;0.129475;0.383945
6.46699;0;0.172634;0.379932
6.49975;0;-0.45265;0.374818
6.53131;0;0.0215792;0.381632
6.56715;0;0.373763;0.382219
6.59556;0;-0.452135;0.381332
6.62739;0;-0.316413;0.38094
6.65961;0;0;0.383808
6.69086;0;0.0610352;0.385273
6.72711;0;-0.455214;0.377218
6.75586;0;-0.635032;0.379097
6.78674;0;0;0.379097
6.81919;0;0.0610352;0.384274
6.85917;0;0.152588;0.381171
6.88721;0;0.0431584;0.381862
6.9153;0;-0.478651;0.38249
6.94714;0;0;0.379929
6.98158;0;0.758966;0.390312
7.0122;0;-0.706207;0.376775
7.04711;0;-0.0965051;0.376813
7.07551;0;-0.450071;0.377394
7.10687;0;0.601129;0.386166
7.14114;0;0.480592;0.384701
7.17094;0;0.147939;0.384579
7.2073;0;-0.0305176;0.381461
7.23561;0;0.183106;0.381245
7.26693;0;0;0.381935
7.29957;0;-0.19895;0.380546
7.3397;0;-0.326553;0.37325
7.36986;0;-0.227351;0.378966
7.3969;0;0.215792;0.391862
7.42972;0;-0.535583;0.383781
7.45962;0;0.590184;0.382843
7.50142;0;0.0610352;0.381354
7.52854;0;-0.147939;0.380909
7.5555;0;-0.110033;0.37866
7.58765;0;0.116207;0.382175
7.61956;0;-0.93192;0.378768
7.66075;0;0.0305176;0.3776
7.68991;0;0.0431584;0.378291
7.71507;0;-0.528141;0.37613
7.74935;0;0.495853;0.388747
7.77889;0;0.427792;0.383239
7.81292;0;-0.210328;0.38091
7.84658;0;0.674849;0.378519
7.87559;0;0;0.378519
7.90693;0;-0.123963;0.38038
7.93968;0;0.761417;0.382096
7.97117;0;0.232415;0.379996
8.00914;0;0.141504;0.384029
8.03508;0;0.0431584;0.38472
8.06777;0;0.469317;0.384265
8.0992;0;-0.0305176;0.379605
8.13146;0;-0.19301;0.379605
8.1787;0;-0.305176;0.379885
8.19762;0;0.0305176;0.380373
8.22694;0;-0.455726;0.375642
8.25938;0;0.251655;0.379323
8.29083;0;0.222171;0.384302
8.32694;0;-0.412271;0.379361
8.35481;0;-0.237371;0.379118
8.38919;0;0.162919;0.38022
8.42007;0;0.114186;0.377776
8.45267;0;0.278029;0.387495
8.48719;0;0.315677;0.383675
8.51559;0;0.376247;0.385713
8.54928;0;-0.0610352;0.385427
8.57976;0;0.4935;0.384692
8.6194;0;0.286281;0.381483
8.65242;0;-0.224258;0.389439
8.67501;0;-0.436946;0.375647
8.71971;0;0;0.380109
8.73925;0;0.18183;0.379497
8.77139;0;-0.410005;0.372937
8.80614;0;-0.152588;0.375638
8.83578;0;0.177947;0.378485
8.88025;0;-0.0682394;0.381125
8.90261;0;-0.139849;0.378888
8.93244;0;-0.389623;0.374414
8.96713;0;-0.484453;0.377184
8.99874;0;1.10919;0.394241
9.02706;0;-1.05054;0.377432
9.05968;0;0.0715701;0.378577
9.09145;0;0.167152;0.386623
9.12742;0;-0.476212;0.377459
9.15964;0;-0.154106;0.37848
9.1893;0;-0.4332;0.376408
9.2195;0;-0.432124;0.376399
9.25141;0;0.253498;0.385599
9.2962;0;-0.305938;0.374538
9.31485;0;0.376247;0.386231
9.3488;0;0.322246;0.388668
9.37917;0;0.449553;0.389772
9.41152;0;-0.12207;0.378829
9.44693;0;0.765686;0.388318
9.48007;0;0.118194;0.381232
9.50849;0;0.505618;0.383322
9.53973;0;-0.436946;0.38571
9.57147;0;-0.659846;0.373608
9.60683;0;-0.512024;0.376678
9.63556;0;0.246985;0.382673
9.66743;0;-0.31122;0.376497
9.69963;0;0.3926;0.384935
9.73116;0;0.116207;0.377472
9.76734;0;0.460806;0.38631
9.79474;0;-0.741588;0.374444
9.82708;0;-0.242226;0.377509
9.85895;0;0.158574;0.380892
9.89776;0;-0.0215792;0.381346
9.92697;0;-0.223217;0.38273
9.9556;0;0.147939;0.385097
9.99918;0;0.12207;0.381794
10.0189;0;-0.0305176;0.381306
10.0513;0;-0.428335;0.381562
10.0871;0;0.217939;0.383584
10.1153;0;-0.0215792;0.381286
10.1474;0;0.322968;0.385361
10.1796;0;0.688511;0.387963
10.2108;0;-0.0373762;0.382745
10.2578;0;0.574997;0.386497
10.2757;0;-0.450588;0.382892
10.3072;0;-0.626914;0.378931
10.3388;0;0.844632;0.39094
10.3708;0;0.203578;0.381104
10.4067;0;-0.330098;0.384181
10.4358;0;-0.224258;0.374602
10.4697;0;0.188123;0.383701
10.4995;0;0.23835;0.387515
10.5313;0;0.139849;0.379308
10.5675;0;0.0373762;0.382558
10.5953;0;0.252578;0.385355
10.6269;0;0;0.384583
10.6601;0;0.180544;0.386983
10.6919;0;-0.216868;0.375299
10.727;0;0.249797;0.380142
10.7605;0;0.396729;0.384199
10.7882;0;-0.372515;0.376001
10.819;0;0.208102;0.379331
10.8549;0;-0.21471;0.372889
10.8874;0;0.18183;0.386634
10.9154;0;-0.648097;0.376265
10.9569;0;-0.0778049;0.390348
10.9792;0;-0.373763;0.379413
11.0114;0;0.15561;0.382593
11.0472;0;0.149505;0.383929
11.0752;0;-0.136479;0.381746
11.1208;0;-0.0570932;0.378334
11.1425;0;0.301337;0.383155
11.1714;0;-0.330803;0.376949
11.2068;0;0.183106;0.379533
11.2408;0;0.249797;0.382758
11.2688;0;0.373763;0.382205
11.2995;0;-0.519249;0.380467
11.3318;0;-0.105716;0.375611
11.3666;0;0.0682394;0.382334
11.3952;0;0.55312;0.388234
11.4275;0;0.42121;0.386431
11.4588;0;-0.180544;0.380573
11.4941;0;0.250728;0.382192
11.5268;0;-0.502847;0.37829
11.5552;0;0.0373762;0.380133
11.5871;0;0.467329;0.388991
11.6205;0;0.281358;0.38635
11.6516;0;0.164342;0.381251
11.6889;0;-0.0807419;0.380805
11.7158;0;0;0.377855
11.7474;0;0;0.38229
11.7799;0;0.389025;0.381093
11.8108;0;-0.459288;0.374941
11.8616;0;-0.340514;0.377707
11.8789;0;0.25805;0.381836
11.9075;0;-0.162919;0.379229
11.9397;0;0.116207;0.38316
11.9803;0;-0.0305176;0.382125
12.0096;0;-0.226325;0.378503
12.0357;0;0.444344;0.385015
12.0671;0;1.04833;0.392351
12.0989;0;0.0373762;0.383494
12.1317;0;-0.278865;0.378544
12.1676;0;-0.56023;0.375104
12.1957;0;-0.0915527;0.380317
12.2411;0;-0.326553;0.374886
12.2596;0;0.51384;0.383107
12.2913;0;-0.201277;0.373887
12.3403;0;-0.253498;0.381471
12.3557;0;-0.219005;0.377967
12.387;0;-0.278865;0.375049
12.4199;0;0.0373762;0.379117
12.4509;0;-0.48685;0.376884
12.4979;0;-0.131261;0.377367
12.5154;0;-0.47327;0.383349
12.5474;0;0.0863167;0.382601
12.5799;0;0.378714;0.382661
12.6115;0;-0.704557;0.378753
12.6473;0;-0.521486;0.373792
12.6757;0;-0.0305176;0.38267
12.7095;0;-0.0863167;0.383212
12.7388;0;0.227351;0.378399
12.7714;0;0.0431584;0.37909
12.8068;0;0.363659;0.388875
12.8356;0;0.39907;0.388912
12.8671;0;-0.551433;0.380089
12.8995;0;0.162919;0.384907
12.9315;0;0.232415;0.382787
12.9677;0;0.617936;0.383434
12.9956;0;-0.422314;0.376677
13.0268;0;-0.114186;0.378354
13.0606;0;0.345941;0.38527
13.092;0;-0.321523;0.373316
13.1386;0;0.509745;0.390376
13.1562;0;-0.350621;0.384766
13.1981;0;0.407156;0.384113
13.2196;0;-0.0305176;0.383625
13.2573;0;0.162919;0.383183
13.2875;0;0.790228;0.387497
13.3152;0;-0.444867;0.376758
13.354;0;0.584635;0.38404
13.3792;0;0.458781;0.387266
13.4112;0;-0.279698;0.38328
13.4471;0;0.0431584;0.380731
13.4752;0;-0.444344;0.37422
13.5068;0;0.0305176;0.389498
13.541;0;-0.0215792;0.387427
13.5718;0;-0.648816;0.37163
13.6065;0;0.682397;0.382894
13.6351;0;0;0.381238
13.681;0;0.53905;0.384146
13.7022;0;-0.483009;0.376418
13.7318;0;0.609591;0.390484
13.7674;0;0.345267;0.387329
13.7958;0;0.0747525;0.37776
13.8273;0;-0.201277;0.379261
13.8597;0;0.0807419;0.383563
13.8979;0;-0.165753;0.376544
13.9275;0;-0.0431584;0.380562
13.9551;0;0.0610352;0.381539
13.9996;0;-0.307456;0.379709
14.0194;0;0.687496;0.390709
14.0517;0;-0.19895;0.376907
14.1012;0;-0.134762;0.383085
14.1169;0;-0.652751;0.372641
14.1521;0;0.451104;0.386064
14.1795;0;0.827927;0.384987
14.2116;0;-0.282185;0.381244
14.247;0;-0.221121;0.375364
14.2752;0;-0.972271;0.371754
14.3204;0;-0.54762;0.376215
14.3393;0;0.848757;0.389795
14.3715;0;-0.474253;0.378301
14.4065;0;0.31122;0.385999
14.4354;0;-0.225293;0.382394
14.4675;0;-0.303646;0.381157
14.499;0;0.28871;0.378339
14.5315;0;-0.34929;0.382022
14.5675;0;-0.711463;0.377386
14.6006;0;0.378714;0.380684
14.6306;0;0.247926;0.383359
14.6596;0;-0.324407;0.374112
14.6913;0;-0.359797;0.387032
14.7415;0;0.594899;0.38697
14.7591;0;-0.522378;0.378612
14.788;0;0.378714;0.386624
14.819;0;0.0215792;0.384186
14.8566;0;0.133023;0.385826
14.8866;0;0.183106;0.387136
14.9187;0;-0.505618;0.373479
14.9481;0;0.517452;0.381758
14.9824;0;0;0.382705
15.0114;0;-0.306698;0.377797
15.0468;0;-0.17925;0.377458
15.0749;0;0.0835758;0.378796
15.107;0;-0.925652;0.376362
15.1391;0;-0.615671;0.378087
15.1806;0;0.355894;0.383824
15.2098;0;0.0610352;0.3848
15.235;0;0.210328;0.381157
15.2674;0;-0.0215792;0.382008
15.2997;0;-0.920608;0.373866
15.3406;0;0.266046;0.382606
15.3692;0;0.0889733;0.38403
15.3956;0;-0.401397;0.370043
