Time(s);Vsent(m/s);VMeasured(m/s);PosX(m);PosY(m)
0.0101118;0;0;-0.334;0.062
0.0205832;0;0;-0.334;0.062
0.03034;1;0;-0.334;0.062
0.0401613;1;0;-0.334;0.062
0.0502048;0;0;-0.334;0.062
0.0607379;1;0;-0.334;0.062
0.0702897;0;0;-0.334;0.062
0.0806029;0;-0.00683246;-0.334;0.062
0.0910558;0;0.0201051;-0.332;0.061
0.10012;1;0.0201051;-0.332;0.061
0.110855;1;0.0228924;-0.331;0.06
0.120392;0;0.0272617;-0.331;0.06
0.130681;0;0.0272617;-0.331;0.06
0.14016;1;0.0262446;-0.33;0.059
0.150553;1;0.0262446;-0.33;0.059
0.160787;1;0.041739;-0.327;0.058
0.170815;0;0.0417873;-0.325;0.057
0.180959;0;0.0417873;-0.325;0.057
0.190767;1;0.0475584;-0.322;0.055
0.200358;1;0.0782438;-0.318;0.054
0.210576;1;0.0782438;-0.318;0.054
0.220095;1;0.0799602;-0.314;0.053
0.230456;0;0.0799602;-0.314;0.053
0.241132;0;0.0925255;-0.309;0.052
0.250756;0;0.0859039;-0.303;0.05
0.260308;1;0.0859039;-0.303;0.05
0.270874;1;0.0838936;-0.297;0.048
0.280382;0;0.0763251;-0.291;0.046
0.290779;1;0.0763251;-0.291;0.046
0.300908;1;0.0509452;-0.286;0.044
0.310119;0;0.0509452;-0.286;0.044
0.320065;0;0.0538783;-0.282;0.043
0.330604;0;0.0738039;-0.277;0.043
0.340394;0;0.0738039;-0.277;0.043
0.350722;1;0.063333;-0.271;0.043
0.360437;0;0.0505777;-0.266;0.043
0.370065;0;0.0505777;-0.266;0.043
0.38087;0;-0.0143281;-0.261;0.041
0.390342;1;-0.0143281;-0.261;0.041
0.400872;0;0.00671057;-0.255;0.04
0.410277;1;0.0213342;-0.249;0.04
0.42076;1;0.0213342;-0.249;0.04
0.430465;1;0.00887007;-0.242;0.04
0.440437;0;-0.0391501;-0.236;0.039
0.450974;1;-0.0391501;-0.236;0.039
0.46023;0;-0.00290015;-0.23;0.04
0.470161;1;-0.00290015;-0.23;0.04
0.480796;1;0.00438677;-0.224;0.042
0.49054;1;-0.015768;-0.218;0.044
0.500786;1;-0.015768;-0.218;0.044
0.510529;0;0.00232769;-0.213;0.047
0.520914;1;0.00285979;-0.209;0.05
0.530614;1;0.00285979;-0.209;0.05
0.540755;0;0.0103418;-0.205;0.054
0.554056;1;0.0103418;-0.205;0.054
0.560053;1;0.0559551;-0.203;0.059
0.571723;1;0.0523648;-0.201;0.065
0.580586;1;0.0523648;-0.201;0.065
0.590133;1;0.0907301;-0.201;0.072
0.600235;0;0.0799821;-0.201;0.079
0.610592;0;0.0799821;-0.201;0.079
0.620223;0;0.091907;-0.202;0.087
0.63065;0;0.091907;-0.202;0.087
0.640935;1;0.0997422;-0.204;0.095
0.650592;1;0.0841316;-0.206;0.103
0.66009;0;0.0841316;-0.206;0.103
0.670948;1;0.0914592;-0.209;0.112
0.68052;0;0.0914592;-0.209;0.112
0.69056;0;0.0780186;-0.212;0.121
0.700772;1;0.0776571;-0.216;0.131
0.710258;1;0.0776571;-0.216;0.131
0.720843;0;0.0574891;-0.22;0.141
0.7304;1;0.0760725;-0.226;0.151
0.740866;0;0.0760725;-0.226;0.151
0.750502;1;0.10326;-0.234;0.16
0.760557;1;0.0730744;-0.242;0.169
0.770408;0;0.0730744;-0.242;0.169
0.780524;1;0.087284;-0.251;0.177
0.793702;1;0.087284;-0.251;0.177
0.807788;0;0.087284;-0.251;0.177
0.817136;1;0.0484468;-0.26;0.186
0.824321;0;0.0805233;-0.27;0.193
0.830689;1;0.0805233;-0.27;0.193
0.840909;0;0.0728979;-0.292;0.207
0.850575;0;0.0728979;-0.292;0.207
0.861043;0;-0.0218061;-0.302;0.214
0.870252;0;-0.0218061;-0.302;0.214
0.880731;0;-0.0396681;-0.312;0.22
0.890653;1;-0.0492448;-0.322;0.225
0.901062;0;-0.0492448;-0.322;0.225
0.910528;0;-0.0850844;-0.332;0.23
0.920208;1;-0.111167;-0.341;0.234
0.930388;1;-0.111167;-0.341;0.234
0.941086;1;-0.098851;-0.35;0.237
0.950569;0;-0.098851;-0.35;0.237
0.961021;1;-0.100343;-0.359;0.239
0.970554;1;-0.0149983;-0.367;0.239
0.980744;0;-0.0149983;-0.367;0.239
0.991108;0;-0.0661346;-0.376;0.239
1.00045;1;-0.101675;-0.384;0.239
1.01082;0;-0.101675;-0.384;0.239
1.02038;0;0.0110386;-0.392;0.237
1.0305;1;0.0110386;-0.392;0.237
1.04064;0;-0.0404433;-0.401;0.235
1.05049;0;-0.0301668;-0.41;0.232
1.06091;1;-0.0301668;-0.41;0.232
1.07097;1;-0.0555508;-0.418;0.229
1.08029;0;-0.104339;-0.426;0.226
1.09093;0;-0.104339;-0.426;0.226
1.10041;0;-0.0739509;-0.433;0.222
1.11059;0;-0.0739509;-0.433;0.222
1.12016;0;-0.0893449;-0.439;0.218
1.13076;0;-0.0397788;-0.444;0.213
1.14016;1;-0.0397788;-0.444;0.213
1.15032;1;-0.0984442;-0.448;0.209
1.16046;1;-0.153934;-0.452;0.205
1.17102;0;-0.153934;-0.452;0.205
1.18055;1;-0.126468;-0.456;0.2
1.19081;0;-0.126468;-0.456;0.2
1.20095;0;-0.130772;-0.46;0.195
1.21097;1;-0.0408248;-0.462;0.189
1.2207;0;-0.0408248;-0.462;0.189
1.23088;0;-0.0280751;-0.463;0.184
1.24036;0;-0.00697149;-0.463;0.178
1.25007;1;-0.00697149;-0.463;0.178
1.26096;1;-0.0206315;-0.463;0.172
1.27075;1;-0.0206315;-0.463;0.172
1.28024;0;-0.00282428;-0.462;0.166
1.29092;0;-0.0156932;-0.461;0.159
1.30063;0;-0.0156932;-0.461;0.159
1.31055;1;0.00587416;-0.459;0.153
1.32032;0;-0.00192814;-0.457;0.147
1.33013;0;-0.00192814;-0.457;0.147
1.34099;0;-0.00783381;-0.455;0.141
1.35029;0;-0.00783381;-0.455;0.141
1.361;0;0.0236985;-0.452;0.136
1.37077;0;0.0128814;-0.449;0.131
1.38053;0;0.0128814;-0.449;0.131
1.39056;1;-0.0124527;-0.446;0.125
1.40046;0;-0.0351562;-0.443;0.118
1.41104;1;-0.0351562;-0.443;0.118
1.42069;1;-0.0313423;-0.439;0.111
1.43055;0;-0.0313423;-0.439;0.111
1.44017;0;-0.0173275;-0.434;0.105
1.45032;0;-0.0419592;-0.429;0.099
1.46085;1;-0.0419592;-0.429;0.099
1.47051;1;-0.050436;-0.423;0.093
1.48037;1;-0.0759398;-0.418;0.088
1.49072;1;-0.0759398;-0.418;0.088
1.50016;0;-0.062162;-0.412;0.084
1.51063;1;-0.062162;-0.412;0.084
1.52096;0;-0.0523109;-0.405;0.081
1.53034;0;-0.0583663;-0.399;0.079
1.54101;0;-0.0583663;-0.399;0.079
1.55005;0;-0.021427;-0.392;0.079
1.56034;1;-0.0411169;-0.385;0.079
1.57024;1;-0.0411169;-0.385;0.079
1.58068;1;-0.0568293;-0.379;0.079
1.59116;1;-0.0487035;-0.373;0.08
1.60105;1;-0.0487035;-0.373;0.08
1.61055;1;-0.0425746;-0.367;0.082
1.621;1;-0.0425746;-0.367;0.082
1.63068;1;-0.00733578;-0.363;0.085
1.64029;0;-0.00414877;-0.359;0.089
1.65069;0;-0.00414877;-0.359;0.089
1.66023;1;0.014489;-0.356;0.094
1.67356;0;0.014489;-0.356;0.094
1.68352;0;0.014489;-0.356;0.094
1.69125;0;0.0182368;-0.354;0.099
1.70237;0;0.0316012;-0.353;0.105
1.71003;1;0.0379181;-0.353;0.112
1.72028;0;0.0403709;-0.354;0.119
1.73076;1;0.0403709;-0.354;0.119
1.74106;0;0.0129312;-0.355;0.128
1.7508;0;0.0129312;-0.355;0.128
1.76016;1;-0.00813841;-0.356;0.136
1.77072;1;-0.0101137;-0.358;0.145
1.78097;1;-0.0101137;-0.358;0.145
1.79013;1;-0.0241485;-0.36;0.153
1.80037;1;-0.00119992;-0.363;0.16
1.81081;0;-0.00119992;-0.363;0.16
1.8207;1;0.0111315;-0.367;0.167
1.83031;0;0.0111315;-0.367;0.167
1.8401;1;0.0537482;-0.372;0.172
1.85052;0;0.021649;-0.377;0.178
1.86025;1;0.021649;-0.377;0.178
1.87042;0;0.0281131;-0.383;0.184
1.88043;1;0.0481023;-0.39;0.189
1.89105;1;0.0481023;-0.39;0.189
1.90084;1;0.0340292;-0.397;0.194
1.91053;0;0.0340292;-0.397;0.194
1.92102;0;0.0304448;-0.405;0.199
1.93038;0;-0.00894769;-0.412;0.204
1.94101;0;-0.00894769;-0.412;0.204
1.9504;0;0.00053814;-0.419;0.208
1.96038;1;-0.0270015;-0.426;0.212
1.97086;1;-0.0270015;-0.426;0.212
1.98057;0;-0.0345229;-0.434;0.216
1.9904;0;-0.0345229;-0.434;0.216
2.00103;0;-0.0876308;-0.441;0.22
2.01057;1;-0.00286276;-0.449;0.222
2.02026;0;-0.00286276;-0.449;0.222
2.03086;1;-0.0201633;-0.458;0.224
2.04029;0;-0.0412765;-0.467;0.226
2.05087;1;-0.0412765;-0.467;0.226
2.061;1;-0.0819596;-0.475;0.228
2.07025;0;-0.0819596;-0.475;0.228
2.08098;0;-0.0318876;-0.484;0.229
2.09011;1;0.0691496;-0.492;0.228
2.10094;1;0.0691496;-0.492;0.228
2.11033;0;0.0375281;-0.5;0.227
2.12037;0;0.0567166;-0.508;0.225
2.13009;1;0.0567166;-0.508;0.225
2.1405;0;0.0286684;-0.515;0.223
2.15096;1;0.0286684;-0.515;0.223
2.16052;1;-0.0202303;-0.522;0.221
2.17425;1;-0.0202303;-0.522;0.221
2.18486;1;0.000308349;-0.529;0.218
2.19238;1;0.000308349;-0.529;0.218
2.20253;1;0.0683382;-0.541;0.21
2.21013;0;0.0683382;-0.541;0.21
2.22019;1;0.12355;-0.545;0.205
2.23078;1;0.12355;-0.545;0.205
2.24079;1;0.141333;-0.549;0.198
2.25037;1;0.150936;-0.552;0.19
2.26017;0;0.150936;-0.552;0.19
2.2707;0;0.0571392;-0.556;0.183
2.28033;1;0.109723;-0.558;0.174
2.29093;1;0.109723;-0.558;0.174
2.30093;0;0.0573002;-0.561;0.165
2.31072;1;0.0573002;-0.561;0.165
2.32027;1;0.0572947;-0.564;0.155
2.33009;1;0.0490131;-0.567;0.145
2.34076;0;0.0490131;-0.567;0.145
2.35044;1;0.0463906;-0.57;0.134
2.36011;1;0.0268235;-0.573;0.124
2.37037;1;0.0268235;-0.573;0.124
2.38009;0;0.0225937;-0.576;0.113
2.39107;0;0.0225937;-0.576;0.113
2.4005;1;0.0910013;-0.576;0.103
2.41124;0;0.0769876;-0.576;0.092
2.42101;1;0.0769876;-0.576;0.092
2.43084;0;0.0542939;-0.576;0.081
2.44033;1;0.0198069;-0.576;0.071
2.45031;0;0.0198069;-0.576;0.071
2.46051;0;0.0140152;-0.575;0.061
2.47072;1;0.0140152;-0.575;0.061
2.48099;0;-0.0225621;-0.574;0.05
2.4904;1;0.00757607;-0.571;0.04
2.50053;0;0.00757607;-0.571;0.04
2.51051;0;-0.0239236;-0.568;0.029
2.52039;0;-0.0330009;-0.565;0.02
2.53042;1;-0.0330009;-0.565;0.02
2.54027;0;-0.0364495;-0.561;0.011
2.55026;0;-0.0364495;-0.561;0.011
