Time(s);Vsent(m/s);VMeasured(m/s);PosX(m);PosY(m)
1.265e-06;0;-0.0909116;1.717;-0.399
0.0308184;0;-0.0913811;1.716;-0.387
0.0717693;0;0.178762;1.71;-0.364
0.0956252;40;-0.0418334;1.708;-0.34
0.126932;40;-0.0195038;1.705;-0.318
0.168079;40;-0.184136;1.703;-0.302
0.191638;40;0.176131;1.699;-0.285
0.23035;40;0.404726;1.681;-0.266
0.255194;40;0.497883;1.672;-0.262
0.287234;40;0.450194;1.654;-0.252
0.329546;40;0.60996;1.621;-0.244
0.351356;40;0.635456;1.61;-0.243
0.384709;40;0.703153;1.584;-0.24
0.415974;40;0.764403;1.557;-0.239
0.447542;40;0.79796;1.53;-0.236
0.489322;40;0.843404;1.489;-0.237
0.511672;40;0.831764;1.477;-0.239
0.543881;40;0.861511;1.448;-0.239
0.57481;40;0.865859;1.42;-0.243
0.607729;40;0.875494;1.391;-0.245
0.639924;40;0.899995;1.36;-0.248
0.680414;40;0.8929;1.332;-0.251
0.705329;40;0.922448;1.301;-0.253
0.735055;40;0.908822;1.273;-0.254
0.766855;40;0.913362;1.244;-0.258
0.805176;40;0.913148;1.215;-0.261
0.830832;40;0.902726;1.186;-0.261
0.864521;40;0.935764;1.155;-0.265
0.895461;40;0.900503;1.129;-0.266
0.930317;40;0.916777;1.097;-0.271
0.960979;40;0.916672;1.067;-0.274
0.991201;40;0.909344;1.056;-0.276
1.0309;40;0.910748;1.011;-0.28
1.05482;40;0.924573;0.996;-0.284
1.08772;40;0.899057;0.967;-0.284
1.12309;40;0.92092;0.925;-0.291
1.15147;40;0.927389;0.908;-0.292
1.1836;40;0.925304;0.879;-0.295
1.21467;40;0.924354;0.851;-0.298
1.25025;40;0.928881;0.821;-0.302
1.28051;40;0.926643;0.792;-0.305
1.31189;40;0.929629;0.763;-0.308
1.34541;40;0.910084;0.733;-0.312
1.37566;40;0.910751;0.704;-0.316
1.40746;40;0.903529;0.676;-0.319
1.44011;40;0.904582;0.646;-0.325
1.47144;40;0.92626;0.616;-0.327
1.50328;40;0.933113;0.586;-0.333
1.54049;40;0.920283;0.558;-0.335
1.56696;40;0.94206;0.528;-0.342
1.60888;40;0.930016;0.501;-0.345
1.63096;40;0.923668;0.471;-0.35
