Time (s);Vsent (m/s);Vmeasured (m/s)
0.00574186;0;0
0.0113664;0;0
0.0162402;0;0
0.0205816;0;0
0.0256706;0;0
0.0315071;0;0
0.0358418;0;0
0.0409572;0;0
0.0456834;0;0
0.0515952;0;0
0.0556428;0;0
0.0609279;0;0
0.0660634;0;0
0.0706121;0;0
0.0757412;0;0
0.0801085;0;0
0.0852533;0;0
0.0907594;0;0
0.0955897;0;0
0.100718;0;0
0.105829;0;0
0.111603;0;0
0.115594;0;0
0.120713;0;0
0.125113;0;0
0.130618;0;0
0.135227;0;0
0.140353;0;0
0.145473;0;0
0.15136;0;0
0.155416;0;0
0.160553;0;0
0.16567;0;0
0.171038;0;0
0.175631;0;0
0.180754;0;0
0.1859;0;0
0.191634;0;0
0.195584;0;0
0.200727;0;0
0.205958;0;0
0.210428;0;0
0.215613;0;0
0.220057;0;0
0.22521;0;0
0.230923;0;0
0.235183;0;0
0.240682;0;0
0.245817;0;0
0.251423;0;0
0.255761;0;0
0.260988;0;0
0.265157;0;0
0.273966;0;0
0.282822;0;0
0.288144;0;0
0.297704;0;0
0.298804;0;0
0.302992;0;0
0.308227;0;0
0.314951;0;0
0.318273;0;0
0.323384;0;0
0.328489;0;0
0.335433;0;0
0.338542;0;0
0.343646;0;0
0.347824;0;0
0.355958;0;0
0.358064;0;0
0.363308;0;0
0.368178;0;0
0.374685;0;0
0.377891;0;0
0.38308;0;0
0.38817;0;0
0.394871;0;0
0.39828;0;0
0.403389;0;0
0.40863;0;0
0.415114;0;0
0.41821;0;0
0.423512;0;0
0.428862;0;0
0.4357;0;0
0.438861;0;0
0.442966;0;0
0.448913;0;0
0.455601;0;0
0.458697;0;0
0.463149;0;0
0.468354;0;0
0.475308;0;0
0.478276;0;0
0.483511;0;0
0.488716;0;0
0.495329;0;0
0.498464;0;0
0.503572;0;0
0.508838;0;0
0.515274;0;0
0.518365;0;0
0.52348;0;0
0.527951;0;0
0.534354;0;0
0.538458;0;0
0.543259;0;0
0.548366;0;0
0.555916;0;0
0.558413;0.2;0
0.563536;0.2;0
0.568659;0.2;0
0.575591;0.2;0
0.57871;0.2;0
0.583797;0.2;0
0.587925;0.2;0
0.595008;0.2;0
0.598128;0.2;0
0.603377;0.2;0
0.608099;0.2;0
0.614392;0.2;0
0.618632;0.2;0
0.62312;0;0
0.628264;0;0
0.635772;0;0
0.638358;0;0
0.643468;0;0
0.64876;0;0
0.655939;0;0
0.658027;0;0
0.663296;0;0
0.667849;0;0.171859
0.675581;0;0.171859
0.678746;0;0.171859
0.683859;0;0.171859
0.688101;0;0.171859
0.694422;0;0.171859
0.69852;0.2;0.171859
0.703104;0.2;0.171859
0.708495;0.2;0.171859
0.715073;0.2;0.171859
0.718361;0.2;0.171859
0.723752;0.2;0.171859
0.728888;0.2;0.171859
0.736089;0.2;0.171859
0.738223;0.2;0.171859
0.743331;0.2;0.171859
0.748893;0.2;0.171859
0.755606;0.2;0.171859
0.758729;0.2;0.171859
0.763806;0.2;0.171859
0.76798;0.2;0.171859
0.774445;0.2;0.171859
0.778576;0.2;0.171859
0.783212;0.2;0.171859
0.788325;0.2;0.171859
0.794802;0.2;0.171859
0.79823;0.2;0.171859
0.803468;0.2;0.171859
0.808603;0.2;0.171859
0.815951;0.2;0.171859
0.818041;0.2;0.171859
0.823164;0.2;0.171859
0.828902;0.2;0.171859
0.83581;0.2;0.171859
0.837901;0;0.171859
0.843141;0;0.171859
0.847991;0;0.171859
0.854737;0;0.171859
0.857963;0;0.171859
0.863014;0;0.171859
0.868133;0;0.171859
0.874824;0;0.171859
0.878077;0;0.171859
0.883187;0;0.171859
0.888495;0;0.171859
0.896049;0;0.171859
0.898139;0;0.171859
0.903492;0;0.171859
0.908756;0;0.171859
0.915439;0;0.171859
0.918584;0;0.171859
0.923858;0;0.171859
0.927972;0;0.171859
0.934609;0;0.171859
0.938744;0;0.171859
0.94339;0;0.171859
0.94859;0;0.171859
0.955869;0;0.171859
0.958669;0;0.0156246
0.963072;0;0.0156246
0.968181;0;0.0156246
0.975159;0;0.0156246
0.97835;0;0.0156246
0.983457;0;0.0156246
0.988282;0;0.0156246
0.995304;0;0.0156246
0.998424;0;0.0156246
1.00355;0;0.0156246
1.00889;0;0.0156246
1.01546;0;0.0156246
1.01855;0;0.0156246
1.02376;0;0.0156246
1.02899;0;0.0156246
1.03601;0;0.0156246
1.03845;0;0.0156246
1.04351;0.2;0.0156246
1.04881;0.2;0.0156246
1.05625;0.2;0.0156246
1.05833;0.2;0.0156246
1.06379;0.2;0.0156246
1.068;0.2;0.0156246
1.07561;0.2;0.0156246
1.07817;0.2;0.0156246
1.08345;0.2;0.0156246
1.08848;0.2;0.0156246
1.09554;0.2;0.0156246
1.09868;0.2;0.0156246
1.10351;0.2;0.0156246
1.10879;0.2;0.0156246
1.11552;0.2;0.0156246
1.11831;0.2;0.0156246
1.12293;0.2;0.0156246
1.12887;0.2;0.0156246
1.13621;0.2;0.0156246
1.13829;0.2;0.0156246
1.14374;0.2;0.0156246
1.14881;0.2;0.0156246
1.15593;0.2;0.0156246
1.15807;0.2;0.0156246
1.1632;0.2;0.0156246
1.16879;0.2;0.175527
1.17635;0.2;0.175527
1.17844;0.2;0.175527
1.18308;0.2;0.175527
1.18842;0.2;0.175527
1.1955;0.2;0.175527
1.19799;0.2;0.175527
1.20326;0.2;0.175527
1.20879;0.2;0.175527
1.21566;0.2;0.175527
1.21884;0.2;0.175527
1.2239;0.2;0.175527
1.22867;0.2;0.175527
1.23572;0.2;0.175527
1.2381;0.2;0.175527
1.24325;0.2;0.175527
1.24878;0.2;0.175527
1.2561;0.2;0.175527
1.25819;0.2;0.175527
1.26372;0.2;0.175527
1.26886;0.2;0.175527
1.27577;0.2;0.175527
1.27821;0.2;0.175527
1.28312;0.2;0.175527
1.28879;0.2;0.175527
1.29579;0.2;0.175527
1.29891;0.2;0.175527
1.30302;0.2;0.175527
1.3079;0.2;0.175527
1.31444;0.2;0.175527
1.31857;0;0.175527
1.32377;0;0.175527
1.3289;0;0.175527
1.33605;0;0.175527
1.3382;0;0.175527
1.34353;0;0.175527
1.34861;0;0.175527
1.35625;0;0.175527
1.35861;0;0.175527
1.36371;0;0.175527
1.36794;0;0.175527
1.37528;0;0.175527
1.37843;0;0.175527
1.38376;0;0.175527
1.38798;0;0.175527
1.39443;0.2;0.175527
1.39875;0.2;0.175527
1.40402;0.2;0.175527
1.40886;0.2;0.175527
1.41555;0.2;0.175527
1.41865;0.2;0.175527
1.42382;0.2;0.175527
1.42818;0.2;0.175527
1.43549;0.2;0.175527
1.43849;0.2;0.175527
1.44385;0.2;0.175527
1.44796;0.2;0.175527
1.45505;0.2;0.175527
1.45828;0;0.175527
1.46339;0;0.175527
1.46797;0;0.175527
1.4746;0;0.175527
1.47872;0;0.175527
1.48389;0;0.175527
1.48824;0;0.175527
1.49479;0;0.175527
1.49788;0;0.175527
1.50327;0;0.175527
1.50844;0;0.175527
1.5156;0;0.175527
1.51837;0;0.175527
1.52361;0;0.175527
1.52886;0;0.175527
1.53594;0;0.175527
1.53803;0;0.175527
1.5431;0;0.175527
1.54791;0;0.175527
1.55454;0;0.175527
1.55867;0;0.175527
1.56292;0;0.175527
1.56803;0;0.175527
1.57455;0;0.175527
1.57878;0;0.175527
1.5831;0;0.0156236
1.58823;0;0.0156236
1.59497;0;0.0156236
1.59841;0;0.0156236
1.60351;0;0.0156236
1.60877;0;0.0156236
1.61754;0;0.0156236
1.61866;0;0.0156236
1.62385;0;0.0156236
1.6288;0;0.0156236
1.63706;0;0.0156236
1.63867;0;0.0156236
1.64392;0;0.0156236
1.64873;0;0.0156236
1.65648;0;0.0156236
1.65859;0;0.0156236
1.66343;0;0.0156236
1.66867;0;0.0156236
1.67569;0;0.0156236
1.67868;0;0.0156236
1.68373;0;0.0156236
1.68885;0;0.0156236
1.6971;0;0.0156236
1.69827;0;0.0156236
1.70365;0;0.0156236
1.7081;0;0.0156236
1.71481;0;0.0156236
1.71878;0;0.0156236
1.72393;0;0.0156236
1.72878;0;0.0156236
1.73643;0;0.0156236
1.73855;0.2;0.0156236
1.74369;0.2;0.0156236
1.74876;0.2;0.0156236
1.75786;0.2;0.0156236
1.76391;0.2;0.0156236
1.7687;0.2;0.0156236
1.77712;0.2;0.0156236
1.77824;0.2;0.0156236
1.78371;0.2;0.0156236
1.78795;0.2;0.0156236
1.79512;0.2;0.0156236
1.79869;0.2;0.0156236
1.80404;0.2;0.0156236
1.80888;0.2;0.0156236
1.81547;0.2;0.0156236
1.81864;0.2;0.0156236
1.82376;0.2;0.0156236
1.829;0.2;0.0156236
1.83577;0.2;0.0156236
1.83829;0.2;0.0156236
1.84318;0.2;0.0156236
1.84872;0.2;0.0156236
1.85574;0.2;0.0156236
1.85886;0.2;0.0156236
1.8637;0.2;0.0156236
1.86814;0.2;0.203051
1.87488;0.2;0.203051
1.87869;0.2;0.203051
1.88385;0.2;0.203051
1.88868;0.2;0.203051
1.8957;0.2;0.203051
1.89879;0.2;0.203051
1.90383;0.2;0.203051
1.90807;0.2;0.203051
1.91472;0.2;0.203051
1.91832;0.2;0.203051
1.92399;0.2;0.203051
1.92805;0.2;0.203051
1.93424;0.2;0.203051
1.94396;0.2;0.203051
1.95468;0.2;0.203051
1.96122;0.2;0.203051
1.96561;0.2;0.203051
1.97188;0.2;0.203051
1.97674;0.2;0.203051
1.97986;0.2;0.203051
1.98573;0.2;0.203051
1.99126;0.2;0.203051
1.99535;0.2;0.203051
2.00008;0.2;0.203051
2.00523;0.2;0.203051
2.01135;0.2;0.203051
2.01638;0.2;0.203051
2.0205;0.2;0.203051
2.02574;0.2;0.203051
2.03143;0.2;0.203051
2.03624;0.2;0.203051
2.04004;0.2;0.203051
2.04537;0.2;0.203051
2.05179;0.2;0.203051
2.05625;0.2;0.203051
2.06044;0.2;0.203051
2.06574;0.2;0.203051
2.07172;0.2;0.203051
2.07603;0.2;0.203051
2.08077;0.2;0.203051
2.08485;0.2;0.203051
2.09154;0.2;0.203051
2.09626;0.2;0.203051
2.10038;0.2;0.203051
2.1048;0.2;0.203051
2.1117;0.2;0.203051
2.11581;0.2;0.203051
2.12053;0.2;0.203051
2.12512;0.2;0.203051
2.13146;0.2;0.203051
2.13624;0.2;0.203051
2.14025;0.2;0.203051
2.14536;0.2;0.203051
2.1518;0.2;0.203051
2.15681;0.2;0.203051
2.15999;0.2;0.203051
2.16522;0.2;0.203051
2.1714;0.2;0.203051
2.17587;0.2;0.203051
2.18004;0.2;0.203051
2.18573;0.2;0.203051
2.19096;0.2;0.203051
2.19499;0.2;0.203051
2.19996;0.2;0.203051
2.20544;0.2;0.203051
2.21139;0.2;0.203051
2.21559;0.2;0.203051
2.22008;0.2;0.203051
2.22481;0.2;0.203051
2.23157;0.2;0.203051
2.23637;0.2;0.203051
2.23993;0.2;0.203051
2.24504;0.2;0.203051
2.25157;0.2;0.203051
2.25651;0.2;0.203051
2.26066;0.2;0.203051
2.26567;0.2;0.203051
2.27089;0.2;0.203051
2.27487;0.2;0.203051
2.28076;0.2;0.203051
2.28499;0.2;0.203051
2.29123;0.2;0.203051
2.29539;0;0.203051
2.30029;0;0.203051
2.30572;0;0.203051
2.31148;0;0.203051
2.31564;0;0.203051
2.32032;0;0.203051
2.32557;0;0.203051
2.33181;0;0.203051
2.33748;0;0.203051
2.3406;0;0.203051
2.34569;0;0.203051
2.35193;0;0.203051
2.35596;0;0.203051
2.36055;0;0.203051
2.36505;0;0.203051
2.37132;0;0.203051
2.37547;0;0.203051
2.38018;0;0.203051
2.38572;0;0.203051
2.39163;0;0.203051
2.39576;0;0.203051
2.40048;0;0.203051
2.40558;0;0.203051
2.41143;0;0.203051
2.41621;0;0.0156228
2.42037;0;0.0156228
2.42576;0;0.0156228
2.43094;0;0.0156228
2.43558;0.2;0.0156228
2.44024;0.2;0.0156228
2.44493;0.2;0.0156228
2.45196;0.2;0.0156228
2.45613;0.2;0.0156228
2.46;0.2;0.0156228
2.46483;0.2;0.0156228
2.47171;0.2;0.0156228
2.47584;0.2;0.0156228
2.4805;0.2;0.0156228
2.48562;0.2;0.0156228
2.49138;0.2;0.0156228
2.49731;0.2;0.0156228
2.50053;0.2;0.0156228
2.50487;0;0.0156228
2.51088;0;0.0156228
2.51479;0;0.0156228
2.52076;0;0.0156228
2.525;0;0.0156228
2.53126;0;0.0156228
2.53586;0;0.0156228
2.54002;0;0.0156228
2.54566;0;0.0156228
2.55228;0;0.0156228
2.5565;0;0.0156228
2.55985;0;0.0156228
2.56493;0;0.0156228
2.57114;0;0.0156228
2.57587;0;0.0156228
2.57996;0;0.0156228
2.58518;0;0.0156228
2.59162;0;0.0156228
2.59651;0;0.0156228
2.60069;0;0.0156228
2.60558;0;0.0156228
2.61188;0;0.0156228
2.61702;0;0.0156228
2.62016;0;0.0156228
2.62557;0;0.0156228
2.63208;0;0.0156228
2.63731;0;0.0156228
2.6404;0;0.0156228
2.64562;0;0.0156228
2.65234;0;0.0156228
2.65724;0;0.0156228
2.66039;0;0.0156228
2.66548;0;0.0156228
2.67121;0;0.0156228
2.67574;0;0.0156228
2.67983;0;0.0156228
2.68525;0;0.0156228
2.6914;0;0.0156228
2.69631;0;0.0156228
2.70025;0;0.0156228
2.70539;0;0.0156228
2.71183;0;0.0156228
2.71714;0;0.0156228
2.7203;0;0.0156228
2.72541;0;0.0156228
2.73106;0;0.0156228
2.73603;0;0.0156228
2.74016;0;0.0156228
2.74527;0;0.0156228
2.75174;0;0.0156228
2.75661;0;0.0156228
2.76073;0;0.0156228
2.76487;0;0.0156228
2.77082;0;0.0156228
2.77596;0;0.0156228
2.78011;0;0.0156228
2.785;0.2;0.0156228
2.79123;0.2;0.0156228
2.79529;0.2;0.0156228
2.80042;0.2;0.0156228
2.80553;0.2;0.0156228
2.81117;0.2;0.0156228
2.81519;0.2;0.0156228
2.81988;0.2;0.0156228
2.82509;0.2;0.0156228
2.83119;0.2;0.0156228
2.83589;0.2;0.0156228
2.84008;0.2;0.0156228
2.84519;0.2;0.0156228
2.85219;0;0.0156228
2.85689;0;0.0156228
2.85998;0;0.0156228
2.86554;0;0.0156228
2.87154;0;0.0156228
2.87567;0;0.0156228
2.8802;0;0.0156228
2.88538;0;0.0156228
2.89101;0;0.0156228
2.89566;0;0.0156228
2.89982;0;0.0156228
2.90493;0;0.0156228
2.9116;0;0.0156228
2.9156;0;0.0156228
2.9198;0.2;0.0156228
2.92485;0.2;0.0156228
2.93057;0.2;0.0156228
2.93554;0.2;0.0156228
2.94062;0.2;0.0156228
2.94477;0.2;0.0156228
2.95234;0.2;0.0156228
2.95679;0.2;0.0156228
2.95991;0.2;0.0156228
2.96499;0.2;0.0156228
2.9708;0.2;0.0156228
2.97539;0.2;0.0156228
2.98051;0.2;0.0156228
2.98562;0.2;0.0156228
2.99145;0;0.0156228
2.99548;0;0.0156228
3.00058;0;0.0156228
3.00575;0;0.0156228
3.01106;0;0.0156228
3.01522;0;0.0156228
3.0204;0;0.0156228
3.02575;0;0.0156228
3.03156;0;0.0156228
3.0369;0;0.0156228
3.0402;0;0.0156228
3.04531;0;0.0156228
3.05177;0;0.0156228
3.05638;0;0.187363
3.06062;0;0.187363
3.06574;0;0.187363
3.07193;0;0.187363
3.07588;0;0.187363
3.08011;0;0.187363
3.08522;0;0.187363
3.09098;0;0.187363
3.09519;0;0.187363
3.10033;0;0.187363
3.10501;0;0.187363
3.11113;0;0.187363
3.11523;0;0.187363
3.12052;0;0.0156175
3.12574;0;0.0156175
3.13503;0.2;0.0156175
3.14137;0.2;0.0156175
3.14541;0.2;0.0156175
3.15199;0.2;0.0156175
3.15667;0.2;0.0156175
3.1608;0.2;0.0156175
3.16588;0.2;0.0156175
3.17139;0.2;0.0156175
3.17561;0.2;0.0156175
3.18073;0.2;0.0156175
3.18543;0.2;0.0156175
3.19134;0.2;0.0156175
3.19554;0.2;0.0156175
3.20035;0.2;0.0156175
3.20547;0.2;0.0156175
3.21118;0.2;0.0156175
3.21658;0.2;0.0156175
3.2207;0.2;0.0156175
3.22578;0.2;0.0156175
3.23187;0.2;0.0156175
3.23689;0.2;0.0156175
3.24101;0.2;0.0156175
3.24514;0.2;0.0156175
3.25121;0.2;0.17539
3.25566;0.2;0.17539
3.26101;0.2;0.17539
3.26612;0.2;0.17539
3.27093;0.2;0.17539
3.27512;0.2;0.17539
3.28041;0.2;0.17539
3.28556;0.2;0.17539
3.2914;0.2;0.17539
3.29585;0.2;0.17539
3.30099;0.2;0.17539
3.30517;0.2;0.17539
3.31169;0.2;0.17539
3.3168;0.2;0.17539
3.32094;0.2;0.17539
3.32595;0.2;0.17539
3.3308;0.2;0.17539
3.33588;0.2;0.17539
3.3407;0.2;0.17539
3.34578;0.2;0.17539
3.35253;0.2;0.17539
3.35701;0.2;0.17539
3.36013;0.2;0.17539
3.36523;0.2;0.17539
3.3713;0.2;0.17539
3.37611;0.2;0.17539
3.38026;0.2;0.17539
3.38535;0.2;0.17539
3.39113;0.2;0.17539
3.39516;0.2;0.17539
3.40025;0.2;0.17539
3.40511;0.2;0.17539
3.41087;0.2;0.17539
3.41619;0.2;0.17539
3.4203;0.2;0.17539
3.42586;0.2;0.17539
3.43223;0.2;0.17539
3.43748;0.2;0.17539
3.44057;0.2;0.17539
3.4457;0.2;0.17539
3.45244;0.2;0.17539
3.45712;0.2;0.17539
3.46027;0.2;0.17539
3.46534;0.2;0.17539
3.47145;0.2;0.17539
3.47534;0.2;0.17539
3.48053;0;0.17539
3.48515;0;0.17539
3.49069;0;0.17539
3.49511;0;0.17539
3.50033;0;0.17539
3.50545;0;0.17539
3.51157;0;0.17539
3.51676;0;0.17539
3.52041;0;0.17539
3.52552;0;0.17539
3.53201;0;0.17539
3.53748;0;0.17539
3.54063;0;0.17539
3.54574;0;0.17539
3.55238;0.2;0.17539
3.55634;0.2;0.17539
3.56047;0.2;0.17539
3.56589;0.2;0.17539
3.57062;0.2;0.17539
3.57598;0.2;0.17539
3.58097;0.2;0.17539
3.58619;0.2;0.17539
3.59136;0.2;0.17539
3.59611;0.2;0.17539
3.60087;0.2;0.17539
3.60606;0.2;0.17539
3.61124;0.2;0.17539
3.61678;0;0.17539
3.62094;0;0.17539
3.62602;0;0.17539
3.63211;0;0.17539
3.63646;0;0.17539
3.64057;0;0.17539
3.64595;0;0.17539
3.65112;0;0.17539
3.65566;0;0.17539
3.66036;0;0.17539
3.66551;0;0.17539
3.67143;0;0.17539
3.67633;0;0.17539
3.68103;0;0.17539
3.68519;0;0.17539
3.69167;0.2;0.17539
3.69662;0.2;0.17539
3.70074;0.2;0.17539
3.70582;0.2;0.17539
3.71146;0.2;0.17539
3.71554;0.2;0.17539
3.72064;0.2;0.17539
3.72597;0.2;0.17539
3.73069;0.2;0.17539
3.73587;0.2;0.17539
3.74056;0.2;0.0156121
3.74568;0.2;0.0156121
3.75243;0.2;0.0156121
3.75717;0;0.0156121
3.76022;0;0.0156121
3.7653;0;0.0156121
3.77107;0;0.0156121
3.77641;0;0.0156121
3.7805;0;0.0156121
3.78567;0;0.0156121
3.79207;0;0.0156121
3.79664;0;0.0156121
3.80081;0;0.0156121
3.80532;0;0.0156121
3.81171;0;0.0156121
3.81616;0;0.0156121
3.82028;0;0.0156121
3.82573;0.2;0.0156121
3.83154;0.2;0.0156121
3.83645;0.2;0.0156121
3.84083;0.2;0.0156121
3.84599;0.2;0.0156121
3.85106;0.2;0.0156121
3.85624;0.2;0.0156121
3.86045;0.2;0.0156121
3.86554;0.2;0.0156121
3.87123;0.2;0.0156121
3.87538;0.2;0.0156121
3.88049;0.2;0.0156121
3.88601;0.2;0.0156121
3.89092;0.2;0.0156121
3.89522;0;0.0156121
3.90034;0;0.0156121
3.90555;0;0.0156121
3.9151;0;0.0156121
3.92389;0;0.0156121
3.92606;0;0.0156121
3.93378;0;0.0156121
3.93992;0;0.0156121
3.94103;0;0.0156121
3.94616;0;0.174151
3.95131;0;0.174151
3.95599;0;0.174151
3.96112;0;0.174151
3.96576;0;0.174151
3.97162;0.2;0.174151
3.97623;0.2;0.174151
3.98019;0.2;0.174151
3.98533;0.2;0.174151
3.99138;0.2;0.174151
3.99534;0.2;0.174151
4.00029;0.2;0.174151
4.00537;0.2;0.174151
4.01118;0.2;0.174151
4.01562;0.2;0.174151
4.02077;0.2;0.174151
4.02591;0.2;0.174151
4.03172;0.2;0
4.0364;0.2;0
4.04057;0.2;0
4.04579;0.2;0
4.05241;0.2;0
4.05684;0.2;0
4.06023;0.2;0
4.06536;0.2;0
4.07137;0.2;0
4.07543;0.2;0
4.08036;0.2;0
4.08556;0.2;0
4.09133;0.2;0
4.096;0.2;0.174118
4.10118;0.2;0.174118
4.10538;0.2;0.174118
4.11064;0.2;0.174118
4.11576;0.2;0.174118
4.12088;0.2;0.174118
4.12585;0.2;0.174118
4.13143;0.2;0.174118
4.13664;0.2;0.174118
4.14034;0.2;0.174118
4.14546;0.2;0.174118
4.15247;0.2;0.174118
4.15666;0.2;0.174118
4.16093;0.2;0.174118
4.16604;0.2;0.174118
4.17075;0.2;0.174118
4.17526;0;0.174118
4.18035;0;0.174118
4.18546;0;0.174118
4.19177;0;0.174118
4.19629;0;0.174118
4.2004;0;0.174118
4.20545;0;0.174118
4.21184;0;0.174118
4.21692;0;0.174118
4.22044;0;0.174118
4.22555;0;0.174118
4.23211;0;0.174118
4.23786;0;0.174118
4.24095;0;0.174118
4.24529;0;0.174118
4.25224;0;0.174118
4.25763;0;0.174118
4.26076;0;0.174118
4.26588;0;0.174118
4.27113;0;0.174118
4.27609;0;0.174118
4.28022;0;0.174118
4.2852;0;0.174118
4.29086;0;0.174118
4.29599;0;0.174118
4.30023;0;0.0156072
4.3054;0;0.0156072
4.31143;0;0.0156072
4.3156;0;0.0156072
4.32027;0;0.0156072
4.32557;0;0.0156072
4.33264;0;0.0156072
4.33808;0;0.0156072
4.34026;0;0.0156072
4.34533;0;0.0156072
4.35218;0;0.0156072
4.35613;0;0.0156072
4.36025;0;0.0156072
4.36602;0;0.0156072
4.37081;0;0.0156072
4.37588;0;0.0156072
4.38097;0;0.0156072
4.38621;0;0.0156072
4.3911;0;0.0156072
4.39551;0;0.0156072
4.40041;0;0.0156072
4.40549;0;0.0156072
4.41239;0;0.0156072
4.41832;0;0.0156072
4.42042;0;0.0156072
4.4255;0;0.0156072
4.43274;0;0.0156072
4.43872;0;0.0156072
4.44082;0;0.0156072
4.44612;0;0.0156072
4.45203;0;0.0156072
4.45612;0;0.0156072
4.46011;0;0.0156072
4.46526;0;0.0156072
4.47128;0;0.0156072
4.47532;0;0.0156072
4.48038;0;0.0156072
4.48554;0;0.0156072
4.49159;0;0.0156072
4.4981;0;0.0156072
4.50022;0;0.0156072
4.50538;0;0.0156072
4.51196;0;0.0156072
4.51666;0;0.0156072
4.52093;0.2;0.0156072
4.5259;0.2;0.0156072
4.53138;0.2;0.0156072
4.53674;0.2;0.0156072
4.54037;0.2;0.0156072
4.54545;0.2;0.0156072
4.55219;0.2;0.0156072
4.55644;0.2;0.0156072
4.56056;0.2;0.0156072
4.56569;0.2;0.0156072
4.57151;0.2;0.0156072
4.57635;0.2;0.0156072
4.5805;0.2;0.0156072
4.58561;0.2;0.0156072
4.59101;0.2;0.0156072
4.59574;0.2;0.0156072
4.60083;0.2;0.0156072
4.60527;0.2;0.0156072
4.61168;0.2;0.0156072
4.61661;0.2;0.0156072
4.62064;0.2;0.0156072
4.62576;0.2;0.0156072
4.63249;0.2;0.0156072
4.63759;0.2;0.175234
4.64076;0.2;0.175234
4.64585;0.2;0.175234
4.65236;0.2;0.175234
4.65658;0.2;0.175234
4.66077;0;0.175234
4.66585;0;0.175234
4.67147;0;0.175234
4.67665;0;0.175234
4.68074;0;0.175234
4.68558;0;0.175234
4.69171;0;0.175234
4.69721;0;0.175234
4.70038;0;0.175234
4.70608;0;0.175234
4.71121;0;0.175234
4.71529;0;0.175234
4.7203;0;0.175234
4.72542;0;0.175234
4.73134;0;0.175234
4.73625;0;0.175234
4.74036;0;0.175234
4.74551;0;0.175234
4.75208;0;0.175234
4.75622;0;0.175234
4.76041;0;0.175234
4.76606;0;0.175234
4.77081;0;0.175234
4.77536;0;0.175234
4.7801;0;0.0156046
4.78525;0;0.0156046
4.79172;0;0.0156046
4.79584;0;0.0156046
4.80037;0;0.0156046
4.80552;0;0.0156046
4.81123;0;0.0156046
4.81574;0;0.0156046
4.82095;0;0.0156046
4.82606;0;0.0156046
4.83137;0;0.0156046
4.83573;0;0.0156046
4.84084;0;0.0156046
4.84593;0;0.0156046
4.85088;0;0.0156046
4.85538;0;0.0156046
4.86099;0;0.0156046
4.86612;0;0.0156046
4.87115;0.2;0.0156046
4.87526;0.2;0.0156046
4.88032;0.2;0.0156046
4.8855;0.2;0.0156046
4.89152;0.2;0.0156046
4.89678;0.2;0.0156046
4.90094;0.2;0.0156046
4.90607;0.2;0.0156046
4.91176;0.2;0.0156046
4.91573;0.2;0.0156046
4.92086;0.2;0.0156046
4.92576;0.2;0.0156046
4.93148;0.2;0.0156046
4.93598;0.2;0.0156046
4.94112;0;0.0156046
4.94523;0;0.0156046
4.95146;0;0.0156046
4.95569;0;0.0156046
4.96064;0;0.0156046
4.96573;0;0.0156046
4.97158;0;0.0156046
4.97697;0;0.0156046
4.98108;0;0.0156046
4.98522;0;0.0156046
4.99089;0;0.170978
4.99597;0;0.170978
5.00111;0;0.170978
5.00588;0;0.170978
5.01075;0.2;0.170978
5.01593;0.2;0.170978
5.02104;0.2;0.170978
5.02567;0.2;0.170978
5.03169;0.2;0.170978
5.03609;0.2;0.170978
5.04119;0.2;0.170978
5.04546;0.2;0.170978
5.05186;0.2;0.170978
5.05756;0.2;0.170978
5.06082;0.2;0.170978
5.06594;0.2;0.170978
5.07137;0.2;0.170978
5.0754;0.2;0.170978
5.08061;0;0.170978
5.08615;0;0.170978
5.09113;0;0.170978
5.09522;0;0.170978
5.1002;0;0.170978
5.1054;0;0.170978
5.11125;0;0.170978
5.11525;0;0.170978
5.12025;0;0.170978
5.12541;0;0.170978
5.13122;0;0.170978
5.13704;0;0.170978
5.14119;0;0.170978
5.1453;0;0.170978
5.15218;0.2;0.170978
5.15632;0.2;0.170978
5.16044;0.2;0.170978
5.16604;0.2;0.170978
5.17074;0.2;0.170978
5.17582;0.2;0.170978
5.18106;0.2;0.170978
5.1862;0.2;0.170978
5.19107;0.2;0.170978
5.1961;0.2;0.170978
5.20024;0.2;0.170978
5.20537;0.2;0.170978
5.21117;0.2;0.170978
5.21595;0.2;0.015596
5.2211;0.2;0.015596
5.22525;0.2;0.015596
5.2319;0.2;0.015596
5.23646;0.2;0.015596
5.24062;0.2;0.015596
5.24585;0.2;0.015596
5.25175;0.2;0.015596
5.25585;0.2;0.015596
5.26105;0.2;0.015596
5.26616;0.2;0.015596
5.27111;0.2;0.015596
5.27514;0.2;0.015596
5.28035;0.2;0.171436
5.28552;0.2;0.171436
5.29141;0;0.171436
5.29592;0;0.171436
5.30105;0;0.171436
5.30617;0;0.171436
5.31187;0;0.171436
5.31702;0;0.171436
5.32111;0;0.171436
5.32586;0;0.171436
5.33097;0;0.171436
5.33614;0;0.171436
5.34023;0;0.171436
5.34596;0;0.171436
5.3519;0;0.171436
5.35649;0;0.171436
5.36113;0;0.171436
5.36524;0;0.171436
5.37144;0;0.171436
5.37641;0;0.171436
5.38052;0;0.171436
5.3856;0;0.171436
5.39158;0;0.171436
5.39573;0;0.171436
5.40082;0;0.171436
5.40528;0;0.0155956
5.41116;0;0.0155956
5.4163;0;0.0155956
5.42044;0;0.0155956
5.42609;0.2;0.0155956
5.43092;0.2;0.0155956
5.43597;0.2;0.0155956
5.44092;0.2;0.0155956
5.44602;0.2;0.0155956
5.45192;0.2;0.0155956
5.45689;0.2;0.0155956
5.461;0.2;0.0155956
5.46611;0.2;0.0155956
5.47162;0.2;0.0155956
5.47552;0.2;0.0155956
5.48065;0.2;0.0155956
5.48601;0.2;0.0155956
5.49069;0.2;0.0155956
5.49615;0.2;0.0155956
5.50021;0.2;0.0155956
5.50532;0.2;0.0155956
5.51156;0.2;0.0155956
5.51641;0.2;0.0155956
5.52116;0.2;0.0155956
5.52531;0.2;0.0155956
5.53156;0.2;0.0155956
5.53695;0.2;0.0155956
5.54111;0.2;0.0155956
5.54518;0.2;0.0155956
5.55226;0.2;0.0155956
5.55635;0.2;0.0155956
5.56044;0.2;0.0155956
5.56598;0.2;0.190653
5.57075;0;0.190653
5.57516;0;0.190653
5.58011;0;0.190653
5.5853;0;0.190653
5.5919;0;0.190653
5.59642;0;0.190653
5.60081;0;0.190653
5.60591;0;0.190653
5.61112;0;0.190653
5.61657;0;0.190653
5.62069;0;0.190653
5.62578;0;0.190653
5.63201;0;0.190653
5.63657;0;0.190653
5.64065;0;0.190653
5.64593;0;0.190653
5.65145;0;0.190653
5.65611;0;0.190653
5.66025;0;0.190653
5.66574;0;0.190653
5.67246;0;0.190653
5.67767;0;0.190653
5.68037;0;0.190653
5.68552;0;0.190653
5.69211;0;0.190653
5.69678;0;0.0155923
5.70092;0;0.0155923
5.70614;0.2;0.0155923
5.7118;0.2;0.0155923
5.71608;0.2;0.0155923
5.72023;0.2;0.0155923
5.72595;0.2;0.0155923
5.73072;0.2;0.0155923
5.73595;0.2;0.0155923
5.74059;0.2;0.0155923
5.74569;0.2;0.0155923
5.75261;0.2;0.0155923
5.75735;0.2;0.0155923
5.76021;0.2;0.0155923
5.76535;0.2;0.0155923
5.77166;0.2;0.0155923
5.77718;0;0.0155923
5.78033;0;0.0155923
5.78541;0;0.0155923
5.79168;0;0.0155923
5.79561;0;0.0155923
5.80072;0;0.0155923
5.80518;0;0.0155923
5.81097;0;0.0155923
5.81543;0;0.0155923
5.82055;0;0.0155923
5.82571;0;0.0155923
5.83182;0;0.0155923
5.83699;0;0.0155923
5.8403;0;0.0155923
5.84552;0.2;0.0155923
5.85235;0.2;0.0155923
5.85728;0.2;0.0155923
5.86042;0.2;0.0155923
5.8655;0.2;0.0155923
5.87203;0.2;0.0155923
5.87595;0.2;0.0155923
5.88104;0.2;0.0155923
5.88599;0.2;0.0155923
5.89075;0.2;0.0155923
5.89517;0.2;0.0155923
5.90028;0.2;0.0155923
5.90543;0.2;0.0155923
5.91196;0.2;0.0155923
5.91645;0.2;0.0155923
5.9206;0.2;0.0155923
5.92571;0.2;0.0155923
5.93231;0.2;0.0155923
5.93746;0.2;0.0155923
5.94059;0.2;0.0155923
5.94571;0.2;0.0155923
5.95229;0.2;0.0155923
5.9566;0.2;0.0155923
5.96074;0.2;0.0155923
5.96585;0.2;0.0155923
5.97179;0.2;0.0155923
5.97695;0.2;0.0155923
5.98112;0.2;0.204979
5.98536;0.2;0.204979
5.99231;0.2;0.204979
5.99691;0.2;0.204979
6.00103;0.2;0.204979
6.00537;0.2;0.204979
6.01119;0.2;0.204979
6.01564;0.2;0.204979
6.02087;0.2;0.204979
6.02598;0.2;0.204979
6.03075;0.2;0.204979
6.03572;0.2;0.204979
6.04084;0.2;0.204979
6.04595;0.2;0.204979
6.05212;0.2;0.204979
6.05685;0.2;0.204979
6.06046;0.2;0.204979
6.06556;0.2;0.204979
6.07179;0.2;0.204979
6.07598;0.2;0.204979
6.08038;0.2;0.204979
6.08553;0.2;0.204979
6.09131;0.2;0.204979
6.09567;0.2;0.204979
6.10076;0.2;0.204979
6.10584;0.2;0.204979
6.11071;0.2;0.204979
6.11581;0.2;0.204979
6.12101;0.2;0.204979
6.12593;0.2;0.204979
6.1307;0.2;0.204979
6.13536;0.2;0.204979
6.14033;0.2;0.204979
6.14544;0.2;0.204979
6.15224;0.2;0.204979
6.15672;0.2;0.204979
6.16088;0.2;0.204979
6.16598;0.2;0.204979
6.17092;0.2;0.204979
6.17526;0.2;0.204979
6.18037;0.2;0.204979
6.18552;0.2;0.204979
6.19066;0.2;0.204979
6.19578;0.2;0.204979
6.20094;0.2;0.204979
6.20524;0.2;0.204979
6.21114;0.2;0.204979
6.21548;0.2;0.204979
6.22039;0.2;0.204979
6.22555;0.2;0.204979
6.23178;0.2;0.204979
6.23591;0.2;0.204979
6.24038;0.2;0.204979
6.24564;0.2;0.204979
6.2516;0.2;0.204979
6.25596;0.2;0.204979
6.26025;0;0.204979
6.26538;0;0.204979
6.27069;0;0.204979
6.27578;0;0.204979
6.28089;0;0.204979
6.2859;0;0.204979
6.29081;0;0.204979
6.29605;0;0.204979
6.30101;0;0.204979
6.30615;0;0.204979
6.3113;0;0.204979
6.31572;0;0.204979
6.32064;0;0.204979
6.32576;0;0.204979
6.33172;0.2;0.204979
6.33692;0.2;0.204979
6.341;0.2;0.204979
6.34611;0.2;0.204979
6.3522;0.2;0.204979
6.35619;0.2;0.204979
6.36031;0.2;0.204979
6.36587;0.2;0.204979
6.37062;0.2;0.204979
6.37569;0.2;0.204979
6.38097;0.2;0.0311639
6.38619;0.2;0.0311639
6.39116;0.2;0.0311639
6.39636;0.2;0.0311639
6.40056;0.2;0.0311639
6.40565;0.2;0.0311639
6.41262;0.2;0.0311639
6.41841;0.2;0.0311639
6.4205;0.2;0.0311639
6.42567;0.2;0.0311639
6.43275;0.2;0.0311639
6.43874;0.2;0.0311639
6.4409;0.2;0.0311639
6.4461;0.2;0.0311639
6.45182;0.2;0.0311639
6.45589;0.2;0.0311639
6.46115;0.2;0.204919
6.46523;0.2;0.204919
6.47119;0.2;0.204919
6.47523;0.2;0.204919
6.48058;0.2;0.204919
6.48577;0.2;0.204919
6.49173;0.2;0.204919
6.49696;0.2;0.204919
6.50114;0.2;0.204919
6.50522;0.2;0.204919
6.51103;0.2;0.204919
6.51604;0.2;0.204919
6.52116;0.2;0.204919
6.52586;0.2;0.204919
6.53153;0.2;0.204919
6.53623;0.2;0.204919
6.5401;0.2;0.204919
6.54528;0.2;0.204919
6.55214;0.2;0.204919
6.5565;0.2;0.204919
6.56093;0.2;0.204919
6.56602;0.2;0.204919
6.57066;0.2;0.204919
6.5752;0.2;0.204919
6.58027;0.2;0.204919
6.58538;0.2;0.204919
6.59108;0.2;0.204919
6.59521;0.2;0.204919
6.60031;0.2;0.204919
6.60526;0.2;0.204919
6.61123;0;0.204919
6.61525;0;0.204919
6.62052;0;0.204919
6.62572;0;0.204919
6.63171;0;0.204919
6.63595;0;0.204919
6.64037;0;0.204919
6.64554;0;0.204919
6.65563;0;0.204919
6.66632;0;0.204919
6.67366;0;0.204919
6.68067;0;0.204919
6.68181;0;0.204919
6.68693;0;0.204919
6.69682;0;0.204919
6.70245;0;0.204919
6.70775;0;0.204919
6.71607;0;0.204919
6.71756;0;0.204919
6.72283;0;0.204919
6.72693;0;0.204919
6.73556;0;0.0311628
6.73768;0;0.0311628
6.74274;0;0.0311628
6.74778;0.2;0.0311628
6.75227;0.2;0.0311628
6.75755;0.2;0.0311628
6.76265;0.2;0.0311628
6.76707;0.2;0.0311628
6.77558;0.2;0.0311628
6.77771;0.2;0.0311628
6.78212;0.2;0.0311628
6.78735;0.2;0.0311628
6.79555;0.2;0.0311628
6.79719;0.2;0.0311628
6.80234;0.2;0.0311628
6.80748;0.2;0.0311628
6.81593;0.2;0.0311628
6.81708;0.2;0.0311628
6.82223;0.2;0.0311628
6.82747;0.2;0.0311628
6.83205;0.2;0.0311628
6.83774;0.2;0.0311628
6.84197;0.2;0.0311628
6.84703;0.2;0.0311628
6.85547;0.2;0.0311628
6.85763;0.2;0.0311628
6.86218;0.2;0.0311628
6.86726;0.2;0.0311628
6.87651;0.2;0.0311628
6.87763;0.2;0.18488
6.88275;0.2;0.18488
6.88693;0;0.18488
6.89629;0;0.18488
6.89741;0;0.18488
6.90262;0;0.18488
6.90781;0;0.18488
6.91574;0;0.18488
6.91791;0;0.18488
6.92202;0;0.18488
6.92785;0;0.18488
6.93189;0;0.18488
6.93751;0;0.18488
6.94239;0;0.18488
6.94764;0;0.18488
6.95214;0;0.18488
6.95774;0.2;0.18488
6.96198;0.2;0.18488
6.96706;0.2;0.18488
6.97553;0.2;0.18488
6.97769;0.2;0.18488
6.9828;0.2;0.18488
6.98794;0.2;0.18488
6.99504;0.2;0.18488
6.99713;0.2;0.18488
7.00225;0.2;0.18488
7.0071;0.2;0.0311474
7.01486;0.2;0.0311474
7.01695;0.2;0.0311474
7.02224;0.2;0.0311474
7.02737;0.2;0.0311474
7.03551;0.2;0.0311474
7.03749;0.2;0.0311474
7.0426;0.2;0.0311474
7.04772;0.2;0.0311474
7.05614;0.2;0.0311474
7.05749;0.2;0.0311474
7.0626;0.2;0.0311474
7.06793;0.2;0.0311474
7.07501;0.2;0.0311474
7.0771;0.2;0.0311474
7.0823;0.2;0.0311474
7.08702;0.2;0.188627
7.09495;0.2;0.188627
7.09715;0.2;0.188627
7.10201;0.2;0.188627
7.10715;0.2;0.188627
7.11522;0.2;0.188627
7.11744;0.2;0.188627
7.12258;0.2;0.188627
7.127;0.2;0.188627
7.1355;0.2;0.188627
7.13762;0.2;0.188627
7.14292;0.2;0.188627
7.14704;0.2;0.188627
7.15194;0.2;0.188627
7.15756;0.2;0.188627
7.16267;0.2;0.188627
7.16697;0;0.188627
7.17564;0;0.188627
7.1777;0;0.188627
7.18208;0;0.188627
7.18738;0;0.188627
7.19581;0;0.188627
7.19716;0;0.188627
7.20245;0;0.188627
7.20757;0;0.188627
7.21587;0;0.188627
7.217;0;0.188627
7.22211;0;0.188627
7.22722;0;0.188627
7.23594;0;0.188627
7.23711;0.2;0.188627
7.24218;0.2;0.188627
7.24707;0.2;0.188627
7.25553;0.2;0.188627
7.25762;0.2;0.188627
7.26228;0.2;0.188627
7.26742;0.2;0.188627
7.27613;0.2;0.188627
7.2775;0.2;0.0155731
7.28261;0.2;0.0155731
7.28773;0.2;0.0155731
7.29187;0.2;0.0155731
7.29725;0.2;0.0155731
7.30241;0.2;0.0155731
7.30765;0.2;0.0155731
7.3161;0.2;0.0155731
7.31718;0.2;0.0155731
7.32238;0.2;0.0155731
7.32685;0.2;0.0155731
7.33184;0.2;0.0155731
7.33758;0.2;0.0155731
7.34265;0.2;0.0155731
7.34689;0.2;0.0155731
7.35536;0.2;0.0155731
7.35763;0.2;0.0155731
7.36276;0.2;0.0155731
7.367;0.2;0.0155731
7.37542;0.2;0.185176
7.37754;0.2;0.185176
7.38278;0.2;0.185176
7.38788;0.2;0.185176
7.39517;0.2;0.185176
7.39735;0.2;0.185176
7.40246;0.2;0.185176
7.40716;0.2;0.185176
7.41542;0.2;0.185176
7.41756;0.2;0.185176
7.42244;0.2;0.185176
7.42695;0.2;0.185176
7.43553;0.2;0.185176
7.43774;0.2;0.185176
7.442;0;0.185176
7.44709;0;0.185176
7.45575;0;0.185176
7.45692;0;0.185176
7.46203;0;0.185176
7.46713;0;0.185176
7.47497;0;0.185176
7.47709;0;0.185176
7.48219;0;0.185176
7.487;0;0.185176
7.49505;0;0.185176
7.49717;0;0.185176
7.50216;0;0.185176
7.50727;0;0.185176
7.51568;0;0.185176
7.51732;0;0.185176
7.52243;0;0.185176
7.52753;0;0.185176
7.53622;0;0.185176
7.53733;0;0.185176
7.54243;0;0.185176
7.54765;0;0.185176
7.55539;0;0.185176
7.55751;0;0.185176
7.56274;0;0.185176
7.56787;0;0.0311374
7.57464;0;0.0311374
7.57788;0;0.0311374
7.58208;0.2;0.0311374
7.58722;0.2;0.0311374
7.59579;0.2;0.0311374
7.59754;0.2;0.0311374
7.60269;0.2;0.0311374
7.60693;0.2;0.0311374
7.61528;0.2;0.0311374
7.6174;0.2;0.0311374
7.62267;0.2;0.0311374
7.62764;0.2;0.0311374
7.63617;0.2;0.0311374
7.63735;0.2;0.0311374
7.64245;0.2;0.0311374
7.64785;0.2;0.0311374
7.65214;0;0.0311374
7.65748;0;0.0311374
7.66233;0;0.0311374
7.66761;0;0.0311374
7.67673;0;0.0311374
7.67785;0;0.0311374
7.68211;0;0.0311374
7.68722;0;0.0311374
7.69569;0;0.0311374
7.69786;0;0.0311374
7.70199;0;0.0311374
7.70709;0;0.0311374
7.71192;0;0.0311374
7.7173;0;0.0311374
7.72252;0.2;0.0311374
7.7272;0.2;0.0311374
7.73558;0.2;0.0311374
7.73768;0.2;0.0311374
7.74227;0.2;0.0311374
7.74737;0.2;0.0311374
7.75183;0.2;0.0311374
7.75747;0.2;0.0311374
7.76258;0.2;0.0311374
7.76766;0.2;0.0311374
7.77705;0.2;0.0311374
7.78216;0.2;0.0311374
7.78741;0.2;0.0311374
7.79222;0;0.0311374
7.79749;0;0.0311374
7.80273;0;0.0311374
7.80808;0;0.0311374
7.81487;0;0.0311374
7.81814;0;0.0311374
7.82225;0;0.0311374
7.82734;0;0.0311374
7.83582;0;0.0311374
7.83753;0;0.0311374
7.84261;0;0.0311374
7.84784;0;0.0311374
7.85211;0;0.0311374
7.85766;0;0.0311374
7.86294;0.2;0.0311374
7.8678;0.2;0.0311374
7.87224;0.2;0.0311374
7.87733;0.2;0.0311374
7.88243;0.2;0.0311374
7.88787;0.2;0.0311374
7.8947;0.2;0.0311374
7.89779;0.2;0.0311374
7.90297;0.2;0.0311374
7.90727;0.2;0.0311374
7.91534;0.2;0.0311374
7.91729;0.2;0.0311374
7.92259;0.2;0.0311374
7.92781;0;0.0311374
7.93833;0;0.0311374
7.94914;0;0.0311374
7.95633;0;0.0311374
7.9627;0;0.0311374
7.96481;0;0.0311374
7.97259;0;0.0311374
7.9766;0;0.0311374
7.97971;0;0.0311374
7.98486;0;0.0311374
7.99189;0;0.0311374
7.9959;0;0.0311374
8.00014;0;0.0311374
8.00426;0;0.0311374
8.0112;0;0.0311374
8.01624;0;0.0311374
8.01937;0;0.0311374
8.02451;0;0.0311374
8.03214;0;0.0311374
8.03697;0;0.0311374
8.04009;0;0.0311374
8.04431;0;0.0311374
8.05219;0;0.0311374
8.05653;0;0.0311374
8.05969;0;0.0311374
8.06498;0;0.0311374
8.07106;0;0.0311374
8.07506;0.2;0.0311374
8.0799;0.2;0.0311374
8.08504;0.2;0.0311374
8.09108;0.2;0.0311374
8.09578;0.2;0.0311374
8.09991;0.2;0.0311374
8.10519;0.2;0.0311374
8.11275;0.2;0.0311374
8.11749;0.2;0.0311374
8.11968;0.2;0.0311374
8.12483;0.2;0.0311374
8.13293;0.2;0.0311374
8.13934;0.2;0.0311374
8.14485;0;0.0311374
8.15195;0;0.0311374
8.15602;0;0.0311374
8.16023;0;0.0311374
8.16546;0;0.0311374
8.1716;0;0.0311374
8.17599;0;0.0311374
8.18014;0;0.0311374
8.18525;0;0.0311374
8.1916;0;0.0311374
8.19562;0;0.0311374
8.19973;0;0.0311374
8.20485;0;0.0311374
8.21089;0.2;0.0311374
8.21507;0.2;0.0311374
8.2202;0.2;0.0311374
8.22499;0.2;0.0311374
8.23121;0.2;0.0311374
8.23574;0.2;0.0311374
8.23953;0.2;0.0311374
8.24464;0.2;0.0311374
8.25193;0.2;0.0311374
8.25664;0.2;0.0311374
8.25976;0.2;0.0311374
8.26485;0.2;0.0311374
8.27144;0.2;0.0311374
8.2754;0.2;0.0311374
8.27961;0;0.0311374
8.28497;0;0.0311374
8.29084;0;0.0311374
8.29483;0;0.0311374
8.30008;0;0.0311374
8.30518;0;0.0311374
8.31141;0;0.0311374
8.31585;0;0.0311374
8.32;0;0.0311374
8.32511;0;0.0311374
8.33129;0;0.0311374
8.33653;0;0.0311374
8.33966;0;0.0311374
8.34493;0;0.0311374
8.35255;0;0.0311374
8.35631;0;0.0311374
8.35945;0;0.0311374
8.36453;0;0.0311374
8.3716;0;0.0311374
8.37559;0;0.0311374
8.37968;0;0.0311374
8.38508;0;0.0311374
8.39239;0;0.0311374
8.39818;0;0.0311374
8.40027;0;0.0311374
8.40545;0;0.0311374
8.41159;0;0.0311374
8.41689;0;0.0311374
8.42005;0;0.0311374
8.42513;0;0.0311374
8.43273;0;0.0311374
8.43865;0;0.0311374
8.43974;0;0.0311374
8.44492;0;0.0311374
8.45191;0;0.0311374
8.45593;0;0.0311374
8.46004;0;0.0311374
8.46493;0;0.0311374
8.47079;0;0.0311374
8.47487;0;0.0311374
8.47982;0;0.0311374
8.48493;0;0.0311374
8.49099;0.2;0.0311374
8.49595;0.2;0.0311374
8.50006;0.2;0.0311374
8.50515;0.2;0.0311374
8.5129;0.2;0.0311374
8.51775;0.2;0.0311374
8.51987;0.2;0.0311374
8.5247;0.2;0.0311374
8.5325;0.2;0.0311374
8.53865;0.2;0.0311374
8.5398;0.2;0.0311374
8.54509;0.2;0.0311374
8.5519;0.2;0.0311374
8.55609;0;0.0311374
8.56021;0;0.0311374
8.56529;0;0.0311374
8.57148;0;0.0311374
8.57628;0;0.0311374
8.58037;0;0.0311374
8.58452;0;0.0311374
8.59192;0;0.0311374
8.59673;0;0.0311374
8.5999;0;0.0311374
8.60521;0;0.0311374
8.61214;0;0.0311374
8.61696;0;0.0311374
8.62007;0;0.0311374
8.62534;0;0.0311374
8.63237;0;0.0311374
8.63733;0;0.0311374
8.63962;0;0.0311374
8.64482;0;0.0311374
8.6524;0;0.0311374
8.65732;0;0.0311374
8.65953;0;0.0311374
8.6646;0;0.0311374
8.67204;0;0.0311374
8.67605;0;0.0311374
8.68015;0;0.0311374
8.68513;0;0.0311374
8.69102;0;0.0311374
8.69508;0.2;0.0311374
8.70018;0.2;0.0311374
8.70509;0.2;0.0311374
8.71558;0.2;0.0311374
8.72318;0.2;0.0311374
8.72645;0.2;0.0311374
8.73285;0.2;0.0311374
8.739;0.2;0.0311374
8.7411;0.2;0.0311374
8.74625;0.2;0.0311374
8.7525;0.2;0.0311374
8.75633;0.2;0.0311374
8.76155;0.2;0.0311374
8.76664;0.2;0.0311374
8.77151;0;0.0311374
8.7756;0;0.0311374
8.78069;0;0.0311374
8.78584;0;0.0311374
8.79195;0;0.0311374
8.7962;0;0.0311374
8.8014;0;0.0311374
8.8066;0;0.0311374
8.8117;0;0.0311374
8.81668;0;0.0311374
8.82083;0;0.0311374
8.8259;0;0.0311374
8.83189;0;0.0311374
8.83622;0.2;0.0311374
8.84133;0.2;0.0311374
8.84662;0.2;0.0311374
8.85195;0.2;0.0311374
8.85593;0.2;0.0311374
8.86073;0.2;0.0311374
8.8659;0.2;0.0311374
8.87104;0.2;0.0311374
8.87634;0.2;0.0311374
8.88105;0.2;0.0311374
8.8862;0.2;0.0311374
8.89104;0.2;0.0311374
8.89658;0.2;0.0311374
8.9007;0.2;0.0311374
8.90594;0.2;0.0311374
8.91208;0.2;0.0311374
8.91602;0.2;0.0311374
8.92082;0.2;0.0311374
8.92562;0.2;0.0311374
8.93162;0.2;0.0311374
8.93619;0.2;0.0311374
8.94102;0.2;0.0311374
8.94573;0.2;0.0311374
8.95217;0.2;0.0311374
8.95637;0.2;0.0311374
8.96117;0.2;0.188304
8.96561;0.2;0.188304
8.97173;0.2;0.188304
8.97677;0;0.188304
8.98091;0;0.188304
8.98565;0;0.188304
8.99204;0;0.188304
8.99609;0;0.188304
9.00071;0;0.188304
9.0056;0;0.188304
9.0115;0;0.188304
9.01592;0;0.188304
9.021;0;0.188304
9.02611;0;0.188304
9.03116;0;0.188304
9.03589;0;0.188304
9.04167;0;0.188304
9.04562;0.2;0.188304
9.05205;0.2;0.188304
9.05672;0.2;0.188304
9.0609;0.2;0.188304
9.066;0.2;0.188304
9.07183;0.2;0.188304
9.07634;0.2;0.188304
9.08146;0.2;0.188304
9.08561;0.2;0.188304
9.09178;0.2;0.188304
9.09596;0.2;0.188304
9.10084;0.2;0.188304
9.10575;0.2;0.188304
9.11266;0;0.188304
9.1177;0;0.188304
9.12136;0;0.188304
9.12661;0;0.188304
9.13251;0;0.188304
9.13936;0;0.188304
9.14148;0;0.188304
9.14592;0;0.188304
9.15231;0;0.188304
9.15633;0;0.188304
9.16087;0;0.188304
9.16558;0;0.188304
9.17154;0;0.188304
9.17602;0;0.188304
9.18114;0;0.188304
9.18612;0;0.188304
9.19161;0;0.188304
9.19571;0;0.188304
9.20067;0;0.188304
9.20666;0;0.188304
9.21161;0;0.188304
9.21667;0;0.188304
9.22079;0;0.188304
9.22571;0;0.188304
9.23171;0;0.0155132
9.23636;0;0.0155132
9.2412;0;0.0155132
9.24669;0;0.0155132
9.25219;0;0.0155132
9.25652;0;0.0155132
9.26153;0;0.0155132
9.26615;0;0.0155132
9.2712;0;0.0155132
9.27565;0;0.0155132
9.28158;0;0.0155132
9.28567;0;0.0155132
9.292;0;0.0155132
9.29654;0;0.0155132
9.30071;0;0.0155132
9.30578;0;0.0155132
9.31163;0;0.0155132
9.31606;0;0.0155132
9.32105;0.2;0.0155132
9.32664;0.2;0.0155132
9.33188;0.2;0.0155132
9.33697;0.2;0.0155132
9.34107;0.2;0.0155132
9.34573;0.2;0.0155132
9.35229;0.2;0.0155132
9.35705;0.2;0.0155132
9.36072;0.2;0.0155132
9.36561;0.2;0.0155132
9.37277;0.2;0.0155132
9.37818;0.2;0.0155132
9.38131;0.2;0.0155132
9.3866;0.2;0.0155132
9.39244;0.2;0.0155132
9.39653;0.2;0.0155132
9.40093;0.2;0.0155132
9.40557;0.2;0.0155132
9.4116;0.2;0.0155132
9.41587;0.2;0.0155132
9.42102;0.2;0.0155132
9.42567;0.2;0.0155132
9.43178;0.2;0.0155132
9.43695;0.2;0.0155132
9.44093;0.2;0.176379
9.44663;0.2;0.176379
9.45258;0.2;0.176379
9.45782;0.2;0.176379
9.46094;0;0.176379
9.46605;0;0.176379
9.47216;0;0.176379
9.47611;0;0.176379
9.48131;0;0.176379
9.48593;0;0.176379
9.49083;0;0.176379
9.4962;0;0.176379
9.50069;0;0.176379
9.50577;0;0.176379
9.51221;0;0.176379
9.51695;0;0.176379
9.52082;0;0.176379
9.52596;0;0.176379
9.53152;0;0.176379
9.53743;0;0.176379
9.54059;0;0.176379
9.54569;0;0.176379
9.55262;0;0.176379
9.55663;0;0.176379
9.56072;0;0.176379
9.56569;0;0.176379
9.5717;0;0.176379
9.57579;0;0.176379
9.58077;0;0.0155069
9.58588;0;0.0155069
9.59091;0;0.0155069
9.59655;0;0.0155069
9.60101;0.2;0.0155069
9.60614;0.2;0.0155069
9.61175;0.2;0.0155069
9.61707;0.2;0.0155069
9.6212;0.2;0.0155069
9.62628;0.2;0.0155069
9.63222;0.2;0.0155069
9.63709;0.2;0.0155069
9.64118;0.2;0.0155069
9.6465;0.2;0.0155069
9.65215;0.2;0.0155069
9.65648;0.2;0.0155069
9.66062;0.2;0.0155069
9.66613;0.2;0.0155069
9.67112;0.2;0.0155069
9.67607;0.2;0.0155069
9.68149;0.2;0.0155069
9.68676;0.2;0.0155069
9.69256;0.2;0.0155069
9.69762;0.2;0.0155069
9.70081;0.2;0.0155069
9.70594;0.2;0.0155069
9.71212;0.2;0.0155069
9.71697;0.2;0.0155069
9.7211;0.2;0.0155069
9.72668;0.2;0.189278
9.73196;0.2;0.189278
9.73692;0.2;0.189278
9.7411;0.2;0.189278
9.74659;0.2;0.189278
9.75212;0.2;0.189278
9.75664;0.2;0.189278
9.76163;0.2;0.189278
9.76576;0.2;0.189278
9.77241;0.2;0.189278
9.77739;0.2;0.189278
9.78165;0.2;0.189278
9.78573;0.2;0.189278
9.79213;0.2;0.189278
9.79651;0.2;0.189278
9.80161;0.2;0.189278
9.80575;0.2;0.189278
9.81196;0;0.189278
9.81674;0;0.189278
9.82084;0;0.189278
9.82561;0;0.189278
9.8323;0;0.189278
9.8386;0;0.189278
9.84099;0;0.189278
9.84609;0;0.189278
9.85219;0;0.189278
9.85729;0;0.189278
9.86141;0;0.189278
9.86649;0;0.189278
9.87276;0;0.189278
9.87667;0;0.189278
9.88082;0;0.189278
9.88628;0;0.189278
9.89138;0;0.189278
9.89571;0;0.189278
9.90106;0;0.189278
9.90618;0;0.189278
9.9115;0;0.189278
9.9166;0;0.189278
9.92076;0;0.0155004
9.92586;0;0.0155004
9.93273;0;0.0155004
9.93859;0;0.0155004
9.9407;0;0.0155004
9.94581;0;0.0155004
9.95323;0.2;0.0155004
9.95888;0.2;0.0155004
9.96103;0.2;0.0155004
9.96612;0.2;0.0155004
9.97193;0.2;0.0155004
9.97808;0.2;0.0155004
9.98116;0.2;0.0155004
9.98619;0.2;0.0155004
9.99153;0.2;0.0155004
9.99659;0.2;0.0155004
10.0011;0.2;0.0155004
10.0064;0.2;0.0155004
10.0125;0.2;0.0155004
10.0184;0.2;0.0155004
10.0216;0.2;0.0155004
10.0257;0.2;0.0155004
10.0316;0.2;0.0155004
10.0362;0.2;0.0155004
10.0413;0.2;0.0155004
10.0466;0.2;0.0155004
10.0522;0.2;0.0155004
10.0563;0.2;0.0155004
10.0614;0.2;0.0155004
10.0662;0.2;0.0155004
10.0712;0.2;0.0155004
10.076;0.2;0.0155004
10.0815;0.2;0.176508
10.0866;0.2;0.176508
10.0917;0.2;0.176508
10.0962;0.2;0.176508
10.1014;0.2;0.176508
10.1065;0.2;0.176508
10.1116;0.2;0.176508
10.1157;0.2;0.176508
10.1208;0.2;0.176508
10.1257;0.2;0.176508
10.1317;0.2;0.176508
10.1363;0.2;0.176508
10.1415;0.2;0.176508
10.146;0.2;0.176508
10.1518;0.2;0.176508
10.1558;0.2;0.176508
10.1612;0.2;0.176508
10.1663;0.2;0.176508
10.1717;0.2;0.176508
10.1766;0.2;0.176508
10.1808;0.2;0.176508
10.1859;0.2;0.176508
10.1915;0.2;0.176508
10.1965;0.2;0.176508
10.2007;0.2;0.176508
10.206;0.2;0.176508
10.2109;0.2;0.176508
10.216;0.2;0.176508
10.221;0.2;0.176508
10.2263;0;0.176508
10.2324;0;0.176508
10.2375;0;0.176508
10.2416;0;0.176508
10.2458;0;0.176508
10.2526;0;0.176508
10.2586;0;0.176508
10.2608;0;0.176508
10.2659;0;0.176508
10.2724;0;0.176508
10.2763;0;0.176508
10.2814;0;0.176508
10.2861;0;0.176508
10.2911;0;0.176508
10.2962;0;0.176508
10.301;0;0.176508
10.3061;0;0.176508
10.3122;0;0.176508
10.3174;0;0.176508
10.3216;0;0.176508
10.3257;0;0.176508
10.3334;0;0.176508
10.3392;0;0.176508
10.3413;0;0.176508
10.3464;0;0.176508
10.3529;0;0.176508
10.3567;0;0.176508
10.3608;0;0.176508
10.366;0;0.176508
10.371;0;0.176508
10.376;0;0.176508
10.3809;0;0.0154937
10.386;0;0.0154937
10.3913;0;0.0154937
10.3963;0;0.0154937
10.401;0;0.0154937
10.4062;0;0.0154937
10.4114;0;0.0154937
10.4167;0;0.0154937
10.4208;0;0.0154937
10.4259;0;0.0154937
10.4328;0;0.0154937
10.4387;0.2;0.0154937
10.4408;0.2;0.0154937
10.4459;0.2;0.0154937
10.4521;0.2;0.0154937
10.4561;0.2;0.0154937
10.461;0.2;0.0154937
10.4661;0.2;0.0154937
10.4711;0.2;0.0154937
10.4763;0.2;0.0154937
10.481;0.2;0.0154937
10.4861;0.2;0.0154937
10.4914;0.2;0.0154937
10.4966;0.2;0.0154937
10.5008;0.2;0.0154937
10.5061;0.2;0.0154937
10.5128;0.2;0.0154937
10.5176;0.2;0.0154937
10.5207;0.2;0.0154937
10.5258;0.2;0.0154937
10.5329;0.2;0.0154937
10.5383;0.2;0.0154937
10.541;0.2;0.0154937
10.5462;0.2;0.0154937
10.5519;0.2;0.0154937
10.556;0.2;0.0154937
10.5614;0.2;0.172624
10.5665;0.2;0.172624
10.5717;0.2;0.172624
10.5764;0;0.172624
10.5815;0;0.172624
10.5866;0;0.172624
10.5921;0;0.172624
10.5962;0;0.172624
10.6013;0;0.172624
10.6062;0;0.172624
10.6112;0;0.172624
10.6163;0;0.172624
10.6215;0;0.172624
10.6266;0;0.172624
10.6327;0;0.172624
10.6391;0;0.172624
10.6412;0;0.172624
10.6464;0.2;0.172624
10.6524;0.2;0.172624
10.6574;0.2;0.172624
10.6615;0.2;0.172624
10.6656;0.2;0.172624
10.673;0.2;0.172624
10.677;0.2;0.172624
10.6812;0.2;0.172624
10.6862;0.2;0.0154869
10.6911;0.2;0.0154869
10.6966;0.2;0.0154869
10.7007;0.2;0.0154869
10.7061;0.2;0.0154869
10.7115;0.2;0.0154869
10.7166;0.2;0.0154869
10.7209;0.2;0.0154869
10.726;0.2;0.0154869
10.7318;0.2;0.0154869
10.7373;0.2;0.0154869
10.7415;0.2;0.0154869
10.7466;0.2;0.0154869
10.7528;0.2;0.0154869
10.7571;0.2;0.0154869
10.7612;0.2;0.0154869
10.7657;0.2;0.0154869
10.7721;0.2;0.0154869
10.7762;0.2;0.0154869
10.781;0.2;0.190505
10.7862;0;0.190505
10.7915;0;0.190505
10.7959;0;0.190505
10.8013;0;0.190505
10.8064;0;0.190505
10.8116;0;0.190505
10.8164;0;0.190505
10.8215;0;0.190505
10.8267;0;0.190505
10.8319;0;0.190505
10.8363;0;0.190505
10.8414;0;0.190505
10.8457;0;0.190505
10.8521;0;0.190505
10.8562;0;0.190505
10.8609;0;0.190505
10.866;0;0.190505
10.8711;0;0.190505
10.8762;0;0.190505
10.881;0;0.190505
10.8862;0;0.190505
10.8912;0;0.190505
10.8963;0;0.014796
10.9014;0;0.014796
10.9056;0;0.014796
10.912;0;0.014796
10.916;0;0.014796
10.9213;0;0.014796
10.9258;0;0.014796
10.9319;0;0.014796
10.9365;0;0.014796
10.9408;0;0.014796
10.9459;0;0.014796
10.9517;0;0.014796
10.9558;0;0.014796
10.9613;0;0.014796
10.9665;0;0.014796
10.9715;0;0.014796
10.9766;0;0.014796
10.9808;0;0.014796
10.9859;0;0.014796
10.9915;0;0.014796
10.9966;0;0.014796
11.0017;0;0.014796
11.0058;0;0.014796
11.0118;0;0.014796
11.0161;0;0.014796
11.0212;0;0.014796
11.0264;0;0.014796
11.0318;0;0.014796
11.0363;0;0.014796
11.0407;0;0.014796
11.0459;0;0.014796
11.0522;0;0.014796
11.0567;0;0.014796
11.0609;0.2;0.014796
11.066;0.2;0.014796
11.0714;0.2;0.014796
11.0763;0.2;0.014796
11.0813;0.2;0.014796
11.0859;0.2;0.014796
11.092;0.2;0.014796
11.0967;0.2;0.014796
11.1008;0.2;0.014796
11.106;0.2;0.014796
11.1115;0.2;0.014796
11.116;0.2;0.014796
11.1212;0.2;0.014796
11.1263;0.2;0.014796
11.1315;0;0.014796
11.1363;0;0.014796
11.1415;0;0.014796
11.1456;0;0.014796
11.1522;0;0.014796
11.1562;0;0.014796
11.1615;0;0.014796
11.1666;0;0.014796
11.1716;0;0.014796
11.1759;0;0.014796
11.1808;0;0.014796
11.186;0;0.014796
11.1913;0;0.014796
11.1965;0;0.014796
11.2014;0;0.014796
11.2066;0;0.014796
11.2117;0;0.014796
11.216;0;0.014796
11.2212;0;0.014796
11.2263;0;0.014796
11.2321;0;0.014796
11.2366;0;0.014796
11.2407;0;0.014796
11.2467;0;0.014796
11.2522;0;0.014796
11.2565;0;0.014796
11.2608;0;0.014796
11.266;0;0.014796
11.2709;0;0.014796
11.2763;0;0.014796
11.281;0;0.014796
11.2862;0;0.014796
11.2959;0;0.014796
11.3046;0;0.014796
11.3064;0;0.014796
11.3133;0;0.014796
11.3188;0;0.014796
11.322;0;0.014796
11.3261;0;0.014796
11.3318;0;0.014796
11.3363;0;0.014796
11.3409;0.2;0.014796
11.346;0.2;0.014796
11.352;0.2;0.014796
11.3561;0.2;0.014796
11.3613;0.2;0.014796
11.3665;0.2;0.014796
11.3716;0.2;0.014796
11.3764;0.2;0.014796
11.3815;0.2;0.014796
11.3867;0.2;0.014796
11.3919;0.2;0.014796
11.3962;0.2;0.014796
11.4015;0.2;0.014796
11.406;0;0.014796
11.4112;0;0.014796
11.4165;0;0.014796
11.4211;0;0.014796
11.4262;0;0.014796
11.4314;0;0.014796
11.4369;0;0.014796
11.4414;0;0.014796
11.4466;0;0.014796
11.4518;0;0.014796
11.4562;0;0.176013
11.4614;0;0.176013
11.4666;0;0.176013
11.472;0;0.176013
11.4765;0;0.176013
11.4817;0.2;0.176013
11.4869;0.2;0.176013
11.4912;0.2;0.176013
11.4963;0.2;0.176013
11.5009;0.2;0.176013
11.5061;0.2;0.176013
11.5111;0.2;0.176013
11.5164;0.2;0.176013
11.5211;0.2;0.176013
11.5262;0.2;0.176013
11.5313;0.2;0.176013
11.5362;0.2;0.176013
11.5413;0.2;0.176013
11.5464;0.2;0.176013
11.552;0.2;0.176013
11.5565;0.2;0.176013
11.5616;0.2;0.176013
11.5669;0.2;0.176013
11.5709;0.2;0.176013
11.5761;0.2;0.176013
11.582;0.2;0.176013
11.5861;0.2;0.176013
11.5915;0.2;0.176013
11.5967;0.2;0.176013
11.6011;0.2;0.176013
11.6062;0.2;0.176013
11.6113;0.2;0.176013
11.6159;0.2;0.176013
11.621;0.2;0.176013
11.6262;0.2;0.176013
11.6318;0.2;0.176013
11.6368;0.2;0.176013
11.6409;0.2;0.176013
11.6467;0.2;0.176013
11.6521;0.2;0.176013
11.6567;0.2;0.176013
11.6614;0.2;0.176013
11.6665;0.2;0.176013
11.6725;0.2;0.176013
11.6772;0.2;0.176013
11.6818;0.2;0.176013
11.6859;0;0.176013
11.6917;0;0.176013
11.6968;0;0.176013
11.7009;0;0.176013
11.706;0;0.176013
11.7121;0;0.176013
11.7162;0;0.176013
11.7213;0;0.176013
11.7267;0;0.176013
11.732;0;0.176013
11.7371;0;0.176013
11.7412;0;0.176013
11.7469;0;0.176013
11.7526;0;0.176013
11.7574;0.2;0.176013
11.7618;0.2;0.176013
11.7668;0.2;0.176013
11.7727;0.2;0.176013
11.7782;0.2;0.176013
11.7813;0.2;0.176013
11.7864;0.2;0.176013
11.7926;0.2;0.176013
11.7965;0.2;0.176013
11.8016;0.2;0.176013
11.8061;0.2;0.176013
11.8111;0.2;0.176013
11.8161;0.2;0.176013
11.821;0.2;0.176013
11.8261;0;0.176013
11.8313;0;0.176013
11.8368;0;0.176013
11.8418;0;0.176013
11.8469;0;0.176013
11.8524;0;0.176013
11.8576;0;0.176013
11.8617;0;0.176013
11.8669;0;0.176013
11.8725;0;0.176013
11.8764;0;0.176013
11.8816;0;0.176013
11.8869;0;0.176013
11.8909;0;0.176013
11.8961;0.2;0.176013
11.9011;0.2;0.176013
11.9062;0.2;0.176013
11.9115;0.2;0.176013
11.9162;0.2;0.176013
11.9215;0.2;0.176013
11.9269;0.2;0.176013
11.9326;0.2;0.176013
11.9387;0.2;0.176013
11.9419;0.2;0.176013
11.946;0.2;0.176013
11.9521;0.2;0.176013
11.956;0.2;0.176013
11.9611;0.2;0.176013
11.9669;0.2;0.176013
11.971;0.2;0.176013
11.976;0.2;0.176013
11.982;0.2;0.176013
11.9861;0.2;0.176013
11.9913;0.2;0.176013
11.9965;0.2;0.176013
12.0012;0.2;0.176013
12.0063;0.2;0.176013
12.0114;0.2;0.176013
12.0165;0.2;0.176013
12.0216;0.2;0.176013
12.0268;0.2;0.176013
12.0323;0.2;0.176013
12.0376;0.2;0.176013
12.0417;0.2;0.176013
12.0469;0.2;0.176013
12.0515;0.2;0.176013
12.0565;0.2;0.176013
12.0619;0.2;0.176013
12.066;0.2;0.176013
12.0711;0.2;0.176013
12.0764;0.2;0.176013
12.082;0.2;0.176013
12.0861;0.2;0.176013
12.0912;0.2;0.176013
12.0969;0.2;0.176013
12.101;0.2;0.176013
12.1064;0.2;0.176013
12.1121;0.2;0.176013
12.1163;0.2;0.176013
12.1215;0.2;0.176013
12.1267;0.2;0.176013
12.1321;0.2;0.176013
12.1368;0.2;0.176013
12.1411;0.2;0.176013
12.1462;0.2;0.176013
12.1517;0.2;0.176013
12.157;0.2;0.176013
12.1612;0.2;0.176013
12.1664;0.2;0.176013
12.1715;0.2;0.176013
12.1769;0;0.176013
12.1811;0;0.176013
12.1862;0;0.176013
12.1916;0;0.176013
12.196;0;0.176013
12.2012;0;0.176013
12.2069;0;0.176013
12.2111;0;0.176013
12.2162;0;0.176013
12.2209;0;0.176013
12.226;0;0.176013
12.2312;0;0.176013
12.2366;0;0.176013
12.2412;0;0.176013
12.2464;0.2;0.176013
12.2517;0.2;0.176013
12.2565;0.2;0.176013
12.2616;0.2;0.176013
12.2667;0.2;0.176013
12.2721;0.2;0.176013
12.2765;0.2;0.176013
12.2816;0.2;0.176013
12.286;0.2;0.0178283
12.2913;0.2;0.0178283
12.2964;0.2;0.0178283
12.3018;0.2;0.0178283
12.3069;0.2;0.0178283
12.311;0.2;0.0178283
12.3163;0.2;0.0178283
12.3211;0.2;0.0178283
12.3262;0.2;0.0178283
12.3314;0.2;0.0178283
12.3363;0.2;0.0178283
12.3414;0.2;0.0178283
12.3467;0.2;0.0178283
12.3521;0.2;0.0178283
12.3566;0.2;0.0178283
12.3618;0.2;0.0178283
12.3669;0.2;0.0178283
12.3711;0.2;0.0178283
12.3762;0.2;0.0178283
12.3819;0.2;0.191374
12.3861;0;0.191374
12.3915;0;0.191374
12.3967;0;0.191374
12.4012;0;0.191374
12.4065;0;0.191374
12.4116;0;0.191374
12.4161;0;0.191374
12.4213;0;0.191374
12.4265;0;0.191374
12.432;0;0.191374
12.4372;0;0.191374
12.4413;0;0.191374
12.4465;0;0.191374
12.4521;0.2;0.191374
12.4561;0.2;0.191374
12.4619;0.2;0.191374
12.466;0.2;0.191374
12.4711;0.2;0.191374
12.4764;0.2;0.191374
12.4816;0.2;0.191374
12.4867;0.2;0.191374
12.4918;0.2;0.191374
12.4963;0.2;0.191374
12.5015;0.2;0.191374
12.5066;0.2;0.191374
12.5118;0.2;0.191374
12.5171;0.2;0.191374
12.5213;0.2;0.191374
12.5259;0.2;0.191374
12.5312;0.2;0.191374
12.5361;0.2;0.191374
12.5413;0.2;0.191374
12.5461;0.2;0.191374
12.552;0.2;0.191374
12.5563;0.2;0.191374
12.5617;0.2;0.191374
12.5668;0.2;0.191374
12.5719;0.2;0.191374
12.5768;0.2;0.191374
12.5819;0.2;0.191374
12.586;0.2;0.191374
12.5917;0.2;0.191374
12.5959;0.2;0.191374
12.6011;0.2;0.191374
12.606;0.2;0.191374
12.6113;0.2;0.191374
12.616;0.2;0.191374
12.6213;0.2;0.191374
12.6264;0.2;0.191374
12.6318;0.2;0.191374
12.6364;0.2;0.191374
12.6417;0.2;0.191374
12.647;0.2;0.191374
12.6518;0.2;0.191374
12.6563;0.2;0.191374
12.6617;0.2;0.191374
12.6668;0.2;0.191374
12.6722;0.2;0.191374
12.6765;0.2;0.191374
12.6816;0.2;0.191374
12.686;0.2;0.191374
12.6912;0.2;0.191374
12.6964;0.2;0.191374
12.7019;0.2;0.191374
12.706;0.2;0.191374
12.7114;0.2;0.191374
12.7159;0.2;0.191374
12.7216;0.2;0.191374
12.7267;0.2;0.191374
12.7319;0.2;0.191374
12.7367;0.2;0.191374
12.7418;0.2;0.191374
12.7469;0.2;0.191374
12.7518;0.2;0.191374
12.7559;0.2;0.191374
12.761;0.2;0.191374
12.766;0.2;0.191374
12.7711;0.2;0.191374
12.7763;0.2;0.191374
12.7819;0.2;0.191374
12.7861;0.2;0.191374
12.7915;0.2;0.191374
12.7964;0.2;0.191374
12.8013;0;0.191374
12.8064;0;0.191374
12.8118;0;0.191374
12.8161;0;0.191374
12.8212;0;0.191374
12.8265;0;0.191374
12.8323;0;0.191374
12.8378;0;0.191374
12.841;0;0.191374
12.8467;0;0.191374
12.8522;0;0.191374
12.8565;0;0.191374
12.8619;0;0.191374
12.866;0;0.191374
12.8714;0;0.191374
12.8768;0;0.191374
12.8812;0;0.191374
12.8865;0;0.191374
12.892;0;0.191374
12.8967;0;0.191374
12.9019;0;0.191374
12.9061;0;0.191374
12.912;0;0.191374
12.916;0;0.191374
12.9211;0;0.191374
12.9267;0;0.191374
12.9323;0;0.191374
12.9381;0;0.191374
12.9411;0;0.0308493
12.9464;0;0.0308493
12.9522;0;0.0308493
12.9564;0;0.0308493
12.9613;0;0.0308493
12.9665;0;0.0308493
12.9716;0;0.0308493
12.9767;0;0.0308493
12.9818;0;0.0308493
12.9869;0;0.0308493
12.9916;0;0.0308493
12.9968;0;0.0308493
13.0019;0;0.0308493
13.0059;0;0.0308493
13.0112;0;0.0308493
13.0163;0;0.0308493
13.0212;0;0.0308493
13.0263;0;0.0308493
13.0315;0;0.0308493
13.036;0;0.0308493
13.0414;0;0.0308493
13.0465;0;0.0308493
13.0519;0;0.0308493
13.0564;0;0.0308493
13.0615;0;0.0308493
13.0667;0;0.0308493
13.0722;0;0.0308493
13.0763;0;0.0308493
13.0817;0.2;0.0308493
13.087;0.2;0.0308493
13.0911;0.2;0.0308493
13.0965;0.2;0.0308493
13.101;0.2;0.0308493
13.1061;0.2;0.0308493
13.1117;0.2;0.0308493
13.1161;0.2;0.0308493
13.1213;0.2;0.0308493
13.1265;0.2;0.0308493
13.1319;0.2;0.0308493
13.1369;0.2;0.0308493
13.1411;0.2;0.0308493
13.1462;0.2;0.0308493
13.152;0.2;0.0308493
13.156;0.2;0.0308493
13.1611;0.2;0.0308493
13.1668;0.2;0.0308493
13.172;0.2;0.0308493
13.1761;0.2;0.0308493
13.181;0.2;0.0308493
13.1862;0.2;0.0308493
13.1917;0.2;0.0308493
13.196;0.2;0.0308493
13.2013;0.2;0.0308493
13.2064;0.2;0.0308493
13.2117;0.2;0.0308493
13.2163;0;0.190469
13.2214;0;0.190469
13.2265;0;0.190469
13.2322;0;0.190469
13.2368;0;0.190469
13.2419;0;0.190469
13.2469;0;0.190469
13.2522;0;0.190469
13.2563;0;0.190469
13.2619;0;0.190469
13.266;0;0.190469
13.2712;0;0.190469
13.2765;0;0.190469
13.281;0;0.190469
13.2862;0.2;0.190469
13.2915;0.2;0.190469
13.2965;0.2;0.190469
13.3017;0.2;0.190469
13.307;0.2;0.190469
13.3118;0.2;0.190469
13.3167;0.2;0.190469
13.322;0.2;0.190469
13.3266;0.2;0.017962
13.3318;0.2;0.017962
13.3363;0.2;0.017962
13.3418;0.2;0.017962
13.347;0.2;0.017962
13.3514;0.2;0.017962
13.3566;0;0.017962
13.3619;0;0.017962
13.3661;0;0.017962
13.3712;0;0.017962
13.3762;0;0.017962
13.3815;0;0.017962
13.3866;0;0.017962
13.3919;0;0.017962
13.3969;0;0.017962
13.401;0;0.017962
13.4068;0;0.017962
13.4119;0;0.017962
13.416;0;0.017962
13.4211;0;0.017962
13.4266;0;0.017962
13.4321;0;0.017962
13.4365;0;0.017962
13.4409;0;0.017962
13.446;0;0.017962
13.4515;0;0.017962
13.456;0;0.017962
13.4611;0;0.017962
13.4662;0;0.017962
13.4719;0;0.017962
13.4764;0;0.017962
13.4815;0;0.017962
13.4861;0;0.017962
13.4917;0;0.017962
13.4959;0.2;0.017962
13.5011;0.2;0.017962
13.5064;0.2;0.017962
13.5117;0.2;0.017962
13.5163;0.2;0.017962
13.5215;0.2;0.017962
13.5266;0.2;0.017962
13.532;0.2;0.017962
13.537;0.2;0.017962
13.5412;0.2;0.017962
13.5464;0.2;0.017962
13.5521;0.2;0.017962
13.556;0.2;0.017962
13.5612;0.2;0.017962
13.5667;0.2;0.017962
13.5718;0.2;0.017962
13.5762;0.2;0.017962
13.581;0.2;0.017962
13.5862;0.2;0.017962
13.5917;0.2;0.017962
13.5961;0.2;0.017962
13.6014;0.2;0.017962
13.6066;0.2;0.017962
13.6118;0.2;0.017962
13.6164;0.2;0.175182
13.6217;0.2;0.175182
13.6268;0.2;0.175182
13.632;0.2;0.175182
13.6365;0;0.175182
13.6416;0;0.175182
13.6466;0;0.175182
13.652;0;0.175182
13.6562;0;0.175182
13.6613;0;0.175182
13.6663;0;0.175182
13.6714;0;0.175182
13.6769;0;0.175182
13.6817;0;0.175182
13.6869;0;0.175182
13.6912;0;0.175182
13.6964;0;0.175182
13.7015;0;0.175182
13.7067;0.2;0.175182
13.712;0.2;0.175182
13.7164;0.2;0.175182
13.7215;0.2;0.175182
13.7262;0.2;0.175182
13.7313;0.2;0.175182
13.7361;0.2;0.175182
13.7412;0.2;0.175182
13.746;0.2;0.015446
13.7521;0.2;0.015446
13.7565;0.2;0.015446
13.7615;0.2;0.015446
13.7666;0.2;0.015446
13.7719;0.2;0.015446
13.7771;0;0.015446
13.7812;0;0.015446
13.7864;0;0.015446
13.792;0;0.015446
13.7969;0;0.015446
13.8011;0;0.015446
13.8062;0;0.015446
13.8119;0;0.015446
13.8168;0;0.015446
13.8219;0;0.015446
13.8263;0;0.015446
13.8326;0;0.015446
13.8395;0;0.189433
13.8417;0;0.189433
13.8469;0.2;0.189433
13.8525;0.2;0.189433
13.8575;0.2;0.189433
13.8618;0.2;0.189433
13.8669;0.2;0.189433
13.8724;0.2;0.189433
13.8764;0.2;0.189433
13.8815;0.2;0.189433
13.887;0.2;0.189433
13.8911;0.2;0.189433
13.8961;0.2;0.189433
13.9012;0.2;0.189433
13.906;0.2;0.189433
13.9111;0.2;0.189433
13.9167;0.2;0.189433
13.9214;0.2;0.189433
13.9265;0.2;0.189433
13.9323;0.2;0.189433
13.939;0.2;0.189433
13.9412;0.2;0.189433
13.9462;0.2;0.189433
13.9522;0.2;0.189433
13.9564;0.2;0.189433
13.9615;0.2;0.189433
13.9669;0.2;0.189433
13.9721;0.2;0.189433
13.9766;0.2;0.189433
13.9819;0.2;0.189433
13.9861;0;0.189433
13.9915;0;0.189433
13.9968;0;0.189433
14.0011;0;0.189433
14.0062;0;0.189433
14.0115;0;0.189433
14.0163;0;0.189433
14.0214;0;0.189433
14.0266;0;0.189433
14.032;0;0.189433
14.0364;0;0.189433
14.0416;0;0.189433
14.0466;0;0.189433
14.052;0.2;0.189433
14.0563;0.2;0.189433
14.062;0.2;0.189433
14.0661;0.2;0.189433
14.0715;0.2;0.189433
14.0771;0.2;0.189433
14.0812;0.2;0.189433
14.0865;0.2;0.189433
14.0919;0.2;0.189433
14.0968;0.2;0.189433
14.101;0.2;0.189433
14.1061;0.2;0.189433
14.1118;0.2;0.0307442
14.1169;0.2;0.0307442
14.121;0.2;0.0307442
14.1268;0.2;0.0307442
14.1321;0.2;0.0307442
14.1366;0.2;0.0307442
14.141;0.2;0.0307442
14.1461;0.2;0.0307442
14.152;0.2;0.0307442
14.1561;0.2;0.0307442
14.1614;0.2;0.0307442
14.1665;0.2;0.0307442
14.1717;0.2;0.0307442
14.1767;0.2;0.0307442
14.1819;0.2;0.0307442
14.187;0.2;0.0307442
14.192;0;0.190924
14.1959;0;0.190924
14.201;0;0.190924
14.2062;0;0.190924
14.2113;0;0.190924
14.2167;0;0.190924
14.222;0;0.190924
14.2261;0;0.190924
14.2314;0;0.190924
14.236;0;0.190924
14.2414;0;0.190924
14.2465;0;0.190924
14.252;0;0.190924
14.2566;0;0.190924
14.2618;0.2;0.190924
14.2669;0.2;0.190924
14.2718;0.2;0.190924
14.2761;0.2;0.190924
14.2814;0.2;0.190924
14.2869;0.2;0.190924
14.2913;0.2;0.190924
14.2964;0.2;0.190924
14.3017;0.2;0.0307415
14.3069;0.2;0.0307415
14.3122;0.2;0.0307415
14.3164;0.2;0.0307415
14.3212;0.2;0.0307415
14.3265;0;0.0307415
14.3318;0;0.0307415
14.3369;0;0.0307415
14.3411;0;0.0307415
14.3462;0;0.0307415
14.3521;0;0.0307415
14.3561;0;0.0307415
14.3613;0;0.0307415
14.3668;0;0.0307415
14.3721;0;0.0307415
14.3762;0;0.0307415
14.381;0;0.0307415
14.3862;0;0.0307415
14.3919;0;0.0307415
14.3962;0;0.0307415
14.4014;0.2;0.0307415
14.4066;0.2;0.0307415
14.412;0.2;0.0307415
14.4167;0.2;0.0307415
14.4219;0.2;0.0307415
14.427;0.2;0.0307415
14.4321;0.2;0.0307415
14.4364;0.2;0.0307415
14.4415;0.2;0.0307415
14.4467;0.2;0.0307415
14.4521;0.2;0.0307415
14.4562;0.2;0.0307415
14.4619;0.2;0.0307415
14.466;0.2;0.0307415
14.4712;0;0.0307415
14.4766;0;0.0307415
14.481;0;0.0307415
14.4862;0;0.0307415
14.4915;0;0.0307415
14.4966;0;0.0307415
14.5017;0;0.0307415
14.5059;0;0.0307415
14.5117;0;0.0307415
14.5168;0;0.0307415
14.5209;0;0.0307415
14.5266;0;0.175245
14.5319;0;0.175245
14.5364;0;0.175245
14.5416;0;0.175245
14.546;0;0.175245
14.5516;0;0.175245
14.5567;0;0.175245
14.5618;0;0.175245
14.566;0;0.175245
14.5711;0;0.175245
14.5769;0;0.175245
14.581;0;0.175245
14.5861;0;0.175245
14.592;0;0.0150323
14.596;0;0.0150323
14.601;0;0.0150323
14.606;0;0.0150323
14.6112;0;0.0150323
14.6167;0;0.0150323
14.6218;0;0.0150323
14.6263;0;0.0150323
14.6318;0;0.0150323
14.6363;0;0.0150323
14.641;0;0.0150323
14.6462;0;0.0150323
14.6519;0;0.0150323
14.6564;0;0.0150323
14.6615;0;0.0150323
14.6666;0;0.0150323
14.672;0;0.0150323
14.6772;0;0.0150323
14.6814;0;0.0150323
14.6869;0;0.0150323
14.6925;0;0.0150323
14.6974;0;0.0150323
14.7016;0;0.0150323
14.707;0;0.0150323
14.7114;0;0.0150323
14.7168;0;0.0150323
14.7213;0;0.0150323
14.7264;0;0.0150323
14.7317;0;0.0150323
14.7366;0;0.0150323
14.7418;0;0.0150323
14.747;0;0.0150323
14.7525;0;0.0150323
14.7574;0;0.0150323
14.7616;0;0.0150323
14.7663;0;0.0150323
14.7717;0;0.0150323
14.7769;0;0.0150323
14.781;0;0.0150323
14.7862;0;0.0150323
14.7916;0;0.0150323
14.796;0;0.0150323
14.8015;0;0.0150323
14.8067;0;0.0150323
14.8119;0;0.0150323
14.8167;0.2;0.0150323
14.8209;0.2;0.0150323
14.826;0.2;0.0150323
14.8317;0.2;0.0150323
14.8362;0.2;0.0150323
14.8413;0.2;0.0150323
14.8466;0.2;0.0150323
14.8521;0.2;0.0150323
14.8565;0.2;0.0150323
14.8616;0.2;0.0150323
14.8666;0.2;0.0150323
14.8723;0.2;0.0150323
14.8771;0.2;0.0150323
14.8818;0.2;0.0150323
14.886;0;0.0150323
14.8914;0;0.0150323
14.8962;0;0.0150323
14.9013;0;0.0150323
14.9064;0;0.0150323
14.912;0;0.0150323
14.9164;0;0.0150323
14.9215;0;0.0150323
14.927;0;0.177314
14.9311;0;0.177314
14.936;0;0.177314
14.9411;0;0.177314
14.9461;0;0.177314
14.952;0;0.177314
14.9567;0;0.177314
14.9615;0;0.177314
14.9666;0;0.177314
14.9719;0;0.177314
14.9773;0;0.177314
14.9814;0;0.177314
14.9866;0;0.177314
14.9925;0;0.177314
14.9966;0;0.177314
15.0018;0;0.177314
15.0069;0;0.177314
15.0116;0;0.0150463
15.0169;0;0.0150463
15.021;0;0.0150463
15.0265;0.2;0.0150463
15.0322;0.2;0.0150463
15.0367;0.2;0.0150463
15.0411;0.2;0.0150463
15.0462;0.2;0.0150463
15.052;0.2;0.0150463
15.0567;0.2;0.0150463
15.062;0.2;0.0150463
15.0661;0.2;0.0150463
15.0716;0.2;0.0150463
15.0765;0.2;0.0150463
15.0817;0.2;0.0150463
15.0865;0.2;0.0150463
15.0918;0.2;0.0150463
15.0969;0.2;0.0150463
15.101;0.2;0.0150463
15.1069;0.2;0.0150463
15.1111;0.2;0.0150463
15.1165;0.2;0.0150463
15.1211;0.2;0.0150463
15.1262;0.2;0.0150463
15.1315;0.2;0.0150463
15.1365;0.2;0.0150463
15.1417;0.2;0.0150463
15.1468;0.2;0.0150463
15.1528;0.2;0.0150463
15.158;0.2;0.0150463
15.1612;0.2;0.0150463
15.1664;0.2;0.0150463
15.1722;0.2;0.195485
15.1762;0.2;0.195485
15.1815;0.2;0.195485
15.1864;0.2;0.195485
15.1929;0.2;0.195485
15.1986;0.2;0.195485
15.2018;0.2;0.195485
15.2069;0.2;0.195485
15.2119;0.2;0.195485
15.217;0.2;0.195485
15.2212;0.2;0.195485
15.2264;0.2;0.195485
15.2321;0.2;0.195485
15.2379;0;0.195485
15.241;0;0.195485
15.2464;0;0.195485
15.252;0;0.195485
15.2564;0;0.195485
15.2615;0;0.195485
15.2661;0;0.195485
15.2716;0;0.195485
15.276;0;0.195485
15.2817;0;0.195485
15.2859;0;0.195485
15.2915;0;0.195485
15.2967;0;0.195485
15.301;0;0.195485
15.3062;0.2;0.195485
15.3119;0.2;0.195485
15.3162;0.2;0.195485
15.3213;0.2;0.195485
15.3269;0.2;0.195485
15.3312;0.2;0.195485
15.337;0.2;0.195485
15.3411;0.2;0.195485
15.3461;0.2;0.195485
15.3521;0.2;0.195485
15.3564;0.2;0.195485
15.3617;0.2;0.0306458
15.3668;0.2;0.0306458
15.372;0.2;0.0306458
15.3773;0.2;0.0306458
15.3814;0.2;0.0306458
15.3865;0.2;0.0306458
15.392;0.2;0.0306458
15.396;0.2;0.0306458
15.4011;0.2;0.0306458
15.406;0.2;0.0306458
15.4111;0.2;0.0306458
15.4163;0.2;0.0306458
15.4216;0.2;0.0306458
15.4261;0.2;0.0306458
15.4316;0.2;0.0306458
15.4363;0.2;0.0306458
15.4417;0.2;0.0306458
15.4468;0;0.0306458
15.4526;0;0.0306458
15.4573;0;0.203724
15.4614;0;0.203724
15.4667;0;0.203724
15.4724;0;0.203724
15.4762;0;0.203724
15.4814;0;0.203724
15.4862;0;0.203724
15.4914;0;0.203724
15.4965;0;0.203724
15.5013;0;0.203724
15.5064;0;0.203724
15.5119;0;0.203724
15.5164;0;0.203724
15.5219;0;0.203724
15.526;0;0.203724
15.5315;0;0.203724
15.5372;0;0.203724
15.5415;0;0.203724
15.5466;0;0.203724
15.5525;0;0.203724
15.5567;0;0.203724
15.5618;0;0.203724
15.5668;0;0.0363936
15.572;0;0.0363936
15.5761;0;0.0363936
15.581;0;0.0363936
15.5863;0.2;0.0363936
15.5917;0.2;0.0363936
15.597;0.2;0.0363936
15.6012;0.2;0.0363936
15.6063;0.2;0.0363936
15.6116;0.2;0.0363936
15.6169;0.2;0.0363936
15.621;0.2;0.0363936
15.6261;0.2;0.0363936
15.6328;0.2;0.0363936
15.6378;0.2;0.0363936
15.6419;0.2;0.0363936
15.646;0.2;0.0363936
15.6518;0;0.0363936
15.6562;0;0.0363936
15.6611;0;0.0363936
15.6662;0;0.0363936
15.6716;0;0.0363936
15.6779;0;0.0363936
15.6819;0;0.0363936
15.6861;0;0.0363936
15.6923;0;0.0363936
15.6981;0;0.0363936
15.7012;0;0.0363936
15.7064;0;0.0363936
15.7127;0;0.0363936
15.7172;0;0.0363936
15.7215;0;0.0363936
15.7267;0;0.0363936
15.7323;0;0.0363936
15.7386;0;0.0363936
15.7417;0;0.0363936
15.7463;0;0.0363936
15.7522;0;0.0363936
15.7568;0;0.0363936
15.7617;0;0.0363936
15.7669;0;0.0363936
15.7718;0;0.0363936
15.7769;0;0.0363936
15.7811;0;0.0363936
15.7861;0;0.0363936
15.7925;0.2;0.0363936
15.7972;0.2;0.0363936
15.8013;0.2;0.0363936
15.8061;0.2;0.0363936
15.8116;0.2;0.0363936
15.8164;0.2;0.0363936
15.8215;0.2;0.0363936
15.8267;0.2;0.0363936
15.8327;0.2;0.0363936
15.8385;0.2;0.0363936
15.842;0.2;0.0363936
15.8461;0.2;0.0363936
15.8528;0.2;0.0363936
15.8579;0.2;0.0363936
15.861;0;0.0363936
15.8661;0;0.0363936
15.873;0;0.0363936
15.877;0;0.0363936
15.8811;0;0.0363936
15.8864;0;0.0363936
15.8919;0;0.0363936
15.8961;0;0.0363936
15.9014;0;0.0363936
15.9067;0;0.0363936
15.9126;0;0.0363936
15.9183;0;0.0363936
15.9215;0;0.0363936
15.9266;0;0.0363936
15.9332;0;0.0363936
15.9389;0;0.0363936
15.9411;0;0.0363936
15.9462;0;0.0363936
15.9535;0;0.0363936
15.9574;0;0.0363936
15.9616;0;0.0363936
15.9668;0;0.0363936
15.9721;0;0.0363936
15.9766;0;0.0363936
15.9813;0;0.0363936
15.9866;0;0.0363936
15.9921;0;0.0363936
15.9967;0;0.0363936
16.0015;0.2;0.0363936
16.0069;0.2;0.0363936
16.0119;0.2;0.0363936
16.018;0.2;0.0363936
16.0212;0.2;0.0363936
16.0263;0.2;0.0363936
16.0328;0.2;0.0363936
16.038;0.2;0.0363936
16.0411;0.2;0.0363936
16.0466;0.2;0.0363936
16.0523;0.2;0.0363936
16.0568;0.2;0.0363936
16.0613;0.2;0.0363936
16.0665;0.2;0.0363936
16.0723;0.2;0.0363936
16.0769;0.2;0.0363936
16.0816;0.2;0.0363936
16.0867;0.2;0.0363936
16.0927;0.2;0.0363936
16.0976;0.2;0.0363936
16.1017;0.2;0.0363936
16.1068;0.2;0.0363936
16.1127;0.2;0.0363936
16.118;0.2;0.0363936
16.1211;0.2;0.0363936
16.126;0.2;0.0363936
16.1316;0.2;0.0363936
16.1368;0.2;0.0363936
16.142;0;0.203288
16.1461;0;0.203288
16.1517;0;0.203288
16.1569;0;0.203288
16.1614;0;0.203288
16.1665;0;0.203288
16.1717;0;0.203288
16.1761;0;0.203288
16.1812;0;0.203288
16.1864;0;0.203288
16.192;0;0.203288
16.196;0;0.203288
16.2012;0;0.203288
16.2061;0;0.203288
16.2114;0;0.203288
16.2162;0;0.203288
16.2212;0;0.203288
16.2263;0;0.203288
16.2323;0;0.203288
16.2381;0;0.203288
16.2412;0;0.203288
16.2464;0;0.203288
16.252;0;0.203288
16.2564;0;0.031594
16.2617;0;0.031594
16.2668;0;0.031594
16.2723;0;0.031594
16.2765;0;0.031594
16.2817;0;0.031594
16.2862;0;0.031594
16.2915;0;0.031594
16.2963;0;0.031594
16.3013;0;0.031594
16.3065;0;0.031594
16.3121;0;0.031594
16.3164;0;0.031594
16.3216;0;0.031594
16.3267;0;0.031594
16.3323;0;0.031594
16.3385;0;0.031594
16.3417;0;0.031594
16.3469;0;0.031594
16.3519;0;0.031594
16.3559;0;0.031594
16.361;0;0.031594
16.3659;0;0.031594
16.3712;0;0.031594
16.3764;0;0.031594
16.381;0;0.031594
16.3861;0;0.031594
16.3916;0;0.031594
16.3963;0;0.031594
16.4012;0;0.031594
16.4064;0;0.031594
16.4119;0;0.031594
16.4163;0;0.031594
16.4215;0;0.031594
16.4267;0;0.031594
16.4321;0;0.031594
16.4376;0;0.031594
16.4419;0;0.031594
16.4468;0;0.031594
16.4522;0;0.031594
16.4564;0;0.031594
16.4619;0;0.031594
16.466;0;0.031594
16.4714;0;0.031594
16.4767;0;0.031594
16.4811;0;0.031594
16.4865;0;0.031594
16.492;0;0.031594
16.4965;0;0.031594
16.5018;0;0.031594
16.5069;0;0.031594
16.5117;0;0.031594
16.5169;0;0.031594
16.522;0;0.031594
16.5267;0;0.031594
16.5322;0;0.031594
16.5378;0;0.031594
16.541;0;0.031594
16.5462;0;0.031594
16.5519;0;0.031594
16.5562;0.2;0.031594
16.5611;0.2;0.031594
16.5662;0.2;0.031594
16.5716;0.2;0.031594
16.5764;0.2;0.031594
16.5815;0.2;0.031594
16.5866;0.2;0.031594
16.592;0.2;0.031594
16.596;0.2;0.031594
16.6012;0.2;0.031594
16.6062;0.2;0.031594
16.6115;0.2;0.031594
16.6166;0.2;0.031594
16.6211;0.2;0.031594
16.6263;0.2;0.031594
16.6319;0.2;0.031594
16.6364;0.2;0.031594
16.6415;0.2;0.031594
16.6466;0.2;0.031594
16.6523;0.2;0.031594
16.657;0.2;0.031594
16.6612;0.2;0.031594
16.6663;0.2;0.031594
16.6723;0.2;0.031594
16.6761;0.2;0.031594
16.6813;0.2;0.031594
16.686;0.2;0.194654
16.6913;0.2;0.194654
16.6966;0.2;0.194654
16.702;0.2;0.194654
16.7061;0.2;0.194654
16.7116;0.2;0.194654
16.7162;0.2;0.194654
16.7217;0.2;0.194654
16.7269;0.2;0.194654
16.7315;0.2;0.194654
16.737;0.2;0.194654
16.7411;0.2;0.194654
16.7462;0.2;0.194654
16.7524;0.2;0.194654
16.7572;0.2;0.194654
16.7613;0.2;0.194654
16.7664;0;0.194654
16.7715;0;0.194654
16.7767;0;0.194654
16.7818;0;0.194654
16.7867;0;0.194654
16.7923;0;0.194654
16.7967;0;0.194654
16.801;0;0.194654
16.8061;0;0.194654
16.8153;0;0.194654
16.8211;0;0.194654
16.8269;0;0.194654
16.8321;0;0.194654
16.8368;0.2;0.194654
16.8419;0.2;0.194654
16.8471;0.2;0.194654
16.852;0.2;0.194654
16.8568;0.2;0.194654
16.8622;0.2;0.194654
16.8663;0.2;0.194654
16.8717;0.2;0.194654
16.877;0.2;0.0152793
16.8821;0.2;0.0152793
16.8863;0.2;0.0152793
16.8916;0.2;0.0152793
16.8964;0.2;0.0152793
16.9015;0.2;0.0152793
16.9068;0;0.0152793
16.9119;0;0.0152793
16.9168;0;0.0152793
16.9221;0;0.0152793
16.9268;0;0.0152793
16.9324;0;0.0152793
16.9379;0;0.0152793
16.9421;0;0.0152793
16.9462;0;0.0152793
16.9519;0;0.0152793
16.9571;0;0.0152793
16.9615;0;0.0152793
16.9668;0;0.0152793
16.9721;0;0.0152793
16.9767;0;0.0152793
16.982;0;0.0152793
16.9871;0;0.0152793
16.9919;0;0.0152793
16.9963;0;0.0152793
17.0015;0;0.0152793
17.007;0;0.0152793
17.0115;0;0.0152793
17.0167;0;0.0152793
17.022;0;0.0152793
17.0261;0;0.0152793
17.0316;0;0.0152793
17.0371;0;0.0152793
17.0415;0;0.0152793
17.0468;0.2;0.0152793
17.0523;0.2;0.0152793
17.0567;0.2;0.0152793
17.0618;0.2;0.0152793
17.067;0.2;0.0152793
17.072;0.2;0.0152793
17.0765;0.2;0.0152793
17.0816;0.2;0.0152793
17.0865;0.2;0.0152793
17.0924;0.2;0.0152793
17.0968;0.2;0.0152793
17.1012;0.2;0.0152793
17.1063;0.2;0.0152793
17.1119;0;0.0152793
17.1164;0;0.0152793
17.1216;0;0.0152793
17.1268;0;0.0152793
17.1329;0;0.0152793
17.1413;0;0.0152793
17.1465;0;0.0152793
17.1526;0;0.0152793
17.1565;0;0.0152793
17.1617;0;0.0152793
17.1667;0;0.0152793
17.1722;0;0.0152793
17.1774;0;0.0152793
17.1815;0;0.0152793
17.1874;0;0.0152793
17.1922;0;0.0152793
17.1964;0;0.0152793
17.2024;0;0.0152793
17.2067;0;0.0152793
17.212;0;0.0152793
17.217;0;0.0152793
17.2222;0;0.0152793
17.2273;0;0.0152793
17.233;0;0.0152793
17.238;0;0.0152793
17.2421;0;0.0152793
17.2467;0;0.0152793
17.2526;0;0.0152793
17.2573;0;0.0152793
17.2622;0;0.0152793
17.2663;0;0.0152793
17.2722;0;0.0152793
17.2763;0;0.0152793
17.2821;0;0.0152793
17.2872;0;0.0152793
17.2915;0;0.0152793
17.2963;0;0.0152793
17.3014;0;0.0152793
17.3065;0;0.0152793
17.3119;0;0.0152793
17.317;0;0.0152793
17.3222;0.2;0.0152793
17.327;0.2;0.0152793
17.3323;0.2;0.0152793
17.3384;0.2;0.0152793
17.3423;0.2;0.0152793
17.3464;0.2;0.0152793
17.3525;0.2;0.0152793
17.3566;0.2;0.0152793
17.3619;0.2;0.0152793
17.367;0.2;0.0152793
17.3714;0.2;0.0152793
17.377;0.2;0.0152793
17.3821;0.2;0.0152793
17.3873;0.2;0.0152793
17.3919;0.2;0.0152793
17.397;0.2;0.0152793
17.4023;0.2;0.0152793
17.407;0.2;0.0152793
17.4152;0.2;0.0152793
17.4173;0.2;0.0152793
17.4214;0.2;0.0152793
17.4264;0.2;0.0152793
17.432;0.2;0.0152793
17.4369;0.2;0.0152793
17.4422;0.2;0.176214
17.4465;0.2;0.176214
17.4523;0.2;0.176214
17.4567;0.2;0.176214
17.462;0.2;0.176214
17.4672;0.2;0.176214
17.4719;0.2;0.176214
17.477;0.2;0.176214
17.4821;0.2;0.176214
17.4871;0.2;0.176214
17.4914;0.2;0.176214
17.4967;0.2;0.176214
17.5018;0.2;0.176214
17.5065;0.2;0.176214
17.5121;0.2;0.176214
17.5172;0.2;0.176214
17.5216;0.2;0.176214
17.5267;0;0.176214
17.5324;0;0.176214
17.5388;0;0.176214
17.542;0;0.176214
17.5471;0;0.176214
17.5524;0;0.176214
17.5573;0;0.176214
17.5614;0;0.176214
17.5669;0;0.176214
17.5752;0;0.176214
17.5773;0;0.176214
17.5819;0;0.176214
17.5871;0;0.176214
17.5918;0;0.176214
17.5964;0;0.176214
17.6023;0;0.176214
17.6064;0;0.176214
17.6119;0;0.176214
17.6163;0;0.176214
17.6214;0;0.176214
17.6266;0;0.176214
17.6326;0;0.176214
17.6374;0;0.176214
17.6417;0;0.176214
17.6469;0;0.0186653
17.6524;0;0.0186653
17.6565;0;0.0186653
17.662;0;0.0186653
17.6671;0;0.0186653
17.6715;0;0.0186653
17.6769;0;0.0186653
17.6822;0;0.0186653
17.6866;0;0.0186653
17.6922;0;0.0186653
17.6968;0;0.0186653
17.7021;0;0.0186653
17.7072;0;0.0186653
17.7119;0;0.0186653
17.7172;0;0.0186653
17.7223;0;0.0186653
17.7269;0;0.0186653
17.7313;0;0.0186653
17.7372;0;0.0186653
