Time(s);Vsent(m/s);VMeasured(m/s);PosX(m);PosY(m)
0.0314161;0;-0.0238402;1.19;-0.562
0.0692988;0;-0.0198368;1.19;-0.562
0.0951138;0;-0.0164617;1.189;-0.563
0.129104;0;-0.0109499;1.183;-0.567
0.158871;0;-0.0783217;1.181;-0.571
0.192615;-20;-0.0560836;1.181;-0.573
0.223733;-20;0.117195;1.18;-0.572
0.255142;-20;-0.0928463;1.181;-0.573
0.299962;-20;-0.0575301;1.181;-0.573
0.323143;-20;-0.0313834;1.174;-0.577
0.354492;-20;-0.0959769;1.168;-0.584
0.383501;20;-0.0701375;1.156;-0.591
0.41553;20;-0.156674;1.142;-0.601
0.449918;20;-0.221577;1.126;-0.613
0.487054;20;-0.443134;1.112;-0.624
0.514016;20;-0.416897;1.097;-0.635
0.54459;20;-0.486102;1.09;-0.644
0.575235;20;-0.418439;1.092;-0.648
0.608853;20;-0.302579;1.093;-0.658
0.648086;20;-0.0563607;1.104;-0.66
0.673116;20;0.0297917;1.107;-0.66
0.703335;20;0.0338074;1.117;-0.658
0.738905;20;0.234567;1.139;-0.649
0.770227;-20;0.227925;1.147;-0.646
0.799394;-20;0.252118;1.167;-0.639
0.832719;-20;0.357698;1.188;-0.631
0.863035;-20;0.408798;1.209;-0.625
0.895501;-20;0.339448;1.227;-0.623
0.934427;-20;0.464484;1.243;-0.623
0.959055;-20;0.205585;1.256;-0.627
0.997674;-20;0.367609;1.265;-0.628
1.02348;-20;0.0793041;1.272;-0.635
1.05792;-20;-0.0130344;1.28;-0.644
1.09449;-20;0.016304;1.285;-0.653
1.11921;-20;0.0231129;1.288;-0.664
1.15372;-20;-0.0997548;1.288;-0.679
1.18299;-20;-0.0784588;1.288;-0.695
1.21508;-20;-0.113582;1.285;-0.71
1.24897;-20;-0.186592;1.282;-0.719
1.27892;-20;-0.379068;1.275;-0.73
1.3125;-20;-0.309491;1.271;-0.732
1.34318;20;-0.305644;1.263;-0.731
1.37614;20;-0.128483;1.261;-0.725
1.40953;20;-0.163613;1.256;-0.707
1.4398;20;-0.154711;1.253;-0.7
1.47184;20;-0.092966;1.249;-0.678
1.50284;20;-0.111832;1.249;-0.665
1.53511;-20;0.114399;1.253;-0.654
1.57926;-20;-0.0305842;1.259;-0.641
1.59934;-20;0.0611391;1.263;-0.633
1.63254;-20;0.213824;1.277;-0.616
1.66384;-20;-0.18386;1.277;-0.608
1.695;-20;-0.0694565;1.282;-0.591
1.72985;20;-0.243402;1.285;-0.574
1.7594;20;-0.227183;1.285;-0.553
1.79294;20;-0.216228;1.285;-0.532
1.8229;20;-0.182615;1.284;-0.513
1.85539;20;-0.0932676;1.284;-0.498
1.88906;20;0.0494049;1.289;-0.48
1.91971;-20;0.0900815;1.294;-0.468
1.95389;-20;0.381335;1.303;-0.456
1.98337;-20;0.312179;1.31;-0.439
2.01524;-20;0.374187;1.32;-0.425
2.04904;-20;0.0611498;1.32;-0.406
2.07973;-20;0.0148714;1.32;-0.392
2.11871;20;0.0360566;1.318;-0.375
2.14296;20;-0.00834884;1.31;-0.358
2.17553;20;-0.184413;1.299;-0.34
2.20873;20;-0.00707621;1.289;-0.325
2.23974;20;0.0129371;1.28;-0.31
2.27689;20;-0.176656;1.269;-0.294
2.3031;20;0.0885808;1.269;-0.279
2.33545;20;0.24419;1.267;-0.265
2.37501;20;0.0146696;1.266;-0.252
2.3994;20;-0.0196962;1.268;-0.238
2.43233;20;0.2056;1.27;-0.224
2.46718;20;0.301429;1.277;-0.21
2.49537;20;0.356812;1.282;-0.201
2.53139;-20;0.422141;1.29;-0.178
2.55906;-20;0.410782;1.294;-0.171
2.592;-20;0.511201;1.301;-0.151
2.62351;-20;0.157742;1.303;-0.132
2.65983;-20;0.083043;1.3;-0.107
2.68965;-20;0.161954;1.299;-0.101
2.71912;-20;0.234925;1.293;-0.086
2.75247;-20;0.128405;1.287;-0.072
2.78303;-20;-0.0578051;1.273;-0.057
2.81545;-20;-0.125998;1.262;-0.046
2.85929;-20;-0.489208;1.247;-0.04
2.88121;-20;-0.375521;1.244;-0.039
2.91257;20;-0.381874;1.237;-0.043
2.94354;20;-0.301535;1.233;-0.047
2.97583;20;-0.283982;1.226;-0.059
3.00974;20;-0.109263;1.226;-0.065
3.03969;20;-0.143894;1.224;-0.086
3.07159;20;0.091978;1.228;-0.098
3.10375;20;0.0306094;1.233;-0.113
3.13497;20;0.194723;1.244;-0.131
3.17162;20;0.173823;1.255;-0.146
3.1994;20;0.0276681;1.267;-0.162
3.23402;20;0.269832;1.28;-0.171
3.26349;20;0.263845;1.286;-0.176
3.29512;20;0.410554;1.296;-0.176
3.33531;-20;0.153718;1.299;-0.172
3.35941;-20;0.189379;1.3;-0.167
3.39324;-20;0.174233;1.305;-0.152
3.42912;-20;0.0999734;1.304;-0.147
3.45489;-20;0.270719;1.308;-0.137
3.48953;-20;0.321271;1.314;-0.134
3.51887;-20;0.00495831;1.322;-0.137
3.56018;-20;-0.253079;1.322;-0.143
3.58376;-20;-0.0503473;1.332;-0.151
3.61539;-20;-0.1738;1.333;-0.156
3.64908;-20;-0.224697;1.343;-0.172
3.67895;-20;-0.116645;1.345;-0.176
3.72095;20;-0.212502;1.353;-0.201
3.74352;20;-0.0311496;1.357;-0.207
3.77536;20;-0.177502;1.361;-0.224
3.80978;20;-0.245417;1.362;-0.24
3.84092;20;0.0324513;1.369;-0.255
3.874;20;0.00781287;1.377;-0.272
3.90315;20;0.0942366;1.388;-0.286
3.93508;-20;0.207779;1.401;-0.304
3.96925;-20;0.0487751;1.412;-0.32
3.99945;-20;0.316993;1.432;-0.333
4.03132;-20;-0.0283129;1.441;-0.347
4.07277;-20;0.019398;1.452;-0.358
4.09971;-20;0.0563285;1.458;-0.372
4.12937;20;-0.285689;1.462;-0.385
4.15946;20;-0.21587;1.464;-0.398
4.19627;20;-0.281348;1.467;-0.418
4.22299;20;-0.350949;1.468;-0.43
4.25577;20;-0.238877;1.466;-0.439
4.29027;20;-0.376137;1.46;-0.442
4.3194;20;0.134806;1.457;-0.443
4.35368;20;-0.098592;1.45;-0.439
4.38325;20;0.134742;1.445;-0.434
4.4158;20;0.112492;1.443;-0.427
4.44934;20;0.196378;1.444;-0.42
4.4791;20;0.166746;1.444;-0.42
4.51846;20;0.190284;1.447;-0.42
4.54359;20;0.0367541;1.457;-0.43
4.57531;20;0.229454;1.464;-0.43
4.62181;20;0.0307613;1.476;-0.448
4.64285;20;0.336702;1.485;-0.45
4.67188;20;0.352608;1.49;-0.453
4.70325;20;0.157082;1.494;-0.45
4.73537;20;0.288814;1.498;-0.444
4.76932;20;0.154694;1.498;-0.432
4.79946;20;0.167191;1.497;-0.421
4.83181;20;0.275168;1.499;-0.409
4.86682;20;0.311774;1.504;-0.403
4.89517;20;0.345443;1.514;-0.401
4.93015;20;0.294954;1.521;-0.398
4.9598;20;0.235935;1.536;-0.399
4.99133;20;0.0878236;1.55;-0.403
5.02282;20;0.188058;1.572;-0.41
5.05558;20;0.254346;1.593;-0.414
5.10013;20;0.273299;1.625;-0.417
5.11929;20;0.27528;1.635;-0.419
5.15197;20;0.288113;1.658;-0.423
5.18586;20;0.361294;1.683;-0.423
5.21549;20;0.268851;1.702;-0.422
5.25957;20;0.424833;1.724;-0.419
5.28112;20;0.424833;1.724;-0.419
5.31216;-20;0.456963;1.736;-0.411
5.34295;-20;0.389559;1.736;-0.408
5.37696;-20;0.0791342;1.732;-0.398
5.40946;-20;0.13958;1.724;-0.39
5.43931;-20;-0.0409641;1.712;-0.387
5.47171;-20;-0.132349;1.699;-0.385
5.50329;-20;-0.123535;1.682;-0.384
5.53529;20;-0.2111;1.666;-0.386
5.57011;20;-0.346671;1.647;-0.389
5.59928;20;-0.317461;1.628;-0.391
5.63165;20;-0.334632;1.619;-0.392
5.66287;20;-0.40761;1.608;-0.391
5.69639;20;-0.131037;1.598;-0.386
5.73166;20;-0.0440972;1.587;-0.378
5.7598;20;-0.2241;1.578;-0.375
5.79082;20;0.102729;1.577;-0.368
5.82382;20;0.210225;1.572;-0.355
5.8555;20;0.0337683;1.567;-0.344
5.8914;20;0.0490408;1.565;-0.331
5.9194;20;0.0246627;1.565;-0.319
5.95094;20;0.219659;1.568;-0.306
5.98289;20;0.189494;1.574;-0.291
6.0159;20;0.178568;1.577;-0.276
6.04906;20;-0.0348961;1.581;-0.262
6.07944;20;0.0765758;1.59;-0.246
6.11385;20;-0.00876655;1.599;-0.235
6.1432;20;0.31184;1.614;-0.222
6.17522;20;0.230288;1.626;-0.208
6.20955;20;0.193089;1.636;-0.199
6.23911;20;0.218976;1.648;-0.195
6.27229;20;0.421581;1.655;-0.198
6.30346;20;0.301028;1.657;-0.202
6.3352;-20;0.323029;1.662;-0.21
6.36957;-20;0.0469848;1.659;-0.217
6.39942;-20;0.186787;1.658;-0.233
6.43207;-20;0.253444;1.659;-0.247
6.46345;-20;0.356269;1.663;-0.253
6.49515;-20;0.346021;1.667;-0.255
6.53906;-20;0.0984687;1.67;-0.257
6.55912;-20;0.141571;1.673;-0.253
6.60088;-20;-0.046522;1.675;-0.24
6.6229;-20;-0.170737;1.673;-0.236
6.65547;-20;-0.20225;1.668;-0.227
6.69753;-20;-0.190512;1.665;-0.228
6.71963;20;-0.211249;1.661;-0.229
6.75197;20;-0.00127604;1.657;-0.234
6.78294;20;-0.159557;1.648;-0.242
6.81534;20;-0.185306;1.64;-0.249
6.84891;20;-0.140224;1.636;-0.255
6.87929;20;-0.244176;1.63;-0.257
6.9121;20;-0.118862;1.629;-0.253
6.94403;20;0.128408;1.631;-0.247
6.97568;20;0.127395;1.635;-0.238
7.00983;20;-0.0478849;1.638;-0.229
7.03967;20;0.285649;1.647;-0.224
7.07128;20;0.28874;1.652;-0.223
7.10306;20;0.0788061;1.658;-0.226
7.13542;-20;0.275893;1.666;-0.232
7.16899;-20;0.296033;1.672;-0.241
7.19978;-20;0.151197;1.681;-0.256
7.23238;-20;0.283098;1.69;-0.268
7.26316;-20;0.254565;1.698;-0.273
7.29571;-20;0.401114;1.701;-0.275
7.32977;20;0.000248207;1.709;-0.272
7.36223;20;-0.0914536;1.712;-0.266
7.39102;20;-0.0645115;1.714;-0.26
7.42278;20;-0.199783;1.716;-0.245
7.45577;20;-0.114459;1.717;-0.241
7.48956;20;-0.195306;1.712;-0.239
7.52375;20;0.135957;1.708;-0.243
7.55167;20;0.0113924;1.706;-0.246
7.58285;20;-0.0388478;1.7;-0.257
7.62382;20;0.131309;1.696;-0.276
7.65234;20;0.0739626;1.695;-0.285
7.67897;20;0.330599;1.698;-0.288
7.71228;20;-0.297357;1.7;-0.289
7.74997;20;0.201113;1.711;-0.285
7.7756;20;0.136267;1.714;-0.283
7.81001;20;0.0918643;1.724;-0.273
7.84169;20;0.1642;1.735;-0.264
7.87295;20;0.190088;1.748;-0.252
7.90375;20;0.243014;1.76;-0.242
7.93514;-20;0.218524;1.776;-0.23
7.96963;-20;0.197888;1.79;-0.221
8.00113;-20;0.204781;1.807;-0.212
8.03224;-20;-0.184911;1.818;-0.2
8.06353;-20;-0.0581786;1.831;-0.189
8.09525;-20;-0.105183;1.842;-0.172
8.14366;20;-0.166883;1.852;-0.147
8.15968;20;-0.153404;1.855;-0.138
8.1921;20;-0.243632;1.859;-0.118
8.22315;20;-0.142935;1.861;-0.101
8.26383;20;-0.21035;1.862;-0.088
8.29311;20;-0.174619;1.862;-0.077
8.3195;20;0.156545;1.863;-0.076
8.35205;20;0.237106;1.865;-0.076
8.38369;20;0.0505855;1.868;-0.08
8.41532;20;0.11106;1.869;-0.09
8.44897;20;0.0541597;1.871;-0.101
8.47949;20;0.127703;1.873;-0.109
8.52298;20;0.25159;1.877;-0.136
8.54386;20;0.31212;1.882;-0.146
8.5751;20;0.329447;1.887;-0.168
8.61334;20;0.288929;1.894;-0.197
8.63902;20;0.346537;1.899;-0.208
8.6736;20;0.350673;1.913;-0.238
8.70315;20;0.224848;1.916;-0.248
8.73564;-20;0.458175;1.928;-0.267
8.77983;-20;0.25247;1.944;-0.297
8.79936;-20;0.391529;1.951;-0.306
8.83234;-20;0.0871196;1.957;-0.322
8.86316;-20;0.159369;1.967;-0.338
8.89555;-20;0.0560413;1.971;-0.351
8.93019;-20;-0.0829697;1.972;-0.363
8.95936;-20;-0.218136;1.972;-0.374
8.9926;-20;0.0692814;1.968;-0.392
9.02293;-20;-0.2129;1.962;-0.405
9.05485;-20;-0.171274;1.955;-0.419
9.08949;-20;-0.203976;1.947;-0.432
9.12262;20;-0.322406;1.936;-0.446
9.15277;20;-0.327333;1.925;-0.46
9.18324;20;-0.378032;1.913;-0.474
9.21477;20;-0.424298;1.903;-0.489
9.24925;20;-0.522746;1.892;-0.496
9.2795;20;-0.413585;1.884;-0.502
9.31212;-20;-0.41011;1.878;-0.501
9.34284;-20;0.00795351;1.87;-0.495
9.38139;-20;-0.0318704;1.865;-0.489
9.41088;-20;0.0413856;1.862;-0.475
9.43971;-20;0.0192002;1.853;-0.462
9.47235;-20;-0.1563;1.841;-0.451
9.50299;-20;-0.285294;1.826;-0.443
9.535;20;-0.286881;1.811;-0.432
9.57959;20;-0.364961;1.793;-0.42
9.59982;20;-0.441064;1.777;-0.411
9.63268;20;-0.501573;1.763;-0.402
9.66308;20;-0.535312;1.759;-0.402
9.70362;20;-0.429555;1.746;-0.402
9.73126;-20;-0.197164;1.741;-0.409
9.75904;-20;-0.0903943;1.741;-0.411
9.79176;-20;-0.179303;1.741;-0.419
9.82363;-20;-0.0878838;1.744;-0.432
9.85488;-20;-0.0712122;1.747;-0.446
9.90131;-20;-0.236521;1.748;-0.47
9.91957;20;-0.123287;1.748;-0.476
9.95798;20;-0.146018;1.746;-0.506
9.98349;20;-0.201616;1.744;-0.515
10.0149;20;-0.147874;1.739;-0.532
10.05;20;-0.134401;1.737;-0.549
10.0838;20;0.0938647;1.74;-0.57
10.1109;-20;0.110661;1.742;-0.589
10.1436;-20;0.13312;1.747;-0.606
10.1758;-20;0.168427;1.754;-0.625
10.2092;-20;0.295621;1.763;-0.643
10.2394;-20;0.233221;1.773;-0.658
10.2819;-20;0.318728;1.776;-0.664
10.3038;-20;0.114577;1.777;-0.666
10.3354;-20;0.0414025;1.777;-0.664
10.3818;-20;-0.135273;1.771;-0.661
10.4019;-20;-0.0865088;1.764;-0.652
10.433;-20;-0.203795;1.755;-0.648
10.4628;-20;-0.224711;1.75;-0.649
10.4955;-20;-0.137365;1.748;-0.652
10.53;20;-0.114768;1.738;-0.663
10.5597;20;-0.225385;1.73;-0.673
10.592;20;-0.248228;1.72;-0.685
10.6237;20;-0.350634;1.711;-0.692
10.6551;20;-0.276404;1.707;-0.694
10.6952;20;-0.324434;1.7;-0.692
10.7188;-20;-0.307501;1.697;-0.69
10.7528;-20;-0.127102;1.699;-0.683
10.7842;-20;-0.0121468;1.704;-0.675
10.8165;-20;0.0248838;1.709;-0.67
10.8593;-20;0.15844;1.716;-0.671
10.8788;-20;0.136904;1.716;-0.671
10.9122;20;0.0503673;1.716;-0.678
10.9437;20;0.108317;1.711;-0.683
10.9787;20;-0.0744657;1.701;-0.686
11.0097;20;-0.00902829;1.692;-0.69
11.0393;20;-0.268531;1.686;-0.687
11.0719;20;-0.180269;1.683;-0.684
11.1033;20;-0.102907;1.686;-0.681
11.1352;-20;0.00391798;1.691;-0.677
11.1695;-20;0.0362379;1.699;-0.676
11.1991;-20;0.0338985;1.71;-0.677
11.2323;-20;0.0310625;1.723;-0.675
11.2633;-20;-0.0595328;1.737;-0.671
11.2952;-20;-0.0804834;1.754;-0.667
11.3303;-20;-0.0201587;1.771;-0.659
11.3597;-20;-0.228256;1.787;-0.646
11.3909;-20;-0.385793;1.801;-0.634
11.4231;-20;-0.268485;1.814;-0.623
11.4631;-20;-0.390843;1.82;-0.613
11.4913;-20;-0.460656;1.82;-0.605
11.5197;-20;-0.343564;1.816;-0.599
11.5526;-20;-0.289496;1.812;-0.594
11.5832;-20;-0.132997;1.807;-0.594
11.6222;-20;-0.161983;1.791;-0.592
11.6507;-20;-0.183994;1.776;-0.591
11.6793;-20;-0.176654;1.767;-0.59
11.7123;20;-0.191575;1.75;-0.587
11.7431;20;-0.239465;1.733;-0.585
11.7755;20;-0.221492;1.713;-0.579
11.8112;20;-0.221627;1.695;-0.575
11.839;20;-0.317908;1.681;-0.567
11.8731;20;-0.476585;1.672;-0.558
11.9033;20;-0.271156;1.67;-0.555
11.9353;-20;-0.0551122;1.67;-0.554
11.9711;-20;-0.0662038;1.672;-0.553
11.999;-20;0.0779992;1.68;-0.554
12.0326;-20;0.0440935;1.691;-0.553
12.0631;-20;-0.0521915;1.703;-0.545
12.0955;-20;-0.196974;1.716;-0.537
12.1361;-20;-0.203312;1.738;-0.518
12.1592;-20;-0.0877849;1.746;-0.513
12.1924;-20;-0.192312;1.759;-0.497
12.2229;-20;-0.148375;1.768;-0.483
12.2645;-20;-0.319312;1.775;-0.468
12.2918;-20;-0.377728;1.776;-0.462
12.3224;20;0.275209;1.777;-0.457
12.3603;20;-0.263373;1.771;-0.455
12.3829;20;-0.230531;1.771;-0.455
12.4153;20;-0.110569;1.755;-0.463
12.4635;20;0.165657;1.745;-0.476
12.481;20;0.089546;1.743;-0.482
12.5129;-20;0.126945;1.739;-0.495
12.5436;-20;0.213254;1.736;-0.513
12.5827;-20;0.232262;1.732;-0.531
12.6113;-20;0.361201;1.731;-0.55
12.6389;-20;0.525957;1.733;-0.563
12.677;-20;0.438528;1.735;-0.573
12.703;-20;0.449199;1.737;-0.576
12.7349;20;0.231494;1.744;-0.578
12.7701;20;-0.0292572;1.754;-0.571
12.7997;20;0.0429076;1.759;-0.568
12.8446;20;-0.191882;1.764;-0.558
12.8644;20;-0.134143;1.765;-0.554
12.8951;20;-0.0817777;1.763;-0.555
12.9303;20;0.0255282;1.758;-0.562
12.9589;20;0.0948012;1.753;-0.571
12.992;20;0.0817279;1.749;-0.583
13.023;20;0.10994;1.745;-0.595
13.0555;20;0.195733;1.746;-0.606
13.0903;20;0.190403;1.748;-0.613
13.1188;-20;0.287342;1.756;-0.613
13.1528;-20;0.224026;1.761;-0.61
13.1836;-20;0.0510336;1.767;-0.605
13.2155;-20;0.0744777;1.778;-0.598
13.2502;-20;-0.000900338;1.785;-0.587
13.2793;-20;-0.023518;1.79;-0.575
13.3117;20;-0.212796;1.795;-0.554
13.3439;20;-0.261433;1.798;-0.544
13.3752;20;-0.366511;1.805;-0.517
13.4121;20;-0.394426;1.81;-0.497
13.4388;20;-0.342028;1.818;-0.48
13.4721;20;-0.275622;1.827;-0.47
13.5033;20;-0.121218;1.837;-0.46
13.5348;-20;0.0453853;1.843;-0.457
13.57;-20;0.0874658;1.858;-0.448
13.5997;-20;0.201005;1.866;-0.447
13.633;-20;0.0888767;1.878;-0.438
13.6634;-20;-0.0472006;1.89;-0.431
13.6953;-20;-0.265011;1.898;-0.42
13.7304;-20;-0.217548;1.91;-0.401
13.7591;-20;-0.2856;1.92;-0.387
13.7927;-20;-0.351636;1.929;-0.367
13.8233;-20;-0.345641;1.94;-0.347
13.8556;-20;-0.427888;1.949;-0.328
13.8967;-20;-0.47705;1.966;-0.298
13.9192;-20;-0.563261;1.97;-0.288
13.9512;-20;-0.558548;1.982;-0.269
13.9832;-20;-0.576115;1.995;-0.25
14.0157;-20;-0.460536;2.013;-0.232
14.0497;-20;-0.473231;2.025;-0.216
14.0856;-20;-0.330899;2.042;-0.199
14.1126;20;-0.354724;2.056;-0.182
14.1435;20;-0.242427;2.07;-0.166
14.185;20;-0.2343;2.089;-0.139
14.2111;20;-0.22228;2.095;-0.132
14.2388;20;-0.437848;2.104;-0.114
14.2725;20;-0.138181;2.111;-0.104
14.3033;20;-0.229322;2.115;-0.097
14.3354;20;-0.168317;2.115;-0.097
14.3699;20;-0.0062526;2.112;-0.099
14.3994;20;0.12461;2.108;-0.106
14.4333;20;0.122098;2.107;-0.113
14.4629;20;0.134453;2.109;-0.118
14.4955;20;0.149988;2.117;-0.123
14.5303;-20;0.118845;2.128;-0.125
14.5596;-20;0.230009;2.138;-0.128
14.5909;-20;0.146674;2.157;-0.131
14.6278;-20;-0.063334;2.171;-0.129
14.6557;-20;-0.04578;2.187;-0.128
14.6909;-20;-0.206883;2.201;-0.123
14.7197;-20;-0.0774455;2.21;-0.12
14.756;-20;-0.371841;2.223;-0.111
14.7832;-20;-0.248331;2.22;-0.109
14.8152;-20;-0.315119;2.215;-0.1
14.8498;-20;-0.312841;2.214;-0.093
14.8852;-20;-0.184324;2.215;-0.091
14.9109;20;-0.16674;2.215;-0.091
14.9429;20;-0.105407;2.215;-0.091
14.9754;20;-0.0679396;2.215;-0.091
15.0253;20;0.0468279;2.216;-0.095
15.0399;20;0.0703676;2.216;-0.098
15.0734;20;-0.00424756;2.218;-0.098
15.1038;20;0.0615157;2.215;-0.1
15.1351;20;0.0905833;2.217;-0.102
15.1702;20;0.109932;2.218;-0.105
15.1997;20;0.0847906;2.219;-0.107
15.2329;20;-0.0653279;2.217;-0.105
15.2636;20;0.0327145;2.214;-0.108
15.307;20;0.0879166;2.205;-0.111
15.3318;20;0.0921378;2.201;-0.113
15.3592;20;0.159708;2.196;-0.117
15.3926;20;0.296313;2.173;-0.126
15.4266;20;0.337187;2.156;-0.132
15.4555;20;0.343879;2.136;-0.138
15.5057;20;0.539582;2.105;-0.146
15.5231;-20;0.35444;2.093;-0.146
15.5527;-20;0.477512;2.083;-0.148
15.5836;-20;0.458258;2.057;-0.151
15.6164;-20;0.553154;2.036;-0.152
15.6502;-20;0.689884;2.008;-0.159
15.6798;-20;0.558644;1.999;-0.159
15.7112;-20;0.427929;1.993;-0.166
15.7439;-20;0.461959;1.986;-0.169
15.7751;-20;0.131018;1.986;-0.178
15.8109;-20;-0.189296;1.995;-0.191
15.8435;-20;-0.118215;2.002;-0.203
15.8708;-20;-0.226127;2.009;-0.21
15.9029;-20;-0.29116;2.02;-0.224
15.9387;20;-0.373041;2.034;-0.241
15.9715;20;-0.428105;2.046;-0.26
15.9996;20;-0.336897;2.058;-0.276
16.0315;20;-0.45992;2.071;-0.291
16.0636;20;-0.579517;2.083;-0.301
16.0953;20;-0.507125;2.09;-0.306
16.1313;20;-0.181603;2.094;-0.306
16.1595;20;0.0590126;2.097;-0.3
16.1911;20;0.0973427;2.097;-0.294
16.2232;20;0.150078;2.095;-0.284
16.2552;20;0.188962;2.091;-0.278
16.2914;20;0.178071;2.084;-0.277
16.3194;20;0.208359;2.073;-0.277
16.351;20;0.216809;2.062;-0.281
16.3836;20;0.222992;2.051;-0.285
16.4157;20;0.330758;2.034;-0.293
16.4502;20;0.263784;2.021;-0.304
16.4789;20;0.409882;2.007;-0.313
16.5129;20;0.358156;1.994;-0.326
16.5435;20;0.373093;1.979;-0.34
16.585;20;0.437443;1.966;-0.352
16.61;20;0.375033;1.954;-0.368
16.6392;20;0.375646;1.942;-0.382
16.672;20;0.411325;1.93;-0.4
16.7034;20;0.346345;1.926;-0.41
16.7349;-20;0.354143;1.918;-0.426
16.7704;-20;0.42603;1.905;-0.453
16.799;-20;0.453298;1.901;-0.462
16.8332;-20;0.46267;1.894;-0.477
16.8629;-20;0.490811;1.886;-0.487
16.8951;-20;0.433281;1.879;-0.491
16.937;-20;0.0760386;1.871;-0.489
16.9591;-20;0.00807706;1.869;-0.484
16.9931;-20;0.0460872;1.866;-0.478
17.0232;-20;-0.159497;1.865;-0.467
17.055;-20;-0.247301;1.867;-0.46
17.0904;-20;-0.250002;1.87;-0.459
17.119;-20;-0.199092;1.874;-0.461
17.1561;-20;-0.0918225;1.878;-0.468
17.1831;-20;-0.11202;1.885;-0.479
17.2149;-20;-0.160445;1.893;-0.492
17.2518;-20;-0.154073;1.904;-0.506
17.2795;-20;-0.383894;1.917;-0.521
17.3133;20;-0.421694;1.929;-0.539
17.3433;20;-0.487287;1.941;-0.557
17.3748;20;-0.500761;1.948;-0.565
17.4104;20;-0.400492;1.961;-0.597
17.4394;20;-0.413835;1.968;-0.612
17.4727;20;-0.408567;1.97;-0.625
17.5038;20;-0.0161229;1.966;-0.635
17.5352;20;-0.212028;1.965;-0.641
17.5706;20;-0.050765;1.955;-0.652
17.5993;20;0.093505;1.95;-0.655
17.633;20;0.178541;1.94;-0.66
17.6632;20;0.261329;1.94;-0.655
17.6954;20;0.216932;1.94;-0.653
17.732;-20;0.0331889;1.95;-0.642
17.759;-20;0.157267;1.952;-0.638
17.7919;-20;0.0639426;1.963;-0.627
17.8233;-20;0.204571;1.971;-0.614
17.8555;-20;0.164023;1.983;-0.605
17.892;-20;0.0726803;2;-0.594
17.9192;20;-0.0426906;2.005;-0.593
17.9525;20;-0.0850591;2.017;-0.593
17.9838;20;-0.0955729;2.031;-0.591
18.0194;20;-0.107911;2.04;-0.594
18.0546;20;-0.32959;2.044;-0.598
18.0797;20;-0.285008;2.044;-0.601
18.1111;20;0.151161;2.039;-0.598
18.1434;20;-0.0629912;2.032;-0.597
18.175;20;0.102452;2.022;-0.589
18.2107;20;0.151665;2.013;-0.58
18.2392;20;0.141501;2.007;-0.573
18.2709;20;0.300361;2.01;-0.567
18.3038;20;0.272488;2.013;-0.565
18.3356;-20;0.192304;2.023;-0.564
18.3705;-20;0.211347;2.035;-0.564
18.3997;-20;0.175087;2.051;-0.568
18.432;-20;0.258266;2.065;-0.57
18.4638;-20;0.372285;2.073;-0.567
18.4955;-20;0.331262;2.079;-0.566
18.5312;-20;0.196435;2.079;-0.557
18.559;-20;-0.029232;2.075;-0.552
18.5921;-20;-0.000153845;2.066;-0.543
18.6235;-20;-0.160595;2.058;-0.538
18.655;-20;-0.220205;2.053;-0.538
18.6946;-20;-0.247843;2.048;-0.539
18.7192;-20;-0.161799;2.049;-0.543
18.7539;-20;-0.0716263;2.053;-0.55
18.7837;-20;-0.179202;2.057;-0.561
18.8152;-20;-0.157207;2.062;-0.574
18.8512;-20;-0.343705;2.061;-0.589
18.8789;-20;-0.360168;2.058;-0.594
18.9109;-20;-0.285615;2.051;-0.599
18.9434;-20;-0.213119;2.036;-0.603
18.9749;-20;-0.117935;2.022;-0.607
19.0109;-20;-0.161463;2.004;-0.612
19.0394;-20;-0.305788;1.993;-0.618
19.0745;-20;-0.307503;1.987;-0.626
19.1035;-20;-0.318003;1.984;-0.63
19.1349;20;-0.305508;1.984;-0.636
19.1706;20;-0.180556;1.991;-0.64
19.1993;20;-0.165375;1.998;-0.645
19.2321;20;0.054042;2.009;-0.645
19.2635;20;0.147694;2.022;-0.643
19.295;20;0.119905;2.033;-0.641
19.3303;-20;0.181684;2.051;-0.637
19.3593;-20;0.316393;2.067;-0.629
19.3927;-20;0.277484;2.076;-0.627
19.4233;-20;0.486603;2.099;-0.617
19.4557;-20;0.498096;2.108;-0.61
19.4909;-20;0.443012;2.113;-0.603
19.5192;-20;0.0936745;2.11;-0.599
19.551;-20;0.00989615;2.107;-0.596
19.5838;-20;-0.115055;2.091;-0.589
19.6249;-20;-0.124443;2.08;-0.584
19.6515;-20;-0.268236;2.069;-0.583
19.6788;-20;-0.335751;2.064;-0.588
19.7123;-20;-0.190747;2.061;-0.595
19.7458;-20;-0.181457;2.061;-0.605
19.7758;-20;-0.253542;2.059;-0.612
19.8106;-20;-0.357375;2.058;-0.633
19.8397;-20;-0.306994;2.057;-0.638
19.8726;-20;-0.372081;2.05;-0.646
19.9035;-20;-0.386801;2.042;-0.651
19.9355;20;-0.31259;2.03;-0.654
19.9707;20;-0.19531;2.012;-0.653
19.9993;20;-0.353322;1.997;-0.655
20.0326;20;-0.30289;1.982;-0.655
20.0631;20;-0.354452;1.972;-0.658
20.0952;20;-0.354203;1.967;-0.661
20.1303;-20;-0.115465;1.968;-0.67
20.1595;-20;0.0561552;1.973;-0.674
20.1912;-20;0.161288;1.98;-0.682
20.2229;-20;0.0465498;1.988;-0.694
20.2549;-20;-0.035219;1.993;-0.707
20.2903;-20;0.0633818;1.997;-0.718
20.3194;20;-0.189529;1.995;-0.731
20.353;20;-0.19855;1.993;-0.746
20.3829;20;0.0270954;1.989;-0.76
20.4151;20;-0.0669476;1.987;-0.775
20.4506;20;0.159024;1.985;-0.792
20.4789;20;0.197679;1.988;-0.81
20.5126;20;0.365796;1.993;-0.83
20.543;20;0.301891;1.998;-0.852
20.5758;20;0.371772;2.002;-0.875
20.6121;20;0.506647;2.006;-0.892
20.6393;20;0.551756;2.013;-0.91
20.6729;20;0.575017;2.02;-0.918
20.7034;20;0.545637;2.026;-0.923
20.7352;20;0.417491;2.036;-0.925
20.7696;20;0.339742;2.05;-0.925
20.7994;20;0.189018;2.065;-0.922
20.8327;20;0.326445;2.076;-0.923
20.8637;20;0.395429;2.086;-0.931
20.8949;20;0.353487;2.088;-0.936
20.9304;-20;0.29661;2.088;-0.945
20.9592;-20;0.201331;2.08;-0.955
20.9931;-20;0.201777;2.068;-0.967
21.0235;-20;0.36246;2.056;-0.979
21.0557;-20;0.114841;2.042;-0.983
21.0919;-20;0.145708;2.031;-0.987
21.1189;20;0.0382234;2.018;-0.988
21.1528;20;0.00267009;2.006;-0.985
21.1832;20;-0.0457437;1.992;-0.977
21.2151;20;0.0201723;1.982;-0.973
21.2507;20;-0.114432;1.976;-0.967
21.2789;20;-0.072053;1.973;-0.965
21.3125;-20;0.0861257;1.977;-0.968
21.343;-20;0.147077;1.981;-0.973
21.3754;-20;0.0678551;1.988;-0.979
21.4108;-20;0.164356;1.992;-0.985
21.4389;-20;0.272114;2.004;-0.996
21.473;-20;0.289489;2.005;-1.001
21.5031;-20;0.151233;2.003;-1.003
21.5351;20;-0.122961;1.995;-1
21.5704;20;0.0351104;1.986;-1
21.5994;20;-0.108383;1.975;-0.99
21.6333;20;-0.175832;1.971;-0.986
21.6635;20;-0.0918297;1.967;-0.983
21.6948;20;0.0204172;1.971;-0.985
21.7307;20;0.069464;1.972;-0.986
21.7594;20;0.117579;1.975;-0.992
21.7929;20;0.141331;1.987;-1.003
21.8235;20;0.0154326;1.995;-1.005
21.8558;20;0.185362;2.006;-1.018
21.8906;20;0.433388;2.024;-1.036
21.9196;20;0.268227;2.034;-1.042
21.9522;20;0.385628;2.046;-1.054
21.9833;20;0.463212;2.061;-1.066
22.015;20;0.53393;2.075;-1.077
22.0497;20;0.56858;2.085;-1.088
22.0796;20;0.495316;2.085;-1.099
22.1123;20;0.227036;2.08;-1.111
22.1434;20;0.35109;2.079;-1.126
22.1755;20;0.320942;2.069;-1.14
22.2104;20;0.470161;2.06;-1.159
22.2395;20;0.527207;2.052;-1.174
22.2725;20;0.498109;2.053;-1.184
22.3033;20;0.449704;2.056;-1.193
22.3352;-20;0.347355;2.068;-1.206
22.3707;-20;0.159937;2.078;-1.216
22.3989;-20;0.266187;2.092;-1.229
22.4313;-20;0.345282;2.094;-1.233
22.4629;-20;0.356479;2.096;-1.249
22.495;-20;0.382665;2.096;-1.255
22.5326;20;0.149805;2.089;-1.256
22.559;20;-0.0187173;2.086;-1.254
22.5911;20;-0.04947;2.075;-1.247
22.6231;20;0.0685737;2.065;-1.241
22.6555;20;0.13567;2.051;-1.235
22.6914;20;0.0939685;2.043;-1.232
22.7189;20;0.336719;2.027;-1.229
22.7516;20;0.192129;2.007;-1.222
22.7829;20;0.235214;1.987;-1.219
22.8152;20;0.31;1.964;-1.218
22.8517;20;0.157113;1.932;-1.217
22.8796;20;0.31613;1.921;-1.218
22.9115;-20;0.163734;1.901;-1.22
22.9433;-20;0.327709;1.877;-1.226
22.9749;-20;0.244833;1.855;-1.229
23.0113;-20;0.274667;1.835;-1.235
23.04;-20;0.324193;1.823;-1.244
23.0738;-20;0.254032;1.813;-1.249
23.1029;-20;0.462314;1.812;-1.254
23.1355;20;-0.370624;1.813;-1.256
23.1718;20;0.0264203;1.821;-1.255
23.1989;20;-0.0919474;1.83;-1.249
23.2319;20;0.0991954;1.843;-1.247
23.2631;20;0.0927928;1.856;-1.246
23.2957;20;0.192066;1.87;-1.247
23.3316;20;0.323086;1.887;-1.249
23.3596;20;0.117659;1.901;-1.248
23.3912;20;0.275464;1.911;-1.249
23.4233;20;0.327269;1.926;-1.252
23.4558;20;0.443137;1.938;-1.262
23.4912;20;0.41632;1.944;-1.269
23.5198;20;0.355687;1.946;-1.282
23.5514;20;0.267595;1.943;-1.297
23.5831;20;0.28137;1.942;-1.304
23.6154;20;0.200712;1.934;-1.332
23.6523;20;0.230787;1.926;-1.355
23.6795;20;0.323673;1.921;-1.373
23.713;20;0.295178;1.914;-1.392
23.7434;20;0.313889;1.91;-1.403
23.7757;20;0.202132;1.901;-1.424
23.8106;20;0.322899;1.894;-1.454
23.8388;20;0.34204;1.893;-1.46
23.8736;20;0.497632;1.895;-1.472
23.9033;20;0.448747;1.898;-1.482
23.935;20;0.139295;1.904;-1.482
23.9711;20;0.284395;1.91;-1.483
23.9993;20;0.173992;1.921;-1.482
24.031;20;0.135;1.937;-1.474
24.0633;20;0.180562;1.95;-1.469
24.0953;20;0.172506;1.964;-1.462
24.1311;-20;0.301726;1.98;-1.46
24.1592;-20;-0.0818174;1.995;-1.453
24.1909;-20;0.145461;2.012;-1.453
24.2236;-20;-0.160286;2.027;-1.448
24.2553;-20;-0.0309714;2.044;-1.441
24.2913;-20;0.00374535;2.056;-1.429
24.3198;-20;-0.246489;2.071;-1.414
24.3516;-20;-0.35585;2.084;-1.399
24.3838;-20;-0.406484;2.101;-1.382
24.4149;-20;-0.518629;2.111;-1.368
24.4503;-20;-0.434256;2.117;-1.355
24.4793;-20;-0.483596;2.118;-1.346
24.5126;-20;-0.407529;2.113;-1.335
24.5435;-20;-0.257378;2.107;-1.328
24.5756;-20;-0.260807;2.104;-1.325
24.6102;-20;-0.0716108;2.084;-1.312
24.6396;-20;-0.276428;2.079;-1.308
24.6714;-20;-0.28105;2.064;-1.298
24.703;-20;-0.377278;2.044;-1.287
24.7351;-20;-0.37419;2.029;-1.279
24.7704;-20;-0.376167;2.004;-1.269
24.7995;-20;-0.395249;1.994;-1.265
24.8311;-20;-0.522066;1.982;-1.254
24.8632;-20;-0.532066;1.977;-1.244
24.8953;-20;-0.42082;1.976;-1.229
24.9302;20;-0.424579;1.975;-1.213
24.9591;20;-0.370434;1.976;-1.192
24.9911;20;-0.33731;1.984;-1.173
25.0234;20;0.028226;1.991;-1.156
25.0556;20;-0.110246;1.998;-1.141
25.1078;20;0.0381205;2.012;-1.123
25.1235;20;0.251662;2.018;-1.12
25.1534;20;0.144371;2.029;-1.113
25.1837;20;0.342335;2.043;-1.11
25.2152;20;0.200339;2.055;-1.1
25.251;20;0.282706;2.074;-1.089
25.279;20;0.31754;2.087;-1.081
25.326;-20;0.289407;2.113;-1.065
25.3433;-20;0.435698;2.12;-1.061
25.3758;-20;0.491672;2.138;-1.049
25.4182;-20;0.429696;2.151;-1.036
25.4398;-20;0.441147;2.158;-1.03
25.4722;-20;0.159223;2.168;-1.006
25.5036;-20;0.206178;2.172;-0.991
25.546;20;-0.047904;2.172;-0.97
25.5718;20;-0.1887;2.167;-0.954
25.5991;20;-0.224412;2.159;-0.937
25.6326;20;-0.302349;2.152;-0.926
25.6638;20;-0.185678;2.145;-0.92
25.6979;20;-0.169942;2.144;-0.919
25.7312;-20;-0.0116717;2.143;-0.923
25.7592;-20;-0.0337876;2.144;-0.927
25.8063;-20;-0.00411873;2.148;-0.933
25.8229;-20;-0.0188398;2.151;-0.94
25.8557;-20;-0.0705931;2.158;-0.953
25.8967;-20;-0.168601;2.161;-0.966
25.9199;-20;-0.275378;2.164;-0.982
25.9528;-20;-0.257119;2.166;-0.995
25.9834;-20;-0.342632;2.168;-1.016
26.0262;-20;-0.368536;2.173;-1.044
26.0516;-20;-0.40692;2.175;-1.055
26.0791;-20;-0.432145;2.178;-1.073
26.1133;20;-0.406107;2.185;-1.094
26.143;20;-0.513838;2.191;-1.114
26.1748;20;-0.346947;2.202;-1.133
26.2112;20;-0.551955;2.205;-1.151
26.2389;20;-0.592736;2.206;-1.165
26.2822;20;-0.564307;2.205;-1.171
26.3028;20;-0.528902;2.196;-1.18
26.3353;20;-0.229312;2.185;-1.182
26.3706;20;-0.137178;2.172;-1.182
26.3989;20;-0.130457;2.172;-1.182
26.4338;20;0.106445;2.154;-1.173
26.4637;20;0.0144963;2.148;-1.17
26.4952;20;0.158484;2.135;-1.158
26.5316;-20;0.148854;2.124;-1.141
26.5598;-20;0.101692;2.119;-1.135
26.591;-20;0.203345;2.112;-1.12
26.6237;-20;0.21905;2.108;-1.105
26.6552;-20;0.251296;2.103;-1.095
26.6902;-20;-0.0230473;2.102;-1.089
26.7221;20;0.304212;2.103;-1.088
26.751;20;0.176875;2.107;-1.09
26.7829;20;-0.139401;2.108;-1.098
26.8155;20;-0.0700326;2.112;-1.106
26.8501;20;0.0280715;2.114;-1.119
26.8795;20;-0.252913;2.113;-1.121
26.9125;-20;-0.228933;2.109;-1.124
26.9437;-20;0.0421024;2.103;-1.12
26.9774;-20;0.143786;2.099;-1.115
27.0106;-20;0.0658114;2.09;-1.103
27.0396;-20;0.0604264;2.084;-1.093
27.0734;-20;-0.133971;2.069;-1.084
27.1034;-20;-0.207509;2.054;-1.074
27.1357;20;-0.261027;2.038;-1.063
27.1711;20;-0.460371;2.022;-1.054
27.1995;20;-0.506251;2.002;-1.045
27.233;20;-0.591139;1.987;-1.038
27.2634;20;-0.573386;1.976;-1.036
27.2954;20;-0.477973;1.969;-1.036
27.3301;20;-0.361589;1.966;-1.036
27.3592;20;0.0694562;1.966;-1.042
27.3935;20;0.0512499;1.968;-1.053
27.4235;20;-0.0282972;1.97;-1.063
27.4557;20;0.172017;1.975;-1.073
27.4905;20;0.130908;1.982;-1.098
27.5195;-20;0.3231;1.99;-1.114
27.5549;-20;0.514449;1.999;-1.135
27.5833;-20;0.365828;2.003;-1.158
27.615;-20;0.404769;2.004;-1.17
27.6505;-20;0.362191;2.005;-1.196
27.6795;-20;0.253738;1.998;-1.21
27.7108;20;-0.0994233;1.992;-1.222
27.7431;20;0.158402;1.99;-1.227
27.775;20;-0.184912;1.981;-1.237
27.8122;20;-0.0144174;1.969;-1.25
27.8389;20;-0.0739709;1.962;-1.257
27.8711;20;0.175857;1.957;-1.272
27.9033;20;0.210974;1.949;-1.286
27.9349;20;0.194793;1.945;-1.304
27.971;20;0.356142;1.942;-1.322
27.9998;20;0.392343;1.935;-1.344
28.031;20;0.530566;1.936;-1.361
28.0631;20;0.557587;1.938;-1.372
28.095;20;0.499972;1.943;-1.383
28.1312;-20;0.371129;1.951;-1.39
28.1592;-20;0.375806;1.963;-1.397
28.1908;-20;0.340196;1.978;-1.403
28.2235;-20;0.341076;1.993;-1.407
28.2556;-20;0.0337785;2;-1.41
28.291;-20;0.396231;2.007;-1.421
28.3189;20;0.0425577;2.004;-1.425
28.3511;20;0.169103;1.999;-1.432
28.3838;20;0.0296551;1.991;-1.437
28.4153;20;-0.0824586;1.981;-1.437
28.451;20;0.179115;1.969;-1.448
28.479;20;0.179115;1.969;-1.448
28.5117;-20;0.248467;1.947;-1.461
28.5435;-20;0.312614;1.921;-1.482
28.5749;-20;0.368288;1.914;-1.487
28.6114;-20;0.504256;1.887;-1.505
28.6397;-20;0.32823;1.878;-1.508
28.671;-20;0.292113;1.856;-1.514
28.7036;-20;-0.0350317;1.844;-1.514
28.7351;20;0.303121;1.839;-1.516
28.7707;20;-0.187087;1.824;-1.509
28.799;20;-0.018063;1.82;-1.508
28.8311;20;-0.217202;1.808;-1.501
28.8633;20;-0.334378;1.808;-1.494
28.8956;20;-0.300745;1.809;-1.491
28.9319;-20;-0.0153665;1.816;-1.49
28.9588;-20;0.0967733;1.82;-1.492
28.9908;-20;0.131743;1.831;-1.496
29.0235;-20;0.15599;1.842;-1.504
29.0555;-20;0.269762;1.846;-1.509
29.0913;-20;0.295959;1.847;-1.515
29.1196;-20;-0.150567;1.844;-1.517
29.1537;-20;-0.0174246;1.84;-1.52
29.1837;-20;-0.0347301;1.831;-1.519
29.2155;-20;-0.172988;1.821;-1.517
29.2503;-20;-0.197301;1.816;-1.516
29.2795;-20;-0.177764;1.816;-1.505
29.3117;-20;-0.125479;1.82;-1.496
29.3435;-20;-0.148052;1.823;-1.482
29.3755;-20;-0.182105;1.829;-1.464
29.4115;-20;-0.249914;1.834;-1.446
29.4395;-20;-0.26425;1.84;-1.424
29.4708;-20;-0.307464;1.841;-1.416
29.5037;-20;-0.352043;1.847;-1.382
29.5357;-20;-0.380975;1.846;-1.362
29.5705;-20;-0.360896;1.846;-1.341
29.5995;-20;-0.165563;1.848;-1.331
29.6311;-20;-0.504445;1.843;-1.299
29.6634;-20;-0.331224;1.841;-1.277
29.6953;-20;-0.484134;1.838;-1.264
29.7307;-20;-0.340714;1.839;-1.233
29.7592;-20;-0.542533;1.837;-1.221
29.7918;-20;-0.532965;1.838;-1.197
29.8229;-20;-0.575214;1.835;-1.179
29.8552;-20;-0.646145;1.827;-1.164
29.8913;-20;-0.515209;1.816;-1.149
29.9193;20;-0.394147;1.811;-1.148
29.9512;20;-0.42848;1.798;-1.141
29.9836;20;-0.28352;1.779;-1.14
30.0152;20;-0.331741;1.766;-1.139
30.0507;20;-0.382775;1.753;-1.136
30.0855;20;-0.199141;1.741;-1.132
30.1126;-20;-0.395727;1.738;-1.128
30.1429;-20;-0.075311;1.742;-1.12
30.1756;-20;-0.114176;1.743;-1.118
30.2111;-20;0.115332;1.755;-1.114
30.2391;-20;0.0223026;1.764;-1.109
30.2712;-20;-0.0475934;1.765;-1.108
30.3035;-20;0.169049;1.766;-1.112
30.3349;-20;0.0875268;1.763;-1.112
30.3781;-20;-0.206317;1.754;-1.113
30.399;-20;-0.123972;1.74;-1.115
30.433;-20;-0.121083;1.731;-1.115
30.463;-20;-0.331021;1.721;-1.106
30.4956;-20;-0.001408;1.721;-1.101
30.54;20;-0.301087;1.717;-1.077
30.559;20;-0.219046;1.719;-1.069
30.5927;20;-0.263494;1.721;-1.051
30.623;20;-0.351409;1.726;-1.037
30.6557;20;-0.228424;1.729;-1.031
30.6909;20;-0.149498;1.742;-1.015
30.7192;20;0.0681226;1.755;-1.006
30.7673;20;0.346572;1.774;-1.002
30.7834;20;0.178225;1.782;-0.999
30.8148;20;0.0835304;1.788;-0.995
30.8509;20;0.170397;1.813;-0.991
30.8792;20;0.276324;1.823;-0.99
30.9108;20;0.232107;1.84;-0.986
30.9439;20;0.26713;1.858;-0.986
30.9748;20;0.177075;1.875;-0.985
31.0177;20;0.209457;1.899;-0.989
31.0392;20;0.216425;1.907;-0.989
31.071;20;0.345098;1.925;-0.993
31.1035;20;0.26732;1.94;-0.994
31.135;-20;0.313118;1.961;-0.997
31.1779;-20;0.371657;1.988;-1
31.1993;-20;0.467573;1.996;-1.002
31.2333;-20;0.557732;2.011;-1.008
31.2628;-20;0.531341;2.022;-1.014
31.2954;-20;0.278164;2.027;-1.018
31.3372;20;-0.175504;2.026;-1.027
31.3593;20;-0.00596614;2.024;-1.03
31.4023;20;-0.237436;2.014;-1.039
31.4232;20;-0.042226;2.012;-1.042
31.4587;20;-0.286863;2.002;-1.046
31.4913;20;-0.264316;1.998;-1.044
31.5198;20;-0.255024;1.992;-1.043
31.5524;20;0.129258;1.995;-1.036
31.5838;20;-0.00653367;1.997;-1.026
31.6152;20;-0.0399283;1.998;-1.015
31.6506;20;0.0816919;2.007;-1.003
31.6795;20;0.130455;2.009;-1
31.7112;-20;0.0594901;2.016;-0.983
31.7437;-20;0.221761;2.026;-0.973
31.7757;-20;0.277098;2.046;-0.956
31.8118;-20;0.258826;2.057;-0.947
31.8394;-20;0.226637;2.059;-0.946
31.8711;-20;0.330103;2.067;-0.946
31.9037;-20;-0.0164509;2.068;-0.949
31.9352;-20;-0.0537361;2.067;-0.955
31.9716;-20;-0.020185;2.06;-0.962
31.9994;-20;0.0509936;2.058;-0.965
32.0312;-20;0.0400262;2.049;-0.968
32.0636;-20;-0.231441;2.046;-0.966
32.0956;-20;-0.182059;2.046;-0.96
32.1313;20;-0.142169;2.049;-0.954
32.1593;20;-0.203789;2.058;-0.942
32.1915;20;-0.0731537;2.068;-0.932
32.2228;20;-0.212363;2.078;-0.92
32.2581;20;-0.106144;2.09;-0.913
32.2916;20;-0.0879203;2.101;-0.911
32.3206;-20;-0.0205504;2.112;-0.909
32.3516;-20;0.203082;2.123;-0.914
32.3836;-20;0.0635412;2.133;-0.916
32.4159;-20;-0.0333634;2.146;-0.919
32.4517;-20;-0.00340632;2.158;-0.925
32.4794;-20;-0.137544;2.176;-0.924
32.5115;-20;-0.286019;2.193;-0.923
32.5434;-20;-0.283321;2.215;-0.924
32.5756;-20;-0.433495;2.223;-0.921
32.6116;-20;0.359608;2.212;-0.924
32.6435;-20;0.415251;2.204;-0.928
32.672;-20;-0.037754;2.201;-0.926
32.7035;-20;0.0420024;2.201;-0.931
32.7352;20;0.139249;2.204;-0.935
32.772;20;-0.0300046;2.214;-0.936
32.7989;20;0.0549828;2.217;-0.938
32.8317;20;0.244373;2.219;-0.944
32.8631;20;0.237613;2.217;-0.95
32.8968;20;0.18445;2.214;-0.954
32.9307;-20;0.123618;2.219;-0.961
32.959;-20;0.231812;2.221;-0.968
32.9908;-20;0.244838;2.224;-0.974
33.0231;-20;-0.0276555;2.219;-0.973
33.0555;-20;0.0232392;2.215;-0.974
33.0914;-20;0.107291;2.212;-0.975
33.1195;-20;-0.147529;2.207;-0.973
33.1622;-20;-0.0679945;2.191;-0.971
33.1836;-20;-0.0897902;2.186;-0.969
33.2151;-20;-0.184369;2.173;-0.962
33.2512;-20;-0.087882;2.16;-0.955
33.2796;-20;-0.36064;2.148;-0.943
33.3116;20;-0.202115;2.132;-0.932
33.3436;20;-0.41336;2.122;-0.92
33.3757;20;-0.279449;2.109;-0.905
33.4123;20;-0.173632;2.098;-0.892
33.439;20;0.0690878;2.086;-0.884
33.4895;20;0.274324;2.064;-0.873
33.5063;20;0.274324;2.064;-0.873
33.5357;20;0.318772;2.034;-0.867
33.571;20;0.334432;2.014;-0.859
33.599;20;0.395366;1.992;-0.856
33.6389;20;0.340068;1.97;-0.849
33.6636;20;0.440309;1.958;-0.847
33.6957;20;0.241251;1.938;-0.84
33.7307;-20;0.396726;1.916;-0.837
33.7676;-20;0.401497;1.883;-0.83
33.7928;-20;0.376865;1.86;-0.827
33.8232;-20;0.356771;1.85;-0.826
33.8573;-20;0.326067;1.833;-0.825
33.9035;-20;0.136116;1.823;-0.824
33.9199;-20;0.120236;1.823;-0.824
33.9624;-20;-0.133508;1.825;-0.826
33.9833;-20;-0.124778;1.829;-0.826
34.0156;-20;-0.0529203;1.838;-0.829
34.0679;-20;-0.163355;1.867;-0.837
34.081;-20;-0.163355;1.867;-0.837
34.1138;-20;-0.223293;1.887;-0.841
34.1435;-20;-0.237073;1.908;-0.843
34.1878;-20;-0.232775;1.939;-0.845
34.2136;-20;-0.383869;1.947;-0.843
34.2391;-20;-0.415467;1.961;-0.837
34.2757;-20;-0.359728;1.974;-0.833
34.303;-20;-0.248275;1.974;-0.829
34.3455;-20;-0.334388;1.974;-0.822
34.3712;-20;-0.256745;1.972;-0.814
34.4027;-20;-0.185397;1.962;-0.805
34.431;-20;-0.241266;1.96;-0.798
34.4637;-20;-0.279871;1.961;-0.789
34.4949;-20;-0.2295;1.968;-0.784
34.5303;-20;-0.1627;1.977;-0.779
34.5663;-20;-0.169966;1.99;-0.774
34.592;-20;-0.153251;2.005;-0.769
34.6229;-20;-0.1888;2.022;-0.763
34.6555;-20;-0.420987;2.027;-0.755
34.6909;-20;-0.392094;2.029;-0.75
34.7195;-20;-0.254176;2.031;-0.748
34.753;-20;-0.250437;2.02;-0.738
34.7836;-20;-0.170687;2.015;-0.735
34.8149;-20;-0.136307;2.002;-0.728
34.8504;-20;-0.170329;1.981;-0.719
34.8793;-20;-0.22304;1.975;-0.716
34.9134;20;-0.233333;1.959;-0.707
34.9434;20;-0.185699;1.941;-0.699
34.9752;20;-0.24218;1.926;-0.689
35.0105;20;-0.32321;1.912;-0.678
35.0393;20;-0.470177;1.903;-0.667
35.0723;20;-0.230668;1.898;-0.659
35.1032;20;-0.330597;1.901;-0.653
35.1358;20;-0.278922;1.902;-0.652
35.1715;20;0.12328;1.91;-0.656
35.1992;20;0.0441709;1.917;-0.663
35.2312;20;0.189605;1.926;-0.671
35.2635;20;0.095186;1.935;-0.682
35.2955;20;0.209318;1.944;-0.696
35.331;20;0.256393;1.956;-0.711
35.3589;20;0.332815;1.966;-0.726
35.3916;20;0.445493;1.978;-0.741
35.4238;20;0.445025;1.988;-0.756
35.4554;20;0.548643;1.988;-0.769
35.4915;20;0.514926;1.982;-0.78
35.5192;-20;0.494234;1.982;-0.787
35.5514;-20;0.250889;1.964;-0.8
35.583;-20;0.292953;1.96;-0.804
35.6155;-20;0.22382;1.943;-0.816
35.6513;-20;0.292164;1.929;-0.828
35.6797;-20;0.441255;1.93;-0.831
35.7108;20;0.0393526;1.928;-0.833
35.7438;20;-0.14025;1.93;-0.831
35.7748;20;-0.101921;1.937;-0.826
35.8116;20;-0.133319;1.943;-0.819
35.839;20;-0.214427;1.943;-0.814
35.871;20;-0.141472;1.949;-0.81
35.9033;20;0.0322683;1.942;-0.806
35.9427;-20;0.150158;1.931;-0.808
35.9716;-20;0.108481;1.918;-0.81
35.9999;-20;0.120418;1.909;-0.811
36.0357;-20;0.291112;1.892;-0.818
36.0638;-20;0.3354;1.891;-0.819
36.095;-20;0.33698;1.887;-0.824
36.1309;-20;0.111179;1.89;-0.827
36.1594;-20;-0.081909;1.897;-0.829
36.1957;-20;-0.0274072;1.909;-0.832
36.2232;-20;-0.109258;1.923;-0.831
36.2555;-20;-0.240819;1.94;-0.827
36.291;-20;-0.303292;1.962;-0.825
36.3198;20;-0.340987;1.982;-0.822
36.3515;20;-0.452539;2.004;-0.82
36.3828;20;-0.421109;2.026;-0.82
36.4151;20;-0.472548;2.042;-0.817
36.4507;20;-0.491154;2.055;-0.812
36.4789;20;-0.457913;2.064;-0.806
36.5131;-20;-0.232286;2.068;-0.798
36.5437;-20;-0.070982;2.063;-0.789
36.5757;-20;0.0685389;2.059;-0.786
36.6103;-20;0.147135;2.049;-0.78
36.6398;-20;0.0128251;2.043;-0.774
36.687;-20;0.05014;2.039;-0.779
36.7034;-20;0.05014;2.039;-0.779
36.7348;-20;0.136791;2.044;-0.782
36.7713;-20;-0.0639428;2.058;-0.787
36.7996;-20;-0.0606411;2.062;-0.788
36.8315;-20;-0.101901;2.083;-0.791
36.8635;-20;-0.0959162;2.094;-0.793
36.8956;-20;-0.218608;2.113;-0.793
36.9303;-20;-0.173928;2.13;-0.793
36.959;-20;-0.167725;2.152;-0.79
36.9934;-20;-0.250625;2.174;-0.786
37.0235;-20;-0.149256;2.193;-0.779
37.0552;-20;-0.293539;2.203;-0.773
37.0904;-20;-0.461378;2.206;-0.767
37.1195;20;-0.336392;2.206;-0.767
37.1514;20;0.108981;2.201;-0.772
37.1835;20;0.0111766;2.194;-0.774
37.2155;20;-0.140586;2.188;-0.773
37.2515;20;-0.0401331;2.185;-0.773
37.2795;20;0.149824;2.186;-0.774
37.3108;20;0.116997;2.194;-0.774
37.3428;20;0.0653838;2.199;-0.775
37.3754;20;0.0881976;2.21;-0.779
37.4107;20;0.208887;2.219;-0.78
37.4393;20;0.0167825;2.214;-0.783
37.4713;20;0.0735886;2.207;-0.784
37.5037;20;-0.023158;2.197;-0.791
37.5354;20;0.00603901;2.188;-0.796
37.5708;20;0.0903021;2.17;-0.812
37.5995;20;0.161047;2.16;-0.829
37.6309;20;0.206938;2.152;-0.84
37.6637;20;0.0196824;2.148;-0.843
37.6954;20;0.369708;2.151;-0.848
37.7307;-20;0.208496;2.157;-0.848
37.7597;-20;0.139763;2.165;-0.851
37.7934;-20;0.111009;2.178;-0.846
37.8232;-20;0.00470181;2.187;-0.846
37.8548;-20;0.175589;2.192;-0.846
37.8908;-20;0.301858;2.195;-0.849
37.9193;-20;-0.0929809;2.192;-0.85
37.9512;-20;-0.095228;2.188;-0.851
37.9835;-20;-0.0685718;2.178;-0.857
38.0152;-20;-0.00907211;2.171;-0.86
38.0513;-20;-0.218406;2.148;-0.866
38.0792;-20;-0.223502;2.138;-0.87
38.1112;-20;-0.331431;2.12;-0.875
38.1432;-20;-0.347083;2.105;-0.881
38.1752;-20;-0.491657;2.084;-0.888
38.2113;-20;-0.410206;2.067;-0.897
38.2391;-20;-0.392255;2.049;-0.907
38.271;-20;-0.424633;2.032;-0.916
38.3031;-20;-0.471867;2.015;-0.926
38.3348;20;-0.443663;2;-0.939
38.3719;20;-0.469244;1.984;-0.951
38.3993;20;-0.334272;1.97;-0.966
38.4309;20;-0.133137;1.962;-0.984
38.4633;20;-0.445601;1.953;-0.998
38.4952;20;-0.092055;1.952;-1.016
38.5312;-20;0.0508033;1.955;-1.034
38.5591;-20;-0.0410411;1.956;-1.047
38.5911;-20;0.28012;1.965;-1.065
38.623;-20;0.147225;1.97;-1.082
38.6548;-20;-0.00326983;1.972;-1.099
38.6914;-20;0.113065;1.975;-1.112
38.7189;-20;-0.206725;1.97;-1.125
38.7512;-20;-0.078178;1.968;-1.133
38.7838;-20;-0.0462888;1.965;-1.149
38.8158;-20;0.0327037;1.956;-1.161
38.8511;-20;-0.0731966;1.947;-1.168
38.8793;-20;-0.361954;1.945;-1.168
38.9113;-20;-0.261362;1.938;-1.17
38.9437;-20;0.0459563;1.939;-1.16
38.9875;-20;-0.236812;1.935;-1.142
39.0122;-20;-0.290535;1.935;-1.129
39.0391;-20;-0.201199;1.935;-1.127
39.0709;-20;-0.313559;1.93;-1.122
39.1031;-20;-0.245269;1.921;-1.118
39.1352;-20;-0.109421;1.913;-1.118
39.1714;-20;-0.279138;1.904;-1.118
39.1997;-20;-0.256392;1.888;-1.122
39.2329;-20;-0.250519;1.875;-1.131
39.2631;-20;-0.244451;1.858;-1.139
39.2948;-20;-0.291597;1.843;-1.149
39.3309;-20;-0.348732;1.825;-1.159
39.3594;-20;-0.202138;1.81;-1.173
39.3909;-20;-0.329174;1.793;-1.184
39.4231;-20;-0.403907;1.779;-1.191
39.4555;-20;-0.622215;1.762;-1.196
39.491;-20;-0.581464;1.748;-1.194
39.5198;-20;-0.269823;1.736;-1.185
39.5512;-20;-0.528572;1.724;-1.183
39.5836;-20;-0.530268;1.7;-1.166
39.6155;-20;-0.449836;1.688;-1.149
39.651;-20;-0.292548;1.675;-1.132
39.6793;-20;-0.291232;1.66;-1.113
39.711;-20;-0.34771;1.644;-1.096
39.7435;-20;-0.411683;1.631;-1.08
39.7751;-20;-0.38471;1.615;-1.065
39.8114;-20;-0.416546;1.598;-1.05
39.8388;-20;-0.283871;1.583;-1.034
39.8729;-20;-0.349634;1.565;-1.022
39.9029;-20;-0.191562;1.558;-1.015
39.9351;20;-0.238599;1.538;-1.004
39.9705;20;-0.171543;1.509;-0.988
39.9996;20;-0.399987;1.498;-0.985
40.0311;20;-0.429123;1.481;-0.982
40.0636;20;-0.483185;1.469;-0.98
40.0955;20;-0.163931;1.462;-0.978
40.1312;-20;-0.191444;1.462;-0.982
40.1598;-20;-0.0696774;1.464;-0.984
40.1913;-20;0.090736;1.473;-0.984
40.2231;-20;0.0588951;1.482;-0.985
40.255;-20;0.0931502;1.488;-0.984
40.2922;-20;0.007698;1.49;-0.985
40.3194;20;0.0937643;1.489;-0.983
40.353;20;-0.108574;1.481;-0.981
40.3834;20;-0.0390039;1.47;-0.977
40.4164;20;-0.175613;1.457;-0.974
40.4512;20;-0.187681;1.444;-0.969
40.4793;20;0.0807993;1.434;-0.957
40.5112;20;0.22762;1.427;-0.946
40.5436;20;0.329608;1.42;-0.933
40.5752;20;0.326664;1.412;-0.919
40.6125;20;0.298955;1.404;-0.902
40.6388;20;0.431247;1.403;-0.892
40.671;20;0.458339;1.405;-0.887
40.7033;20;0.274341;1.412;-0.88
40.7352;-20;0.358916;1.421;-0.872
40.7708;-20;0.209183;1.442;-0.866
40.7992;-20;0.282526;1.459;-0.861
40.8316;-20;0.0998231;1.467;-0.861
40.8635;-20;0.0232811;1.49;-0.861
40.8955;-20;-0.0382816;1.497;-0.863
40.9315;-20;0.0715375;1.514;-0.869
40.9591;-20;-0.272665;1.519;-0.874
40.9913;-20;-0.23711;1.534;-0.884
41.0232;-20;-0.338437;1.543;-0.893
41.0558;-20;-0.365753;1.544;-0.904
41.0921;-20;-0.407049;1.543;-0.918
41.1197;-20;-0.329016;1.538;-0.925
41.152;-20;-0.316772;1.528;-0.937
41.1835;-20;-0.287653;1.513;-0.949
41.215;-20;-0.243796;1.502;-0.962
41.2509;-20;-0.489457;1.493;-0.975
41.2795;-20;-0.499242;1.493;-0.987
41.3118;20;-0.414316;1.495;-0.998
41.3433;20;-0.208624;1.502;-1.009
41.3756;20;-0.311608;1.507;-1.021
41.4118;20;-0.206283;1.523;-1.031
41.4392;20;-0.0267962;1.537;-1.039
41.4713;20;-0.314443;1.55;-1.048
41.5034;20;0.139529;1.569;-1.05
41.5357;20;0.0379629;1.587;-1.054
41.5715;20;0.118134;1.596;-1.055
41.5998;20;0.127045;1.629;-1.055
41.6316;20;0.220276;1.642;-1.049
41.6637;20;0.320647;1.651;-1.044
41.6956;20;0.350892;1.651;-1.037
41.7311;20;0.349658;1.651;-1.032
41.7597;20;0.161656;1.647;-1.026
41.7917;20;0.123945;1.639;-1.015
41.8228;20;0.19167;1.632;-1.005
41.855;20;0.230876;1.63;-0.994
41.8907;20;0.150695;1.635;-0.993
41.9192;20;0.309255;1.637;-0.991
41.9514;20;0.121879;1.647;-0.991
41.9875;20;0.103337;1.657;-0.992
42.0154;20;0.113802;1.672;-0.993
42.0506;20;0.268923;1.689;-0.992
42.0798;20;0.272269;1.707;-0.992
42.1112;-20;0.360534;1.73;-0.993
42.1437;-20;0.454684;1.752;-0.996
42.1752;-20;0.529227;1.775;-0.999
42.2111;-20;0.529309;1.796;-1.005
42.2396;-20;0.64121;1.815;-1.005
42.2713;-20;0.631374;1.829;-1.001
42.3038;-20;0.498036;1.839;-0.997
42.3348;20;0.219475;1.843;-0.987
42.3706;20;0.20389;1.845;-0.978
42.3997;20;0.00473364;1.842;-0.964
42.4313;20;0.04518;1.838;-0.95
42.4678;20;0.0753892;1.834;-0.934
42.4963;20;0.108336;1.831;-0.92
42.5308;-20;0.143702;1.83;-0.904
42.559;-20;0.157097;1.831;-0.887
42.5976;-20;0.332067;1.834;-0.874
42.6232;-20;0.269802;1.838;-0.86
42.6565;-20;0.396157;1.842;-0.859
42.7043;-20;0.193903;1.844;-0.859
42.7189;-20;0.170362;1.845;-0.861
42.7518;-20;0.0508342;1.843;-0.869
42.7838;-20;-0.0531377;1.838;-0.875
42.8281;-20;-0.048493;1.832;-0.886
42.8524;-20;-0.0326491;1.825;-0.895
42.879;-20;-0.118216;1.815;-0.903
42.9108;-20;-0.25315;1.809;-0.907
42.9435;-20;-0.316534;1.796;-0.919
42.9752;-20;-0.304017;1.785;-0.931
43.0271;-20;-0.292153;1.762;-0.959
43.0425;-20;-0.312248;1.755;-0.968
43.0734;-20;-0.242304;1.75;-0.976
43.1034;-20;-0.292207;1.736;-0.988
43.1357;-20;-0.259847;1.724;-1.004
43.1726;-20;-0.304619;1.702;-1.023
43.1989;-20;-0.198327;1.694;-1.033
43.2325;-20;-0.225327;1.679;-1.046
43.2633;-20;-0.308911;1.664;-1.056
43.2952;-20;-0.369212;1.651;-1.066
43.3318;20;-0.422088;1.634;-1.077
43.3596;20;-0.457121;1.617;-1.09
43.3917;20;-0.399292;1.603;-1.104
43.4234;20;-0.333845;1.591;-1.119
43.4557;20;-0.140943;1.585;-1.131
43.4923;20;0.0438854;1.58;-1.147
43.5191;20;-0.0862729;1.578;-1.161
43.5518;20;0.184829;1.58;-1.174
43.5833;20;0.225314;1.583;-1.185
43.6154;20;0.253171;1.591;-1.215
43.6526;20;0.485168;1.598;-1.234
43.679;20;0.481458;1.605;-1.256
43.7113;20;0.659671;1.609;-1.278
43.7433;20;0.467018;1.612;-1.302
43.7752;20;0.679365;1.618;-1.321
43.8118;20;0.484427;1.619;-1.345
43.8397;20;0.643821;1.624;-1.366
43.8714;20;0.690054;1.631;-1.373
43.903;20;0.624693;1.638;-1.385
43.9465;20;0.24633;1.66;-1.39
43.9722;20;0.244914;1.676;-1.394
43.999;20;0.341512;1.685;-1.397
44.0308;20;0.33759;1.694;-1.4
44.0632;20;0.4578;1.725;-1.409
44.0993;20;0.441765;1.75;-1.412
44.1317;20;0.449495;1.772;-1.413
44.1589;20;0.511499;1.783;-1.415
44.1912;20;0.493647;1.804;-1.418
44.223;20;0.457742;1.825;-1.418
44.2549;20;0.324789;1.843;-1.416
44.2924;20;0.0917716;1.864;-1.414
44.3189;20;0.301035;1.884;-1.414
44.3521;20;0.324189;1.901;-1.415
44.3829;20;0.210404;1.918;-1.416
44.4288;20;0.117437;1.939;-1.424
44.4574;20;0.450017;1.943;-1.429
44.4794;20;0.400063;1.944;-1.433
44.5109;20;0.308768;1.942;-1.438
44.543;20;0.170798;1.933;-1.444
44.5751;20;0.252151;1.921;-1.45
44.6109;20;0.176141;1.907;-1.455
44.6389;20;0.357789;1.899;-1.462
44.6717;20;0.374127;1.893;-1.471
44.7036;20;0.338437;1.892;-1.481
44.7351;20;0.285608;1.892;-1.49
44.7713;20;0.273803;1.896;-1.504
44.7996;20;0.32918;1.903;-1.519
44.8323;20;0.376411;1.904;-1.529
44.8636;20;0.398876;1.904;-1.542
44.9082;20;0.340003;1.894;-1.549
44.933;-20;0.272574;1.885;-1.56
44.959;-20;0.340197;1.88;-1.565
44.992;-20;0.317416;1.872;-1.57
45.0237;-20;0.362955;1.855;-1.578
45.0556;-20;0.423873;1.829;-1.585
45.0919;-20;0.423232;1.814;-1.585
45.1189;-20;0.403797;1.798;-1.586
45.1523;-20;0.139488;1.785;-1.581
45.1832;-20;0.0953304;1.774;-1.577
45.2155;-20;-0.273988;1.767;-1.571
45.2523;-20;-0.292608;1.763;-1.564
45.2792;-20;-0.090665;1.769;-1.565
45.3123;20;-0.197233;1.772;-1.563
45.3432;20;-0.0508404;1.784;-1.563
45.3751;20;-0.138017;1.799;-1.561
45.4118;20;-0.173223;1.816;-1.561
45.4467;20;-0.125741;1.831;-1.557
45.4724;20;-0.107758;1.838;-1.556
45.5035;20;-0.338082;1.839;-1.555
45.5355;-20;-0.338082;1.839;-1.555
45.5706;-20;0.263257;1.834;-1.557
45.599;-20;0.0342254;1.83;-1.556
45.6316;-20;0.0354625;1.813;-1.553
45.6677;-20;-0.0648121;1.802;-1.55
45.6954;-20;-0.0235272;1.791;-1.545
45.7316;-20;-0.177744;1.783;-1.537
45.7594;-20;-0.211765;1.772;-1.529
45.7908;-20;-0.306228;1.761;-1.515
45.8233;-20;-0.198741;1.755;-1.51
45.8551;-20;-0.260005;1.743;-1.499
45.8909;-20;-0.322588;1.724;-1.475
45.9192;-20;-0.252264;1.718;-1.468
45.9508;-20;-0.215969;1.706;-1.453
45.9832;-20;-0.215969;1.706;-1.453
46.0198;-20;-0.57655;1.691;-1.412
46.0517;-20;-0.554793;1.691;-1.404
46.0793;-20;-0.505033;1.692;-1.396
46.1108;-20;-0.527839;1.696;-1.39
46.1493;-20;-0.294512;1.713;-1.389
46.1763;-20;-0.23555;1.716;-1.389
46.2114;-20;-0.292596;1.731;-1.39
46.2395;-20;-0.241763;1.748;-1.397
46.2732;-20;-0.370743;1.767;-1.401
46.3032;-20;-0.370743;1.767;-1.401
46.3352;20;-0.472179;1.804;-1.418
46.3788;20;-0.373826;1.822;-1.428
46.3989;20;-0.593251;1.841;-1.437
46.4323;20;-0.394156;1.855;-1.449
46.4634;20;-0.289859;1.865;-1.458
46.502;20;-0.112953;1.873;-1.469
46.5324;-20;0.0212636;1.876;-1.48
46.5597;-20;0.12468;1.877;-1.495
46.5918;-20;0.176193;1.876;-1.509
46.6228;-20;0.334394;1.871;-1.517
46.6549;-20;0.281991;1.868;-1.522
46.6911;-20;0.277988;1.862;-1.524
46.7253;20;0.122593;1.858;-1.521
46.7527;20;-0.0749365;1.857;-1.513
46.7834;20;-0.122904;1.856;-1.503
46.8148;20;-0.12976;1.853;-1.491
46.8653;20;-0.0364334;1.843;-1.47
46.8792;20;-0.0364334;1.843;-1.47
46.9111;-20;0.1042;1.828;-1.455
46.9428;-20;0.259473;1.82;-1.452
46.9748;-20;0.164797;1.808;-1.443
47.0118;-20;0.379975;1.783;-1.43
47.0395;-20;0.379975;1.783;-1.43
47.0719;-20;0.225575;1.768;-1.415
47.103;-20;0.205529;1.763;-1.407
47.1358;-20;0.161878;1.758;-1.391
47.1723;-20;-0.0518177;1.759;-1.383
47.1998;-20;-0.0124103;1.761;-1.372
47.2319;-20;-0.047539;1.766;-1.361
47.2635;-20;-0.272967;1.769;-1.363
47.3107;-20;-0.192382;1.772;-1.37
47.3376;20;-0.00934738;1.775;-1.378
47.3598;20;-0.232647;1.777;-1.381
47.392;20;-0.152044;1.779;-1.395
47.4234;20;-0.189701;1.782;-1.409
47.4552;20;-0.173555;1.786;-1.425
47.4906;20;-0.23704;1.79;-1.429
47.5246;20;-0.341724;1.794;-1.43
47.5516;20;-0.0654069;1.795;-1.423
47.5839;20;0.0581636;1.791;-1.419
47.6156;20;0.0532834;1.789;-1.414
47.6514;20;0.0603654;1.78;-1.397
47.6855;20;0.0801058;1.77;-1.381
47.7123;20;0.208889;1.757;-1.365
47.7439;20;0.260239;1.744;-1.349
47.7757;20;0.207483;1.731;-1.334
47.8117;20;0.236424;1.714;-1.321
47.8397;20;0.466919;1.705;-1.315
47.871;20;0.39305;1.688;-1.3
47.9059;20;0.461044;1.661;-1.278
47.9364;20;0.255892;1.648;-1.26
47.9714;20;0.419889;1.631;-1.244
47.9988;20;0.629722;1.623;-1.239
48.0312;20;0.525482;1.609;-1.218
48.0635;20;0.608522;1.596;-1.204
48.0955;20;0.626901;1.583;-1.182
48.1311;20;0.597138;1.566;-1.149
48.1595;20;0.623431;1.56;-1.138
48.1938;20;0.602291;1.555;-1.115
48.2268;20;0.586809;1.548;-1.09
48.2568;20;0.440496;1.543;-1.068
48.291;20;0.445047;1.539;-1.042
48.3194;-20;0.580269;1.534;-1.021
48.3514;-20;0.289721;1.533;-0.996
48.3832;-20;0.528629;1.526;-0.974
48.4148;-20;0.34485;1.523;-0.948
48.4676;-20;0.122991;1.522;-0.919
48.4798;-20;0.275199;1.521;-0.911
48.5109;20;0.150262;1.527;-0.897
48.5434;20;-0.11352;1.532;-0.882
48.5858;20;-0.00687507;1.539;-0.871
48.6124;20;-0.0286108;1.548;-0.858
48.6397;20;-0.119357;1.556;-0.842
48.6733;20;0.0447287;1.557;-0.825
48.703;20;0.0370821;1.556;-0.806
48.7397;-20;0.209936;1.551;-0.787
48.7707;-20;0.27589;1.544;-0.768
48.7993;-20;0.274341;1.537;-0.753
48.8318;-20;0.280319;1.527;-0.733
48.8678;-20;0.268918;1.519;-0.725
48.8954;-20;0.180631;1.512;-0.719
48.9466;20;0.245103;1.507;-0.723
48.9609;20;0.0897668;1.507;-0.726
48.9909;20;0.0811991;1.507;-0.726
49.0257;20;0.0162124;1.512;-0.733
49.0559;20;-0.00873649;1.518;-0.739
49.0915;20;-0.166914;1.522;-0.74
49.1261;-20;0.12645;1.517;-0.738
49.1522;-20;0.106647;1.514;-0.736
49.1836;-20;0.0182286;1.508;-0.728
49.2152;-20;0.0873136;1.497;-0.719
49.2685;-20;0.283465;1.48;-0.71
49.2808;-20;0.230785;1.478;-0.708
49.3133;20;0.241507;1.471;-0.709
49.3431;20;0.0496245;1.467;-0.714
49.3764;20;0.0016355;1.466;-0.723
49.4188;20;-0.0725942;1.467;-0.741
49.4391;20;-0.0332202;1.466;-0.748
49.4729;20;-0.0167567;1.462;-0.76
49.5034;20;0.19105;1.453;-0.771
49.5484;-20;0.0394914;1.438;-0.789
49.572;-20;0.183771;1.431;-0.794
49.5988;-20;0.141858;1.419;-0.804
49.6315;-20;0.194396;1.414;-0.807
49.6636;-20;0.334388;1.402;-0.811
49.6953;-20;0.284728;1.402;-0.811
49.7394;20;0.0553417;1.401;-0.805
49.7591;20;-0.0288493;1.405;-0.802
49.8041;20;-0.0721807;1.412;-0.794
49.8237;20;-0.101068;1.42;-0.787
49.8553;20;-0.0375778;1.427;-0.774
49.8915;20;0.0507893;1.432;-0.759
49.9191;20;0.0911962;1.434;-0.741
49.9515;20;0.212004;1.435;-0.722
49.9828;20;0.112346;1.436;-0.712
50.0148;20;0.240536;1.433;-0.691
50.0509;20;0.437932;1.426;-0.659
50.0788;20;0.225357;1.427;-0.649
50.125;20;0.504333;1.42;-0.618
50.1433;20;0.429323;1.419;-0.607
50.1757;20;0.599352;1.413;-0.581
50.2168;20;0.456889;1.414;-0.558
50.2392;20;0.600943;1.412;-0.535
50.2712;20;0.622306;1.408;-0.519
50.3038;20;0.628262;1.4;-0.505
50.3354;-20;0.558939;1.391;-0.494
50.3711;-20;0.402268;1.378;-0.489
50.3992;-20;0.363433;1.364;-0.487
50.4314;-20;0.140001;1.352;-0.489
50.4629;-20;0.0566833;1.339;-0.495
50.4948;-20;0.0408095;1.326;-0.506
50.5312;-20;-0.0633888;1.315;-0.52
50.5597;-20;-0.0584144;1.305;-0.534
50.5912;-20;-0.105004;1.297;-0.553
50.623;-20;-0.220542;1.288;-0.574
50.6682;-20;-0.229563;1.279;-0.604
50.693;-20;-0.453448;1.278;-0.613
50.7197;-20;-0.400639;1.27;-0.636
50.7512;-20;-0.47269;1.265;-0.658
50.7837;-20;-0.509892;1.263;-0.668
50.8153;-20;-0.486864;1.25;-0.703
50.8682;-20;-0.526039;1.236;-0.736
50.8806;-20;-0.592325;1.233;-0.745
