Time (s);Vsent (m/s);Vmeasured (m/s);0.0291688;0;-342.423
0.0591409;0;-342.423
0.0895058;0;-342.423
0.118903;0;-342.423
0.151496;0;-342.423
0.180674;0;-342.423
0.211369;0;-342.423
0.240949;0;-342.423
0.271007;0;-342.423
0.304507;0;-342.423
0.333364;0;-342.423
0.364115;0;-342.423
0.395007;0;-342.423
0.425077;0;-342.423
0.455409;0;-342.423
0.484835;0;-342.423
0.515568;0;-342.423
0.54856;0;-342.423
0.576754;0.5;-342.423
0.608362;0.5;0.139075
0.637014;0;0.197621
0.669498;0;0.257198
0.698921;0.5;0.137775
0.729352;0.5;0.137783
0.758639;0.5;0.0778798
0.788734;0.5;0.257582
0.818806;0.5;0.272588
0.851525;0;0.379627
0.881436;0;0.440763
0.910864;0;0.25766
0.940827;0;0.136663
0.97157;0;0.13682
1.00455;0;0.13682
1.03334;0;0.13682
1.06424;0.5;0.13682
1.09492;0.5;0.13674
1.12601;0.5;0.19693
1.15492;0.5;0.257468
1.18486;0.5;0.380122
1.21489;0.5;0.514197
1.24956;0.5;0.514197
1.27754;0.5;0.503194
1.30983;0.5;0.503194
1.33717;0;0.452673
1.37049;0;0.441625
1.39897;0.5;0.318689
1.42984;0.5;0.196761
1.45869;0;0.318408
1.48936;0;0.51537
1.51931;0;0.333544
1.55142;0;0.197418
1.58097;0;0.119623
1.61075;0;0.119551
1.64064;0;0.119551
1.67138;0;0.119551
1.70441;0;0.119551
1.73355;0;0.119551
1.76397;0.5;0.119551
1.79513;0.5;0.13757
1.82454;0.5;0.257672
1.8554;0.5;0.393542
1.88458;0.5;0.454099
1.91494;0.5;0.515152
1.95054;0.5;0.501836
1.97691;0.5;0.454087
2.00904;0.5;0.501836
2.03693;0.5;0.515152
2.06866;0.5;0.501836
2.09867;0.5;0.515152
2.12866;0.5;0.515152
2.1587;0.5;0.501836
2.18917;0.5;0.515152
2.21881;0.5;0.440771
2.25152;0.5;0.515152
2.28074;0.5;0.501836
2.31103;0;0.454087
2.34072;0;0.440679
2.37073;0;0.318449
2.40489;0;0.137011
2.43334;0.5;0.120322
2.46441;0.5;0.120415
2.49491;0.5;0.197176
2.52844;0;0.318612
2.5549;0;0.19614
2.58511;0;0.134732
2.61492;0;0.134739
2.64922;0;0.134739
2.67675;0;0.134739
2.70901;0;0.134739
2.73683;0;0.134739
2.7694;0;0.134739
2.79912;0.5;0.134739
2.82947;0.5;0.134636
2.85887;0;0.195473
2.88908;0;0.133512
2.91932;0.5;0.123445
2.95129;0.5;0.123445
2.98071;0.5;0.132861
3.01157;0;0.255676
3.04118;0;0.311228
3.07073;0;0.12951
3.10477;0;0.129526
3.13263;0.5;0.129526
3.16513;0.5;0.12938
3.19497;0.5;0.190759
3.22963;0.5;0.249797
3.25512;0.5;0.374981
3.28482;0.5;0.437499
3.31535;0.5;0.499998
3.34929;0.5;0.499998
3.37699;0.5;0.499998
3.40841;0.5;0.499998
3.43713;0.5;0.499998
3.46945;0.5;0.499998
3.4992;0;0.499998
3.53006;0;0.5
3.55957;0.5;0.249958
3.58955;0.5;0.18729
3.61911;0;0.311948
3.6513;0;0.44037
3.68141;0;0.253749
3.71119;0.5;0.12448
3.74091;0.5;0.192577
3.77125;0;0.316473
3.80501;0;0.374258
3.83309;0.5;0.253342
3.86549;0.5;0.124687
3.89521;0;0.186986
3.92743;0;0.315636
3.95534;0;0.187297
3.98472;0.5;0.0655908
4.01519;0.5;0.0654858
4.04882;0.5;0.187411
4.077;0.5;0.312331
4.10997;0.5;0.438904
4.13665;0.5;0.437318
4.17067;0.5;0.499786
4.19921;0;0.501614
4.2289;0;0.437347
4.25958;0;0.312491
4.28885;0;0.124972
4.31945;0;0.124942
4.35089;0;0.124942
4.38113;0;0.124942
4.41081;0;0.124942
4.4412;0;0.124942
4.4714;0;0.124942
4.5052;0;0.124942
4.53308;0.5;0.124942
4.56516;0.5;0.124952
4.59504;0.5;0.187493
4.62504;0.5;0.312403
4.65464;0.5;0.374593
4.68509;0;0.499348
4.71496;0;0.374676
4.74897;0;0.249976
4.77703;0;0.125
4.80978;0;0.124995
4.83666;0;0.124995
4.87048;0;0.124995
4.89933;0.5;0.124995
4.92852;0.5;0.125
4.95895;0;0.248024
4.98978;0;0.249561
5.01897;0.5;0.124684
5.05121;0.5;0.186835
5.0807;0;0.248804
5.111;0;0.372117
5.14125;0;0.309677
5.17083;0.5;0.123991
5.20491;0.5;0.124007
5.23272;0.5;0.318229
5.26546;0.5;0.441854
5.29485;0;0.503488
5.32582;0;0.441856
5.35486;0;0.30931
5.38539;0;0.193901
5.4151;0;0.12429
5.45133;0.5;0.124316
5.47664;0.5;0.124279
5.50908;0.5;0.186007
5.53739;0.5;0.318467
5.56877;0;0.38012
5.59868;0;0.441523
5.62982;0;0.256996
5.65884;0;0.132807
5.68958;0;0.132586
5.71947;0.5;0.132564
5.75107;0.5;0.123702
5.78151;0;0.246685
5.81064;0;0.245302
5.84102;0.5;0.122281
5.87127;0.5;0.122276
5.90463;0.5;0.13558
5.93843;0.5;0.1217
5.96613;0.5;0.334774
5.9953;0.5;0.454977
6.02583;0.5;0.472861
6.05473;0.5;0.51486
6.0855;0.5;0.51486
6.11542;0.5;0.454974
6.14925;0.5;0.51486
6.1774;0.5;0.532747
6.20872;0.5;0.454974
6.23745;0.5;0.532747
6.26999;0;0.51486
6.29947;0;0.395052
6.32968;0.5;0.377643
6.3592;0.5;0.197172
6.38897;0.5;0.318504
6.41881;0.5;0.440257
6.45159;0.5;0.454492
6.4815;0.5;0.501044
6.51091;0.5;0.515336
6.54109;0.5;0.515336
6.57133;0.5;0.515336
6.60549;0.5;0.515336
6.63268;0;0.515336
6.66512;0;0.440307
6.6951;0;0.25753
6.72507;0;0.195671
6.75517;0.5;0.195405
6.78501;0.5;0.123116
6.81535;0.5;0.134648
6.84911;0.5;0.318555
6.87718;0.5;0.378862
6.91098;0;0.45486
6.93711;0;0.515381
6.9706;0.5;0.196531
6.9995;0.5;0.257464
7.02897;0.5;0.380051
7.05865;0.5;0.441362
7.09036;0.5;0.514695
7.11916;0.5;0.514695
7.15116;0.5;0.514695
7.18108;0;0.514695
7.21126;0;0.380109
7.24134;0.5;0.318584
7.27128;0.5;0.194486
7.30395;0.5;0.371801
7.33358;0.5;0.50387
7.36518;0.5;0.50387
7.39533;0.5;0.50387
7.42514;0.5;0.50387
7.45539;0;0.441926
7.48495;0;0.503881
7.5185;0;0.317827
7.55067;0;0.186637
7.57723;0;0.191695
7.61053;0.5;0.191601
7.63758;0.5;0.124633
7.6688;0;0.124432
7.6988;0;0.186358
7.72898;0.5;0.124232
7.75916;0.5;0.124194
7.7909;0;0.185861
7.81897;0;0.246561
7.85122;0;0.184238
7.88098;0.5;0.134568
7.91071;0.5;0.0493297
7.94089;0;0.18327
7.9708;0;0.242636
8.00522;0;0.120895
8.03361;0;0.120886
8.06432;0;0.120886
8.09531;0.5;0.120886
8.12571;0.5;0.137061
8.15495;0;0.257363
8.18533;0;0.257149
8.21486;0.5;0.138409
8.25001;0.5;0.0792954
8.27712;0;0.138792
8.30989;0;0.336573
8.33704;0;0.197023
8.37036;0;0.0820515
8.39916;0;0.0820515
8.42987;0;0.0820515
8.45904;0;0.0820515
8.48988;0.5;0.0820515
8.51924;0.5;0.0820515
8.55152;0.5;0.196799
8.58152;0;0.196196
8.61074;0;0.279498
8.64107;0;0.224133
8.67142;0;0.110651
8.7054;0.5;0.110651
8.73323;0.5;0.110489
8.76494;0;0.22458
8.79513;0;0.310806
8.82549;0;0.278426
8.85495;0.5;0.139057
8.88535;0.5;0.191257
8.9146;0.5;0.312264
8.94946;0.5;0.399677
8.97736;0;0.500978
9.00912;0;0.537634
9.03735;0;0.363365
9.06934;0.5;0.225347
9.09874;0.5;0.277991
9.12997;0;0.397758
9.15887;0;0.450587
9.1899;0;0.278366
9.21903;0;0.171159
9.25079;0;0.139455
9.28157;0;0.139455
9.31097;0;0.139455
9.34101;0.5;0.139455
9.37051;0.5;0.139429
9.40573;0.5;0.192484
9.43371;0.5;0.363838
9.46398;0;0.363645
9.49549;0;0.501779
9.52564;0;0.347575
9.55543;0;0.225323
9.5852;0;0.0860151
9.61483;0.5;0.0859735
9.65029;0.5;0.105858
9.67694;0.5;0.225347
9.71077;0.5;0.348697
9.73722;0.5;0.363033
9.7701;0.5;0.50064
9.79902;0.5;0.537603
9.82972;0;0.450242
9.85924;0;0.363189
9.88938;0;0.225341
9.91922;0;0.0864404
9.95158;0.5;0.0864047
9.98085;0.5;0.0864558
10.0113;0.5;0.173573
10.0407;0.5;0.276458
10.0711;0.5;0.349912
10.104;0.5;0.449697
10.1334;0.5;0.537322
10.1663;0.5;0.499253
10.1952;0.5;0.487754
10.2256;0;0.487754
10.2554;0;0.537322
10.2853;0;0.400021
10.315;0;0.22525
10.3507;0;0.103362
10.3773;0;0.103497
10.4106;0;0.103497
10.4369;0.5;0.103497
10.4701;0.5;0.103497
10.4987;0.5;0.173909
10.5301;0.5;0.312485
10.5591;0.5;0.400172
10.5903;0;0.448927
10.6188;0;0.312379
10.6506;0.5;0.137386
10.6809;0.5;0.137649
10.7116;0.5;0.225142
10.7407;0.5;0.362524
10.7712;0.5;0.449642
10.8057;0;0.487792
10.8333;0;0.362353
10.8656;0;0.174354
10.8946;0;0.0868633
10.925;0;0.0868309
10.9551;0;0.0868309
10.9854;0;0.0868309
11.0151;0;0.0868309
11.0505;0;0.0868309
11.0773;0.5;0.0868309
11.1094;0.5;0.0868762
11.1374;0;0.174333
11.1689;0;0.224914
11.1991;0;0.0877464
11.2325;0;0.0106141
11.2594;0;0.0106141
11.2901;0;0.0106141
11.3193;0;0.0106141
11.3508;0.5;0.0106141
11.3813;0.5;0.0103715
11.411;0;0.175914
11.441;0;0.311576
11.4715;0;0.176603
11.505;0.5;0.134286
11.5329;0.5;0.133872
11.5655;0.5;0.221041
11.5952;0.5;0.310459
11.6268;0.5;0.44166
11.6548;0.5;0.487505
11.6858;0;0.487505
11.7147;0;0.487505
11.7505;0;0.353395
11.7766;0.5;0.265164
11.8092;0.5;0.308453
11.8371;0;0.396709
11.8707;0;0.441827
11.8988;0.5;0.264938
11.9298;0.5;0.223145
11.9588;0.5;0.31188
11.9899;0.5;0.440486
12.0187;0.5;0.488112
12.0515;0.5;0.535688
12.0815;0.5;0.528643
12.1112;0.5;0.488112
12.141;0.5;0.488112
12.1713;0.5;0.528643
12.2051;0;0.488112
12.2326;0;0.488125
12.2656;0.5;0.263808
12.2952;0.5;0.175282
12.3256;0.5;0.399996
12.3551;0.5;0.487561
12.3852;0;0.487561
12.4148;0;0.487561
12.4492;0;0.3999
12.4771;0.5;0.27633
12.5106;0.5;0.450599
12.5374;0.5;0.450591
12.57;0.5;0.450591
12.5991;0.5;0.450591
12.6295;0.5;0.486365
12.6595;0.5;0.537614
12.6893;0.5;0.537614
12.7192;0.5;0.537614
12.7506;0.5;0.50184
12.781;0.5;0.50184
12.8106;0;0.450591
12.8411;0;0.537614
12.8709;0;0.363794
12.9057;0;0.225318
12.9333;0;0.139119
12.966;0;0.0859463
12.9955;0;0.0859463
13.0255;0;0.0859463
13.0554;0;0.0859463
13.0857;0.5;0.0859463
13.1152;0.5;0.0859463
13.1506;0.5;0.192083
13.1774;0.5;0.172743
13.2104;0.5;0.3124
13.237;0;0.399736
13.2666;0;0.450288
13.2989;0.5;0.276259
13.3305;0.5;0.138607
13.3586;0;0.173242
13.3905;0;0.363845
13.4192;0;0.363539
13.4516;0;0.138331
13.4812;0;0.138498
13.5113;0.5;0.0867289
13.5412;0.5;0.0867289
13.5714;0.5;0.138438
13.6057;0.5;0.275672
13.6329;0;0.312459
13.6656;0;0.488019
13.6952;0;0.361508
13.7266;0.5;0.175011
13.7545;0.5;0.137874
13.7861;0;0.174552
13.8149;0;0.312497
13.85;0.5;0.274542
13.8773;0.5;0.224941
13.9095;0.5;0.17475
13.9373;0.5;0.275376
13.9698;0.5;0.400097
13.9995;0;0.487796
14.0312;0;0.487796
14.0593;0.5;0.362348
14.0903;0.5;0.262201
14.1195;0.5;0.225307
14.1507;0.5;0.312128
14.1814;0.5;0.450673
14.2112;0;0.502342
14.2413;0;0.450684
14.2708;0.5;0.27774
14.3041;0.5;0.139266
14.3327;0;0.225041
14.3656;0;0.278751
14.3949;0;0.278462
14.4257;0.5;0.192671
14.4553;0.5;0.107448
14.4857;0;0.225119
14.5148;0;0.397736
14.5497;0;0.225317
14.5767;0;0.139081
14.6097;0;0.139138
14.6371;0;0.139138
14.671;0;0.139138
14.6993;0;0.139138
14.7308;0;0.139138
14.7595;0;0.139138
14.7895;0;0.139138
14.8195;0.5;0.139138
14.8507;0.5;0.139138
14.8805;0.5;0.0861599
14.9109;0;0.191127
14.9406;0;0.22529
14.9705;0;0.137934
15.0056;0;0.101339
15.0333;0.5;0.101339
15.0657;0.5;0.101339
15.0955;0.5;0.101136
15.1261;0.5;0.187282
15.155;0.5;0.312284
15.1859;0.5;0.400043
15.2149;0.5;0.488105
15.251;0;0.488105
15.2771;0;0.488105
15.3102;0.5;0.352178
15.3369;0.5;0.312226
15.3706;0.5;0.312497
15.3992;0.5;0.350047
15.4307;0.5;0.4499
15.4594;0;0.487593
15.4897;0;0.537448
15.5191;0;0.399921
15.5508;0;0.225293
15.5813;0.5;0.173401
15.6108;0.5;0.086667
15.6408;0.5;0.0867142
15.6708;0;0.138278
15.7059;0;0.3125
15.7335;0;0.224699
15.7651;0;0.0877744
15.7947;0.5;0.0877722
15.8258;0.5;0.0877722
15.8547;0.5;0.185303
15.8857;0;0.223791
15.9151;0;0.264828
15.9515;0;0.0883229
15.9772;0;0.0883219
16.0109;0.5;0.0883219
16.0369;0.5;0.0883219
16.0702;0.5;0.088331
16.0996;0.5;0.221701
16.1298;0.5;0.310048
16.1593;0;0.399145
16.1917;0;0.441557
16.2188;0;0.265064
16.2513;0;0.132723
16.2806;0;0.132499
16.3112;0;0.132476
16.3414;0;0.132476
16.3706;0;0.132476
16.406;0;0.132476
16.4335;0;0.132476
16.4657;0;0.132476
16.4947;0;0.132476
16.5256;0;0.132476
16.555;0.5;0.132476
16.5857;0.5;0.132476
16.6155;0.5;0.0883883
16.6507;0.5;0.264993
16.6771;0.5;0.306576
16.7106;0.5;0.440707
16.7375;0.5;0.528664
16.77;0;0.488109
16.7994;0;0.488109
16.8313;0.5;0.352697
16.8589;0.5;0.176623
16.8903;0.5;0.26511
16.9188;0;0.353504
16.9511;0;0.48691
16.9816;0;0.353536
17.0106;0;0.265123
17.0411;0.5;0.0883241
17.0706;0.5;0.0883172
17.1056;0.5;0.0883266
17.1335;0;0.176746
17.1653;0;0.221505
17.1953;0;0.0883555
17.228;0;0.088355
17.2547;0;0.088355
17.2855;0;0.088355
17.3155;0;0.088355
17.3473;0.5;0.088355
17.3774;0.5;0.0883479
17.4076;0.5;0.176564
17.4374;0.5;0.311956
17.4666;0.5;0.351927
17.4993;0.5;0.488058
17.5329;0;0.488058
17.5594;0;0.5368
17.5905;0;0.488081
17.6189;0;0.312041
17.6521;0;0.13495
17.6814;0;0.08828
17.7119;0;0.08828
