Time(s);Vsent(m/s);VMeasured(m/s);PosX(m);PosY(m)
4.303e-06;0;-0.342755;1.303;-1.182
0.0270212;0;-0.276353;1.336;-1.19
0.0620693;0;-0.179607;1.371;-1.197
0.0903795;0;-0.293132;1.401;-1.208
0.124412;0;-0.433877;1.431;-1.217
0.154667;0;-0.273648;1.459;-1.222
0.186886;40;-0.0913525;1.48;-1.227
0.220577;40;-0.0778228;1.496;-1.229
0.251124;40;0;1.506;-1.23
0.289877;40;0.270643;1.513;-1.227
0.314635;40;0.260976;1.517;-1.219
0.347075;40;0.364054;1.517;-1.203
0.39036;40;0.390698;1.519;-1.184
0.411778;40;0.492582;1.517;-1.161
0.444306;40;0.611665;1.513;-1.133
0.474755;40;0.7282;1.511;-1.105
0.507033;40;0.845908;1.508;-1.074
0.540444;40;0.865266;1.504;-1.047
0.570196;40;0.928726;1.499;-1.014
0.604054;40;0.932201;1.492;-0.983
0.634453;40;0.972001;1.49;-0.966
0.666812;40;0.968421;1.484;-0.934
0.710204;40;0.997768;1.473;-0.885
0.734078;40;0.997359;1.464;-0.855
0.763658;40;1.03425;1.462;-0.837
0.795032;40;0.950334;1.453;-0.806
0.829024;40;1.02759;1.448;-0.774
0.861672;40;0.996918;1.439;-0.742
0.890476;40;0.978674;1.431;-0.71
0.923156;40;1.02566;1.425;-0.679
0.954576;40;0.920535;1.415;-0.646
0.986983;40;1.01512;1.412;-0.615
1.02121;40;0.977934;1.402;-0.582
1.05019;40;1.01987;1.399;-0.551
1.08508;40;0.990801;1.39;-0.52
1.11414;40;0.982024;1.384;-0.488
1.147;40;0.998541;1.377;-0.457
1.19019;40;0.983851;1.366;-0.41
1.21518;40;0.997182;1.364;-0.395
1.24423;40;0.978448;1.356;-0.363
1.27435;40;0.940535;1.35;-0.334
1.30666;40;0.987781;1.343;-0.303
1.34069;40;0.939337;1.335;-0.274
1.37109;40;0.927372;1.328;-0.245
1.40434;40;0.931823;1.321;-0.216
