Time(s);Vsent(rad/s);VMeasured(rad/s);Rotation(rad)
0.0132653;0;0.681714;-5.27083
0.0487459;0;1.01538;-5.25458
0.0768664;0;-0.15561;-5.21563
0.118048;0;0.453164;-5.20039
0.140415;0;1.34211;-5.17891
0.178919;20;0.822849;-5.13082
0.208975;20;-0.65914;-5.15763
0.236926;20;0.217939;-5.15415
0.268892;20;1.17286;-5.11991
0.301376;20;0.767508;-5.05851
0.340448;20;-2.12989;-5.05963
0.370537;20;2.82975;-5.01435
0.397449;20;1.25384;-4.93512
0.428582;20;2.74926;-4.87176
0.460562;20;1.59982;-4.87436
0.493081;20;1.90247;-4.82703
0.528543;20;0.957308;-4.79456
0.557163;20;2.12814;-4.74656
0.588711;20;1.47407;-4.71106
0.620572;20;1.70535;-4.67529
0.652985;20;0.317148;-4.64512
0.688982;20;1.3762;-4.56733
0.716828;20;0;-4.53917
0.757984;20;2.97085;-4.48021
0.78048;20;3.54676;-4.39998
0.812454;20;0.738441;-4.36912
0.848268;20;0.793462;-4.36019
0.876489;20;1.06376;-4.30791
0.918085;20;1.06944;-4.23584
0.944013;20;1.4316;-4.18767
0.973077;20;2.29443;-4.1739
1.00876;20;1.70958;-4.11312
1.03745;20;0.458781;-4.08467
1.06894;20;0.345267;-4.04152
1.10127;20;1.91346;-3.98881
1.13579;20;4.4408;-3.91692
1.17687;20;-0.0682394;-3.90472
1.19708;20;-0.0747525;-3.90592
1.22987;20;3.76748;-3.80876
1.2615;20;-0.337078;-3.79211
1.29303;20;0.631724;-3.75414
1.32856;20;3.73344;-3.64545
1.35712;20;-0.979667;-3.66113
1.39577;20;3.63172;-3.56283
1.421;20;1.69206;-3.53576
1.45241;20;1.95511;-3.4847
