Time(s);Vsent(m/s);VMeasured(m/s);PosX(m);PosY(m)
0.0138738;0;0;-1.499;1.12
0.0203004;1;0;-1.499;1.12
0.0303822;1;0;-1.499;1.12
0.0403126;1;0;-1.499;1.12
0.0506588;1;0;-1.499;1.12
0.06083;1;0;-1.499;1.12
0.0721194;1;0;-1.499;1.12
0.0803499;0;0;-1.499;1.12
0.0905446;1;0;-1.499;1.12
0.101272;1;0;-1.499;1.12
0.110811;1;0;-1.499;1.12
0.120909;1;0;-1.499;1.12
0.132036;0;0;-1.499;1.12
0.140809;0;0;-1.499;1.12
0.150596;1;0.0986805;-1.484;1.107
0.161649;1;0.0986805;-1.484;1.107
0.170436;0;0.0752526;-1.478;1.105
0.180522;1;0.0752526;-1.478;1.105
0.191693;1;0.105927;-1.473;1.103
0.200969;1;0.118009;-1.467;1.101
0.211055;0;0.118009;-1.467;1.101
0.221095;1;0.181598;-1.461;1.098
0.230852;1;0.184739;-1.456;1.096
0.241087;1;0.184739;-1.456;1.096
0.256199;0;0.184739;-1.456;1.096
0.264942;0;0.279858;-1.45;1.092
0.270127;1;0.279858;-1.45;1.092
0.282838;0;0.258081;-1.443;1.089
0.290522;1;0.338456;-1.436;1.085
0.300604;0;0.261249;-1.43;1.082
0.311094;1;0.261249;-1.43;1.082
0.320773;0;0.345732;-1.426;1.078
0.331003;0;0.348035;-1.422;1.074
0.341012;1;0.348035;-1.422;1.074
0.350137;0;0.322917;-1.417;1.07
0.360876;1;0.352043;-1.412;1.065
0.370998;0;0.352043;-1.412;1.065
0.38046;0;0.330798;-1.405;1.06
0.390555;0;0.330798;-1.405;1.06
0.401098;1;0.339812;-1.398;1.055
0.417835;0;0.339812;-1.398;1.055
0.421061;0;0.339812;-1.398;1.055
0.43074;1;0.311513;-1.391;1.051
0.440224;0;0.312729;-1.384;1.047
0.450389;1;0.320216;-1.377;1.043
0.460774;1;0.356642;-1.369;1.038
0.473398;0;0.356642;-1.369;1.038
0.481085;1;0.344499;-1.361;1.034
0.490847;0;0.382874;-1.352;1.029
0.500217;0;0.382874;-1.352;1.029
0.511098;0;0.365175;-1.343;1.025
0.520383;1;0.365175;-1.343;1.025
0.531015;1;0.363506;-1.333;1.021
0.541013;0;0.44336;-1.325;1.016
0.550158;0;0.44336;-1.325;1.016
0.560097;1;0.471846;-1.318;1.011
0.570386;1;0.526606;-1.312;1.005
0.580518;1;0.526606;-1.312;1.005
0.590444;0;0.502022;-1.304;0.999
0.600334;0;0.478014;-1.296;0.994
0.610468;1;0.478014;-1.296;0.994
0.620975;1;0.459066;-1.286;0.989
0.630068;1;0.459066;-1.286;0.989
0.640399;1;0.456526;-1.275;0.984
0.650959;0;0.44208;-1.265;0.98
0.661085;0;0.44208;-1.265;0.98
0.670387;0;0.482894;-1.255;0.975
0.680973;1;0.498655;-1.245;0.97
0.690093;1;0.498655;-1.245;0.97
0.700414;0;0.533091;-1.236;0.965
0.71065;1;0.533091;-1.236;0.965
0.720664;1;0.523312;-1.225;0.96
0.730356;0;0.510785;-1.215;0.956
0.740616;0;0.510785;-1.215;0.956
0.750588;0;0.533931;-1.206;0.952
0.760318;0;0.559487;-1.199;0.948
0.772896;1;0.559487;-1.199;0.948
0.780655;0;0.535824;-1.192;0.944
0.790775;0;0.535824;-1.192;0.944
0.802196;0;0.494043;-1.186;0.941
0.810452;1;0.47038;-1.18;0.938
0.820589;0;0.47038;-1.18;0.938
0.832378;1;0.485801;-1.174;0.934
0.840379;1;0.416853;-1.167;0.931
0.850517;1;0.416853;-1.167;0.931
0.862857;0;0.350151;-1.16;0.929
0.87096;1;0.350151;-1.16;0.929
0.880458;0;0.328125;-1.152;0.927
0.891074;1;0.392885;-1.144;0.923
0.90011;1;0.392885;-1.144;0.923
0.910417;1;0.358737;-1.135;0.92
0.922402;1;0.362455;-1.125;0.917
0.930315;0;0.362455;-1.125;0.917
0.940523;1;0.344809;-1.114;0.915
0.957734;1;0.344809;-1.114;0.915
0.965739;0;0.344809;-1.114;0.915
0.970219;1;0.369165;-1.102;0.913
0.982852;1;0.430792;-1.089;0.91
0.99095;1;0.47276;-1.078;0.907
1.0004;1;0.499582;-1.067;0.904
1.01106;1;0.499582;-1.067;0.904
1.02113;0;0.4792;-1.055;0.902
1.03026;0;0.4792;-1.055;0.902
1.04139;0;0.502299;-1.042;0.9
1.05116;0;0.531568;-1.027;0.898
1.06032;1;0.531568;-1.027;0.898
1.07032;1;0.486066;-1.012;0.898
1.08015;0;0.551779;-0.998;0.897
1.09046;1;0.551779;-0.998;0.897
1.10035;0;0.574227;-0.983;0.896
1.11099;0;0.574227;-0.983;0.896
1.12047;1;0.574227;-0.983;0.896
1.13072;1;0.574227;-0.983;0.896
1.14067;0;0.574227;-0.983;0.896
1.15051;1;0.818056;-0.944;0.889
1.16026;0;0.928379;-0.934;0.885
1.17045;1;0.928379;-0.934;0.885
1.18103;1;0.882508;-0.922;0.882
1.19025;0;0.882508;-0.922;0.882
1.2005;1;0.937424;-0.911;0.878
1.21111;1;0.937586;-0.9;0.874
1.22052;0;0.937586;-0.9;0.874
1.23091;1;0.844759;-0.888;0.872
1.24019;0;0.836299;-0.877;0.87
1.25063;1;0.836299;-0.877;0.87
1.26058;0;0.822725;-0.866;0.868
1.27074;0;0.822725;-0.866;0.868
1.28046;0;0.7567;-0.855;0.867
1.29036;0;0.594433;-0.844;0.866
1.30048;0;0.594433;-0.844;0.866
1.31035;1;0.595333;-0.834;0.865
1.32042;0;0.584541;-0.823;0.864
1.33054;0;0.584541;-0.823;0.864
1.34048;1;0.54428;-0.812;0.864
1.35222;1;0.54428;-0.812;0.864
1.36035;1;0.54428;-0.812;0.864
1.37083;0;0.537743;-0.802;0.864
1.3801;1;0.537743;-0.802;0.864
1.39061;1;0.528083;-0.792;0.864
1.40101;0;0.555952;-0.772;0.862
1.41028;0;0.555952;-0.772;0.862
1.42033;1;0.521838;-0.761;0.862
1.43073;0;0.528258;-0.75;0.862
1.44009;0;0.528258;-0.75;0.862
1.45104;1;0.568906;-0.74;0.861
1.4603;0;0.568906;-0.74;0.861
1.47207;0;0.537258;-0.729;0.861
1.48093;1;0.503977;-0.718;0.862
1.49043;1;0.503977;-0.718;0.862
1.50194;0;0.469962;-0.707;0.864
1.51007;0;0.469962;-0.707;0.864
1.52012;0;0.488336;-0.695;0.866
1.53563;0;0.488336;-0.695;0.866
1.54407;0;0.492891;-0.684;0.868
1.55044;0;0.492891;-0.684;0.868
1.56101;1;0.492891;-0.684;0.868
1.57055;1;0.539927;-0.662;0.871
1.58017;1;0.502401;-0.651;0.873
1.59199;0;0.463609;-0.64;0.876
1.60012;1;0.463609;-0.64;0.876
1.61087;0;0.481907;-0.628;0.879
1.62164;0;0.481907;-0.628;0.879
1.63083;1;0.471516;-0.615;0.883
1.64087;0;0.489468;-0.602;0.887
1.65163;0;0.489468;-0.602;0.887
1.66008;0;0.515724;-0.588;0.891
1.67036;1;0.515724;-0.588;0.891
1.68103;1;0.535443;-0.574;0.895
1.69064;1;0.494474;-0.561;0.9
1.70092;0;0.494474;-0.561;0.9
1.71783;0;0.558212;-0.548;0.904
1.72596;0;0.558212;-0.548;0.904
1.73029;1;0.558212;-0.548;0.904
1.74476;0;0.580434;-0.535;0.908
1.75037;0;0.582303;-0.523;0.912
1.76051;0;0.675086;-0.511;0.914
1.77062;0;0.675086;-0.511;0.914
1.78102;0;0.582952;-0.499;0.918
1.7903;0;0.553038;-0.488;0.922
1.80104;0;0.508335;-0.476;0.927
1.81063;1;0.508335;-0.476;0.927
1.82104;0;0.422749;-0.465;0.933
1.83015;1;0.422749;-0.465;0.933
1.84059;1;0.478475;-0.455;0.937
1.85092;0;0.488416;-0.446;0.94
1.86103;0;0.488416;-0.446;0.94
1.87098;0;0.48882;-0.436;0.943
1.88029;1;0.48882;-0.436;0.943
1.89048;1;0.48882;-0.436;0.943
1.90002;1;0.45635;-0.425;0.947
1.91093;1;0.48614;-0.415;0.95
1.92063;0;0.495515;-0.404;0.953
1.93098;1;0.43511;-0.394;0.957
1.94023;0;0.43511;-0.394;0.957
1.95041;0;0.43511;-0.394;0.957
1.96026;0;0.5188;-0.384;0.959
1.97047;0;0.513157;-0.374;0.961
1.98059;1;0.474072;-0.364;0.964
1.99101;1;0.481447;-0.354;0.967
2.00037;1;0.481447;-0.354;0.967
2.01101;1;0.482725;-0.344;0.97
2.02045;1;0.482725;-0.344;0.97
2.03016;1;0.479498;-0.334;0.973
2.04036;1;0.479498;-0.334;0.973
2.05212;1;0.479498;-0.334;0.973
2.0606;0;0.487618;-0.324;0.976
2.0701;0;0.56334;-0.314;0.977
2.08101;1;0.567073;-0.304;0.978
2.09058;0;0.582621;-0.293;0.979
2.1007;0;0.582621;-0.293;0.979
2.11266;0;0.582621;-0.293;0.979
2.12098;0;0.566267;-0.282;0.981
2.1304;1;0.563041;-0.272;0.983
2.14052;0;0.549856;-0.261;0.986
2.15093;1;0.530256;-0.25;0.99
2.16116;0;0.530256;-0.25;0.99
2.17176;0;0.484397;-0.24;0.995
2.181;1;0.484397;-0.24;0.995
2.19092;1;0.477963;-0.229;1.001
2.20279;1;0.455944;-0.218;1.008
2.2102;1;0.455944;-0.218;1.008
2.221;1;0.518203;-0.198;1.02
2.23186;0;0.436369;-0.188;1.026
2.24119;1;0.436369;-0.188;1.026
2.25092;0;0.433188;-0.177;1.031
2.26008;1;0.433188;-0.177;1.031
2.27101;0;0.357812;-0.167;1.036
2.28083;1;0.305524;-0.156;1.041
2.29243;0;0.305524;-0.156;1.041
2.30041;1;0.318186;-0.146;1.045
2.3105;1;0.318186;-0.146;1.045
2.32116;1;0.321357;-0.137;1.048
2.33022;0;0.288597;-0.128;1.052
2.34032;0;0.288597;-0.128;1.052
2.35097;0;0.283454;-0.119;1.056
2.36012;0;0.306379;-0.11;1.058
2.37037;0;0.306379;-0.11;1.058
2.38133;1;0.270576;-0.102;1.061
2.39107;1;0.271216;-0.095;1.063
2.40017;0;0.271216;-0.095;1.063
2.411;0;0.251659;-0.087;1.066
2.42069;0;0.251659;-0.087;1.066
2.43016;1;0.250343;-0.08;1.068
2.44816;0;0.250343;-0.08;1.068
2.45701;1;0.207798;-0.073;1.072
2.46023;0;0.207798;-0.073;1.072
2.47043;1;0.207798;-0.073;1.072
2.48016;1;0.201735;-0.058;1.082
2.49015;0;0.200792;-0.05;1.089
2.50033;0;0.200792;-0.05;1.089
2.5105;1;0.21025;-0.042;1.097
2.52113;1;0.218387;-0.034;1.106
2.53025;0;0.218387;-0.034;1.106
2.54095;0;0.250631;-0.025;1.116
2.55111;1;0.250631;-0.025;1.116
