Time (s);Vsent (m/s);Vmeasured (m/s)
0.0105394;0;0
0.020154;0;0
0.0326799;0;0
0.0410284;0;0
0.0504056;0;0
0.0628402;0;0
0.0710876;0;0
0.0807596;1;0
0.0921973;1;0
0.100451;1;0
0.110914;1;0
0.124523;1;0.00691921
0.13077;1;0.00691921
0.141129;1;0.011709
0.150205;-1;0.011709
0.160759;-1;0.0373067
0.17015;-1;0.0373067
0.183846;-1;0.0550968
0.190495;-1;0.0703906
0.200916;-1;0.0703906
0.210222;-1;0.0510819
0.220657;-1;0.0560406
0.23097;-1;0.0560406
0.240417;-1;-0.0349498
0.250786;-1;-0.0349498
0.260564;-1;-0.0272975
0.271618;-1;-0.0272975
0.280185;-1;-0.0405365
0.290853;1;-0.0662644
0.302027;1;-0.0662644
0.310734;1;-0.0842231
0.321453;1;-0.0946273
0.332592;1;-0.0946273
0.340783;1;-0.0555284
0.351132;1;-0.0555284
0.363662;1;-0.0439904
0.370882;1;-0.0249229
0.38021;1;-0.0249229
0.391685;1;0.0233638
0.400343;1;0.0233638
0.410665;1;0.0399039
0.424101;1;0.0745628
0.430361;-1;0.0745628
0.440297;-1;0.0906448
0.452062;-1;0.0906448
0.461044;-1;0.106039
0.470432;-1;0.106039
0.481826;-1;0.115686
0.490838;1;0.100683
0.500188;1;0.100683
0.511001;1;0.0768774
0.520375;1;0.0768774
0.530331;1;0.0487932
0.540471;1;0.0321745
0.551072;1;0.0321745
0.561086;1;0.0514001
0.570346;1;0.0514001
0.580732;1;0.0516455
0.590806;1;0.0634837
0.600989;1;0.0634837
0.610612;1;0.0771029
0.621018;1;0.0771029
0.630895;1;0.0918103
0.640631;1;0.107454
0.650963;1;0.107454
0.660366;1;0.121085
0.673012;1;0.134816
0.680274;1;0.134816
0.69086;1;0.140461
0.702246;1;0.140461
0.710375;-1;0.150459
0.720568;-1;0.150459
0.73244;-1;0.153216
0.740849;-1;0.145525
0.75097;-1;0.145525
0.762826;-1;0.1282
0.770239;1;0.1282
0.780642;1;0.1062
0.792506;1;0.0763461
0.80091;1;0.0763461
0.811104;1;0.0484911
0.820302;1;0.0484911
0.831102;1;0.0204512
0.841083;1;0.0222685
0.850551;1;0.0222685
0.860834;1;0.0440655
0.871025;1;0.0440655
0.880588;1;0.071943
0.891032;1;0.0950325
0.900219;1;0.0950325
0.910022;1;0.108708
0.920942;1;0.108708
0.930991;1;0.117416
0.940283;1;0.117416
0.950784;1;0.118043
0.961119;1;0.131583
0.972495;1;0.131583
0.980952;-1;0.128578
0.991055;-1;0.156277
1.0025;-1;0.156277
1.01093;-1;0.14065
1.02112;-1;0.14065
1.03211;-1;0.163411
1.04036;-1;0.148391
1.05049;-1;0.148391
1.06219;-1;0.115073
1.07034;-1;0.115073
1.08043;-1;0.0909119
1.09225;-1;0.0539588
1.10036;-1;0.0539588
1.11045;-1;0.0289275
1.12468;1;0.0289275
1.13045;1;-0.0227424
1.14103;1;-0.0409813
1.15213;1;-0.0409813
1.16004;1;-0.0604721
1.17016;1;-0.0604721
1.18239;1;-0.0640296
1.19038;-1;-0.0640296
1.20015;-1;-0.067103
1.21028;-1;-0.035934
1.22125;-1;-0.035934
1.23059;-1;-0.00217004
1.24066;-1;0.0087646
1.25063;-1;0.0087646
1.26092;1;-0.0180913
1.27107;1;-0.0180913
1.28185;1;-0.0344241
1.29123;1;-0.0383083
1.30045;1;-0.0383083
1.31106;1;0.000648702
1.32026;1;0.000648702
1.33044;-1;0.0188561
1.34105;-1;0.0448921
1.35025;-1;0.0448921
1.36081;-1;0.0744941
1.37214;-1;0.0744941
1.3807;-1;0.0648949
1.3901;-1;0.0871523
1.4025;1;0.0871523
1.41082;1;0.0539991
1.42104;1;0.0539991
1.43318;1;0.0229511
1.44031;1;0.0229511
1.45103;1;-0.029786
1.46392;1;0.0500454
1.47011;-1;0.0500454
1.4804;-1;0.0306234
1.4943;-1;0.078958
1.50044;-1;0.078958
1.51062;-1;0.0902784
1.52045;-1;0.0902784
1.53067;-1;0.0676108
1.54049;-1;0.0255483
1.55049;-1;0.0255483
1.56022;-1;-0.0359474
1.57045;-1;-0.0359474
1.58045;-1;-0.0709558
1.59051;-1;-0.0709558
1.60022;-1;-0.0856573
1.61118;1;-0.119071
1.62069;1;-0.119071
1.63092;1;-0.155414
1.64034;1;-0.155414
1.65111;1;-0.176556
1.66031;1;-0.193863
1.67287;1;-0.193863
1.68018;-1;-0.191314
1.69034;-1;-0.191314
1.70268;-1;-0.167656
1.71023;-1;-0.134475
1.72046;-1;-0.134475
1.73222;-1;-0.0653949
1.74031;-1;-0.0653949
1.75019;1;-0.0465314
1.76417;1;-0.0470491
1.77017;1;-0.0470491
1.78044;1;-0.0660639
1.79444;1;-0.0719546
1.80042;1;-0.0719546
1.81103;1;-0.0701572
1.82245;-1;-0.0701572
1.83032;-1;-0.0435795
1.84055;-1;-0.0435795
1.85421;-1;-0.0313243
1.8606;-1;0.00674262
1.87083;-1;0.00674262
1.88199;-1;-0.0222846
1.89054;-1;-0.0222846
1.90104;-1;-0.0339825
1.91026;-1;-0.0539032
1.92065;-1;-0.0539032
1.93047;-1;-0.0708812
1.94086;-1;-0.0708812
1.95103;-1;-0.090117
1.96089;-1;-0.100297
1.9702;-1;-0.100297
1.9809;-1;-0.114878
1.99114;-1;-0.114878
2.00113;-1;-0.12138
2.01123;-1;-0.131594
2.02047;-1;-0.131594
2.03092;1;-0.134888
2.04034;1;-0.134888
2.05042;1;-0.141886
2.06046;1;-0.152484
2.07291;1;-0.152484
2.08079;1;-0.126601
2.09019;-1;-0.126601
2.10249;-1;-0.116084
2.11058;-1;-0.0700009
2.12088;-1;-0.0700009
2.13263;-1;-0.0361176
2.14087;-1;-0.0361176
2.15016;-1;-0.0177828
2.16298;-1;-0.0565438
2.17022;-1;-0.0565438
2.18013;-1;-0.070374
2.19263;-1;-0.070374
2.20111;-1;-0.0898606
2.21106;-1;-0.109517
2.22076;-1;-0.109517
2.23028;-1;-0.132089
2.24077;1;-0.132089
2.25059;1;-0.144798
2.26003;1;-0.141678
2.27096;1;-0.141678
2.28058;1;-0.14136
2.29015;1;-0.14136
2.30097;1;-0.12752
2.31066;-1;-0.12752
2.32096;-1;-0.0938795
2.33108;-1;-0.0645633
2.34055;-1;-0.0645633
2.35112;-1;-0.0333818
2.36001;-1;-0.0319297
2.37249;1;-0.0319297
2.38004;1;-0.0566033
2.39015;1;-0.0566033
2.40235;1;-0.0683146
2.41001;1;-0.0956833
2.42001;1;-0.0956833
2.4326;1;-0.0993672
2.44002;1;-0.0993672
2.45103;1;-0.0759332
2.46407;1;-0.0416087
2.47049;1;-0.0416087
2.48096;1;-0.0194124
2.49446;1;-0.0194124
2.50109;1;-0.0126272
2.51002;-1;0.0152895
2.52206;-1;0.0152895
2.53019;-1;0.034965
2.54023;-1;0.034965
2.55459;-1;0.0684405
2.56066;-1;0.0787799
2.57004;-1;0.0787799
2.58236;1;0.0701784
2.59023;1;0.0701784
2.60088;1;0.0222902
2.611;1;-0.00980391
2.6208;1;-0.00980391
2.6301;1;-0.0073655
2.64022;1;-0.0073655
2.65146;-1;-0.00582175
2.66026;-1;-0.0042928
2.67023;-1;-0.0042928
2.68113;-1;0.024477
2.69022;-1;0.024477
2.70097;-1;0.0366061
2.7109;-1;0.0339125
2.72021;-1;0.0339125
2.73001;-1;0.0269575
2.74107;-1;0.0269575
2.75003;-1;-0.0258063
2.76039;-1;-0.0386228
2.77292;-1;-0.0386228
2.78016;-1;-0.0542543
2.79022;-1;-0.0542543
2.80339;-1;-0.0777218
2.81036;-1;-0.0910308
2.82005;-1;-0.0910308
2.83319;-1;-0.109923
2.84016;-1;-0.109923
2.85089;-1;-0.134723
2.8629;1;-0.156148
2.87102;1;-0.156148
2.88001;1;-0.180064
2.89254;1;-0.180064
2.90016;1;-0.187457
2.91036;1;-0.190025
2.9207;1;-0.190025
2.93018;1;-0.17506
2.94023;1;-0.17506
2.95052;1;-0.145965
2.96004;1;-0.145965
2.97096;1;-0.093432
2.9822;1;-0.088665
2.99075;1;-0.088665
3.00008;-1;-0.0165129
3.01128;-1;-0.0165129
3.0201;-1;0.00876398
3.03013;-1;0.0450064
3.04128;-1;0.0450064
3.05021;-1;0.0272295
3.06023;-1;0.0272295
3.07325;-1;0.0224672
3.08049;-1;-0.00407441
3.09023;-1;-0.00407441
3.10324;-1;-0.0284482
3.11032;-1;-0.0284482
3.12024;-1;-0.0450449
3.13375;-1;-0.0646671
3.14074;1;-0.0646671
3.15008;1;-0.0884079
3.1623;1;-0.0884079
3.1708;1;-0.107572
3.18076;1;-0.127328
3.19494;1;-0.127328
3.20022;1;-0.13045
3.21028;1;-0.13045
3.22233;1;-0.125301
3.23039;1;-0.113662
3.24057;1;-0.113662
3.25473;1;-0.0751759
3.26072;1;-0.0751759
3.27024;1;-0.0212503
3.28219;1;0.0040129
3.29098;1;0.0040129
3.3006;1;0.0281646
3.31082;1;0.0281646
3.32116;1;0.0563918
3.33026;1;0.0796862
3.34049;1;0.0796862
3.35181;-1;0.102414
3.36102;-1;0.102414
3.37072;-1;0.115074
3.38086;-1;0.129028
3.39107;-1;0.129028
3.40041;-1;0.13022
3.41129;-1;0.13022
3.42092;-1;0.133614
3.43014;-1;0.107145
3.44113;-1;0.107145
3.45098;-1;0.0842421
3.4602;-1;0.0842421
3.47328;-1;0.0227808
3.48029;-1;0.0196973
3.49063;1;0.0196973
3.50294;1;-0.0270487
3.51015;1;-0.0270487
3.52107;1;-0.0456286
3.53335;1;-0.03807
3.54056;1;-0.03807
3.55053;1;-0.0178221
3.56272;1;0.0301845
3.57093;1;0.0301845
3.58017;1;0.0144261
3.59322;1;0.0144261
3.60058;1;0.0408996
3.61081;1;0.0408996
3.62138;1;0.0657598
3.63089;1;0.0854007
3.64112;1;0.0854007
3.65171;1;0.0994323
3.66079;1;0.0994323
3.67036;1;0.134056
3.68062;1;0.134056
3.69102;1;0.138862
3.70086;1;0.161232
3.71095;1;0.161232
3.72024;1;0.157298
3.73057;1;0.17986
3.74062;1;0.17986
3.75084;1;0.193117
3.76106;1;0.193117
3.77264;-1;0.192418
3.7804;-1;0.220793
3.79063;-1;0.220793
3.80332;-1;0.218139
3.81107;-1;0.218139
3.82059;-1;0.20018
3.83333;-1;0.173747
3.84044;-1;0.173747
3.85104;-1;0.142402
3.86253;-1;0.142402
3.87002;-1;0.111603
3.8805;-1;0.113692
3.8922;-1;0.113692
3.90041;-1;0.0735798
3.91073;-1;0.0735798
3.92216;-1;0.0787766
3.93036;-1;0.00147633
3.94059;-1;0.00147633
3.95245;-1;-0.0463741
3.96024;-1;-0.0463741
3.97053;1;0.0152574
3.98474;1;-0.072567
3.991;1;-0.072567
4.00109;1;-0.0845299
4.01047;1;-0.0845299
4.02239;1;-0.0554399
4.0307;1;-0.0554399
4.04063;1;-0.041326
4.0506;1;0.0653575
4.06084;1;0.0653575
4.07029;1;0.0950226
4.08142;1;0.0905018
4.09066;1;0.0905018
4.10076;1;0.102648
4.11073;-1;0.102648
4.12095;-1;0.112798
4.13007;-1;0.125895
4.14107;-1;0.125895
4.15035;-1;0.137292
4.16078;-1;0.137292
4.17354;-1;0.13395
4.18055;1;0.127465
4.19093;1;0.127465
4.20307;1;0.028741
4.21031;1;0.028741
4.22021;1;-0.0583855
4.23357;1;-0.0394328
4.24081;1;-0.0394328
4.2501;1;0.044643
4.2631;1;0.044643
4.27064;1;0.0474052
4.28029;1;0.0453573
4.29319;1;0.0453573
4.30076;1;0.0729268
4.31018;1;0.0729268
4.32096;-1;0.111105
4.33116;-1;0.135808
4.34054;-1;0.135808
4.35106;-1;0.160812
4.36064;-1;0.160812
4.37076;-1;0.164052
4.38104;-1;0.164052
4.39046;-1;0.166404
4.4011;-1;0.0812303
4.41133;-1;0.0812303
4.42052;-1;0.0433103
4.43069;-1;-0.0430653
4.44093;-1;-0.0430653
4.45069;-1;-0.0734023
4.46021;-1;-0.0734023
4.4734;-1;-0.101152
4.48024;-1;-0.101152
4.49072;-1;-0.121157
4.50385;-1;-0.138933
4.51071;-1;-0.138933
4.521;-1;-0.185195
4.53344;-1;-0.185195
4.54053;-1;-0.210792
4.55031;-1;-0.237322
4.56274;-1;-0.237322
4.57078;-1;-0.249417
4.58017;-1;-0.249417
4.59472;-1;-0.281217
4.60091;1;-0.270783
4.61021;1;-0.270783
4.62476;1;-0.2888
4.63058;1;-0.2888
4.6402;1;-0.321641
4.65239;1;-0.298559
4.66113;1;-0.298559
4.6704;-1;-0.293217
4.68288;-1;-0.293217
4.69006;-1;-0.27293
4.7005;-1;-0.234935
4.71068;-1;-0.234935
4.72106;-1;-0.193125
4.73041;-1;-0.193125
4.74015;-1;-0.146099
4.75144;-1;-0.181012
4.76084;-1;-0.181012
4.77096;-1;-0.230262
4.78098;-1;-0.230262
4.7904;-1;-0.270465
4.80059;-1;-0.278828
4.81089;-1;-0.278828
4.82025;-1;-0.352744
4.83044;-1;-0.352744
4.84121;-1;-0.34229
4.85055;-1;-0.398832
4.86073;-1;-0.398832
4.87366;-1;-0.392435
4.88106;1;-0.392435
4.89071;1;-0.434175
4.90321;1;-0.397597
4.91053;1;-0.397597
4.92036;1;-0.352609
4.93386;1;-0.308107
4.94011;1;-0.308107
4.95068;-1;-0.243033
4.96262;-1;-0.243033
4.97037;-1;-0.189212
4.98056;-1;-0.189212
4.99007;-1;-0.155084
5.00071;-1;-0.134679
5.01091;-1;-0.134679
5.02232;1;-0.135866
5.03025;1;-0.135866
5.04106;1;-0.130001
5.05208;1;-0.135305
5.06053;1;-0.135305
5.07073;1;-0.141074
5.08138;1;-0.141074
5.09014;1;-0.13961
5.10034;1;-0.121285
5.11237;1;-0.121285
5.12053;1;-0.094267
5.13064;1;-0.094267
5.14257;1;-0.0665039
5.1507;1;-0.0665039
5.16017;1;-0.0434467
5.17381;1;0.0368569
5.18091;1;0.0368569
5.19103;1;0.0391678
5.20467;1;0.0467658
5.21096;1;0.0467658
5.22096;1;0.0807098
5.23439;-1;0.0807098
5.24018;-1;0.108721
5.25102;-1;0.137373
5.26285;-1;0.137373
5.27119;-1;0.147398
5.28032;-1;0.147398
5.29293;1;0.16422
5.30019;1;0.16422
5.31014;1;0.166298
5.32611;1;0.154195
5.33011;1;0.154195
5.34104;1;0.118668
5.35321;1;0.104725
5.36113;1;0.104725
5.37103;-1;0.102848
5.38259;-1;0.102848
5.39061;-1;0.122254
5.40007;-1;0.154692
5.41044;-1;0.154692
5.42173;-1;0.178177
5.43093;-1;0.178177
5.4406;1;0.171308
5.45103;1;0.199124
5.46023;1;0.199124
5.47063;1;0.0977232
5.48085;1;0.0977232
5.49084;1;0.0669432
5.50001;1;0.045302
5.51112;1;0.045302
5.52026;1;0.198724
5.53055;1;0.198724
5.54164;1;0.205876
5.55056;1;0.282575
5.56078;1;0.282575
5.5733;1;0.284922
5.5805;1;0.284922
5.59097;1;0.298161
5.60357;1;0.319173
5.61077;1;0.319173
5.62101;1;0.333557
5.63312;1;0.333557
5.64082;1;0.372425
5.65038;1;0.401203
5.66354;1;0.401203
5.67059;1;0.4441
5.68088;1;0.4441
5.69338;1;0.495117
5.70058;1;0.495117
5.7103;-1;0.520647
5.72242;-1;0.575201
5.73069;-1;0.575201
5.74048;-1;0.647188
5.75115;-1;0.647188
5.76028;-1;0.700549
5.77056;-1;0.716534
5.78143;1;0.716534
5.79065;1;0.656478
5.80054;1;0.688827
5.81125;1;0.688827
5.82102;1;0.605413
5.83025;1;0.605413
5.84219;1;0.503573
5.85003;1;0.503573
5.86054;1;0.554512
5.87422;1;0.517241
5.88107;1;0.517241
5.89084;1;0.512724
5.90385;1;0.490035
5.91075;1;0.490035
5.92022;-1;0.425198
5.93395;-1;0.425198
5.94103;-1;0.371759
5.95025;-1;0.371759
5.9631;-1;0.344702
5.97014;-1;0.313437
5.98036;-1;0.313437
5.99516;1;0.328406
6.00099;1;0.328406
6.01061;1;0.290546
6.02558;1;0.2759
6.03037;1;0.2759
6.04017;1;0.153915
6.05298;1;0.153915
6.06056;1;0.252882
6.07067;1;0.293231
6.08539;1;0.293231
6.09053;1;0.321713
6.10075;1;0.321713
6.1111;1;0.306087
6.12169;1;0.285136
6.13102;1;0.285136
6.14012;1;0.257005
6.15141;1;0.257005
6.16107;1;0.25195
6.17035;1;0.244549
6.18162;1;0.244549
6.19062;1;0.285281
6.20015;1;0.285281
6.21121;1;0.327669
6.22021;1;0.357446
6.23052;1;0.357446
6.24123;1;0.408799
6.25048;1;0.408799
6.26061;1;0.434916
6.27318;1;0.468931
6.28043;1;0.468931
6.29071;1;0.473258
6.30338;1;0.482721
6.31054;1;0.482721
6.32079;1;0.485805
6.33302;1;0.485805
6.34037;-1;0.483955
6.35062;-1;0.483955
6.36333;-1;0.482189
6.37035;-1;0.478144
6.38066;-1;0.478144
6.39388;-1;0.477625
6.40112;-1;0.477625
6.41017;-1;0.393378
6.42218;-1;0.271276
6.43029;-1;0.271276
6.4408;-1;0.228767
6.45152;-1;0.228767
6.46063;-1;0.143483
6.47084;-1;0.0572441
6.48176;-1;0.0572441
6.49093;-1;0.0534994
6.50032;-1;0.0534994
6.5121;-1;-0.0274341
6.5207;-1;-0.0345164
6.53095;-1;-0.0345164
6.54135;-1;-0.0980579
6.55074;-1;-0.0980579
6.56051;-1;-0.161181
6.57367;-1;-0.163547
6.58082;-1;-0.163547
6.59111;-1;-0.187445
6.60387;-1;-0.187445
6.61103;-1;-0.232884
6.62078;1;-0.252634
6.63352;1;-0.252634
6.6406;1;-0.25306
6.65092;1;-0.25306
6.66547;1;-0.241704
6.67076;1;-0.225757
6.68114;1;-0.225757
6.69295;1;-0.187208
6.70078;1;-0.187208
6.71068;1;-0.0732361
6.72325;1;-0.0579561
6.73008;1;-0.0579561
6.74082;1;-0.0407953
6.75555;1;-0.0407953
6.76071;-1;-0.026962
6.77001;-1;0.0565987
6.78279;-1;0.0565987
6.79099;-1;0.0689155
6.80037;-1;0.0689155
6.81038;-1;0.0722831
6.82189;-1;0.0967893
6.83017;1;0.0967893
6.84073;1;0.0414398
6.85115;1;0.0414398
6.86112;1;-0.0787105
6.87102;1;-0.0645363
6.88154;1;-0.0645363
6.89033;-1;-0.0446638
6.90056;-1;-0.0446638
6.91191;-1;-0.0324764
6.92031;-1;-0.0324764
6.93101;-1;0.0336421
6.94176;-1;0.034165
6.95109;-1;0.034165
6.96097;-1;0.0312946
6.97351;-1;0.0312946
6.98028;-1;-0.0238399
6.99038;-1;-0.0650694
7.0003;-1;-0.0650694
7.01047;-1;-0.0771665
7.02035;-1;-0.095283
7.03015;-1;-0.095283
7.04077;1;-0.116921
7.051;1;-0.116921
7.06323;1;-0.156614
7.07063;1;-0.156614
7.08106;1;-0.170648
7.0905;1;-0.143714
7.10102;1;-0.143714
7.11066;1;-0.132242
7.12277;1;-0.132242
7.13057;1;-0.0366203
7.14102;1;0.0298952
7.15262;1;0.0298952
7.1604;1;0.0575516
7.17052;-1;0.0575516
7.18231;-1;0.0944992
7.19035;-1;0.104923
7.20046;-1;0.104923
7.21273;-1;0.124399
7.22085;-1;0.124399
7.23035;-1;0.107631
7.24321;-1;0.0936879
7.25102;1;0.0936879
7.26042;1;0.0569444
7.27468;1;-0.0483162
7.28088;1;-0.0483162
7.29052;1;0.00679961
7.30361;1;0.00679961
7.31087;-1;0.00474076
7.32106;-1;0.00474076
7.33401;-1;0.0617348
7.34028;-1;0.098641
7.35047;-1;0.098641
7.36315;-1;0.0898547
7.37108;-1;0.0898547
7.38076;1;0.0874946
7.39618;1;0.0400627
7.40101;1;0.0400627
7.41042;1;-0.000590048
7.42333;1;-0.000590048
7.43085;1;-0.0451115
7.44036;1;-0.0346289
7.45324;1;-0.0346289
7.4609;1;0.0429481
7.47119;1;0.0657275
7.48308;1;0.0657275
7.49059;1;0.0739133
7.5008;1;0.0739133
7.51103;1;0.0920358
7.52233;-1;0.114785
7.53053;-1;0.114785
7.5403;-1;0.129858
7.55237;-1;0.129858
7.56078;-1;0.157798
7.571;-1;0.157798
7.58252;-1;0.177478
7.59045;1;0.175225
7.60068;1;0.175225
7.61206;1;0.155873
7.62026;1;0.155873
7.63096;1;0.160402
7.64228;1;0.167985
7.65049;1;0.167985
7.66017;1;0.159132
7.67052;1;0.159132
7.68065;1;0.157637
7.69101;1;0.195787
7.70025;1;0.195787
7.7111;1;0.210036
7.72033;1;0.210036
7.7308;-1;0.245646
7.74104;-1;0.257101
7.75033;-1;0.257101
7.76115;-1;0.276841
7.77012;-1;0.276841
7.78052;-1;0.285844
7.79393;-1;0.264411
7.80026;1;0.264411
7.81057;1;0.238011
7.82187;1;0.238011
7.83084;1;0.200426
7.8406;1;0.165474
7.85178;1;0.165474
7.86082;1;0.205734
7.87021;-1;0.205734
7.88266;-1;0.249777
7.89107;-1;0.274229
7.9003;-1;0.274229
7.91178;-1;0.278225
7.9206;-1;0.278225
7.93051;-1;0.234541
7.94204;1;0.263373
7.95099;1;0.263373
7.96085;1;0.249846
7.97416;1;0.249846
7.98023;1;0.260077
7.99039;1;0.226081
8.00374;1;0.226081
8.01073;-1;0.265271
8.02097;-1;0.265271
8.03403;-1;0.299819
8.04049;-1;0.330095
8.05072;-1;0.330095
8.06295;-1;0.353529
8.07088;-1;0.353529
8.0808;-1;0.318865
8.09315;-1;0.271349
8.10036;-1;0.271349
8.11019;-1;0.209142
8.12333;-1;0.209142
8.1311;-1;0.130121
8.14088;-1;0.02844
8.153;-1;0.02844
8.16023;-1;-0.145669
8.1704;-1;-0.145669
8.18337;-1;-0.190033
8.19096;-1;-0.219239
8.20022;-1;-0.219239
8.21059;-1;-0.245813
8.22167;-1;-0.245813
8.23104;-1;-0.252715
8.24091;-1;-0.265746
8.25222;-1;-0.265746
8.26051;-1;-0.31686
8.27089;-1;-0.31686
8.28225;-1;-0.373073
8.29049;-1;-0.373073
8.30048;-1;-0.433681
8.31277;-1;-0.468974
8.32101;-1;-0.468974
8.33074;-1;-0.534408
8.34199;-1;-0.560051
8.35023;-1;-0.560051
8.36088;1;-0.58849
8.37034;1;-0.58849
8.38068;1;-0.600261
8.39024;1;-0.600667
8.40052;1;-0.600667
8.41088;1;-0.560826
8.42026;1;-0.560826
8.43087;-1;-0.568268
8.44022;-1;-0.511954
8.4506;-1;-0.511954
8.46373;-1;-0.449569
8.47108;-1;-0.449569
8.48105;-1;-0.309231
8.49041;-1;-0.309231
8.50049;-1;-0.283523
8.51099;-1;-0.331264
8.52233;-1;-0.331264
8.53034;-1;-0.341925
8.54052;-1;-0.330795
8.55186;-1;-0.330795
8.56035;-1;-0.342028
8.57086;1;-0.342028
8.58249;1;-0.326243
8.5905;1;-0.319146
8.60088;1;-0.319146
8.61264;1;-0.321408
8.62094;1;-0.321408
8.63044;1;-0.301824
8.64208;1;-0.301824
8.65017;1;-0.291898
8.66063;1;-0.281189
8.67411;1;-0.281189
8.68013;1;-0.201756
8.69051;1;-0.201756
8.70492;1;-0.18193
8.71098;1;-0.0813658
8.72033;1;-0.0813658
8.73479;1;0.0504048
8.74055;1;0.0504048
8.7511;1;0.0198453
8.76614;1;0.109407
8.77004;-1;0.109407
8.78053;-1;0.119865
8.79631;-1;0.15389
8.80034;-1;0.15389
8.81017;-1;0.139702
8.8232;-1;0.139702
8.83073;-1;0.122326
8.84098;-1;0.122326
8.85613;1;0.0365776
8.86008;1;0.0298458
8.87037;1;0.0298458
8.88611;1;-0.0508599
8.89091;1;-0.0508599
8.90014;1;-0.048415
8.91015;1;-0.0428671
8.9224;1;-0.0428671
8.93051;1;0.00199383
8.9407;1;0.00199383
8.95255;1;0.00232579
8.96096;1;0.0546021
8.97009;1;0.0546021
8.98312;-1;0.0475559
8.99045;-1;0.0475559
9.00015;-1;0.0835357
9.01257;-1;0.10958
9.02089;-1;0.10958
9.03087;-1;0.137109
9.04219;-1;0.114921
9.05061;-1;0.114921
9.06042;-1;0.117093
9.07108;-1;0.117093
9.08029;-1;0.0751994
9.09048;-1;0.0751994
9.10027;-1;-0.0191305
9.11067;-1;-0.0592131
9.12102;1;-0.0592131
9.13112;1;-0.0782137
9.14109;1;-0.0782137
9.15043;1;-0.103936
9.16098;1;-0.103936
9.17017;1;-0.0958718
9.1805;1;-0.108208
9.19022;-1;-0.108208
9.20032;-1;-0.0513404
9.21079;-1;0.00656691
9.2224;-1;0.00656691
9.23043;-1;0.0345422
9.24062;-1;0.0345422
9.25289;-1;-0.0250667
9.26094;-1;-0.058662
9.27113;-1;-0.058662
9.28291;-1;-0.0776821
9.29069;-1;-0.0776821
9.30103;-1;-0.109525
9.31272;-1;-0.140062
9.32055;-1;-0.140062
9.3302;1;-0.168227
9.3428;1;-0.168227
9.35095;1;-0.201522
9.36079;1;-0.218029
9.3746;1;-0.218029
9.38078;1;-0.208291
9.39097;1;-0.208291
9.40466;-1;-0.189053
9.41019;-1;-0.150153
9.42037;-1;-0.150153
9.43474;-1;-0.111861
9.44067;-1;-0.111861
9.45079;-1;-0.013274
9.46354;-1;-0.0440643
9.47118;-1;-0.0440643
9.48112;-1;-0.0723095
9.49327;-1;-0.0723095
9.50114;-1;-0.0816672
9.51103;-1;-0.123995
9.52325;-1;-0.123995
9.5311;-1;-0.144139
9.54046;1;-0.144139
9.55326;1;-0.181628
9.56099;1;-0.197914
9.57019;1;-0.197914
9.58358;1;-0.224563
9.59101;1;-0.224563
9.60013;1;-0.20153
9.61094;1;-0.170151
9.62277;1;-0.170151
9.63056;1;-0.159541
9.64079;1;-0.159541
9.6528;1;-0.0601709
9.66118;1;0.0372179
9.6704;1;0.0372179
9.68349;-1;0.00278264
9.6907;-1;0.00278264
9.70095;-1;0.0910682
9.71247;-1;0.0773419
9.72066;-1;0.0773419
9.73096;-1;0.055275
9.74228;-1;0.055275
9.75039;-1;-0.057102
9.76006;-1;-0.057958
9.77075;-1;-0.057958
9.78084;-1;-0.069975
9.79107;-1;-0.069975
9.80078;-1;-0.0906253
9.81023;-1;-0.13128
9.82046;-1;-0.13128
9.83136;-1;-0.16577
9.84025;-1;-0.16577
9.85063;-1;-0.194012
9.86053;-1;-0.194012
9.8708;-1;-0.231731
9.881;-1;-0.241495
9.89103;-1;-0.241495
9.90105;-1;-0.256047
9.91029;-1;-0.256047
9.92241;-1;-0.249148
9.93046;-1;-0.276236
9.94074;-1;-0.276236
9.95288;-1;-0.270702
9.96061;-1;-0.304816
9.97083;-1;-0.304816
9.98292;-1;-0.32189
9.99079;-1;-0.32189
10.0007;-1;-0.345971
10.0125;-1;-0.345971
10.0206;-1;-0.356856
10.0309;-1;-0.411379
10.0427;-1;-0.411379
10.0506;-1;-0.408219
10.0611;-1;-0.405444
10.0751;-1;-0.405444
10.0811;-1;-0.390965
10.0903;1;-0.390965
10.1046;1;-0.373836
10.1103;1;-0.373836
10.1209;1;-0.351911
10.1344;1;-0.331365
10.1411;1;-0.331365
10.1505;1;-0.315096
10.1669;1;-0.29798
10.1706;1;-0.29798
10.1805;1;-0.255643
10.1962;1;-0.255643
10.2001;1;-0.229769
10.2105;1;-0.229769
10.2264;1;-0.13533
10.2302;1;-0.106994
10.2406;1;-0.106994
10.2566;1;0.0334416
10.2603;1;0.0334416
10.2703;1;0.0580178
10.2868;1;0.0769933
10.2904;1;0.0769933
10.3008;1;0.12443
10.3103;-1;0.12443
10.3228;-1;0.145423
10.3312;-1;0.14094
10.3406;-1;0.14094
10.3525;-1;0.14741
10.3608;-1;0.14741
10.3708;1;0.127418
10.3829;1;0.092597
10.3902;1;0.092597
10.4011;1;-0.0570327
10.413;1;-0.0474701
10.4201;1;-0.0474701
10.4306;1;-0.0490168
10.4425;1;-0.0490168
10.4511;-1;0.0300926
10.4603;-1;0.0300926
10.4705;-1;0.0305363
10.4805;-1;0.0488317
10.4908;-1;0.0488317
10.5014;-1;0.0508246
10.5104;-1;0.0508246
10.5205;-1;0.0719118
10.5316;-1;0.0719118
10.5408;-1;0.00176513
10.5507;-1;-0.0787476
10.5607;-1;-0.0787476
10.5707;-1;-0.0805234
10.5802;1;-0.0943806
10.5911;1;-0.0943806
10.6008;1;-0.113194
10.6102;1;-0.113194
10.6233;1;-0.142182
10.6305;1;-0.162057
10.6409;1;-0.162057
10.6526;-1;-0.165425
10.6604;-1;-0.165425
10.6708;-1;-0.154763
10.6831;-1;-0.121717
10.6909;-1;-0.121717
10.7002;-1;-0.0874714
10.7133;-1;-0.0874714
10.7206;-1;-0.0533102
10.7306;-1;-0.0480541
10.7427;-1;-0.0480541
10.7507;-1;-0.0566544
10.761;-1;-0.0566544
10.7749;-1;-0.087868
10.7802;-1;-0.114903
10.7905;-1;-0.114903
10.8058;-1;-0.14074
10.8109;-1;-0.14074
10.8206;-1;-0.158886
10.8365;-1;-0.184225
10.8404;-1;-0.184225
10.8501;-1;-0.208354
10.8636;1;-0.208354
10.8716;1;-0.248355
10.8804;1;-0.269969
10.8937;1;-0.269969
10.9018;1;-0.280989
10.9111;1;-0.280989
10.9234;1;-0.266859
10.9315;1;-0.237972
10.9409;1;-0.237972
10.9537;1;-0.203534
10.9613;1;-0.203534
10.9702;1;-0.0859282
10.9838;1;-0.0591102
10.9911;1;-0.0591102
11.0005;1;0.0686431
11.0107;1;0.0686431
11.0231;1;0.0514155
11.0305;1;0.0514155
11.0403;1;0.0588305
11.0535;1;0.0725498
11.0608;1;0.0725498
11.0708;-1;0.0976438
11.0828;-1;0.128576
11.0911;-1;0.128576
11.1003;-1;0.16516
11.1133;-1;0.167849
11.1207;-1;0.167849
11.13;-1;0.15346
11.143;-1;0.15346
11.1507;-1;0.123961
11.1609;-1;0.123961
11.1715;-1;0.08985
11.1806;-1;0.0108784
11.1908;-1;0.0108784
11.2014;-1;-0.0777761
11.2107;-1;-0.0777761
11.2207;-1;-0.070968
11.2321;-1;-0.070968
11.2409;-1;-0.116063
11.251;-1;-0.128646
11.2614;-1;-0.128646
11.2704;-1;-0.15771
11.2805;1;-0.18326
11.2939;1;-0.18326
11.301;1;-0.211115
11.3102;1;-0.211115
11.3229;1;-0.222467
11.3304;1;-0.224022
11.3405;1;-0.224022
11.3532;-1;-0.199599
11.3611;-1;-0.199599
11.3703;-1;-0.156476
11.3851;-1;-0.156476
11.3906;-1;-0.0917098
11.4003;-1;-0.0855599
11.4147;-1;-0.0855599
11.4209;-1;-0.106953
11.4311;-1;-0.106953
11.4437;-1;-0.130499
11.4509;-1;-0.151087
11.4611;-1;-0.151087
11.4754;-1;-0.167018
11.4802;-1;-0.167018
11.4908;-1;-0.190331
11.5048;-1;-0.222747
11.5106;-1;-0.222747
11.5211;-1;-0.243744
11.5357;-1;-0.271429
11.5405;-1;-0.271429
11.5506;-1;-0.285319
11.5673;-1;-0.285319
11.5715;-1;-0.300249
11.5807;-1;-0.300249
11.5933;-1;-0.307275
11.6014;-1;-0.334744
11.6106;-1;-0.334744
11.6233;-1;-0.32245
11.6316;-1;-0.32245
11.6402;-1;-0.353069
11.6537;-1;-0.370651
11.662;-1;-0.370651
11.6705;-1;-0.396196
11.6885;-1;-0.405807
11.6926;-1;-0.405807
11.7006;-1;-0.443823
11.7107;-1;-0.443823
11.7203;-1;-0.435742
11.7305;-1;-0.435742
11.7404;-1;-0.500545
11.7511;-1;-0.500545
11.7608;-1;-0.516266
11.771;-1;-0.534991
11.7839;-1;-0.566358
11.7911;-1;-0.566358
11.8004;-1;-0.568003
11.8134;-1;-0.568003
11.8202;-1;-0.569128
11.8304;-1;-0.569128
11.8426;1;-0.556924
11.8505;1;-0.547849
11.8607;1;-0.547849
11.8718;1;-0.532584
11.8806;1;-0.532584
11.8911;1;-0.512608
11.9016;1;-0.512608
11.9109;-1;-0.47774
11.9204;-1;-0.430788
11.9319;-1;-0.430788
11.9411;-1;-0.395499
11.9503;-1;-0.335073
11.9619;-1;-0.335073
11.9705;1;-0.325769
11.9807;1;-0.325769
11.9918;1;-0.302747
12.0007;1;-0.2808
12.0109;1;-0.2808
12.0242;1;-0.249269
12.031;1;-0.249269
12.0402;1;-0.204693
12.0532;1;-0.142179
12.0611;1;-0.142179
12.0702;1;0.0548253
12.0839;1;0.0548253
12.0902;1;0.041461
12.1002;1;0.0709701
12.1137;-1;0.0709701
12.1205;-1;0.0867942
12.1308;-1;0.0867942
12.1432;-1;0.0901408
12.1505;-1;0.101386
12.1607;-1;0.101386
12.1757;-1;0.101888
12.1805;-1;0.101888
12.1906;-1;0.0225044
12.2057;-1;0.0152607
12.2104;-1;0.0152607
12.2202;-1;-0.0536288
12.2361;-1;-0.0536288
12.2402;-1;-0.0803429
12.2504;-1;-0.090204
12.2672;-1;-0.090204
12.2713;-1;-0.116492
12.2805;-1;-0.116492
12.2934;-1;-0.147854
12.3024;-1;-0.185104
12.3106;-1;-0.185104
12.324;1;-0.210976
12.3319;1;-0.210976
12.3409;1;-0.235027
12.3535;1;-0.251798
12.3614;1;-0.251798
12.3705;1;-0.255504
12.3875;1;-0.244976
12.3913;1;-0.244976
12.4003;1;-0.216837
12.4106;1;-0.216837
12.4235;1;-0.159685
12.4308;1;-0.159685
12.4407;1;-0.0890705
12.4533;1;0.0236816
12.4607;1;0.0236816
12.471;1;0.0175288
12.4832;1;0.0715619
12.4905;1;0.0715619
12.5002;1;0.077285
12.5134;1;0.077285
12.5208;1;0.096589
12.5302;1;0.096589
12.5435;1;0.118785
12.5505;1;0.146263
12.5609;1;0.146263
12.5718;1;0.1679
12.5806;1;0.1679
12.5904;1;0.180559
12.6019;-1;0.180559
12.611;-1;0.226788
12.6204;-1;0.252148
12.6322;-1;0.252148
12.6404;-1;0.249314
12.6508;-1;0.250961
12.6616;-1;0.250961
12.6709;1;0.223711
12.6802;1;0.223711
12.6916;1;0.18238
12.7004;1;0.128811
12.7108;1;0.128811
12.7242;1;0.0928646
12.7311;1;0.0928646
12.7407;-1;0.0663546
12.7535;-1;0.0663546
12.7607;-1;0.0676763
12.7708;-1;0.0814222
12.7838;-1;0.0814222
12.7907;-1;0.103071
12.801;-1;0.103071
12.8144;-1;0.0915125
12.8204;-1;0.100916
12.8307;-1;0.100916
12.844;-1;0.0204396
12.851;-1;-0.0528054
12.8603;-1;-0.0528054
12.8757;-1;-0.059036
12.8806;-1;-0.059036
12.8906;-1;-0.0708634
12.9059;-1;-0.0886983
12.9109;-1;-0.0886983
12.9203;-1;-0.119005
12.9362;-1;-0.119005
12.9404;-1;-0.155457
12.9508;-1;-0.155457
12.9639;-1;-0.18862
12.9724;-1;-0.208232
12.9808;-1;-0.208232
12.998;-1;-0.22928
13.0018;-1;-0.22928
13.0107;-1;-0.240826
13.0237;1;-0.257601
13.0314;1;-0.257601
13.0408;1;-0.264269
13.0582;1;-0.264796
13.0618;1;-0.264796
13.0711;1;-0.26235
13.0838;1;-0.26235
13.0924;1;-0.233541
13.1008;1;-0.233541
13.1105;1;-0.221436
13.1236;1;-0.160562
13.131;1;-0.160562
13.1409;1;-0.109953
13.1533;1;-0.0823946
13.1608;1;-0.0823946
13.1704;1;0.0605536
13.1804;1;0.0605536
13.1903;1;0.0800222
13.2005;1;0.0800222
13.2132;1;0.0748253
13.2204;1;0.0839037
13.2307;1;0.0839037
13.24;1;0.123727
13.2511;1;0.123727
13.2605;1;0.145963
13.2715;1;0.145963
13.2809;1;0.175892
13.2907;1;0.212787
13.3014;1;0.212787
13.3104;1;0.238385
13.3208;1;0.249121
13.3316;1;0.249121
13.3408;1;0.241374
13.351;1;0.241374
13.3624;1;0.244013
13.3704;1;0.247625
13.3806;1;0.247625
13.392;1;0.240324
13.4009;1;0.240324
13.4111;1;0.253899
13.4244;1;0.266947
13.4305;1;0.266947
13.4409;1;0.293873
13.455;1;0.293873
13.461;1;0.300729
13.47;1;0.302027
13.4854;1;0.302027
13.4905;1;0.305862
13.5007;1;0.305862
13.5151;1;0.302903
13.5203;1;0.302903
13.5309;1;0.303483
13.5458;1;0.303149
13.551;1;0.303149
13.561;1;0.313145
13.5776;-1;0.313705
13.5818;-1;0.313705
13.5901;-1;0.319351
13.6076;-1;0.319351
13.6125;-1;0.337516
13.6206;-1;0.337516
13.6365;-1;0.339997
13.6407;-1;0.339997
13.6505;-1;0.411266
13.6646;-1;0.385367
13.6739;-1;0.407458
13.6801;-1;0.407458
13.6989;-1;0.320425
13.703;-1;0.320425
13.7104;1;0.367923
13.7249;1;0.367923
13.7303;1;0.281532
13.7403;1;0.0918112
13.7548;1;0.0918112
13.7602;1;0.193822
13.7703;1;0.271767
13.7844;-1;0.271767
13.7931;-1;0.247641
13.8003;-1;0.247641
13.8107;-1;0.278173
13.8201;-1;0.278173
13.8306;-1;0.238448
13.8411;-1;0.238023
13.8503;-1;0.238023
13.8604;-1;0.238856
13.871;-1;0.179455
13.8806;-1;0.179455
13.8906;-1;0.0220559
13.9008;-1;0.0220559
13.9114;-1;-0.108957
13.9206;-1;-0.108957
13.9309;-1;-0.119611
13.9416;-1;-0.119611
13.9501;-1;-0.229729
13.961;-1;-0.207325
13.9735;-1;-0.207325
13.9802;-1;-0.235414
13.9902;-1;-0.214989
14.0037;-1;-0.214989
14.0104;-1;-0.214477
14.0219;-1;-0.214477
14.0346;-1;-0.198389
14.0407;-1;-0.198389
14.0509;-1;-0.175412
14.0632;1;-0.175412
14.0707;1;-0.188996
14.0808;1;-0.204
14.0922;1;-0.204
14.1003;1;-0.206723
14.1108;1;-0.228708
14.1238;1;-0.228708
14.1309;-1;-0.212085
14.1404;-1;-0.224195
14.1534;-1;-0.224195
14.1607;-1;-0.167491
14.1709;-1;-0.167491
14.184;-1;-0.1434
14.1911;-1;-0.139724
14.2005;1;-0.139724
14.2145;1;-0.144953
14.2203;1;-0.144953
14.2305;1;-0.147202
14.2439;1;-0.175661
14.2508;1;-0.175661
14.2606;1;-0.187979
14.2763;-1;-0.179758
14.2801;-1;-0.179758
14.2903;-1;-0.169962
14.3058;-1;-0.169962
14.3102;-1;-0.0834101
14.3204;-1;-0.0834101
14.3357;-1;-0.0747307
14.3408;-1;-0.0757246
14.351;-1;-0.0757246
14.3678;-1;-0.0678023
14.3718;-1;-0.0815617
14.381;-1;-0.0815617
14.3978;-1;-0.110646
14.4014;-1;-0.110646
14.4108;1;-0.13347
14.4238;1;-0.13347
14.4321;1;-0.163913
14.4402;1;-0.183136
14.4542;1;-0.183136
14.4625;1;-0.187374
14.4708;1;-0.187374
14.4878;1;-0.206989
14.4917;1;-0.190443
14.5009;1;-0.190443
14.5105;1;-0.139815
14.5205;1;-0.139815
14.5305;1;-0.138512
14.5408;1;-0.0114312
14.5534;1;-0.0114312
14.561;1;0.046165
14.5704;1;0.046165
14.5834;1;0.0801053
14.5904;1;0.0831546
14.6008;1;0.0831546
14.6102;1;0.0904251
14.6205;1;0.0904251
14.6301;1;0.100515
14.6404;1;0.100515
14.6506;1;0.128791
14.6605;1;0.154521
14.6725;1;0.154521
14.6807;1;0.181197
14.691;1;0.215539
14.7021;1;0.215539
14.7101;1;0.228985
14.7205;1;0.228985
14.7321;1;0.263572
14.7403;1;0.291322
14.7507;1;0.291322
14.7623;-1;0.302158
14.7711;-1;0.302158
14.781;-1;0.313997
14.7923;-1;0.313997
14.8005;-1;0.323257
14.8111;-1;0.295733
14.8241;-1;0.295733
14.8304;1;0.282203
14.8402;1;0.244892
14.8544;1;0.244892
14.8606;1;0.219536
14.871;1;0.219536
14.884;1;0.178748
14.8906;-1;0.153568
14.9009;-1;0.153568
14.9139;-1;0.135019
14.9207;-1;0.135019
14.9306;-1;0.13229
14.9441;-1;0.138878
14.951;-1;0.138878
14.9603;-1;0.138777
14.9769;1;0.113993
14.9806;1;0.113993
14.9903;1;0.0625607
15.0064;1;0.0625607
15.0104;1;0.0827885
15.0208;1;0.0827885
15.0357;1;0.0605698
15.0408;-1;0.0727658
15.0502;-1;0.0727658
15.0639;-1;0.0785555
15.0719;-1;0.0785555
15.0811;-1;0.0903835
15.0945;-1;0.115785
15.1025;-1;0.115785
15.1111;1;0.123949
15.1241;1;0.123949
15.1326;1;0.12474
15.1408;1;0.105405
15.158;1;0.105405
15.1621;1;0.106906
15.1705;-1;0.106906
15.1838;-1;0.0895835
15.1921;-1;0.0911468
15.2004;-1;0.0911468
15.2106;-1;0.11579
15.2235;-1;0.11579
15.2303;-1;0.137757
15.241;-1;0.0989818
15.2506;1;0.0989818
15.2605;1;0.12084
15.2707;1;0.12084
15.2807;1;0.0389859
15.29;1;0.0115936
15.3002;1;0.0115936
15.3108;1;0.0115936
15.3202;1;0.0560161
15.3307;1;0.0955456
15.3403;1;0.0955456
15.3506;1;0.105858
15.3607;1;0.130023
15.3722;1;0.130023
15.3804;1;0.171638
15.3903;1;0.199273
15.4029;1;0.199273
15.4111;1;0.214565
15.4203;1;0.214565
15.4318;1;0.231173
15.4402;1;0.230607
15.4504;-1;0.230607
15.4634;-1;0.229118
15.4707;-1;0.229118
15.481;-1;0.240648
15.4936;-1;0.240648
15.5003;-1;0.238496
15.5109;-1;0.22084
15.5256;-1;0.22084
15.5304;-1;0.177575
15.5405;-1;0.177575
15.554;-1;0.145694
15.5612;-1;0.0557966
15.5705;-1;0.0557966
15.5845;-1;-0.00557928
15.5905;-1;-0.0801624
15.6007;-1;-0.0801624
15.6147;-1;-0.0713794
15.6206;-1;-0.0713794
15.6303;-1;-0.138735
15.6449;-1;-0.138735
15.6502;-1;-0.154401
15.661;-1;-0.159871
15.6766;-1;-0.159871
15.681;-1;-0.177968
15.6902;-1;-0.177968
15.7065;-1;-0.191222
15.7104;-1;-0.196798
15.7206;-1;-0.196798
15.7371;-1;-0.216358
15.7409;-1;-0.216358
15.7503;-1;-0.242693
15.7642;-1;-0.248805
15.7725;-1;-0.248805
15.7805;-1;-0.274843
15.7984;-1;-0.305843
15.802;1;-0.305843
15.8108;1;-0.313651
15.8284;1;-0.313651
15.8325;1;-0.322857
15.8408;1;-0.322857
15.8543;1;-0.322235
15.8627;1;-0.311129
15.871;1;-0.311129
15.8883;1;-0.285183
15.8922;1;-0.242478
15.9004;1;-0.242478
15.9102;1;-0.208731
15.9206;1;-0.208731
15.9309;1;-0.125021
15.9403;-1;-0.125021
15.9501;-1;0.0688613
15.9603;-1;0.0857289
15.9706;-1;0.0857289
15.9806;-1;0.075716
15.9906;-1;0.075716
16.0006;-1;0.0747055
16.0104;-1;0.0747055
16.0207;-1;0.0799611
16.0302;-1;0.0702924
16.0408;-1;0.0702924
16.0509;-1;-0.0435234
16.0603;-1;-0.0664124
16.0729;-1;-0.0664124
16.0809;-1;-0.0703085
16.0911;-1;-0.0703085
16.1028;-1;-0.0923731
16.1107;-1;-0.127197
16.1209;-1;-0.127197
16.133;-1;-0.149335
16.1409;-1;-0.149335
16.1503;1;-0.184304
16.1635;1;-0.200529
16.1704;1;-0.200529
16.1807;1;-0.211833
16.1924;1;-0.211833
16.2006;1;-0.233831
16.2105;1;-0.241823
16.2244;-1;-0.241823
16.2305;-1;-0.221682
16.2407;-1;-0.221682
16.2543;-1;-0.207398
16.2609;-1;-0.185998
16.2702;-1;-0.185998
16.2842;-1;-0.15186
16.2911;1;-0.15186
16.3004;1;-0.184626
16.3145;1;-0.185723
16.3204;1;-0.185723
16.3303;1;-0.205172
16.3455;1;-0.205172
16.3506;1;-0.174563
16.3606;-1;-0.170014
16.3767;-1;-0.170014
16.3808;-1;-0.0909597
16.3911;-1;-0.0909597
16.4063;-1;-0.0384562
16.4102;-1;-0.035202
16.4204;-1;-0.035202
16.4367;1;-0.0661809
16.4403;1;-0.0661809
16.4506;1;-0.110346
16.4644;1;-0.115316
16.4726;1;-0.115316
16.4803;1;-0.107168
16.4946;1;-0.107168
16.5031;1;-0.113405
16.5103;1;-0.113405
16.5242;1;-0.025223
16.5325;1;-0.0155256
16.5407;1;-0.0155256
16.5543;1;0.0618428
16.5626;1;0.0464993
16.5708;-1;0.0464993
16.5897;-1;0.0668665
16.5937;-1;0.0668665
16.6004;-1;0.0906953
16.6103;-1;0.115433
16.6219;-1;0.115433
16.6307;-1;0.123428
16.641;-1;0.123428
16.6524;-1;0.0870059
16.6606;-1;0.0870059
16.6708;-1;-0.0182329
16.6818;-1;-0.0182329
16.6903;-1;-0.0125456
16.7007;-1;-0.0742083
16.7118;1;-0.0742083
16.7203;1;-0.0844817
16.7307;1;-0.102522
16.7402;1;-0.102522
16.7503;1;-0.116434
16.7603;1;-0.130173
16.773;1;-0.130173
16.7801;1;-0.111833
16.7904;1;-0.111833
16.8027;1;-0.0601343
16.8102;1;0.0755678
16.8206;1;0.0755678
16.8325;1;0.0553453
16.8403;1;0.0553453
16.8509;-1;0.0542973
16.8627;-1;0.0542973
16.871;-1;0.083321
16.8805;-1;0.0863251
16.8931;-1;0.0863251
16.9002;-1;0.120344
16.9106;-1;0.120344
16.9244;-1;0.0738246
16.9304;-1;0.0729101
16.9408;-1;0.0729101
16.955;-1;0.0585291
16.961;-1;-0.0766615
16.9703;-1;-0.0766615
16.9855;1;-0.0789088
16.9903;1;-0.0789088
17.0009;1;-0.091974
17.0145;1;-0.091974
17.0208;1;-0.110366
17.0312;1;-0.144988
17.0449;1;-0.144988
17.051;-1;-0.146013
17.0604;-1;-0.146013
17.0771;-1;-0.140621
17.0811;-1;-0.110797
17.0905;-1;-0.110797
17.1066;-1;-0.0877002
17.1103;-1;-0.0877002
17.1202;1;-0.0950046
17.1367;1;-0.0883306
17.1403;1;-0.0883306
17.1506;1;-0.0966963
17.169;1;-0.120848
17.1726;1;-0.120848
17.1808;1;-0.146577
17.1942;1;-0.146577
17.2036;1;-0.140415
17.2112;1;-0.116851
17.2244;1;-0.116851
17.2333;1;0.0280959
17.2406;1;0.0280959
17.2583;1;0.077828
17.2622;1;0.0770718
17.2707;1;0.0770718
17.2846;1;0.0821101
17.2927;1;0.0821101
17.3004;1;0.102676
17.3106;1;0.102676
17.3207;1;0.134229
17.3309;1;0.160866
17.3411;1;0.160866
17.3515;1;0.187777
17.3604;1;0.187777
17.3705;1;0.200591
17.3812;1;0.200591
17.3907;1;0.217864
17.4005;1;0.241494
17.4105;1;0.241494
17.4209;1;0.258202
17.4311;1;0.263459
17.4411;1;0.263459
17.4509;1;0.260983
17.4611;1;0.260983
17.4736;1;0.264315
17.4805;1;0.26723
17.4906;1;0.26723
17.5033;1;0.278694
17.5102;1;0.278694
17.5211;1;0.290743
17.534;1;0.305005
17.5411;-1;0.305005
17.5505;-1;0.332806
17.5625;-1;0.332806
17.5708;-1;0.342885
17.5807;-1;0.333629
17.5926;-1;0.333629
17.6007;-1;0.32307
17.611;1;0.32307
17.6252;1;0.295916
17.6302;1;0.267926
17.6404;1;0.267926
17.6548;1;0.234061
17.6608;1;0.234061
17.6704;1;0.193373
17.6853;1;0.187095
17.6901;1;0.187095
17.701;1;0.172039
17.7152;1;0.172039
17.7205;1;0.195824
17.7305;1;0.212981
17.7456;1;0.212981
