Time(s);Vsent(m/s);VMeasured(m/s);PosX(m);PosY(m)
0.0270478;0;0;-0.231;0.092
0.0380961;0;0;-0.231;0.092
0.0526057;0;0;-0.231;0.092
0.0604954;0;0;-0.231;0.092
0.076408;0;0;-0.231;0.092
0.09536;0;0;-0.231;0.092
0.120395;0;0;-0.231;0.092
0.145563;0.1;0;-0.231;0.092
0.160354;0.1;0;-0.231;0.092
0.171178;0.1;0;-0.231;0.092
0.180798;0.1;0;-0.231;0.092
0.203055;0.1;0;-0.231;0.092
0.218887;0.1;-0.00496011;-0.231;0.092
0.23948;0.1;0.0100662;-0.23;0.093
0.242752;0.1;0.0246819;-0.228;0.095
0.258237;0.1;0.0244432;-0.227;0.097
0.27278;0.1;0.0533285;-0.225;0.098
0.303828;0.1;0.0348596;-0.224;0.1
0.304119;0.1;0.0577474;-0.222;0.101
0.315487;0.1;0.0316032;-0.221;0.103
0.330871;0.1;0.0492764;-0.219;0.105
0.349131;0.1;0.0443587;-0.218;0.106
0.36073;0.1;0.0466457;-0.216;0.108
0.377111;0.1;0.0466457;-0.216;0.108
0.40074;0.1;0.0264094;-0.213;0.111
0.423408;0.1;0.0264094;-0.213;0.111
0.423586;0.1;0.0583646;-0.211;0.112
0.437219;0.1;0.0446541;-0.209;0.114
0.458325;0.1;0.0405025;-0.208;0.115
0.470858;0.1;0.0348659;-0.208;0.115
0.481029;0.1;-0.0182349;-0.209;0.118
0.503084;0.1;-0.0432039;-0.211;0.119
0.514407;0.1;-0.0241385;-0.212;0.121
0.548689;0.1;-0.0462518;-0.214;0.123
0.548862;0.1;-0.0583591;-0.216;0.124
0.555557;0.1;-0.0408318;-0.217;0.125
0.586642;0.1;-0.0534452;-0.221;0.128
0.602729;0.1;-0.0534452;-0.221;0.128
0.625482;-0.1;-0.059481;-0.224;0.131
0.639094;-0.1;-0.0291533;-0.225;0.133
0.656607;-0.1;-0.0487296;-0.227;0.135
0.664346;-0.1;-0.0487296;-0.227;0.135
0.677479;-0.1;-0.045188;-0.228;0.136
0.704235;-0.1;-0.0411971;-0.229;0.137
0.714525;-0.1;-0.036626;-0.23;0.138
0.727084;-0.1;0.0288278;-0.229;0.137
0.738631;-0.1;0.0283566;-0.228;0.136
0.758118;-0.1;0.0403315;-0.226;0.135
0.779957;-0.1;0.038294;-0.224;0.133
0.784433;-0.1;0.038294;-0.224;0.133
0.801771;-0.1;0.0376464;-0.223;0.132
0.813203;-0.1;0.052866;-0.221;0.131
0.831616;-0.1;0.0237098;-0.22;0.129
0.842261;-0.1;-0.0384607;-0.221;0.128
0.866644;-0.1;-0.0528914;-0.224;0.125
0.873686;0.1;-0.0528914;-0.224;0.125
0.89626;0.1;-0.0529791;-0.227;0.121
0.907882;0.1;-0.0529791;-0.227;0.121
0.919868;0.1;-0.049007;-0.228;0.12
0.945295;0.1;-0.0485125;-0.231;0.117
0.950603;0.1;-0.0485125;-0.231;0.117
0.962076;0.1;-0.0321553;-0.231;0.117
0.986102;0.1;-0.0238278;-0.231;0.117
0.992295;-0.1;0.0240274;-0.229;0.118
1.01224;-0.1;0.0171862;-0.228;0.12
1.02283;-0.1;0.0436438;-0.226;0.121
1.04561;-0.1;0.0508464;-0.224;0.123
1.05174;-0.1;0.0612488;-0.222;0.124
1.07083;-0.1;0.0529696;-0.222;0.124
1.08209;-0.1;0.0529696;-0.222;0.124
1.0986;-0.1;0.00222798;-0.222;0.126
1.12269;-0.1;-0.0276356;-0.224;0.125
1.14388;-0.1;-0.0350923;-0.226;0.124
1.15933;-0.1;-0.0206769;-0.227;0.122
1.17717;-0.1;-0.0495943;-0.229;0.121
1.2003;-0.1;-0.0402916;-0.232;0.118
1.22013;-0.1;-0.0402916;-0.232;0.118
1.22038;-0.1;0.00322221;-0.232;0.116
1.24105;-0.1;0.0285556;-0.231;0.114
1.25713;-0.1;0.0427128;-0.229;0.112
1.26944;-0.1;0.0420455;-0.228;0.111
1.27968;-0.1;0.0454036;-0.226;0.109
1.29811;-0.1;0.0407146;-0.225;0.108
1.31124;-0.1;0.0399938;-0.223;0.106
1.34301;-0.1;0.0399938;-0.223;0.106
1.34335;-0.1;-0.0370811;-0.223;0.104
1.35985;-0.1;-0.028677;-0.224;0.102
1.38005;-0.1;-0.042554;-0.226;0.1
1.39013;-0.1;-0.0431191;-0.227;0.099
1.40154;-0.1;-0.0431191;-0.227;0.099
1.41439;-0.1;-0.0514959;-0.229;0.097
1.4293;-0.1;-0.0373788;-0.23;0.095
1.44958;-0.1;-0.037194;-0.233;0.092
1.45965;-0.1;-0.037194;-0.233;0.092
1.47472;-0.1;-0.0584098;-0.235;0.091
1.50027;0.1;-0.0331759;-0.236;0.089
1.51252;0.1;-0.0576761;-0.238;0.088
1.52081;0.1;-0.0498577;-0.24;0.086
1.53518;0.1;-0.0449004;-0.241;0.085
1.55309;0.1;-0.047236;-0.243;0.083
1.57239;0.1;-0.0423257;-0.244;0.082
1.57957;0.1;-0.0325529;-0.244;0.082
1.59427;0.1;0.0313558;-0.243;0.081
1.61587;0.1;0.022723;-0.242;0.082
1.63226;-0.1;0.028845;-0.24;0.084
1.6396;-0.1;0.028845;-0.24;0.084
1.6627;-0.1;0.0377336;-0.237;0.087
1.67324;-0.1;0.0544049;-0.235;0.088
1.6941;-0.1;0.0339913;-0.234;0.089
1.69919;-0.1;0.0339913;-0.234;0.089
1.71496;-0.1;0.0322562;-0.234;0.089
1.73247;-0.1;-0.0432643;-0.236;0.09
1.7534;0.1;-0.0372544;-0.239;0.088
1.76172;0.1;-0.0372544;-0.239;0.088
1.77705;0.1;-0.0218659;-0.24;0.086
1.80281;0.1;-0.0503174;-0.242;0.085
1.81203;0.1;-0.0278596;-0.243;0.083
1.81971;0.1;-0.0389885;-0.244;0.082
1.83648;0.1;-0.0280068;-0.244;0.082
1.85353;0.1;-0.0170239;-0.244;0.082
1.88401;-0.1;-0.0170239;-0.244;0.082
1.8844;-0.1;0.0129342;-0.243;0.083
1.89477;-0.1;0.0216531;-0.241;0.084
1.91276;-0.1;0.0340018;-0.238;0.087
1.93834;-0.1;0.0340018;-0.238;0.087
1.93908;-0.1;0.0335897;-0.237;0.088
1.95473;-0.1;0.0283712;-0.237;0.088
1.97152;-0.1;-0.0262846;-0.238;0.089
1.9894;-0.1;-0.023811;-0.238;0.089
2.00003;-0.1;-0.0315632;-0.241;0.087
2.02382;-0.1;-0.0421908;-0.243;0.086
2.03141;-0.1;-0.0228692;-0.244;0.084
2.04881;-0.1;-0.0477708;-0.246;0.082
2.05997;-0.1;-0.04183;-0.247;0.081
2.07867;-0.1;-0.0454228;-0.249;0.079
2.09871;-0.1;-0.0421135;-0.25;0.078
2.1107;-0.1;-0.0421135;-0.25;0.078
2.11948;0.1;-0.0427753;-0.252;0.076
2.13753;0.1;-0.031411;-0.253;0.074
2.15432;0.1;-0.0340592;-0.256;0.071
2.17249;0.1;-0.0340592;-0.256;0.071
2.18531;0.1;-0.0473389;-0.259;0.068
2.20127;0.1;-0.0473389;-0.259;0.068
2.21172;0.1;-0.050009;-0.261;0.069
2.23217;0.1;-0.0323944;-0.262;0.07
2.23996;0.1;-0.0408725;-0.264;0.071
2.25561;0.1;-0.0341324;-0.266;0.073
2.27433;0.1;-0.0301839;-0.267;0.074
2.29108;0.1;-0.0347038;-0.269;0.076
2.29977;0.1;-0.0308531;-0.27;0.077
2.32485;0.1;0.0359095;-0.269;0.079
2.33328;0.1;0.0403951;-0.268;0.081
2.35083;0.1;0.0403951;-0.268;0.081
2.35998;0.1;0.0554925;-0.266;0.082
2.37978;0.1;0.0465876;-0.263;0.086
2.39575;0.1;0.054424;-0.262;0.087
2.42015;0.1;0.054424;-0.262;0.087
2.42036;0.1;0.0585814;-0.26;0.089
2.43898;0.1;0.0446303;-0.259;0.091
2.45843;0.1;0.0504127;-0.258;0.092
2.47804;0.1;-0.0207318;-0.259;0.093
2.48548;0.1;-0.0163527;-0.26;0.094
2.50098;0.1;-0.0170963;-0.262;0.096
2.52159;0.1;-0.0336489;-0.264;0.097
2.53044;0.1;-0.0173905;-0.265;0.098
2.54149;0.1;-0.0194999;-0.267;0.1
2.56257;0.1;-0.0347613;-0.269;0.101
2.57345;0.1;-0.0347613;-0.269;0.101
2.59505;0.1;0.00290549;-0.27;0.103
2.60197;0.1;-0.0158049;-0.274;0.106
2.61583;0.1;-0.0158049;-0.274;0.106
2.63638;0.1;-0.030593;-0.277;0.108
2.6555;0.1;-0.0123234;-0.279;0.11
2.65983;0.1;-0.0123234;-0.279;0.11
2.67709;0.1;-0.00956827;-0.28;0.111
2.69841;0.1;0.00913635;-0.281;0.113
2.72375;0.1;0.00740674;-0.281;0.113
2.72413;0.1;0.0378541;-0.28;0.116
2.73775;0.1;0.0461431;-0.279;0.118
2.75102;-0.1;0.0532867;-0.277;0.119
2.77272;-0.1;0.0642821;-0.275;0.121
2.78472;-0.1;0.0584957;-0.274;0.122
2.79536;-0.1;0.0621936;-0.272;0.124
2.81209;-0.1;0.0646044;-0.27;0.125
2.83187;-0.1;0.0646044;-0.27;0.125
2.83924;-0.1;0.0523218;-0.269;0.126
2.86089;-0.1;-0.0336555;-0.27;0.125
2.87287;0.1;-0.0336555;-0.27;0.125
2.8922;0.1;-0.0283215;-0.271;0.124
2.89933;0.1;-0.0379339;-0.273;0.122
2.91745;0.1;-0.0476191;-0.274;0.121
2.93229;0.1;-0.05737;-0.276;0.119
2.95533;0.1;-0.0547794;-0.276;0.119
2.96756;0.1;-0.0240739;-0.276;0.117
2.97553;0.1;0.0485783;-0.274;0.118
2.99847;-0.1;0.039714;-0.273;0.12
3.01793;-0.1;0.0527343;-0.271;0.121
3.02322;-0.1;0.055802;-0.27;0.123
3.03858;-0.1;0.0657769;-0.268;0.125
3.05958;-0.1;0.0602159;-0.267;0.126
3.06934;-0.1;0.0587837;-0.265;0.127
3.08009;-0.1;0.0587837;-0.265;0.127
3.10098;-0.1;0.0547035;-0.264;0.128
3.1219;-0.1;-0.0162827;-0.261;0.125
3.13502;0.1;-0.0162827;-0.261;0.125
3.1434;0.1;0.0184977;-0.259;0.124
3.16036;0.1;-0.000253;-0.257;0.122
3.17116;0.1;-0.00125286;-0.256;0.121
3.1907;0.1;-0.002405;-0.254;0.119
3.19908;0.1;-0.00317892;-0.254;0.119
3.21799;0.1;-0.00350861;-0.253;0.118
3.23139;0.1;-0.00424901;-0.253;0.118
3.24902;-0.1;0.00452552;-0.255;0.12
3.25925;-0.1;0.00552428;-0.256;0.121
3.27493;-0.1;0.00552428;-0.256;0.121
3.29306;-0.1;0.00815415;-0.258;0.123
3.31595;-0.1;0.0100263;-0.261;0.125
3.32942;-0.1;0.00956844;-0.261;0.125
3.33644;-0.1;0.00956844;-0.261;0.125
3.35543;-0.1;0.00749;-0.261;0.125
3.38019;0.1;0.00569116;-0.259;0.124
3.38044;0.1;-0.00538363;-0.258;0.123
3.4086;0.1;-0.023218;-0.255;0.119
3.42111;0.1;0.0133527;-0.253;0.118
3.4356;0.1;0.0133527;-0.253;0.118
3.44208;0.1;-0.0262319;-0.252;0.116
3.45693;0.1;-0.0180204;-0.252;0.116
3.47371;0.1;0.00262864;-0.253;0.117
3.49524;0.1;0.00177203;-0.254;0.118
3.50739;-0.1;0.00133024;-0.256;0.12
3.51495;-0.1;0.000851041;-0.257;0.121
3.53557;-0.1;4.68436e-05;-0.259;0.123
3.5558;-0.1;0.019471;-0.26;0.125
3.55898;-0.1;0.019471;-0.26;0.125
3.5784;-0.1;-0.046652;-0.264;0.126
3.59844;-0.1;-0.0645846;-0.266;0.124
3.61786;-0.1;-0.0611217;-0.268;0.123
3.62058;0.1;-0.0611217;-0.268;0.123
3.6363;0.1;-0.061742;-0.269;0.121
3.65895;0.1;-0.0619332;-0.271;0.12
3.66974;0.1;-0.0599445;-0.272;0.118
3.67904;0.1;-0.0660493;-0.274;0.116
3.69461;0.1;-0.0602923;-0.275;0.115
3.71179;0.1;-0.0516719;-0.275;0.115
3.73184;0.1;-0.0176826;-0.278;0.116
3.74346;0.1;0.0209868;-0.279;0.118
3.75417;0.1;-0.00920389;-0.281;0.119
3.7694;0.1;0.0108993;-0.283;0.121
3.79079;0.1;0.0109363;-0.284;0.122
3.80147;0.1;0.0109363;-0.284;0.122
3.81439;0.1;0.0294646;-0.285;0.124
3.83047;0.1;0.00958311;-0.286;0.125
3.84995;0.1;0.059891;-0.283;0.129
3.85977;0.1;0.059891;-0.283;0.129
3.87586;0.1;0.0543647;-0.282;0.13
3.89119;0.1;0.0642318;-0.28;0.132
3.90893;0.1;0.0590992;-0.278;0.133
3.91983;0.1;0.0587402;-0.277;0.135
3.94231;0.1;0.061405;-0.275;0.136
3.95234;0.1;0.0660813;-0.273;0.138
3.96954;0.1;0.0603126;-0.272;0.139
3.98011;0.1;0.0643158;-0.27;0.141
3.99908;-0.1;0.0585529;-0.268;0.142
4.01137;-0.1;0.0594315;-0.267;0.144
4.03204;-0.1;0.0695689;-0.265;0.146
4.04314;-0.1;0.0695689;-0.265;0.146
4.05426;-0.1;0.0597007;-0.264;0.147
4.06959;-0.1;0.0539162;-0.263;0.148
4.09096;-0.1;-0.0288475;-0.264;0.147
4.09988;-0.1;-0.0288475;-0.264;0.147
4.11762;-0.1;-0.0349912;-0.265;0.145
4.14275;-0.1;-0.0562745;-0.268;0.142
4.16308;-0.1;-0.0562745;-0.268;0.142
4.16324;-0.1;-0.0638275;-0.27;0.14
4.18182;-0.1;-0.0638275;-0.27;0.14
4.20102;-0.1;-0.0616848;-0.273;0.137
4.21126;-0.1;-0.0646327;-0.274;0.135
4.21909;-0.1;-0.0479035;-0.276;0.134
4.24378;-0.1;-0.066196;-0.277;0.132
4.25006;-0.1;-0.0617786;-0.279;0.13
4.26897;-0.1;-0.0660942;-0.28;0.128
4.27986;-0.1;-0.0660942;-0.28;0.128
4.29949;-0.1;-0.0496506;-0.282;0.127
4.31092;-0.1;-0.0659209;-0.283;0.125
4.3318;-0.1;-0.0514288;-0.284;0.124
4.33994;-0.1;-0.0437008;-0.284;0.124
4.35472;-0.1;-0.0365471;-0.283;0.121
4.37946;-0.1;-0.0160055;-0.282;0.12
4.39429;-0.1;-0.0189479;-0.28;0.118
4.40145;-0.1;-0.0379827;-0.279;0.116
4.41553;-0.1;-0.00114702;-0.277;0.115
4.43252;-0.1;-0.0398721;-0.276;0.113
4.45281;-0.1;-0.0213587;-0.274;0.111
4.46069;-0.1;-0.0204625;-0.273;0.11
4.47577;-0.1;-0.0228564;-0.271;0.108
4.50392;-0.1;-0.0217467;-0.27;0.107
4.51963;-0.1;-0.0226493;-0.268;0.105
4.54346;-0.1;-0.024436;-0.265;0.102
4.56036;-0.1;-0.00789054;-0.263;0.101
4.58018;-0.1;-0.00789054;-0.263;0.101
4.58039;-0.1;-0.0426662;-0.262;0.099
4.60106;-0.1;-0.0102543;-0.26;0.098
4.61125;-0.1;-0.0314059;-0.258;0.096
4.631;0.1;-0.0295404;-0.257;0.095
4.63951;0.1;-0.0123232;-0.255;0.094
4.65943;0.1;-0.0334152;-0.253;0.092
4.67869;0.1;-0.0291258;-0.252;0.091
4.69447;0.1;-0.0472693;-0.251;0.089
4.70513;0.1;-0.0354949;-0.251;0.089
4.72161;0.1;-0.0202121;-0.251;0.089
4.7397;0.1;-0.0202121;-0.251;0.089
4.76017;0.1;0.00775186;-0.254;0.091
4.77814;0.1;0.0189985;-0.257;0.094
4.79446;0.1;0.0417283;-0.259;0.096
4.81123;0.1;0.0388967;-0.26;0.097
4.82043;0.1;0.0388967;-0.26;0.097
4.83547;0.1;0.0413344;-0.262;0.099
4.85278;0.1;0.0225097;-0.264;0.1
4.87227;-0.1;0.0422655;-0.267;0.104
4.88057;-0.1;0.0422655;-0.267;0.104
4.89653;-0.1;0.0355617;-0.268;0.105
4.9144;-0.1;0.0371091;-0.27;0.107
4.9348;-0.1;0.0332418;-0.271;0.108
4.94315;-0.1;0.0217582;-0.271;0.108
4.95573;-0.1;0.0159793;-0.271;0.108
4.97548;-0.1;-0.0104024;-0.27;0.107
4.99524;-0.1;-0.0151959;-0.268;0.105
5.00699;-0.1;-0.0197189;-0.267;0.104
5.0257;-0.1;-0.0287223;-0.265;0.102
5.03322;-0.1;-0.0470138;-0.264;0.1
5.05279;-0.1;-0.0251355;-0.263;0.099
5.06062;-0.1;-0.0251355;-0.263;0.099
5.08359;-0.1;-0.0286945;-0.261;0.097
5.09957;-0.1;-0.0428124;-0.26;0.095
5.11224;-0.1;-0.0483726;-0.257;0.092
5.12219;-0.1;-0.0483726;-0.257;0.092
5.13534;-0.1;-0.0118502;-0.255;0.091
5.15274;-0.1;-0.046746;-0.254;0.089
5.17688;-0.1;-0.0138597;-0.252;0.088
5.18605;-0.1;-0.034205;-0.25;0.086
5.2013;-0.1;-0.0304055;-0.249;0.085
5.21246;-0.1;-0.0315527;-0.247;0.083
5.23016;-0.1;-0.0279201;-0.246;0.082
5.2419;0.1;-0.0279201;-0.246;0.082
5.25619;0.1;-0.0270663;-0.244;0.08
5.27739;0.1;-0.00740943;-0.241;0.077
5.29957;0.1;-0.045136;-0.24;0.075
5.30361;0.1;-0.045136;-0.24;0.075
5.3236;0.1;0.0192871;-0.237;0.074
5.34121;0.1;0.0444105;-0.236;0.075
5.36416;0.1;0.0444105;-0.236;0.075
5.36432;0.1;0.0477557;-0.234;0.077
5.38223;-0.1;0.0412944;-0.232;0.078
5.39255;-0.1;0.0596822;-0.231;0.08
5.41103;-0.1;0.0615685;-0.229;0.082
5.42041;-0.1;0.052484;-0.228;0.083
5.44126;-0.1;0.0472591;-0.227;0.084
5.45259;-0.1;0.0338706;-0.227;0.084
5.4716;-0.1;0.0230769;-0.227;0.084
5.48344;-0.1;-0.0282999;-0.229;0.082
5.49633;0.1;-0.0374868;-0.23;0.08
5.51125;0.1;-0.0374868;-0.23;0.08
5.53139;0.1;-0.059524;-0.234;0.077
5.5405;0.1;-0.059524;-0.234;0.077
5.5588;0.1;-0.0548224;-0.235;0.076
5.57681;0.1;-0.0441551;-0.237;0.075
5.60184;0.1;-0.0377158;-0.237;0.075
5.60221;0.1;-0.00063075;-0.24;0.076
5.62388;-0.1;0.0379715;-0.241;0.078
5.63179;-0.1;0.00860545;-0.243;0.079
5.64857;-0.1;0.031747;-0.245;0.081
5.66057;-0.1;0.0298588;-0.246;0.082
5.67803;-0.1;0.0120745;-0.248;0.083
5.69093;-0.1;0.0101654;-0.248;0.083
5.72596;-0.1;-0.0527832;-0.252;0.08
5.74139;0.1;-0.0375098;-0.254;0.079
5.75911;0.1;-0.0615509;-0.255;0.077
5.77714;0.1;-0.0449425;-0.257;0.076
5.79748;0.1;-0.0603812;-0.259;0.074
5.80871;0.1;-0.0529422;-0.259;0.074
5.81689;0.1;-0.0188241;-0.261;0.074
5.83587;0.1;0.048984;-0.26;0.076
5.85612;0.1;0.0366991;-0.259;0.077
5.86146;0.1;0.0366991;-0.259;0.077
5.87706;0.1;0.0478086;-0.258;0.079
5.89724;0.1;0.0448763;-0.256;0.08
5.91807;0.1;0.0578807;-0.253;0.083
5.92168;0.1;0.0578807;-0.253;0.083
5.93876;0.1;0.0498924;-0.251;0.084
5.95924;0.1;0.0620502;-0.249;0.086
5.96916;0.1;0.0523567;-0.248;0.087
5.9819;0.1;0.0614152;-0.246;0.089
5.99616;-0.1;0.0649628;-0.244;0.091
6.01148;-0.1;0.0553579;-0.243;0.092
6.03216;-0.1;0.0641887;-0.241;0.094
6.04318;-0.1;0.0645132;-0.24;0.096
6.05693;-0.1;0.0506396;-0.239;0.097
6.08202;-0.1;0.0415662;-0.239;0.097
6.09013;-0.1;-0.0326278;-0.24;0.096
6.10206;-0.1;-0.0326278;-0.24;0.096
6.11659;-0.1;-0.0351349;-0.241;0.094
6.13729;-0.1;-0.0319847;-0.243;0.093
6.1611;-0.1;-0.0498437;-0.246;0.09
6.18524;-0.1;-0.0632429;-0.248;0.088
6.19225;-0.1;-0.0578784;-0.249;0.087
6.2147;-0.1;-0.049557;-0.249;0.087
6.22547;-0.1;-0.0274968;-0.248;0.085
6.23635;0.1;-0.0255752;-0.247;0.083
6.25315;0.1;-0.00122734;-0.245;0.082
6.28432;0.1;-0.00366816;-0.242;0.079
6.30084;0.1;-0.0213087;-0.241;0.078
6.32354;0.1;-0.0178008;-0.241;0.078
6.33685;0.1;0.0438601;-0.238;0.08
6.35909;0.1;0.043404;-0.237;0.081
6.3627;0.1;0.0529338;-0.235;0.083
6.37566;0.1;0.0529338;-0.235;0.083
6.39946;0.1;0.056255;-0.232;0.086
6.41955;0.1;0.0659572;-0.23;0.088
6.43706;0.1;0.0536523;-0.228;0.089
6.46606;0.1;0.0574399;-0.227;0.091
6.48383;0.1;0.0338444;-0.228;0.094
6.50197;-0.1;0.0116933;-0.23;0.096
6.51444;-0.1;0.00969313;-0.231;0.097
6.53477;-0.1;0.0110113;-0.233;0.099
6.54268;-0.1;0.0296404;-0.234;0.101
6.55857;-0.1;0.00754681;-0.235;0.102
6.57834;-0.1;-0.0119823;-0.237;0.103
6.59742;-0.1;-0.0343349;-0.239;0.103
6.60866;-0.1;-0.0501471;-0.241;0.102
6.61832;-0.1;-0.0644029;-0.243;0.1
6.63466;-0.1;-0.0599541;-0.245;0.099
6.65667;-0.1;-0.0636685;-0.246;0.097
6.66797;-0.1;-0.062252;-0.248;0.096
6.67694;-0.1;-0.062252;-0.248;0.096
6.69385;-0.1;-0.0661956;-0.25;0.094
6.71546;-0.1;-0.0645029;-0.253;0.091
6.72122;-0.1;-0.0645029;-0.253;0.091
6.73622;-0.1;-0.0587377;-0.254;0.09
6.759;0.1;-0.0586526;-0.256;0.088
6.78408;0.1;-0.0632264;-0.257;0.086
6.78442;0.1;-0.0544702;-0.259;0.085
6.79972;0.1;-0.0652017;-0.26;0.083
6.81149;0.1;-0.0653592;-0.262;0.081
6.82958;0.1;-0.0596592;-0.263;0.08
6.84129;0.1;-0.0596592;-0.263;0.08
6.85636;0.1;0.007801;-0.266;0.082
6.87614;-0.1;-0.00986455;-0.268;0.083
6.8991;-0.1;0.0235722;-0.269;0.085
6.90469;-0.1;0.0235722;-0.269;0.085
6.92112;-0.1;0.00561119;-0.271;0.087
6.94113;-0.1;0.00463458;-0.272;0.088
6.95333;-0.1;0.0021933;-0.274;0.091
6.96448;-0.1;0.0021933;-0.274;0.091
6.97719;-0.1;0.000575353;-0.274;0.091
6.99385;0.1;-0.00017418;-0.274;0.091
7.01391;0.1;0.000527893;-0.273;0.09
7.02172;0.1;0.0012794;-0.271;0.088
7.04145;0.1;-0.0116504;-0.27;0.086
7.05519;0.1;0.00417224;-0.269;0.085
7.07676;0.1;-0.0139787;-0.268;0.083
7.0844;0.1;-0.010853;-0.268;0.083
7.09682;0.1;-0.010853;-0.268;0.083
7.1166;0.1;0.0102287;-0.269;0.085
7.13546;0.1;-0.0156912;-0.271;0.086
7.14204;0.1;-0.0156912;-0.271;0.086
7.15927;0.1;0.0139173;-0.272;0.088
7.17786;0.1;-0.0192905;-0.274;0.089
7.19626;0.1;-0.000722697;-0.276;0.091
7.20189;0.1;-0.00091114;-0.277;0.092
7.22004;0.1;-0.00204067;-0.279;0.094
7.23787;0.1;-0.023364;-0.281;0.095
7.25925;0.1;-0.00490704;-0.283;0.098
7.26561;0.1;-0.00490704;-0.283;0.098
7.28036;0.1;-0.00590384;-0.285;0.1
7.2997;0.1;0.0124681;-0.286;0.102
7.31061;0.1;-0.0264619;-0.288;0.103
7.32227;0.1;-0.0264619;-0.288;0.103
7.34242;0.1;-0.00729584;-0.291;0.107
7.36268;0.1;-0.00568025;-0.292;0.108
7.37634;0.1;-0.00501125;-0.294;0.11
7.38502;0.1;-0.0241532;-0.296;0.111
7.4009;0.1;-0.0241532;-0.296;0.111
7.41712;0.1;0.0165437;-0.297;0.113
7.4315;0.1;-0.0227235;-0.299;0.114
7.4421;0.1;0.0190485;-0.3;0.116
7.4591;0.1;0.0431244;-0.3;0.118
7.48356;0.1;0.0578417;-0.299;0.12
7.49953;0.1;0.0565154;-0.297;0.121
7.50528;0.1;0.0583884;-0.296;0.123
7.52452;0.1;0.0660414;-0.294;0.125
7.5343;0.1;0.0602676;-0.293;0.126
7.55148;0.1;0.0642586;-0.291;0.128
7.56197;0.1;0.0642586;-0.291;0.128
7.57942;0.1;0.0543325;-0.289;0.131
7.5945;0.1;0.0515099;-0.289;0.131
7.61247;0.1;0.0179036;-0.29;0.133
7.62368;0.1;0.0179036;-0.29;0.133
7.63714;0.1;0.00370681;-0.291;0.134
7.65214;0.1;0.00394694;-0.293;0.136
7.67285;0.1;0.00338257;-0.294;0.137
7.68452;0.1;0.00308644;-0.296;0.139
7.69662;0.1;0.02319;-0.297;0.141
7.72589;0.1;0.0586179;-0.295;0.144
7.73477;0.1;0.0586179;-0.295;0.144
7.74286;-0.1;0.0602911;-0.293;0.146
7.7588;-0.1;0.0545197;-0.292;0.147
7.77609;-0.1;0.06417;-0.29;0.149
7.79672;-0.1;0.0635227;-0.289;0.151
7.80198;-0.1;0.0541801;-0.287;0.152
7.8179;-0.1;0.0518828;-0.287;0.152
7.83764;-0.1;0.0183476;-0.284;0.151
7.8595;-0.1;-0.0046574;-0.283;0.15
7.8668;-0.1;-0.00421085;-0.281;0.148
7.88278;0.1;-0.0228152;-0.28;0.146
7.8994;0.1;-0.0228152;-0.28;0.146
7.91836;0.1;-0.00207061;-0.277;0.143
7.92754;0.1;-0.00207061;-0.277;0.143
7.93932;0.1;-0.0200348;-0.276;0.141
7.9671;0.1;0.0466404;-0.272;0.14
7.98685;0.1;0.064539;-0.27;0.142
8.00635;0.1;0.0623043;-0.268;0.143
8.01432;0.1;0.0587298;-0.267;0.144
8.04188;0.1;0.0643834;-0.265;0.146
8.04699;0.1;0.0590944;-0.263;0.147
8.06258;0.1;0.0546228;-0.262;0.149
8.08248;0.1;0.0515536;-0.262;0.149
8.09449;0.1;0.00772633;-0.263;0.151
8.10618;0.1;0.00772633;-0.263;0.151
8.12034;0.1;-0.00909521;-0.265;0.153
8.13528;0.1;0.00669041;-0.266;0.155
8.15571;0.1;0.00635573;-0.269;0.158
8.16291;0.1;0.00635573;-0.269;0.158
8.17982;0.1;-0.0331996;-0.271;0.159
8.19634;0.1;0.0308932;-0.271;0.161
8.2166;0.1;0.0268639;-0.271;0.161
8.22242;0.1;0.0400204;-0.27;0.164
8.23777;0.1;0.0515654;-0.268;0.165
8.25619;0.1;0.0565673;-0.266;0.167
8.27703;0.1;0.0581559;-0.265;0.169
8.28604;0.1;0.0653696;-0.263;0.17
8.2974;0.1;0.0567496;-0.263;0.17
8.31832;0.1;0.0273515;-0.263;0.172
8.33889;0.1;0.0273515;-0.263;0.172
8.35084;0.1;-0.0183676;-0.266;0.175
8.36065;0.1;0.0126661;-0.267;0.177
8.37619;-0.1;0.0126661;-0.267;0.177
8.39625;-0.1;-0.0225687;-0.271;0.179
8.40308;-0.1;-0.0225687;-0.271;0.179
8.41757;-0.1;0.0176434;-0.272;0.181
8.4401;-0.1;-0.0206615;-0.274;0.182
8.45764;-0.1;-0.000329481;-0.275;0.183
8.46276;-0.1;-7.04812e-05;-0.275;0.183
8.48373;-0.1;-0.000203741;-0.275;0.183
8.50193;-0.1;0.0130432;-0.273;0.182
8.52678;-0.1;0.0130432;-0.273;0.182
8.52701;-0.1;0.00131366;-0.272;0.181
8.54239;-0.1;-0.0152956;-0.269;0.177
8.5569;-0.1;0.0238104;-0.267;0.176
8.57706;-0.1;-0.0146308;-0.266;0.174
8.58462;-0.1;-0.0146308;-0.266;0.174
8.60082;-0.1;0.00795024;-0.263;0.171
8.61802;0.1;-0.010455;-0.262;0.169
8.63827;0.1;0.0282817;-0.26;0.168
8.64286;0.1;0.0282817;-0.26;0.168
8.6587;0.1;-0.00791961;-0.259;0.166
8.67909;0.1;0.0129797;-0.257;0.164
8.69914;0.1;0.0121607;-0.256;0.163
8.70414;0.1;0.0487975;-0.254;0.163
8.72027;0.1;0.0582575;-0.252;0.164
8.73474;0.1;0.048433;-0.251;0.165
8.75114;0.1;0.0582743;-0.249;0.167
8.76308;0.1;0.0582743;-0.249;0.167
8.78342;0.1;0.0585646;-0.246;0.17
8.79996;0.1;0.068441;-0.244;0.172
8.81119;0.1;0.0595404;-0.243;0.174
8.8224;0.1;0.0595404;-0.243;0.174
8.84244;0.1;0.0547087;-0.242;0.175
8.86008;0.1;0.0568446;-0.239;0.179
8.86954;-0.1;0.0568446;-0.239;0.179
8.883;-0.1;0.0576406;-0.237;0.18
8.89756;-0.1;0.0629198;-0.236;0.182
8.91277;-0.1;0.0662122;-0.234;0.184
8.94193;-0.1;0.0604772;-0.233;0.185
8.94235;-0.1;0.054733;-0.232;0.186
8.961;-0.1;0.0391897;-0.232;0.186
8.97505;-0.1;-0.0293568;-0.233;0.185
8.99347;0.1;-0.0390824;-0.235;0.183
9.00286;0.1;-0.0390126;-0.236;0.182
9.02592;0.1;-0.0583985;-0.238;0.18
9.03269;0.1;-0.0636849;-0.239;0.178
9.05273;0.1;-0.0540706;-0.24;0.177
9.06306;0.1;-0.0540706;-0.24;0.177
9.07779;0.1;-0.044344;-0.24;0.177
9.09354;0.1;-0.0318534;-0.24;0.177
9.11427;0.1;0.0373397;-0.237;0.181
9.12238;0.1;0.0373397;-0.237;0.181
9.13772;0.1;0.0484243;-0.235;0.182
9.15515;0.1;0.0658816;-0.233;0.184
9.17517;0.1;0.0602972;-0.232;0.185
9.18251;0.1;0.0644779;-0.23;0.187
9.19719;0.1;0.0601522;-0.228;0.188
9.21758;0.1;0.0580713;-0.227;0.19
9.23794;0.1;0.0623985;-0.225;0.191
9.24301;0.1;0.0662262;-0.223;0.193
9.2584;0.1;0.0605142;-0.222;0.194
9.27706;0.1;0.0646055;-0.22;0.196
9.29496;0.1;0.0621891;-0.218;0.197
9.30247;0.1;0.0621891;-0.218;0.197
9.31714;0.1;0.056388;-0.217;0.199
9.34124;0.1;0.0539552;-0.217;0.199
9.35305;0.1;-0.000414419;-0.219;0.203
9.36313;-0.1;-0.000414419;-0.219;0.203
9.37749;-0.1;0.000816299;-0.221;0.205
9.3934;-0.1;-0.024172;-0.223;0.206
9.41241;-0.1;0.00395148;-0.224;0.207
9.42272;-0.1;0.00571269;-0.226;0.209
9.44169;-0.1;0.00771256;-0.227;0.21
9.45517;-0.1;0.00805939;-0.227;0.21
9.47651;-0.1;-0.00977312;-0.226;0.209
9.48426;-0.1;-0.0106006;-0.225;0.208
9.50003;0.1;-0.0122922;-0.224;0.207
9.52083;0.1;-0.0139968;-0.222;0.205
9.53615;0.1;0.0175918;-0.22;0.204
9.54396;0.1;0.0175918;-0.22;0.204
9.5574;0.1;-0.0515852;-0.219;0.202
9.58188;0.1;0.0598742;-0.215;0.202
9.58912;0.1;0.0598742;-0.215;0.202
9.60234;0.1;0.106219;-0.213;0.203
9.6228;0.1;0.128626;-0.212;0.205
9.64242;0.1;0.134249;-0.209;0.208
9.64848;0.1;0.134249;-0.209;0.208
9.66265;0.1;0.133639;-0.207;0.21
9.68148;0.1;0.138946;-0.206;0.212
9.70071;0.1;0.11205;-0.204;0.213
9.71676;0.1;0.140632;-0.203;0.215
9.72927;0.1;0.137795;-0.201;0.217
9.73725;0.1;0.134612;-0.198;0.22
9.75522;0.1;0.130521;-0.197;0.222
9.77574;0.1;0.0827369;-0.195;0.223
9.7829;0.1;0.0827369;-0.195;0.223
9.80061;0.1;0.0794296;-0.192;0.227
9.8164;0.1;0.0794296;-0.192;0.227
9.83647;0.1;0.0751078;-0.189;0.23
9.84834;0.1;0.0751078;-0.189;0.23
9.86275;0.1;0.0632131;-0.187;0.231
9.87644;-0.1;0.0801609;-0.186;0.233
9.89656;-0.1;0.0614739;-0.184;0.234
9.90267;-0.1;0.0822532;-0.182;0.236
9.91829;-0.1;0.0731948;-0.181;0.237
9.9384;-0.1;0.0679982;-0.18;0.238
9.95876;-0.1;-0.0156239;-0.179;0.237
9.96521;-0.1;0.00602442;-0.177;0.236
9.97916;-0.1;0.00602442;-0.177;0.236
9.99464;-0.1;0.00832886;-0.174;0.233
10.0112;-0.1;-0.034552;-0.173;0.231
10.0231;-0.1;-0.034552;-0.173;0.231
10.0389;-0.1;0.0122814;-0.171;0.23
10.0564;-0.1;-0.0609163;-0.171;0.228
10.0724;-0.1;-0.0682511;-0.172;0.225
10.0825;-0.1;-0.0682511;-0.172;0.225
10.0997;-0.1;-0.0724608;-0.174;0.223
10.1185;0.1;-0.0668691;-0.175;0.222
10.1333;0.1;-0.0726863;-0.177;0.22
10.1431;0.1;-0.0695579;-0.179;0.219
10.158;0.1;-0.0766919;-0.18;0.217
10.1755;0.1;-0.0716232;-0.182;0.216
10.1963;0.1;-0.0686383;-0.182;0.216
10.2026;0.1;-0.0279196;-0.185;0.217
10.2182;0.1;-0.0279196;-0.185;0.217
10.2393;0.1;-0.0165219;-0.188;0.22
10.2606;-0.1;0.00705243;-0.19;0.222
10.2638;-0.1;0.00705243;-0.19;0.222
10.283;-0.1;0.010335;-0.193;0.225
10.3011;-0.1;-0.0467569;-0.195;0.225
10.3105;-0.1;-0.0467569;-0.195;0.225
10.3228;-0.1;-0.0446535;-0.197;0.225
10.3381;-0.1;-0.0659459;-0.198;0.224
10.3525;-0.1;-0.0562884;-0.198;0.224
10.373;0.1;-0.0753632;-0.2;0.222
10.3845;0.1;-0.0723588;-0.201;0.22
10.3983;0.1;-0.0751024;-0.203;0.219
10.4148;0.1;-0.0896946;-0.204;0.217
10.4423;0.1;-0.0883983;-0.206;0.216
10.4583;0.1;0.0262398;-0.209;0.217
10.4752;0.1;0.0264563;-0.211;0.219
10.4949;-0.1;0.0696706;-0.212;0.221
10.5069;-0.1;0.0696706;-0.212;0.221
10.5185;-0.1;-0.019286;-0.214;0.222
10.5431;-0.1;-0.0237447;-0.217;0.225
10.5537;-0.1;0.0180551;-0.218;0.226
10.5655;-0.1;0.0180551;-0.218;0.226
10.5781;-0.1;0.017076;-0.219;0.227
10.5932;-0.1;0.0165671;-0.219;0.227
10.6111;-0.1;0.0161103;-0.219;0.227
10.6233;0.1;-0.061081;-0.218;0.224
10.6405;0.1;0.014833;-0.216;0.223
10.664;0.1;-0.0515387;-0.215;0.221
10.6723;0.1;0.0114134;-0.213;0.22
10.6834;0.1;0.00980921;-0.211;0.219
10.6979;0.1;0.0929357;-0.209;0.22
10.7158;0.1;0.096768;-0.207;0.221
10.7398;0.1;0.124085;-0.206;0.223
10.7512;-0.1;0.114378;-0.204;0.224
10.7573;-0.1;0.114378;-0.204;0.224
10.7765;-0.1;0.139739;-0.203;0.226
10.8002;-0.1;0.136418;-0.201;0.228
10.8086;-0.1;0.124433;-0.199;0.23
10.8265;-0.1;0.101768;-0.199;0.23
10.8332;-0.1;0.0871932;-0.199;0.23
10.8536;-0.1;0.0820984;-0.199;0.23
10.866;-0.1;-0.0825432;-0.201;0.228
10.8774;-0.1;-0.0703632;-0.203;0.227
10.8942;-0.1;-0.082956;-0.204;0.225
10.92;-0.1;-0.0733206;-0.206;0.224
10.9274;-0.1;-0.0942246;-0.207;0.222
10.9428;-0.1;-0.0928695;-0.207;0.22
10.9551;-0.1;-0.0612113;-0.206;0.218
10.9751;-0.1;-0.026793;-0.205;0.217
10.9827;-0.1;-0.026793;-0.205;0.217
10.9998;0.1;-0.0266807;-0.203;0.215
11.025;0.1;-0.0610254;-0.199;0.21
11.0301;0.1;-0.0610254;-0.199;0.21
11.0431;0.1;0.0226155;-0.197;0.209
11.0624;0.1;-0.0448573;-0.196;0.207
11.0822;0.1;-0.0345064;-0.196;0.207
11.0887;0.1;0.00573753;-0.197;0.208
11.1031;0.1;0.00440853;-0.198;0.209
11.1186;-0.1;0.00315855;-0.198;0.209
11.1345;-0.1;-0.0139578;-0.2;0.21
11.1507;-0.1;0.0197666;-0.201;0.212
11.1628;-0.1;0.0197666;-0.201;0.212
11.1827;-0.1;-0.0249511;-0.205;0.215
11.2043;-0.1;-0.0934045;-0.207;0.214
11.2111;-0.1;-0.101387;-0.208;0.213
11.2231;-0.1;-0.101387;-0.208;0.213
11.2404;0.1;-0.111992;-0.21;0.212
11.2577;0.1;-0.137535;-0.214;0.209
11.2809;0.1;-0.130982;-0.215;0.207
11.2863;0.1;-0.130982;-0.215;0.207
11.2991;0.1;-0.138657;-0.217;0.206
11.3239;0.1;-0.131659;-0.218;0.205
11.3339;0.1;-0.116154;-0.218;0.205
11.3428;0.1;-0.107679;-0.218;0.205
11.359;0.1;0.113515;-0.216;0.207
11.386;-0.1;0.110741;-0.214;0.208
11.3961;-0.1;0.101858;-0.213;0.21
11.4033;-0.1;0.113919;-0.211;0.212
11.4196;-0.1;0.109267;-0.209;0.213
11.4372;-0.1;0.107652;-0.208;0.215
11.4581;-0.1;0.11401;-0.206;0.216
11.4639;-0.1;0.11401;-0.206;0.216
11.4784;-0.1;0.121092;-0.206;0.216
11.5106;-0.1;0.0980394;-0.203;0.216
11.5268;-0.1;-0.0353057;-0.202;0.214
11.527;-0.1;0.011495;-0.199;0.211
11.5512;-0.1;0.0120818;-0.196;0.207
11.568;-0.1;-0.0566781;-0.196;0.205
11.5838;-0.1;-0.0387144;-0.196;0.205
11.5989;-0.1;-0.0574943;-0.197;0.202
11.6198;-0.1;-0.0742837;-0.199;0.2
11.6392;-0.1;-0.0413565;-0.199;0.2
11.6435;-0.1;-0.0503612;-0.201;0.199
11.6583;-0.1;-0.0503612;-0.201;0.199
11.6791;-0.1;-0.0464262;-0.204;0.196
11.7011;-0.1;-0.0545917;-0.205;0.195
11.7039;-0.1;-0.0545917;-0.205;0.195
11.723;-0.1;-0.0461089;-0.205;0.195
11.7427;-0.1;0.0278695;-0.202;0.191
11.7497;0.1;0.0278695;-0.202;0.191
11.7641;0.1;0.0239295;-0.199;0.187
11.7834;0.1;0.0207259;-0.198;0.186
11.7949;0.1;0.0175704;-0.196;0.184
11.8176;0.1;0.0142751;-0.195;0.183
11.8261;0.1;0.0130825;-0.195;0.183
11.8387;0.1;0.00824942;-0.195;0.183
11.8596;0.1;-0.00791325;-0.196;0.184
11.8841;-0.1;-7.47933e-05;-0.197;0.186
11.9;-0.1;-0.0182827;-0.199;0.187
11.9159;-0.1;-0.0101011;-0.201;0.189
11.9339;-0.1;-0.0122143;-0.202;0.19
11.9551;-0.1;-0.0122143;-0.202;0.19
11.9594;-0.1;-0.0104055;-0.203;0.191
11.9758;-0.1;-0.0130743;-0.204;0.192
11.9964;-0.1;0.0105068;-0.203;0.191
12.0168;-0.1;0.0105068;-0.203;0.191
12.0241;-0.1;0.00515218;-0.201;0.188
12.037;-0.1;0.0220804;-0.198;0.185
12.0583;-0.1;0.0155013;-0.195;0.182
12.078;-0.1;0.0155013;-0.195;0.182
12.0901;-0.1;-0.000769364;-0.194;0.18
12.0962;-0.1;0.0290398;-0.192;0.179
12.1173;-0.1;0.0260485;-0.19;0.178
12.1374;0.1;-0.00310326;-0.189;0.176
12.1492;0.1;0.0247571;-0.187;0.175
12.1553;0.1;0.0111632;-0.185;0.173
12.1751;0.1;0.00917945;-0.184;0.172
12.2016;0.1;0.021856;-0.182;0.171
12.2264;0.1;0.00697532;-0.182;0.171
12.232;0.1;-0.00670996;-0.184;0.172
12.2518;-0.1;0.0065724;-0.185;0.174
12.2623;-0.1;0.0065724;-0.185;0.174
12.2837;-0.1;-0.0038361;-0.189;0.177
12.3005;-0.1;-0.00279335;-0.19;0.178
12.3096;-0.1;-0.00279335;-0.19;0.178
12.3223;-0.1;-0.00155636;-0.19;0.178
12.3372;-0.1;0.00085108;-0.189;0.177
12.3531;-0.1;0.000585299;-0.188;0.176
12.3812;0.1;0.000522683;-0.186;0.174
12.3864;0.1;-0.000126938;-0.185;0.173
12.4059;0.1;-0.000970657;-0.183;0.171
12.415;0.1;0.0126688;-0.181;0.17
12.439;0.1;-0.00195604;-0.18;0.169
12.4416;0.1;-0.00195604;-0.18;0.169
12.46;0.1;0.0351641;-0.177;0.171
12.4797;0.1;0.0351641;-0.177;0.171
12.5012;0.1;0.0428829;-0.173;0.174
12.5047;0.1;0.0428829;-0.173;0.174
12.5221;0.1;0.0475802;-0.172;0.176
12.5329;0.1;0.0448412;-0.17;0.177
12.5525;0.1;0.0355498;-0.169;0.179
12.5648;0.1;0.0355498;-0.169;0.179
12.581;0.1;0.0250807;-0.169;0.182
12.5928;0.1;-0.0117748;-0.171;0.183
12.6167;0.1;-0.0138561;-0.173;0.184
12.626;-0.1;0.0158197;-0.174;0.186
12.6412;-0.1;-0.0129026;-0.176;0.187
12.6543;-0.1;0.00291276;-0.178;0.189
12.6788;-0.1;0.00314273;-0.179;0.19
12.6853;-0.1;0.00217724;-0.179;0.19
12.7021;-0.1;-0.00137348;-0.178;0.189
12.7201;-0.1;-0.00113287;-0.177;0.188
12.7401;-0.1;-0.00113287;-0.177;0.188
12.7438;0.1;-0.00121736;-0.176;0.187
12.7606;0.1;-0.000980142;-0.174;0.185
12.7835;0.1;0.016407;-0.171;0.182
12.8002;0.1;0.000817876;-0.17;0.181
12.8032;0.1;0.000817876;-0.17;0.181
12.8229;0.1;0.000787138;-0.17;0.181
12.8411;0.1;0.000484599;-0.17;0.181
12.852;0.1;-0.00953538;-0.172;0.182
12.8635;-0.1;0.0123058;-0.173;0.184
12.8833;-0.1;-0.013649;-0.175;0.185
12.8997;-0.1;0.00206658;-0.177;0.187
12.9095;-0.1;0.00256981;-0.178;0.188
12.9223;-0.1;0.00256981;-0.178;0.188
12.9413;-0.1;0.00155287;-0.179;0.189
12.97;-0.1;0.000859551;-0.179;0.189
12.9994;-0.1;-0.00343659;-0.176;0.186
13.008;-0.1;0.00842225;-0.174;0.185
13.0211;-0.1;-0.0230387;-0.173;0.183
13.0404;-0.1;0.00720326;-0.171;0.182
13.0625;-0.1;-0.0223962;-0.17;0.18
13.0819;-0.1;-0.0373128;-0.17;0.178
13.103;-0.1;-0.0422484;-0.173;0.175
13.1231;-0.1;-0.0448494;-0.174;0.173
13.1408;-0.1;-0.0423928;-0.176;0.172
13.1552;-0.1;-0.0465343;-0.177;0.17
13.1801;-0.1;-0.0485575;-0.179;0.168
13.1914;-0.1;-0.0428727;-0.18;0.167
13.1987;-0.1;-0.0465414;-0.182;0.165
13.22;-0.1;-0.0449827;-0.183;0.163
13.2395;-0.1;-0.0394481;-0.185;0.162
13.2435;0.1;-0.0465216;-0.186;0.16
13.2589;0.1;-0.0352662;-0.188;0.159
13.279;0.1;-0.0464166;-0.189;0.157
13.3012;0.1;-0.034554;-0.191;0.156
13.3046;0.1;-0.034554;-0.191;0.156
13.3257;0.1;0.0149723;-0.194;0.157
13.3374;0.1;0.0158817;-0.196;0.159
13.3583;0.1;0.01379;-0.197;0.16
13.3671;0.1;0.01379;-0.197;0.16
13.3827;0.1;0.0164748;-0.199;0.162
13.4068;0.1;0.0212103;-0.2;0.164
13.4224;0.1;-0.000643284;-0.202;0.165
13.4282;0.1;-0.000643284;-0.202;0.165
13.4472;0.1;0.027627;-0.203;0.167
13.4652;0.1;0.0214254;-0.205;0.169
13.4812;0.1;0.0205142;-0.206;0.17
13.4849;0.1;0.0229015;-0.208;0.172
13.5043;-0.1;0.00367041;-0.21;0.173
13.5239;-0.1;0.0397554;-0.211;0.175
13.5307;-0.1;0.00592525;-0.213;0.176
13.5433;-0.1;0.00592525;-0.213;0.176
13.5644;-0.1;0.00758024;-0.216;0.179
13.5836;-0.1;0.00859996;-0.218;0.18
13.6001;-0.1;-0.0432854;-0.22;0.179
13.604;-0.1;-0.0432854;-0.22;0.179
13.6231;-0.1;-0.0582968;-0.222;0.177
13.6408;-0.1;-0.0650547;-0.223;0.175
13.651;-0.1;-0.0437899;-0.225;0.174
13.6641;-0.1;-0.0646145;-0.226;0.172
13.6811;-0.1;-0.0561367;-0.228;0.17
13.7016;-0.1;-0.0511106;-0.229;0.169
13.7136;-0.1;-0.0439437;-0.229;0.169
13.7246;-0.1;-0.044094;-0.228;0.166
13.7388;0.1;-0.0100957;-0.226;0.165
13.7556;0.1;-0.0398537;-0.225;0.163
13.7719;0.1;-0.0111163;-0.223;0.162
13.7838;0.1;-0.0111163;-0.223;0.162
13.7991;0.1;-0.0448616;-0.222;0.16
13.8174;0.1;-0.0260415;-0.221;0.159
13.8415;0.1;-0.0168664;-0.22;0.158
13.8445;0.1;-0.0168664;-0.22;0.158
13.8638;0.1;0.0145136;-0.221;0.159
13.8793;0.1;0.0199009;-0.223;0.161
13.9013;0.1;0.0468651;-0.226;0.164
13.9039;0.1;0.0468651;-0.226;0.164
13.9221;0.1;0.0169369;-0.228;0.165
13.9336;0.1;0.0493603;-0.229;0.167
13.9501;0.1;0.0178451;-0.231;0.168
13.9639;0.1;0.0389922;-0.233;0.17
13.9814;0.1;0.0364117;-0.234;0.171
14.0011;0.1;0.0397446;-0.236;0.173
14.0129;0.1;0.0225822;-0.238;0.174
14.0241;0.1;0.0225822;-0.238;0.174
14.0399;0.1;0.0514672;-0.239;0.176
14.0609;0.1;0.0537726;-0.242;0.179
14.0727;0.1;0.0417762;-0.241;0.18
14.0846;0.1;0.0417762;-0.241;0.18
14.0989;0.1;0.051264;-0.24;0.182
14.1252;-0.1;0.0387704;-0.237;0.185
14.1422;-0.1;0.0536845;-0.236;0.187
14.1449;-0.1;0.0536845;-0.236;0.187
14.1633;-0.1;0.0252811;-0.234;0.188
14.1736;-0.1;0.0577067;-0.233;0.19
14.191;-0.1;0.0371854;-0.232;0.191
14.2042;-0.1;0.0371854;-0.232;0.191
14.2255;-0.1;-0.0391438;-0.229;0.189
14.2411;-0.1;-0.0428899;-0.227;0.187
14.2514;-0.1;-0.0338428;-0.225;0.186
14.2633;-0.1;-0.0338428;-0.225;0.186
14.2815;-0.1;-0.0575041;-0.224;0.184
14.3028;-0.1;-0.0596189;-0.221;0.181
14.3147;-0.1;-0.0380565;-0.219;0.18
14.3244;-0.1;-0.0380565;-0.219;0.18
14.3386;-0.1;-0.0556477;-0.217;0.178
14.3575;-0.1;-0.0513872;-0.216;0.177
14.3827;0.1;-0.042885;-0.212;0.174
14.3871;0.1;-0.042885;-0.212;0.174
14.405;0.1;-0.0594839;-0.211;0.172
14.4181;0.1;-0.0455566;-0.209;0.171
14.434;0.1;-0.0589269;-0.207;0.169
14.4434;0.1;-0.0540319;-0.206;0.168
14.4584;0.1;-0.040032;-0.206;0.168
14.4807;0.1;-0.032161;-0.206;0.168
14.4973;0.1;0.0282654;-0.208;0.17
14.5078;0.1;0.028005;-0.209;0.171
14.5192;0.1;0.028005;-0.209;0.171
14.5347;0.1;0.0446088;-0.211;0.173
14.5561;0.1;0.0586115;-0.213;0.177
14.5666;0.1;0.0586115;-0.213;0.177
14.5785;0.1;0.0555297;-0.213;0.177
14.6054;0.1;0.0161531;-0.21;0.181
14.6163;0.1;0.0161531;-0.21;0.181
14.6247;0.1;0.0169706;-0.208;0.182
14.6411;0.1;0.0516821;-0.207;0.184
14.6611;0.1;0.0216306;-0.205;0.185
14.6814;0.1;0.0423518;-0.203;0.187
14.6857;0.1;0.0394431;-0.202;0.188
14.7054;0.1;0.0327764;-0.198;0.191
14.7225;0.1;0.0534074;-0.197;0.193
14.7378;0.1;0.0534074;-0.197;0.193
14.7499;0.1;0.0418059;-0.194;0.196
14.7599;0.1;0.0217912;-0.192;0.197
14.776;0.1;0.0217912;-0.192;0.197
14.7972;0.1;0.0334457;-0.189;0.2
14.8071;0.1;0.0334457;-0.189;0.2
14.8185;0.1;0.0388999;-0.19;0.202
14.8341;0.1;0.0350416;-0.191;0.204
14.862;0.1;0.0378208;-0.194;0.207
14.8674;-0.1;0.0378208;-0.194;0.207
14.8824;-0.1;0.0631683;-0.195;0.209
14.8974;-0.1;0.0239379;-0.197;0.21
14.9147;-0.1;0.0617334;-0.198;0.212
14.9241;-0.1;0.0440314;-0.199;0.213
14.9391;-0.1;0.0326588;-0.199;0.213
14.9569;-0.1;-0.0115276;-0.201;0.213
14.976;-0.1;-0.0520582;-0.202;0.212
14.9873;-0.1;-0.0520582;-0.202;0.212
15.0047;-0.1;-0.0670596;-0.204;0.21
15.0224;-0.1;-0.05354;-0.207;0.207
15.0348;-0.1;-0.0927469;-0.208;0.205
15.0441;-0.1;-0.0927469;-0.208;0.205
15.0664;-0.1;-0.0859881;-0.21;0.202
15.0757;-0.1;-0.0859881;-0.21;0.202
15.0932;-0.1;-0.115168;-0.21;0.2
15.1048;-0.1;-0.0723153;-0.208;0.198
15.1245;-0.1;-0.0587604;-0.207;0.197
15.1336;-0.1;-0.0516514;-0.205;0.195
15.1508;-0.1;-0.0300194;-0.203;0.194
15.1639;-0.1;-0.0401247;-0.202;0.193
15.1798;-0.1;-0.0401247;-0.202;0.193
15.2034;-0.1;-0.0588463;-0.2;0.189
15.2096;-0.1;-0.0588463;-0.2;0.189
15.2233;-0.1;-0.0502816;-0.2;0.189
15.2387;0.1;-0.0529546;-0.201;0.186
15.258;0.1;-0.0484235;-0.204;0.183
15.2807;0.1;-0.0299702;-0.206;0.182
15.2861;0.1;-0.0299702;-0.206;0.182
15.3037;0.1;-0.0493953;-0.208;0.18
15.3233;0.1;-0.00360492;-0.211;0.179
15.3404;0.1;0.035721;-0.212;0.18
15.3434;0.1;0.035721;-0.212;0.18
15.3601;0.1;0.0363621;-0.214;0.182
15.3878;0.1;0.0522358;-0.215;0.184
15.3957;0.1;0.0270856;-0.217;0.185
15.4034;0.1;0.0597326;-0.218;0.187
15.4228;0.1;0.029603;-0.22;0.188
15.4386;0.1;0.0490896;-0.222;0.19
15.4571;0.1;0.0490896;-0.222;0.19
15.4634;0.1;0.0450654;-0.223;0.191
15.4893;0.1;0.0360403;-0.222;0.194
15.5005;-0.1;0.0433259;-0.221;0.196
15.5196;-0.1;0.041289;-0.219;0.198
15.5234;-0.1;0.041289;-0.219;0.198
15.539;-0.1;0.0275218;-0.217;0.199
15.5566;-0.1;0.0688426;-0.216;0.201
15.5819;-0.1;0.00522509;-0.214;0.201
15.5852;-0.1;0.00522509;-0.214;0.201
15.6028;-0.1;0.00543784;-0.214;0.201
15.6235;0.1;-0.0424673;-0.215;0.2
15.6293;0.1;-0.0462637;-0.217;0.198
15.644;0.1;-0.0423175;-0.218;0.197
15.6592;0.1;-0.0474676;-0.22;0.195
15.6827;0.1;-0.0376728;-0.222;0.194
15.6904;0.1;-0.0301498;-0.222;0.194
15.7041;0.1;-0.0301498;-0.222;0.194
15.7227;0.1;0.0265844;-0.225;0.196
15.7411;0.1;0.0350333;-0.228;0.199
15.7513;0.1;0.0350333;-0.228;0.199
15.7639;0.1;0.0375796;-0.229;0.2
15.7799;0.1;0.0510905;-0.231;0.202
15.7937;0.1;0.0291701;-0.233;0.203
15.8221;0.1;0.0616043;-0.235;0.206
15.8273;0.1;0.0616043;-0.235;0.206
15.8458;0.1;0.103851;-0.235;0.208
15.8551;0.1;0.0668185;-0.234;0.209
15.8714;-0.1;0.0794406;-0.232;0.211
15.8836;-0.1;0.10524;-0.231;0.213
15.8994;-0.1;0.0938133;-0.229;0.215
15.9134;-0.1;0.0855986;-0.228;0.216
15.9311;-0.1;0.0811342;-0.227;0.217
15.9437;-0.1;0.0811342;-0.227;0.217
15.964;-0.1;-0.0906912;-0.224;0.216
15.9808;-0.1;-0.0906912;-0.224;0.216
16.0005;-0.1;-0.116771;-0.221;0.213
16.0075;-0.1;-0.116771;-0.221;0.213
16.02;-0.1;-0.0918036;-0.219;0.211
16.0398;-0.1;-0.0863119;-0.218;0.21
16.061;-0.1;-0.113593;-0.215;0.206
16.0654;-0.1;-0.113593;-0.215;0.206
16.0814;-0.1;-0.111268;-0.215;0.206
16.0931;-0.1;-0.12211;-0.216;0.203
16.1189;-0.1;-0.0599368;-0.218;0.202
16.126;-0.1;-0.104874;-0.219;0.2
16.1412;-0.1;-0.0741244;-0.221;0.198
16.1546;-0.1;-0.0558014;-0.222;0.197
16.1756;-0.1;-0.0528982;-0.224;0.195
16.1873;-0.1;-0.0528982;-0.224;0.195
16.2081;-0.1;-0.0246709;-0.227;0.192
16.2147;-0.1;-0.0246709;-0.227;0.192
16.2354;-0.1;-0.0463262;-0.23;0.188
16.247;-0.1;-0.0463262;-0.23;0.188
16.2612;-0.1;-0.0430432;-0.231;0.187
16.2739;-0.1;-0.0466984;-0.233;0.185
16.3005;-0.1;-0.0408455;-0.236;0.183
16.3079;-0.1;-0.0408455;-0.236;0.183
16.3192;-0.1;-0.0480056;-0.238;0.181
16.3338;-0.1;-0.0289525;-0.24;0.18
16.3544;-0.1;-0.0546278;-0.241;0.178
16.3656;0.1;-0.0498531;-0.243;0.176
16.3789;0.1;-0.042183;-0.244;0.175
16.3938;0.1;-0.0442801;-0.246;0.173
16.4229;0.1;-0.0563865;-0.247;0.171
16.4265;0.1;0.0037218;-0.249;0.171
16.4402;0.1;0.0037218;-0.249;0.171
16.4608;0.1;0.0353667;-0.252;0.173
16.4749;0.1;0.0353667;-0.252;0.173
16.4836;0.1;0.0393125;-0.253;0.174
16.5006;-0.1;0.0443758;-0.255;0.176
16.5167;-0.1;0.0369341;-0.257;0.177
16.5374;-0.1;0.0396063;-0.26;0.18
16.5433;-0.1;0.0396063;-0.26;0.18
16.5586;-0.1;0.0598652;-0.261;0.182
16.5851;-0.1;0.038391;-0.263;0.183
16.5999;-0.1;-0.0162284;-0.265;0.182
16.608;-0.1;-0.017073;-0.267;0.181
16.6249;-0.1;-0.0501017;-0.268;0.179
16.6354;-0.1;-0.0190136;-0.27;0.178
16.6553;-0.1;-0.0512885;-0.271;0.176
16.6659;-0.1;-0.0209786;-0.273;0.175
16.6819;-0.1;-0.0209786;-0.273;0.175
16.7029;-0.1;-0.0364313;-0.276;0.172
16.7195;-0.1;-0.038056;-0.278;0.17
16.7316;-0.1;-0.0339272;-0.279;0.169
16.7392;-0.1;-0.0339272;-0.279;0.169
16.7587;-0.1;-0.0331167;-0.281;0.167
16.7711;-0.1;-0.0507302;-0.282;0.165
16.7841;-0.1;-0.0145417;-0.284;0.164
16.7997;-0.1;-0.0505949;-0.285;0.162
16.82;-0.1;-0.0469157;-0.286;0.16
16.8402;-0.1;-0.048925;-0.285;0.159
16.8484;-0.1;-0.0554575;-0.284;0.157
16.8616;-0.1;-0.0388679;-0.282;0.156
16.8805;0.1;-0.0557672;-0.281;0.154
16.8918;0.1;-0.0442561;-0.279;0.153
16.904;0.1;-0.0442561;-0.279;0.153
16.9255;0.1;-0.0551742;-0.276;0.15
16.9423;0.1;-0.0447424;-0.274;0.149
16.9546;0.1;-0.0209256;-0.272;0.149
16.9653;0.1;-0.0209256;-0.272;0.149
16.9785;0.1;0.0207431;-0.271;0.15
16.9996;-0.1;0.0383085;-0.27;0.152
17.024;-0.1;0.00987724;-0.266;0.155
17.0401;-0.1;0.0485932;-0.265;0.157
17.0636;-0.1;0.0129423;-0.263;0.158
17.0785;-0.1;0.02826;-0.262;0.159
17.0971;-0.1;-0.0142998;-0.26;0.159
17.1002;-0.1;-0.05382;-0.259;0.157
17.1164;0.1;-0.0376314;-0.257;0.156
17.1426;0.1;-0.05976;-0.256;0.154
17.166;0.1;-0.0441294;-0.254;0.153
17.1663;0.1;-0.0598449;-0.252;0.151
17.1761;0.1;-0.0551044;-0.251;0.15
17.1956;0.1;-0.0446328;-0.249;0.149
17.2146;0.1;-0.0446328;-0.249;0.149
17.2199;0.1;-0.038099;-0.249;0.149
17.2372;0.1;-0.0305308;-0.249;0.149
17.257;0.1;0.0411876;-0.253;0.152
17.2803;0.1;0.0411876;-0.253;0.152
17.2809;0.1;0.054058;-0.254;0.154
17.2981;0.1;0.0410042;-0.256;0.155
17.3203;0.1;0.0649199;-0.257;0.157
17.3396;0.1;0.0488226;-0.258;0.158
17.3397;0.1;0.0439931;-0.259;0.159
17.3588;0.1;0.0374908;-0.258;0.161
17.3877;0.1;0.0374908;-0.258;0.161
17.4066;0.1;0.0214144;-0.257;0.162
17.4068;0.1;0.0244804;-0.254;0.165
17.4176;0.1;0.0380857;-0.253;0.167
17.4375;0.1;0.0269384;-0.251;0.169
17.4582;0.1;0.0269384;-0.251;0.169
17.4685;0.1;0.0606451;-0.25;0.173
17.4782;0.1;0.0606451;-0.25;0.173
17.4993;-0.1;0.0640844;-0.251;0.175
17.5191;-0.1;0.0490021;-0.252;0.176
17.5193;-0.1;0.0522515;-0.254;0.178
17.5393;-0.1;0.0414064;-0.256;0.179
17.5505;-0.1;0.0594228;-0.257;0.181
17.5735;-0.1;0.0522497;-0.258;0.182
17.5834;-0.1;-0.0263465;-0.259;0.181
17.5954;-0.1;-0.0240349;-0.26;0.18
17.6202;-0.1;-0.011495;-0.262;0.179
17.6338;0.1;-0.011495;-0.262;0.179
17.6454;0.1;-0.0315415;-0.265;0.176
17.6642;0.1;-0.0380619;-0.267;0.174
17.6737;0.1;-0.0205846;-0.269;0.173
17.7072;0.1;-0.0335473;-0.27;0.172
17.7326;0.1;-0.024819;-0.27;0.172
17.7409;-0.1;-0.0197454;-0.27;0.172
17.7633;-0.1;0.0200665;-0.267;0.174
17.7762;-0.1;0.0195891;-0.265;0.175
17.7827;-0.1;0.0195891;-0.265;0.175
17.7983;-0.1;0.0505822;-0.264;0.177
17.8198;-0.1;0.039912;-0.261;0.179
17.8399;-0.1;0.0345091;-0.261;0.179
17.8427;-0.1;0.0345091;-0.261;0.179
17.863;-0.1;0.0288271;-0.261;0.179
17.8807;0.1;-0.0250337;-0.262;0.178
17.9019;0.1;-0.0251547;-0.265;0.175
17.9055;0.1;-0.0251547;-0.265;0.175
17.9255;0.1;-0.0471242;-0.267;0.173
17.9324;0.1;-0.047745;-0.268;0.172
17.9631;0.1;-0.0343853;-0.27;0.171
17.9833;0.1;0.0407375;-0.272;0.174
17.9955;0.1;0.0339171;-0.274;0.176
18.016;0.1;0.0299635;-0.275;0.177
18.0234;0.1;0.0299635;-0.275;0.177
18.0386;0.1;0.0344326;-0.277;0.179
18.0562;0.1;0.0286135;-0.279;0.182
18.0805;0.1;0.0346374;-0.281;0.184
18.0905;0.1;0.0475456;-0.282;0.186
18.1001;0.1;0.0475456;-0.282;0.186
18.1168;0.1;0.0165264;-0.284;0.187
18.1395;0.1;0.0405669;-0.286;0.189
18.1439;0.1;0.0357078;-0.287;0.19
18.159;0.1;0.0389846;-0.289;0.192
18.1742;0.1;0.0216819;-0.291;0.193
18.1913;0.1;0.050626;-0.292;0.195
18.2033;0.1;0.050626;-0.292;0.195
18.2235;0.1;0.0434468;-0.291;0.198
18.2343;0.1;0.0472885;-0.289;0.2
18.2516;0.1;0.071082;-0.288;0.202
18.2637;0.1;0.071082;-0.288;0.202
18.2806;0.1;0.0446472;-0.286;0.203
18.3023;0.1;0.057319;-0.283;0.206
18.3148;0.1;0.0944446;-0.281;0.208
18.3241;0.1;0.0944446;-0.281;0.208
18.3386;0.1;0.0953936;-0.28;0.209
18.3576;0.1;0.113328;-0.278;0.211
18.3817;-0.1;0.140246;-0.275;0.214
18.3864;-0.1;0.140246;-0.275;0.214
18.4023;-0.1;0.0995132;-0.273;0.215
18.4229;-0.1;0.1313;-0.271;0.217
18.444;-0.1;0.127188;-0.27;0.218
18.4442;-0.1;0.102549;-0.268;0.219
18.4598;-0.1;-0.0551216;-0.267;0.218
18.4798;-0.1;-0.0173511;-0.265;0.217
18.4946;0.1;-0.0613231;-0.263;0.215
18.5058;0.1;-0.0613231;-0.263;0.215
18.519;0.1;-0.0606858;-0.262;0.214
18.5344;0.1;-0.0645628;-0.26;0.212
18.5637;0.1;-0.0605097;-0.258;0.21
18.5794;0.1;-0.0603884;-0.258;0.21
18.5995;0.1;-0.0535366;-0.258;0.21
18.6234;0.1;0.040221;-0.261;0.212
18.64;0.1;0.0283631;-0.263;0.213
18.6639;0.1;0.0864813;-0.264;0.215
18.677;0.1;0.0320207;-0.266;0.216
18.6988;0.1;0.0955693;-0.269;0.219
18.7054;0.1;0.0955693;-0.269;0.219
18.7195;0.1;0.0439369;-0.271;0.22
18.74;0.1;0.118182;-0.272;0.222
18.7496;-0.1;0.0559226;-0.274;0.223
18.7605;-0.1;0.0559226;-0.274;0.223
18.7818;-0.1;0.0945521;-0.277;0.226
18.7925;-0.1;0.0990547;-0.279;0.228
18.8169;-0.1;0.0625879;-0.281;0.229
18.8265;-0.1;0.0625879;-0.281;0.229
18.8428;-0.1;0.0584598;-0.281;0.229
18.8728;-0.1;-0.0792035;-0.284;0.227
18.8805;0.1;-0.0665991;-0.286;0.226
18.8808;0.1;-0.126583;-0.287;0.224
18.9028;0.1;-0.0705525;-0.289;0.223
18.9242;0.1;-0.0741677;-0.292;0.22
18.9304;0.1;-0.0741677;-0.292;0.22
18.9406;0.1;-0.0628187;-0.292;0.22
18.9641;0.1;-0.0566022;-0.292;0.22
18.9719;0.1;0.104572;-0.291;0.222
18.9918;0.1;0.0835388;-0.289;0.224
19.0013;0.1;0.0835388;-0.289;0.224
19.0224;0.1;0.0798074;-0.286;0.227
19.0468;0.1;0.0999266;-0.285;0.229
19.0631;0.1;0.110682;-0.283;0.232
19.0791;0.1;0.110682;-0.283;0.232
19.1018;0.1;0.0979669;-0.284;0.235
19.119;0.1;0.0719439;-0.286;0.236
19.1258;0.1;0.0719439;-0.286;0.236
19.1369;0.1;0.105096;-0.288;0.238
19.1636;0.1;0.106424;-0.289;0.239
19.172;0.1;0.10773;-0.291;0.241
19.1828;0.1;0.0769332;-0.293;0.242
19.2063;0.1;0.126172;-0.294;0.244
19.2136;0.1;0.0742412;-0.296;0.245
19.2334;0.1;0.127759;-0.297;0.247
19.2424;0.1;0.112032;-0.299;0.249
19.2647;0.1;0.106159;-0.3;0.25
19.2724;0.1;0.104621;-0.302;0.252
19.2966;0.1;0.133244;-0.303;0.254
19.307;0.1;0.0661744;-0.305;0.255
19.3175;0.1;0.0661744;-0.305;0.255
19.3456;0.1;0.102164;-0.308;0.259
19.3581;0.1;0.0965023;-0.309;0.26
19.3667;0.1;0.0965023;-0.309;0.26
19.3842;0.1;0.122803;-0.31;0.262
19.3984;0.1;0.0930695;-0.312;0.264
19.4167;0.1;0.125356;-0.313;0.266
19.4244;0.1;0.0511945;-0.315;0.267
19.4413;0.1;0.120903;-0.316;0.269
19.4529;0.1;0.0954451;-0.318;0.271
19.4716;0.1;0.0934584;-0.319;0.272
19.4825;0.1;0.095168;-0.321;0.274
19.5047;-0.1;0.0968516;-0.322;0.275
19.5121;-0.1;0.10139;-0.324;0.277
19.5385;-0.1;0.0637573;-0.326;0.278
19.5487;-0.1;0.0637573;-0.326;0.278
19.5634;-0.1;0.0667214;-0.329;0.281
19.5783;-0.1;-0.0594546;-0.331;0.28
19.5995;-0.1;-0.0912299;-0.332;0.279
19.6023;-0.1;-0.0912299;-0.332;0.279
19.6226;-0.1;-0.061375;-0.334;0.278
19.6332;-0.1;-0.0983844;-0.336;0.276
19.6521;-0.1;-0.129434;-0.337;0.274
19.6634;-0.1;-0.0681355;-0.339;0.273
19.6791;-0.1;-0.107262;-0.341;0.271
19.7056;-0.1;-0.104429;-0.342;0.27
19.7187;-0.1;-0.109054;-0.344;0.268
19.7298;-0.1;-0.106022;-0.345;0.267
19.7486;-0.1;-0.115202;-0.347;0.265
19.7552;-0.1;-0.0835188;-0.349;0.264
19.7757;-0.1;-0.110032;-0.35;0.263
19.7882;-0.1;-0.114701;-0.352;0.261
19.8056;-0.1;-0.083487;-0.354;0.26
19.8208;-0.1;-0.128953;-0.355;0.258
19.8438;-0.1;-0.128953;-0.355;0.258
19.844;-0.1;-0.116314;-0.357;0.256
19.8634;-0.1;-0.10709;-0.358;0.255
19.8792;-0.1;-0.113414;-0.36;0.253
19.8913;-0.1;-0.104324;-0.361;0.252
19.9021;-0.1;-0.106039;-0.363;0.25
19.9183;-0.1;-0.133453;-0.364;0.248
19.942;-0.1;-0.107263;-0.366;0.246
19.9668;-0.1;-0.102542;-0.367;0.245
19.9674;-0.1;-0.137295;-0.367;0.243
19.9789;-0.1;-0.0847566;-0.366;0.242
19.9982;0.1;-0.0895835;-0.364;0.24
20.0191;0.1;-0.048433;-0.362;0.239
20.0229;0.1;-0.048433;-0.362;0.239
20.0396;0.1;-0.116915;-0.361;0.237
20.0623;0.1;-0.0427792;-0.358;0.234
20.0699;0.1;-0.0427792;-0.358;0.234
20.0824;0.1;-0.0730452;-0.357;0.233
20.1017;0.1;-0.0693108;-0.357;0.233
20.1158;0.1;-0.0635436;-0.357;0.233
20.1402;0.1;0.0550635;-0.359;0.235
20.143;0.1;0.0550635;-0.359;0.235
20.1628;0.1;0.055658;-0.361;0.237
20.174;0.1;0.0814492;-0.362;0.239
20.1909;0.1;0.0812773;-0.363;0.241
20.2024;0.1;0.0812773;-0.363;0.241
20.224;0.1;0.111142;-0.362;0.245
20.2409;0.1;0.0994476;-0.361;0.246
20.2532;-0.1;0.109164;-0.359;0.248
20.2635;-0.1;0.109164;-0.359;0.248
20.2809;-0.1;0.130417;-0.358;0.25
20.3018;-0.1;0.130733;-0.355;0.253
20.3193;-0.1;0.105668;-0.354;0.254
20.3252;-0.1;0.105668;-0.354;0.254
20.3375;-0.1;-0.0754266;-0.353;0.253
20.363;-0.1;-0.0425379;-0.351;0.252
20.3732;0.1;-0.106809;-0.35;0.25
20.3824;0.1;-0.0485532;-0.348;0.249
20.3989;0.1;-0.0866995;-0.346;0.247
20.4156;0.1;-0.0845365;-0.345;0.246
20.437;0.1;-0.0511791;-0.343;0.245
20.4419;0.1;-0.0440577;-0.343;0.245
20.4596;0.1;-0.0384402;-0.343;0.245
20.4776;0.1;0.0647792;-0.344;0.246
20.4951;-0.1;0.0660525;-0.346;0.248
20.5063;-0.1;0.0660525;-0.346;0.248
20.5172;-0.1;0.0877237;-0.347;0.25
20.5368;-0.1;0.0823944;-0.35;0.253
20.5546;-0.1;0.0823944;-0.35;0.253
20.5625;-0.1;0.0304947;-0.352;0.254
20.5771;-0.1;-0.0839035;-0.353;0.253
20.6061;-0.1;-0.11543;-0.357;0.25
20.6227;-0.1;-0.11661;-0.358;0.249
20.6517;-0.1;-0.117769;-0.36;0.247
20.6609;-0.1;-0.0915477;-0.362;0.246
20.6816;-0.1;-0.134454;-0.363;0.244
20.6847;-0.1;-0.0948426;-0.365;0.243
20.7064;-0.1;-0.135171;-0.366;0.241
20.721;-0.1;-0.102129;-0.368;0.24
20.7383;-0.1;-0.132944;-0.37;0.238
20.7431;0.1;-0.132944;-0.37;0.238
20.7667;0.1;-0.14754;-0.373;0.235
20.7779;0.1;-0.109629;-0.375;0.234
20.7987;0.1;-0.138171;-0.377;0.232
20.8057;0.1;-0.138171;-0.377;0.232
20.827;0.1;-0.130983;-0.377;0.232
20.8358;0.1;0.0428016;-0.378;0.233
20.8566;0.1;0.116502;-0.377;0.235
20.8633;0.1;0.116502;-0.377;0.235
20.8811;0.1;0.111765;-0.375;0.237
20.8983;0.1;0.0966802;-0.373;0.238
20.9179;0.1;0.116256;-0.372;0.24
20.9238;0.1;0.0987667;-0.37;0.241
20.9396;0.1;0.113687;-0.368;0.243
20.9628;0.1;0.116908;-0.367;0.244
20.9798;0.1;0.129764;-0.365;0.246
20.9833;0.1;0.129764;-0.365;0.246
20.9994;-0.1;0.123893;-0.363;0.247
21.0226;-0.1;0.127448;-0.36;0.25
21.0393;-0.1;0.128469;-0.358;0.251
21.0447;-0.1;0.128469;-0.358;0.251
21.0653;-0.1;0.138974;-0.357;0.253
21.0788;-0.1;0.130327;-0.355;0.254
21.096;-0.1;-0.0101485;-0.354;0.253
21.1033;-0.1;-0.00808383;-0.353;0.252
21.1236;0.1;0.035104;-0.351;0.251
21.136;0.1;-0.0440156;-0.35;0.249
21.1568;0.1;-0.0420354;-0.349;0.247
21.1652;0.1;0.0411244;-0.347;0.246
21.1848;0.1;-0.0394063;-0.346;0.244
21.1946;0.1;0.0894712;-0.344;0.244
21.2155;0.1;0.119515;-0.342;0.245
21.2229;0.1;0.119515;-0.342;0.245
21.2401;-0.1;0.128715;-0.339;0.248
21.2585;-0.1;0.141922;-0.337;0.25
21.2791;-0.1;0.138163;-0.336;0.252
21.2835;-0.1;0.138163;-0.336;0.252
21.3037;-0.1;0.12985;-0.334;0.253
21.313;-0.1;0.121102;-0.334;0.253
21.3311;-0.1;0.106242;-0.334;0.253
21.3437;-0.1;0.101795;-0.334;0.253
21.3629;-0.1;-0.112545;-0.336;0.251
21.3841;0.1;-0.116276;-0.338;0.249
21.3907;0.1;-0.110317;-0.339;0.248
21.4034;0.1;-0.110317;-0.339;0.248
21.4231;0.1;-0.111963;-0.342;0.244
21.4514;0.1;-0.10356;-0.342;0.244
21.4787;0.1;0.0982502;-0.342;0.246
21.484;0.1;0.107633;-0.341;0.247
21.5035;0.1;0.112447;-0.34;0.249
21.5128;0.1;0.106513;-0.338;0.251
21.5314;0.1;0.118135;-0.337;0.253
21.5417;0.1;0.118135;-0.337;0.253
21.5584;0.1;0.0885956;-0.335;0.254
21.574;0.1;0.101191;-0.334;0.255
21.5954;0.1;0.104576;-0.334;0.257
21.6024;0.1;0.104576;-0.334;0.257
21.6278;-0.1;0.039416;-0.336;0.259
21.6452;-0.1;0.0375469;-0.337;0.26
21.6531;-0.1;0.0368964;-0.339;0.262
21.6622;-0.1;0.0321638;-0.34;0.263
21.6783;-0.1;0.0634457;-0.341;0.265
21.6992;-0.1;-0.00691576;-0.343;0.266
21.7242;-0.1;-0.00646804;-0.343;0.266
21.7248;-0.1;-0.109847;-0.346;0.264
21.7372;0.1;-0.107845;-0.348;0.263
21.7568;0.1;-0.127975;-0.349;0.261
21.7771;0.1;-0.106551;-0.351;0.26
21.7825;0.1;-0.106551;-0.351;0.26
21.7979;0.1;-0.129547;-0.352;0.258
21.8199;0.1;-0.0573656;-0.356;0.257
21.8402;0.1;0.0409821;-0.357;0.258
21.8431;0.1;0.0409821;-0.357;0.258
21.8635;0.1;0.042846;-0.359;0.26
21.8735;0.1;0.03779;-0.36;0.261
21.891;0.1;0.0368369;-0.362;0.263
21.9028;0.1;0.074139;-0.363;0.265
21.9234;0.1;-0.0105546;-0.365;0.266
21.9406;0.1;0.0703706;-0.366;0.268
21.9522;0.1;0.0684569;-0.367;0.27
21.9634;0.1;0.0684569;-0.367;0.27
21.9808;0.1;0.068091;-0.37;0.273
22.007;-0.1;0.0227737;-0.372;0.275
22.0293;-0.1;0.0181162;-0.375;0.278
22.0449;-0.1;0.0181162;-0.375;0.278
22.0532;-0.1;0.0596839;-0.376;0.28
22.0737;-0.1;0.0129007;-0.377;0.281
22.0831;-0.1;-0.031816;-0.379;0.282
22.0985;-0.1;0.0111195;-0.38;0.283
22.1159;0.1;0.0102382;-0.38;0.283
22.1399;0.1;-0.0113366;-0.378;0.281
22.1488;0.1;-0.0113366;-0.378;0.281
22.1579;0.1;-0.047015;-0.377;0.279
22.1769;0.1;0.0184641;-0.375;0.278
22.2043;0.1;-0.0147992;-0.374;0.277
22.2048;0.1;-0.0147992;-0.374;0.277
22.2178;0.1;0.100638;-0.371;0.279
22.2353;0.1;0.0983567;-0.369;0.28
22.2618;-0.1;0.120616;-0.368;0.282
22.2621;-0.1;0.120616;-0.368;0.282
22.2796;-0.1;0.122006;-0.366;0.283
22.2949;-0.1;0.136268;-0.364;0.285
22.3179;-0.1;0.122799;-0.361;0.287
22.3302;-0.1;0.122799;-0.361;0.287
22.3387;-0.1;0.120712;-0.361;0.287
22.358;-0.1;0.0391215;-0.359;0.286
22.3763;0.1;0.00204119;-0.357;0.284
22.3832;0.1;-0.0365254;-0.356;0.282
22.3991;0.1;0.0463354;-0.354;0.281
22.4127;0.1;-0.0324892;-0.353;0.279
22.4338;0.1;0.0489364;-0.351;0.278
22.4423;0.1;0.099291;-0.349;0.278
22.4654;0.1;0.121346;-0.348;0.279
22.479;0.1;0.133668;-0.346;0.281
22.5021;-0.1;0.138641;-0.344;0.282
22.5236;-0.1;0.128937;-0.343;0.283
22.5338;-0.1;0.132599;-0.341;0.285
22.5565;-0.1;0.115679;-0.338;0.288
22.5652;-0.1;0.115679;-0.338;0.288
22.5778;-0.1;0.134317;-0.336;0.289
22.6046;-0.1;0.0254617;-0.335;0.288
22.6224;-0.1;0.0579657;-0.333;0.287
22.6438;-0.1;-0.0164718;-0.332;0.285
22.6526;-0.1;0.0572393;-0.33;0.284
22.6804;-0.1;-0.0205673;-0.329;0.282
22.6841;-0.1;0.0518229;-0.327;0.281
22.7035;-0.1;0.0139816;-0.325;0.279
22.7166;-0.1;0.0114078;-0.324;0.278
22.7485;-0.1;0.0114078;-0.324;0.278
22.7487;-0.1;0.00919106;-0.32;0.275
22.7583;-0.1;0.00919106;-0.32;0.275
22.775;-0.1;0.00656758;-0.319;0.274
22.798;-0.1;0.0464886;-0.315;0.271
22.8066;-0.1;0.0464886;-0.315;0.271
22.8177;-0.1;-0.044687;-0.314;0.269
22.8348;-0.1;0.0420729;-0.312;0.268
22.8557;-0.1;-0.00486318;-0.31;0.266
22.863;-0.1;-0.00718644;-0.309;0.265
22.8807;-0.1;0.035364;-0.307;0.264
22.897;-0.1;-0.011829;-0.305;0.262
22.917;-0.1;-0.0141444;-0.304;0.261
22.9232;-0.1;-0.0135849;-0.302;0.259
22.9389;-0.1;0.033631;-0.3;0.258
22.961;-0.1;-0.0529285;-0.299;0.256
22.9783;-0.1;-0.00688719;-0.297;0.254
22.9831;-0.1;-0.00688719;-0.297;0.254
22.9983;-0.1;-0.00421126;-0.296;0.253
23.0195;-0.1;0.0446938;-0.293;0.25
23.039;-0.1;-0.0408568;-0.292;0.248
23.045;-0.1;-0.0408568;-0.292;0.248
23.0636;-0.1;0.0050208;-0.29;0.246
23.0773;-0.1;-0.0377111;-0.289;0.244
23.097;-0.1;-0.136217;-0.29;0.243
23.1034;-0.1;-0.125225;-0.291;0.241
23.1286;0.1;-0.135812;-0.293;0.239
23.1465;0.1;-0.13556;-0.294;0.238
23.1525;0.1;-0.134265;-0.296;0.237
23.163;0.1;-0.139009;-0.298;0.235
23.1858;0.1;-0.13908;-0.3;0.234
23.2003;0.1;-0.128489;-0.301;0.233
23.2236;0.1;-0.108366;-0.303;0.233
23.2393;-0.1;-0.0290526;-0.304;0.234
23.2634;-0.1;-0.0317357;-0.307;0.237
23.2805;-0.1;0.00585942;-0.308;0.239
23.3033;-0.1;0.00585942;-0.308;0.239
23.3039;-0.1;-0.0385009;-0.31;0.241
23.3213;-0.1;-0.0365932;-0.311;0.242
23.3386;-0.1;-0.0339429;-0.311;0.242
23.3594;-0.1;0.0302535;-0.309;0.242
23.3794;-0.1;0.0633201;-0.307;0.241
23.391;-0.1;0.0259407;-0.306;0.24
23.4234;-0.1;0.0585588;-0.302;0.237
23.4386;-0.1;-0.0122332;-0.301;0.235
23.4632;-0.1;-0.107114;-0.302;0.234
23.4713;-0.1;-0.10083;-0.303;0.232
23.4947;-0.1;-0.127007;-0.305;0.23
23.5053;0.1;-0.12647;-0.306;0.229
23.5156;0.1;-0.129857;-0.308;0.227
23.5387;0.1;-0.140621;-0.31;0.226
23.5555;0.1;-0.110281;-0.311;0.224
23.5588;0.1;-0.110281;-0.311;0.224
23.5765;0.1;-0.1221;-0.315;0.223
23.5991;0.1;-0.0058264;-0.316;0.225
23.6264;0.1;-0.0058264;-0.316;0.225
23.6272;0.1;-0.0907584;-0.318;0.226
23.6361;0.1;-0.0101635;-0.319;0.228
23.6573;0.1;-0.0587059;-0.321;0.23
23.6773;0.1;-0.0568266;-0.322;0.231
23.6812;0.1;-0.0606459;-0.324;0.233
23.6987;0.1;-0.0197139;-0.325;0.235
23.7237;0.1;-0.100951;-0.327;0.236
23.7348;0.1;-0.0245886;-0.328;0.238
23.7393;0.1;-0.0669053;-0.329;0.239
23.7567;0.1;-0.0709387;-0.331;0.241
23.7792;0.1;-0.0311542;-0.332;0.243
23.8063;0.1;-0.105546;-0.334;0.244
23.8065;0.1;-0.0360753;-0.335;0.246
23.8173;0.1;-0.0797041;-0.337;0.248
23.8382;0.1;-0.0783669;-0.338;0.249
23.8563;0.1;-0.0783669;-0.338;0.249
23.8638;0.1;-0.0826195;-0.34;0.251
23.877;-0.1;-0.0445849;-0.341;0.253
23.8984;-0.1;-0.0495275;-0.344;0.256
23.9186;-0.1;-0.0495275;-0.344;0.256
23.9189;-0.1;-0.120904;-0.346;0.257
23.9392;-0.1;-0.0539104;-0.347;0.259
23.9602;-0.1;-0.0902563;-0.348;0.26
23.9804;-0.1;-0.0849343;-0.349;0.261
23.9805;-0.1;0.0862202;-0.348;0.26
24.0039;0.1;0.0808222;-0.347;0.259
24.0178;0.1;0.0781717;-0.346;0.258
24.0438;0.1;0.082396;-0.344;0.256
24.0445;0.1;0.082396;-0.344;0.256
24.0572;0.1;0.0838198;-0.341;0.253
24.074;0.1;0.0810828;-0.34;0.252
24.094;0.1;0.0810828;-0.34;0.252
24.0992;0.1;0.080297;-0.34;0.252
24.1156;0.1;-0.0645413;-0.341;0.251
24.1449;0.1;-0.0893321;-0.344;0.254
24.1674;0.1;-0.0681566;-0.345;0.256
24.1846;0.1;-0.108819;-0.347;0.257
24.1943;0.1;-0.0218273;-0.347;0.259
24.2123;0.1;0.0593192;-0.346;0.26
24.2206;0.1;0.0578081;-0.345;0.261
24.2351;0.1;0.0629152;-0.343;0.263
24.2555;-0.1;0.0974086;-0.341;0.264
24.2768;-0.1;0.0637092;-0.34;0.265
24.2809;-0.1;0.061841;-0.338;0.267
24.3006;-0.1;0.061841;-0.338;0.267
24.3211;-0.1;0.0930781;-0.336;0.268
24.3416;-0.1;0.0552042;-0.334;0.271
24.3625;-0.1;0.0540491;-0.334;0.271
24.3739;-0.1;-0.0865447;-0.335;0.273
24.3956;-0.1;-0.0813301;-0.338;0.271
24.4026;-0.1;-0.0813301;-0.338;0.271
24.4178;-0.1;-0.021328;-0.339;0.269
24.4471;-0.1;-0.021991;-0.342;0.266
24.4641;-0.1;-0.0834822;-0.344;0.265
24.4835;-0.1;-0.0192398;-0.345;0.263
24.5058;0.1;-0.0910288;-0.347;0.262
24.5164;0.1;-0.0601381;-0.349;0.26
24.5331;0.1;-0.058093;-0.35;0.259
24.5405;0.1;-0.0577011;-0.352;0.257
24.5605;0.1;-0.0941304;-0.354;0.256
24.5824;0.1;-0.0526614;-0.355;0.255
24.6058;0.1;-0.0478641;-0.355;0.255
24.6134;-0.1;-0.0478641;-0.355;0.255
24.6353;-0.1;0.0463559;-0.353;0.257
24.6427;-0.1;0.0463559;-0.353;0.257
24.6591;-0.1;0.0479466;-0.351;0.259
24.6886;-0.1;0.0754911;-0.348;0.261
24.726;-0.1;0.0703827;-0.348;0.261
24.727;-0.1;0.0932988;-0.346;0.26
24.7461;-0.1;0.101342;-0.344;0.259
24.7605;-0.1;0.118351;-0.34;0.256
24.7839;-0.1;0.118351;-0.34;0.256
24.7841;-0.1;0.0781406;-0.339;0.254
24.8038;-0.1;0.118803;-0.337;0.253
24.8122;-0.1;0.108401;-0.335;0.251
24.8341;-0.1;0.108401;-0.335;0.251
24.8464;-0.1;0.131132;-0.332;0.249
24.864;-0.1;0.121767;-0.33;0.247
24.8809;0.1;0.0917047;-0.329;0.245
24.8934;0.1;0.0917047;-0.329;0.245
24.9042;0.1;0.138399;-0.327;0.244
24.9152;0.1;0.0927125;-0.326;0.242
24.9349;0.1;0.139405;-0.324;0.241
24.955;0.1;0.119199;-0.323;0.24
24.9589;0.1;0.125439;-0.321;0.24
24.9766;0.1;0.098445;-0.319;0.241
25.0052;-0.1;0.0569654;-0.316;0.244
25.0224;-0.1;0.0897182;-0.314;0.245
25.0471;-0.1;0.0125034;-0.313;0.247
25.0551;-0.1;0.086521;-0.311;0.248
25.08;-0.1;0.0467472;-0.31;0.249
25.0802;-0.1;0.0467472;-0.31;0.249
25.1014;-0.1;0.119008;-0.307;0.247
25.13;-0.1;0.119008;-0.307;0.247
25.1479;-0.1;0.123592;-0.305;0.245
25.1481;-0.1;0.124276;-0.304;0.244
25.1586;-0.1;0.12493;-0.302;0.242
25.1904;-0.1;0.107447;-0.301;0.24
25.1968;-0.1;0.10866;-0.3;0.238
25.2008;-0.1;0.12095;-0.299;0.237
25.2187;-0.1;0.118097;-0.299;0.237
25.2395;-0.1;-0.00989867;-0.301;0.234
25.2615;0.1;-0.03842;-0.304;0.231
25.2813;0.1;-0.0404058;-0.305;0.23
25.295;0.1;-0.0423815;-0.307;0.228
25.3152;0.1;-0.00464205;-0.308;0.226
25.3274;0.1;-0.044455;-0.309;0.225
25.3451;0.1;-0.0454067;-0.309;0.225
25.353;0.1;-0.107961;-0.31;0.226
25.3815;0.1;0.0447396;-0.309;0.227
25.3978;0.1;0.0505556;-0.307;0.229
25.4206;0.1;0.0854892;-0.304;0.232
25.4429;0.1;0.0196089;-0.303;0.234
25.4723;0.1;-0.0799797;-0.303;0.238
25.4909;0.1;-0.126406;-0.305;0.239
25.5299;-0.1;-0.0878911;-0.306;0.241
25.5336;-0.1;-0.119384;-0.31;0.244
25.5405;-0.1;-0.119384;-0.31;0.244
25.5651;-0.1;-0.137995;-0.312;0.245
25.575;-0.1;-0.0840757;-0.313;0.247
25.5815;-0.1;-0.110746;-0.314;0.248
25.5972;-0.1;-0.102334;-0.314;0.248
25.6204;-0.1;-0.096381;-0.314;0.248
25.637;-0.1;0.121749;-0.311;0.248
25.6418;-0.1;0.0624103;-0.31;0.246
25.6581;-0.1;0.0624103;-0.31;0.246
25.6818;-0.1;0.0897649;-0.306;0.243
25.6976;-0.1;0.08499;-0.305;0.242
25.7102;-0.1;0.08499;-0.305;0.242
25.7313;-0.1;0.00392296;-0.305;0.24
25.7589;-0.1;-0.0843863;-0.308;0.237
25.7631;-0.1;-0.0828111;-0.309;0.236
25.7812;-0.1;-0.0848733;-0.311;0.234
25.8017;-0.1;-0.111863;-0.313;0.233
25.8228;-0.1;-0.0450104;-0.314;0.231
25.844;-0.1;0.0991521;-0.313;0.228
25.8648;-0.1;0.10223;-0.311;0.226
25.8719;-0.1;0.10081;-0.31;0.225
25.884;-0.1;0.10081;-0.31;0.225
25.8992;-0.1;0.126695;-0.306;0.222
25.9151;-0.1;0.126695;-0.306;0.222
25.9429;-0.1;0.1216;-0.303;0.219
25.9709;-0.1;-0.0885746;-0.304;0.216
25.986;-0.1;-0.0936275;-0.306;0.214
25.998;-0.1;-0.0936275;-0.306;0.214
26.0084;-0.1;-0.116646;-0.308;0.213
26.0186;-0.1;-0.0527252;-0.309;0.211
26.0396;-0.1;-0.115713;-0.311;0.21
26.0519;-0.1;-0.0876944;-0.313;0.208
26.0636;-0.1;-0.0824183;-0.314;0.207
26.0783;-0.1;0.0770549;-0.313;0.205
26.095;-0.1;0.114104;-0.311;0.203
26.1122;-0.1;0.115433;-0.31;0.202
26.1239;-0.1;0.103848;-0.308;0.2
26.1454;-0.1;0.0871659;-0.307;0.199
26.1601;-0.1;0.0797568;-0.305;0.197
26.1733;-0.1;0.0483109;-0.304;0.195
26.1851;-0.1;0.0483109;-0.304;0.195
26.2055;-0.1;0.0446006;-0.301;0.192
26.2132;-0.1;0.0446006;-0.301;0.192
26.2346;-0.1;0.053753;-0.298;0.189
26.2437;0.1;0.053753;-0.298;0.189
26.2628;0.1;0.0578861;-0.296;0.187
26.2782;0.1;0.0465667;-0.295;0.185
26.2959;0.1;0.0601776;-0.293;0.184
26.3035;0.1;0.0492004;-0.292;0.182
26.3192;0.1;0.0619322;-0.29;0.181
26.3378;0.1;0.0556769;-0.288;0.181
26.3581;0.1;0.0197677;-0.287;0.182
26.3636;0.1;0.0203615;-0.285;0.184
26.3798;0.1;0.0203615;-0.285;0.184
26.4037;0.1;0.0328118;-0.282;0.186
26.411;0.1;0.0193158;-0.28;0.188
26.4239;0.1;0.0193158;-0.28;0.188
26.4465;0.1;-0.0492973;-0.28;0.191
26.4635;0.1;-0.0521754;-0.281;0.192
26.4799;0.1;-0.0518927;-0.283;0.194
26.4871;0.1;-0.0518927;-0.283;0.194
26.5025;0.1;-0.0475856;-0.284;0.196
26.5224;0.1;-0.0604734;-0.286;0.197
26.5414;0.1;-0.0507009;-0.287;0.199
26.5463;0.1;-0.0619529;-0.289;0.2
26.5631;0.1;-0.0749794;-0.291;0.202
26.5847;0.1;-0.0692372;-0.292;0.203
26.5938;0.1;-0.0909049;-0.294;0.204
26.606;0.1;-0.0857714;-0.296;0.206
26.6217;-0.1;-0.0937936;-0.297;0.207
26.6346;-0.1;-0.096612;-0.299;0.209
26.6594;-0.1;-0.122973;-0.301;0.21
26.6634;-0.1;-0.122973;-0.301;0.21
26.68;-0.1;-0.0828955;-0.302;0.212
26.7044;-0.1;-0.104884;-0.306;0.212
26.7215;-0.1;-0.0737494;-0.307;0.211
26.7289;-0.1;-0.0737494;-0.307;0.211
26.7434;0.1;-0.0779184;-0.309;0.209
26.7625;0.1;-0.081747;-0.312;0.206
26.7702;0.1;-0.081747;-0.312;0.206
26.7839;0.1;-0.042291;-0.313;0.204
26.803;0.1;-0.113028;-0.315;0.203
26.8201;0.1;-0.0815296;-0.316;0.202
26.8312;0.1;-0.128658;-0.318;0.202
26.844;0.1;-0.128658;-0.318;0.202
26.8632;0.1;-0.093712;-0.319;0.203
26.8736;-0.1;-0.0997286;-0.321;0.205
26.8935;-0.1;-0.0937914;-0.324;0.207
26.9035;-0.1;-0.0937914;-0.324;0.207
26.9185;-0.1;-0.0923231;-0.326;0.209
26.9366;-0.1;-0.114432;-0.33;0.211
26.9566;-0.1;-0.0940888;-0.331;0.21
26.9667;-0.1;-0.0940888;-0.331;0.21
26.9811;-0.1;-0.119556;-0.333;0.209
27.0058;-0.1;-0.122724;-0.336;0.206
27.012;-0.1;-0.122724;-0.336;0.206
27.0238;-0.1;-0.0701467;-0.337;0.204
27.0455;-0.1;-0.129659;-0.339;0.203
27.0534;-0.1;-0.0747111;-0.34;0.201
27.0731;-0.1;-0.067682;-0.341;0.199
27.083;-0.1;-0.067682;-0.341;0.199
27.1038;-0.1;0.0700776;-0.338;0.197
27.1211;0.1;0.042377;-0.336;0.195
27.1404;0.1;0.029787;-0.335;0.194
27.1434;0.1;0.029787;-0.335;0.194
27.1633;0.1;0.0466345;-0.333;0.193
27.1806;0.1;0.0274683;-0.33;0.19
27.1901;0.1;0.0274683;-0.33;0.19
27.2036;0.1;0.0445575;-0.328;0.189
27.2187;0.1;0.0375725;-0.328;0.189
27.2413;0.1;0.0500077;-0.325;0.191
27.2624;-0.1;0.0572547;-0.322;0.194
27.2652;-0.1;0.0572547;-0.322;0.194
27.2834;-0.1;0.0487642;-0.321;0.196
27.303;-0.1;0.0608691;-0.319;0.198
27.3207;-0.1;0.0533512;-0.319;0.198
27.3242;-0.1;0.0392753;-0.319;0.198
27.3382;-0.1;-0.0252098;-0.321;0.199
27.3588;-0.1;-0.0289631;-0.322;0.198
27.3728;-0.1;-0.0411917;-0.324;0.196
27.3836;-0.1;-0.0411917;-0.324;0.196
27.4036;-0.1;-0.0478296;-0.325;0.194
27.419;-0.1;-0.0620353;-0.327;0.192
27.432;-0.1;-0.0501555;-0.329;0.189
27.4434;-0.1;-0.0501555;-0.329;0.189
27.458;-0.1;-0.0619614;-0.331;0.187
27.4784;-0.1;-0.0605107;-0.333;0.186
27.5058;-0.1;-0.0662181;-0.336;0.183
27.5216;-0.1;-0.0484544;-0.337;0.181
27.5379;-0.1;-0.0620387;-0.339;0.18
27.5617;-0.1;-0.0613262;-0.341;0.178
27.5884;-0.1;-0.0556578;-0.342;0.177
27.5887;-0.1;-0.0602276;-0.344;0.176
27.5975;-0.1;-0.058575;-0.346;0.174
27.617;-0.1;-0.049287;-0.347;0.173
27.6439;0.1;-0.0576457;-0.349;0.171
27.6442;0.1;-0.0576457;-0.349;0.171
27.6567;0.1;-0.0411152;-0.352;0.168
27.678;0.1;-0.0649482;-0.354;0.167
27.6972;0.1;-0.0649482;-0.354;0.167
27.7057;0.1;-0.0487804;-0.355;0.166
27.7226;0.1;-0.0414131;-0.355;0.166
27.7447;0.1;-0.0281492;-0.355;0.166
27.7548;0.1;0.0264113;-0.352;0.168
27.7642;0.1;0.0264113;-0.352;0.168
27.7761;0.1;0.0461127;-0.35;0.169
27.7931;0.1;0.0446085;-0.349;0.171
27.8157;0.1;0.0552092;-0.346;0.174
27.8276;0.1;0.0552092;-0.346;0.174
27.8388;0.1;-0.00620429;-0.347;0.176
27.8555;0.1;-0.0232755;-0.348;0.177
27.8763;0.1;-0.0240933;-0.35;0.179
27.8815;0.1;-0.00903753;-0.351;0.181
27.8974;0.1;-0.0438306;-0.353;0.182
27.9177;0.1;-0.0120498;-0.354;0.184
27.9394;0.1;-0.0123317;-0.355;0.186
27.9508;0.1;0.0405609;-0.354;0.188
27.9604;0.1;0.0405609;-0.354;0.188
27.9786;0.1;0.0604495;-0.352;0.189
28.0003;0.1;0.0599546;-0.349;0.192
28.011;-0.1;0.0599546;-0.349;0.192
28.0274;-0.1;0.054585;-0.347;0.194
28.0347;-0.1;0.0493069;-0.346;0.195
28.0565;-0.1;0.0611532;-0.342;0.198
28.0684;-0.1;0.0611532;-0.342;0.198
28.081;-0.1;0.0430532;-0.341;0.199
28.1061;-0.1;-0.0344909;-0.342;0.2
28.1215;-0.1;-0.0336957;-0.344;0.199
28.1392;-0.1;-0.0387119;-0.346;0.198
28.1564;-0.1;-0.0231859;-0.347;0.196
28.1764;-0.1;-0.0510933;-0.349;0.195
28.1812;-0.1;-0.0510933;-0.349;0.195
28.198;-0.1;-0.0283267;-0.35;0.193
28.2183;-0.1;0.0366327;-0.348;0.191
28.2389;-0.1;0.0402203;-0.346;0.189
28.2455;-0.1;0.0402203;-0.346;0.189
28.2593;-0.1;0.0271637;-0.345;0.187
28.2793;-0.1;0.0559193;-0.343;0.186
28.3009;-0.1;0.0346699;-0.342;0.184
28.3011;-0.1;0.0514393;-0.34;0.182
28.3207;-0.1;0.046848;-0.339;0.181
28.3329;-0.1;0.0493597;-0.337;0.179
28.3617;-0.1;0.0443695;-0.336;0.178
28.3824;0.1;0.0587669;-0.332;0.175
28.3928;0.1;0.0280106;-0.331;0.173
28.4201;0.1;0.0592775;-0.329;0.172
28.4298;0.1;0.0592775;-0.329;0.172
28.438;0.1;0.0461199;-0.327;0.17
28.4595;0.1;0.0358219;-0.326;0.169
28.4798;0.1;-0.0416451;-0.328;0.168
28.4824;0.1;-0.0416451;-0.328;0.168
28.5036;-0.1;-0.0256873;-0.329;0.169
28.514;-0.1;-0.0331516;-0.331;0.171
28.5332;-0.1;-0.0497493;-0.333;0.172
28.5445;-0.1;-0.0295785;-0.334;0.174
28.5613;-0.1;-0.0527802;-0.336;0.176
28.5817;-0.1;-0.0455025;-0.337;0.177
28.5957;-0.1;-0.0556769;-0.339;0.178
28.605;-0.1;-0.0367165;-0.34;0.177
28.6174;-0.1;-0.0444765;-0.342;0.176
28.635;-0.1;-0.0351087;-0.343;0.175
28.653;-0.1;-0.0386059;-0.345;0.173
28.6629;-0.1;-0.0386059;-0.345;0.173
28.6811;-0.1;-0.0277463;-0.346;0.171
28.6934;-0.1;-0.0395298;-0.347;0.17
28.7171;-0.1;0.0148774;-0.346;0.167
28.7223;-0.1;0.0148774;-0.346;0.167
28.7387;-0.1;0.0430063;-0.344;0.166
28.7596;-0.1;0.0252417;-0.343;0.164
28.7872;-0.1;0.0488337;-0.341;0.162
28.788;-0.1;0.0452889;-0.34;0.161
28.8036;-0.1;0.0490629;-0.338;0.159
28.8251;-0.1;0.0341436;-0.337;0.157
28.8457;-0.1;0.0368109;-0.334;0.154
28.8662;-0.1;0.0589295;-0.332;0.153
28.878;-0.1;0.0361973;-0.331;0.151
28.8978;-0.1;0.0542624;-0.329;0.149
28.9201;-0.1;0.0501592;-0.328;0.148
28.9305;-0.1;0.0541439;-0.326;0.146
28.938;-0.1;0.0410272;-0.325;0.144
28.9584;-0.1;0.0466647;-0.324;0.143
28.9799;-0.1;0.0134398;-0.324;0.141
28.9874;-0.1;-0.0317367;-0.326;0.139
29.0063;-0.1;-0.0293954;-0.327;0.138
29.0189;-0.1;-0.0357059;-0.329;0.136
29.0372;-0.1;-0.0357059;-0.329;0.136
29.0412;-0.1;-0.0189201;-0.33;0.134
29.0582;-0.1;-0.0494648;-0.332;0.133
29.0794;-0.1;-0.0214699;-0.333;0.131
29.1012;-0.1;-0.0519345;-0.335;0.13
29.1014;-0.1;-0.0220683;-0.336;0.128
29.1214;-0.1;-0.0427411;-0.338;0.126
29.1319;-0.1;-0.0398166;-0.339;0.125
29.154;-0.1;-0.0433211;-0.341;0.123
29.1635;-0.1;-0.026905;-0.342;0.121
29.1776;-0.1;-0.0380707;-0.343;0.12
29.2022;-0.1;0.0270946;-0.342;0.118
29.2147;-0.1;0.0270946;-0.342;0.118
29.2254;-0.1;0.0500444;-0.34;0.117
29.2457;-0.1;0.0541478;-0.337;0.114
29.262;-0.1;0.0436952;-0.335;0.112
29.2813;-0.1;0.0566316;-0.333;0.111
29.3044;-0.1;0.0384065;-0.332;0.11
29.3123;-0.1;0.0401852;-0.33;0.108
29.3322;-0.1;0.033371;-0.329;0.107
29.3443;-0.1;-0.0313535;-0.33;0.105
29.3573;-0.1;-0.0577778;-0.332;0.104
29.3803;0.1;-0.0337615;-0.333;0.102
29.4014;0.1;-0.0337615;-0.333;0.102
29.4022;0.1;-0.0549974;-0.335;0.1
29.4217;0.1;-0.054834;-0.338;0.097
29.4447;0.1;-0.0420181;-0.339;0.095
29.4519;0.1;-0.0474364;-0.34;0.094
29.4623;0.1;-0.0474364;-0.34;0.094
29.4779;0.1;0.0268559;-0.339;0.093
29.5013;-0.1;0.0359388;-0.337;0.094
29.5214;-0.1;0.0297202;-0.336;0.096
29.5437;-0.1;0.0467737;-0.334;0.098
29.561;-0.1;0.0497471;-0.333;0.099
29.5825;-0.1;0.0508237;-0.331;0.101
29.6012;-0.1;0.0410951;-0.328;0.1
29.6151;0.1;0.0277251;-0.326;0.098
29.6357;0.1;0.0240728;-0.325;0.097
29.6436;0.1;0.0308923;-0.323;0.095
29.6593;0.1;0.0123944;-0.322;0.093
29.6784;0.1;0.0277606;-0.321;0.092
29.7032;0.1;0.0457865;-0.319;0.091
29.7356;0.1;0.0553175;-0.315;0.091
29.7637;0.1;0.0612795;-0.312;0.094
29.7707;0.1;0.0436681;-0.311;0.096
29.7818;0.1;0.0436681;-0.311;0.096
29.8017;0.1;0.0595466;-0.309;0.098
29.815;0.1;0.0548416;-0.308;0.099
29.8346;0.1;0.0584543;-0.306;0.101
29.8416;0.1;0.0459929;-0.305;0.103
29.8606;0.1;0.0598214;-0.303;0.104
29.8771;-0.1;0.0455672;-0.302;0.106
29.9029;-0.1;0.0573665;-0.298;0.109
29.9202;-0.1;0.0519188;-0.297;0.11
29.9413;-0.1;0.0548948;-0.295;0.112
29.9584;-0.1;0.049936;-0.294;0.113
29.9653;-0.1;0.039287;-0.294;0.113
29.9815;-0.1;0.0488547;-0.291;0.113
29.9946;-0.1;0.0204893;-0.29;0.112
30.0175;-0.1;0.0247398;-0.288;0.11
30.029;-0.1;0.0253855;-0.287;0.109
30.0398;-0.1;0.027272;-0.285;0.107
30.0576;-0.1;0.0457478;-0.283;0.106
30.0766;-0.1;0.0457478;-0.283;0.106
30.0832;-0.1;0.0291946;-0.281;0.104
30.1033;-0.1;0.0301351;-0.28;0.103
30.1175;-0.1;0.0310866;-0.278;0.101
30.1384;-0.1;0.0300007;-0.275;0.098
30.1453;-0.1;0.0300007;-0.275;0.098
30.1591;-0.1;0.0146593;-0.274;0.096
30.1796;-0.1;0.0469774;-0.272;0.095
30.2056;-0.1;-0.0474848;-0.272;0.092
30.2288;-0.1;-0.0360002;-0.273;0.09
30.2371;-0.1;-0.0550631;-0.275;0.089
30.2593;0.1;-0.0373991;-0.276;0.087
30.2875;0.1;-0.0610509;-0.278;0.086
30.2877;0.1;-0.0427137;-0.279;0.084
30.3045;0.1;-0.0589183;-0.281;0.082
30.3251;0.1;-0.0542897;-0.282;0.081
30.3462;0.1;-0.0440584;-0.284;0.079
30.3654;0.1;-0.0440584;-0.284;0.079
30.3837;0.1;0.0347027;-0.282;0.081
30.4083;0.1;0.0429943;-0.28;0.083
30.4288;0.1;0.0404697;-0.277;0.086
30.446;0.1;0.065173;-0.275;0.087
30.4626;0.1;0.0586201;-0.273;0.089
30.4835;0.1;0.0586201;-0.273;0.089
30.4837;0.1;0.0540222;-0.272;0.09
30.5065;0.1;0.0581634;-0.27;0.092
30.5145;0.1;0.0470006;-0.269;0.094
30.5373;0.1;0.0602349;-0.267;0.095
30.5471;0.1;0.0496288;-0.266;0.097
30.5615;0.1;0.0613665;-0.264;0.099
30.5837;0.1;0.0564443;-0.263;0.1
30.603;0.1;0.0472713;-0.262;0.102
30.6082;0.1;0.0610145;-0.26;0.104
30.6288;0.1;0.0520335;-0.259;0.105
30.6427;0.1;0.0616822;-0.257;0.107
30.661;0.1;0.053026;-0.256;0.109
30.6651;0.1;0.062284;-0.254;0.111
30.6825;0.1;0.0625594;-0.253;0.112
30.698;0.1;0.0625594;-0.253;0.112
30.7216;0.1;0.0553405;-0.25;0.116
30.7242;0.1;0.0553405;-0.25;0.116
30.7444;-0.1;0.0601051;-0.248;0.117
30.7553;-0.1;0.0577988;-0.247;0.119
30.7749;-0.1;0.0547012;-0.246;0.121
30.7858;-0.1;0.0612549;-0.244;0.122
30.8026;-0.1;0.0556399;-0.243;0.124
30.8152;-0.1;0.0559611;-0.242;0.125
30.8451;-0.1;0.0251509;-0.242;0.125
30.8649;-0.1;-0.0291796;-0.244;0.123
30.8855;0.1;-0.0291088;-0.245;0.122
30.9029;0.1;-0.0483832;-0.247;0.12
30.924;0.1;-0.056414;-0.248;0.118
30.9242;0.1;-0.0601036;-0.25;0.117
30.9374;0.1;-0.0658902;-0.252;0.116
30.9589;0.1;-0.0547816;-0.253;0.115
30.9722;0.1;-0.0473593;-0.255;0.115
30.9803;0.1;-0.0473593;-0.255;0.115
31.0035;-0.1;0.00156502;-0.258;0.118
31.0198;-0.1;0.00156502;-0.258;0.118
31.0414;-0.1;-0.000300341;-0.261;0.121
31.0623;-0.1;-0.00130614;-0.262;0.123
31.0725;-0.1;-0.0392207;-0.264;0.124
31.0967;-0.1;-0.0301059;-0.264;0.124
31.1042;-0.1;-0.0250439;-0.264;0.124
31.1211;-0.1;-0.00191242;-0.263;0.121
31.1421;-0.1;0.0259422;-0.261;0.12
31.1635;-0.1;0.00663685;-0.26;0.118
31.1637;-0.1;0.0438673;-0.258;0.117
31.1773;-0.1;0.00971568;-0.257;0.115
31.1924;-0.1;0.0314508;-0.255;0.113
31.2119;-0.1;0.0296276;-0.254;0.112
31.2218;-0.1;0.0296276;-0.254;0.112
31.243;-0.1;0.03256;-0.252;0.11
31.2616;-0.1;0.0467393;-0.249;0.107
31.2734;-0.1;0.016727;-0.248;0.105
31.2855;-0.1;0.016727;-0.248;0.105
31.3032;-0.1;0.0370364;-0.246;0.103
31.3224;-0.1;0.0330208;-0.246;0.103
31.3424;-0.1;-0.0265795;-0.247;0.1
31.3431;-0.1;-0.0327423;-0.248;0.098
31.3656;-0.1;-0.0504731;-0.25;0.097
31.3852;-0.1;-0.0582281;-0.252;0.096
31.393;-0.1;-0.0509069;-0.254;0.094
31.4026;-0.1;-0.0458797;-0.255;0.093
31.4169;-0.1;-0.0483161;-0.257;0.091
31.4357;-0.1;-0.0437608;-0.258;0.09
31.455;-0.1;-0.00287541;-0.258;0.088
31.4628;-0.1;-0.00287541;-0.258;0.088
31.4798;-0.1;0.0227906;-0.257;0.086
31.4964;0.1;0.0511525;-0.254;0.083
31.5167;0.1;0.0411233;-0.252;0.081
31.5218;0.1;0.0411233;-0.252;0.081
31.5384;0.1;0.0367897;-0.251;0.08
31.5631;0.1;0.0488409;-0.247;0.078
31.5864;0.1;0.0488409;-0.247;0.078
31.5874;0.1;0.0379915;-0.247;0.078
31.6045;0.1;0.0535048;-0.244;0.08
31.6137;0.1;0.0439408;-0.243;0.081
31.6433;0.1;0.0479042;-0.241;0.083
31.6436;0.1;0.0479042;-0.241;0.083
31.6573;0.1;0.0563134;-0.238;0.087
31.6812;0.1;0.0568255;-0.237;0.088
31.6958;0.1;0.0568255;-0.237;0.088
31.7024;0.1;0.0566956;-0.235;0.09
31.7174;0.1;0.051224;-0.234;0.091
31.7404;0.1;0.0415925;-0.231;0.095
31.7565;0.1;0.0587164;-0.229;0.096
31.7632;0.1;0.0587164;-0.229;0.096
31.7774;0.1;0.0587236;-0.227;0.098
31.8031;0.1;0.0499706;-0.226;0.099
31.8141;0.1;0.0499706;-0.226;0.099
31.8265;0.1;0.0350014;-0.223;0.102
31.8372;0.1;-0.0306321;-0.224;0.103
31.858;0.1;-0.0313227;-0.225;0.104
